0.066048 0.096834 0.035959
-0.682413 0.000000
-0.682413 -0.000000
-0.682413 0.000000
-0.682413 -0.000000
-0.682413 0.000000
-0.682413 -0.000000
-0.682413 -0.000000
-0.682413 0.000000
-0.682413 -0.000000
-0.682413 0.000001
-0.682413 -0.000003
-0.682413 0.000010
-0.682413 -0.000035
-0.682413 0.000111
-0.682413 -0.000326
-0.682413 0.000882
-0.682413 -0.002113
-0.682414 0.004093
-0.682409 -0.004136
-0.682423 -0.013342
-0.682392 0.108727
-0.682436 -0.460999
-0.682491 1.440170
-0.679433 3.700948
-0.675980 3.267641
-0.672808 3.082661
-0.669739 3.108501
-0.666668 2.885749
-0.664355 1.484049
-0.657156 19.685047
-0.619223 55.034976
-0.555284 65.487221
-0.494079 58.071701
-0.438174 53.204929
-0.387796 47.640293
-0.342683 42.417536
-0.302716 37.675243
-0.267557 32.035424
-0.238939 25.323133
-0.215931 21.394698
-0.195408 19.557974
-0.176711 17.915798
-0.159369 16.789713
-0.143023 15.888924
-0.127517 15.115092
-0.112730 14.437325
-0.098601 13.796758
-0.085079 13.246868
-0.072036 12.831430
-0.059360 12.508641
-0.046960 12.284666
-0.034735 12.154133
-0.022610 12.077453
-0.010538 12.054275
0.001562 12.149160
0.013821 12.350633
0.026362 12.773400
0.039410 13.247370
0.053076 14.299446
0.068220 15.897971
0.085023 17.853411
0.103118 17.279301
0.124326 30.818664
0.168934 56.695779
0.232449 66.444491
0.299466 68.730835
0.370231 71.563931
0.442030 72.278124
0.515405 74.409203
0.589743 72.781032
0.659509 66.348314
0.722573 59.914866
0.779853 54.663915
0.832369 50.490377
0.881311 47.444050
0.927639 45.255487
0.972189 43.893058
1.015738 43.205894
1.058842 42.984551
1.101910 43.112193
1.145236 43.489082
1.189027 44.022399
1.233390 44.618160
1.278351 45.208082
1.323876 45.736915
1.369884 46.168785
1.416274 46.503835
1.462961 46.769525
1.509920 47.076601
1.557085 47.012286
1.604194 47.410610
1.652041 47.928904
1.699821 47.469616
1.747044 46.917500
1.793745 46.349722
1.839794 45.654997
1.885127 44.903710
1.929678 44.110768
1.973436 43.313497
2.016373 42.461076
2.058417 41.530409
2.099492 40.525086
2.139523 39.444969
2.178436 38.288917
2.216152 37.055390
2.252595 35.744580
2.287688 34.359310
2.321358 32.901869
2.353530 31.361615
2.384068 29.593501
2.412623 27.368716
2.438695 24.648953
2.461872 21.632986
2.481971 18.516319
2.498923 15.342878
2.512685 12.163240
2.523297 9.054380
2.530845 6.042554
2.535427 3.128382
2.537138 0.304866
2.536076 -2.401247
2.532368 -4.994147
2.526109 -7.495699
2.517397 -9.893195
2.506335 -12.194414
2.493018 -14.392410
2.477563 -16.463042
2.460100 -18.410424
2.440745 -20.238581
2.419621 -21.950170
2.396835 -23.559279
2.372490 -25.065528
2.346688 -26.470609
2.319529 -27.775982
2.291110 -28.992543
2.261508 -30.142400
2.230790 -31.217390
2.199038 -32.209572
2.166331 -33.127387
2.132736 -33.988799
2.098301 -34.802941
2.063078 -35.563001
2.027118 -36.280514
1.990457 -36.962405
1.953136 -37.595062
1.915208 -38.178893
1.876715 -38.721929
1.837706 -39.205965
1.798245 -39.628189
1.758388 -39.997493
1.718184 -40.324351
1.677672 -40.609612
1.636903 -40.839037
1.595928 -41.022959
1.554789 -41.162991
1.513529 -41.272285
1.472168 -41.363744
1.430775 -41.287080
1.389586 -40.985112
1.348728 -40.669237
1.308145 -40.417412
1.267801 -40.199124
1.227650 -40.028510
1.187651 -39.894366
1.147773 -39.784953
1.107994 -39.698907
1.068291 -39.627952
1.028661 -39.549907
0.989110 -39.479462
0.949620 -39.418785
0.910198 -39.342174
0.870859 -39.258673
0.831603 -39.172880
0.792437 -39.082080
0.753362 -38.986555
0.714389 -38.880266
0.675526 -38.768456
0.636777 -38.648070
0.598157 -38.515005
0.559673 -38.372712
0.521337 -38.222809
0.483149 -38.079435
0.445103 -37.931151
0.407219 -37.758821
0.369516 -37.570246
0.332008 -37.365831
0.294715 -37.143753
0.257652 -36.906599
0.220832 -36.657166
0.184267 -36.397536
0.147968 -36.127470
0.111943 -35.849460
0.076199 -35.563884
0.040746 -35.271145
0.005589 -34.971718
-0.029268 -34.675036
-0.063832 -34.380906
-0.098097 -34.081244
-0.132058 -33.769045
-0.165690 -33.416921
-0.198942 -33.014668
-0.231767 -32.557131
-0.264102 -32.040405
-0.295894 -31.471554
-0.327085 -30.834952
-0.357572 -30.036946
-0.387149 -29.027351
-0.415647 -27.904493
-0.442999 -26.738807
-0.469166 -25.535776
-0.494113 -24.304988
-0.517820 -23.060964
-0.540267 -21.774865
-0.561343 -20.278941
-0.580815 -18.633672
-0.598721 -17.208507
-0.615081 -15.225058
-0.628569 -11.344613
-0.637260 -5.867421
-0.640985 -2.396825
-0.642916 -1.497639
-0.644011 -0.681611
-0.644243 0.246139
-0.643696 0.639784
-0.643078 0.688448
-0.639447 9.342861
-0.621663 26.120984
-0.588913 37.621680
-0.549072 40.946807
-0.507859 41.509480
-0.466162 41.497235
-0.425159 40.355493
-0.385512 38.787795
-0.347628 36.853454
-0.311823 34.644562
-0.278340 32.224558
-0.247361 29.649490
-0.219015 26.972907
-0.193379 24.244065
-0.170488 21.486882
-0.150365 18.721242
-0.132997 15.989373
-0.118330 13.328473
-0.106282 10.760941
-0.096749 8.307367
-0.089606 5.987991
-0.084710 3.820364
-0.081903 1.817224
-0.081015 -0.014419
-0.081873 -1.670699
-0.084302 -3.153901
-0.088132 -4.472109
-0.093204 -5.636675
-0.099369 -6.659157
-0.106492 -7.550806
-0.114446 -8.321614
-0.123115 -8.982905
-0.132398 -9.550596
-0.142206 -10.029602
-0.152449 -10.423446
-0.163049 -10.744350
-0.173938 -10.999781
-0.185051 -11.196235
-0.196335 -11.341201
-0.207741 -11.441100
-0.219227 -11.502004
-0.230757 -11.529319
-0.242299 -11.527780
-0.253827 -11.501131
-0.265318 -11.453727
-0.276752 -11.388902
-0.288113 -11.308349
-0.299387 -11.213877
-0.310559 -11.106834
-0.321619 -10.988819
-0.332556 -10.861866
-0.343362 -10.727153
-0.354029 -10.585457
-0.364552 -10.437189
-0.374923 -10.283000
-0.385137 -10.123693
-0.395188 -9.959037
-0.405073 -9.789665
-0.414786 -9.615928
-0.424323 -9.438006
-0.433680 -9.256356
-0.442853 -9.071076
-0.451839 -8.882680
-0.460635 -8.691497
-0.469239 -8.498006
-0.477647 -8.302417
-0.485859 -8.105374
-0.493874 -7.907260
-0.501690 -7.708342
-0.509306 -7.509291
-0.516723 -7.310551
-0.523942 -7.112651
-0.530963 -6.916129
-0.537789 -6.721416
-0.544420 -6.529352
-0.550862 -6.340296
-0.557115 -6.154394
-0.563184 -5.972624
-0.569074 -5.795348
-0.574788 -5.622803
-0.580332 -5.455476
-0.585712 -5.293717
-0.590932 -5.137836
-0.596000 -4.988141
-0.600921 -4.844837
-0.605701 -4.708040
-0.610348 -4.577894
-0.614868 -4.454557
-0.619269 -4.338018
-0.623555 -4.228312
-0.627736 -4.125406
-0.631817 -4.029034
-0.635805 -3.940159
-0.639706 -3.854882
-0.643527 -3.785196
-0.647279 -3.699146
-0.650943 -3.644371
-0.654529 -3.453305
-0.657750 -2.941477
-0.660432 -2.471123
-0.662683 -1.957347
-0.664327 -1.374743
-0.665509 -1.015894
-0.666417 -0.822793
-0.667207 -0.780730
-0.667977 -0.730835
-0.668669 -0.676990
-0.669359 -0.701918
-0.670068 -0.709847
-0.670758 -0.651476
-0.671378 -0.609548
-0.671997 -0.624098
-0.672622 -0.622189
-0.673251 -0.645584
-0.673899 -0.621310
-0.674475 -0.537741
-0.675002 -0.533097
-0.675550 -0.550555
-0.676096 -0.545152
-0.676652 -0.571821
-0.677188 -0.440941
-0.677527 -0.287492
-0.677821 -0.304134
-0.678132 -0.310585
-0.678439 -0.307251
-0.678749 -0.307898
-0.679055 -0.307407
-0.679367 -0.313913
-0.679661 -0.252380
-0.679862 -0.161005
-0.680007 -0.139766
-0.680150 -0.144412
-0.680293 -0.141886
-0.680435 -0.140702
-0.680575 -0.139700
-0.680714 -0.138647
-0.680853 -0.137897
-0.680991 -0.137297
-0.681128 -0.136934
-0.681265 -0.136826
-0.681402 -0.136889
-0.681539 -0.137383
-0.681677 -0.137590
-0.681815 -0.139281
-0.681955 -0.138717
-0.682094 -0.140798
-0.682240 -0.151947
-0.682373 -0.090130
-0.682413 -0.008040
-0.682413 0.002443
-0.682413 -0.000492
-0.682413 0.000010
-0.682413 0.000052
-0.682413 -0.000034
-0.682413 0.000016
-0.682413 -0.000006
-0.682413 0.000002
-0.682413 -0.000001
-0.682413 0.000000
-0.682413 -0.000000
-0.682413 0.000000
-0.682413 -0.000000
-0.682413 0.000000
-0.682413 -0.000000
-0.682413 0.000000
-0.682413 0.000000
-0.682413 -0.000000
-0.682413 0.000000
-0.682413 -0.000000
-0.682413 0.000000
-0.682413 -0.000000
-0.682413 0.000000
-0.682413 -0.000000
-0.682413 0.000000
-0.682413 -0.000000
-0.682413 0.000000
-0.682413 -0.000000
-0.682413 0.000000
-0.682413 -0.000000
-0.682413 0.000000
-0.682413 -0.000000
-0.682413 0.000000
-0.682413 -0.000000
-0.682413 0.000000
-0.682413 -0.000000
-0.682413 0.000000
-0.682413 -0.000000
-0.682413 0.000000
-0.682413 -0.000000
-0.682413 0.000000
-0.682413 -0.000000
-0.682413 0.000000
-0.682413 -0.000000
-0.682413 0.000000
-0.682413 -0.000000
-0.682413 0.000000
-0.682413 -0.000000
-0.682413 0.000000
-0.682413 -0.000000
-0.682413 0.000000
-0.682413 -0.000000
-0.682413 0.000000
-0.682413 -0.000000
-0.682413 0.000000
-0.682413 -0.000000
-0.682413 0.000000
-0.682413 -0.000000
-0.682413 0.000000
-0.682413 -0.000000
-0.682413 0.000000
-0.682413 -0.000000
-0.682413 0.000000
-0.682413 -0.000000
-0.682413 0.000000
-0.682413 -0.000000
-0.682413 0.000000
-0.682413 -0.000000
-0.682413 0.000000
-0.682413 -0.000000
-0.682413 0.000000
-0.682413 -0.000000
-0.682413 0.000000
-0.682413 -0.000000
-0.682413 0.000000
-0.682413 -0.000000
-0.682413 0.000000
-0.682413 -0.000000
-0.682413 0.000000
-0.682413 -0.000000
-0.682413 0.000000
-0.682413 -0.000000
-0.682413 0.000000
-0.682413 -0.000000
-0.682413 0.000000
-0.682413 -0.000000
-0.682413 0.000000
-0.682413 -0.000000
-0.682413 0.000000
-0.682413 -0.000000
-0.682413 0.000000
-0.682413 -0.000000
-0.682413 0.000000
-0.682413 -0.000000
-0.682413 0.000000
-0.682413 -0.000000
-0.682413 0.000000
-0.682413 -0.000000
-0.682413 0.000000
-0.682413 -0.000000
-0.682413 0.000000
-0.682413 -0.000000
-0.682413 0.000000
-0.682413 -0.000000
-0.682413 0.000000
-0.682413 -0.000000
-0.682413 0.000000
-0.682413 -0.000000
-0.682413 0.000000
-0.682413 -0.000000
-0.682413 0.000000
-0.682413 -0.000000
-0.682413 0.000000
-0.682413 -0.000000
-0.682413 0.000000
-0.682413 -0.000000
-0.682413 0.000000
-0.682413 -0.000000
-0.682413 0.000000
-0.682413 -0.000000
-0.682413 0.000000
-0.682413 -0.000000
-0.682413 0.000000
-0.682413 -0.000000
-0.682413 0.000000
-0.682413 -0.000000
-0.682413 -0.000000
-0.682413 0.000000
-0.682413 -0.000000
-0.682413 0.000000
-0.682413 -0.000000
-0.682413 0.000000
-0.682413 -0.000000
-0.682413 0.000000
-0.682413 0.000000
-0.682413 -0.000000
-0.682413 0.000000
-0.682413 -0.000000
-0.682413 0.000000
-0.682413 -0.000000
-0.682413 0.000001
-0.682413 -0.000001
-0.682413 -0.000004
-0.682413 0.000033
-0.682413 -0.000162
-0.682413 0.000635
-0.682413 -0.002135
-0.682414 0.006257
-0.682411 -0.015771
-0.682422 0.031676
-0.682385 -0.033688
-0.682492 -0.106303
-0.682147 1.172384
-0.679427 4.601191
-0.672977 7.904077
-0.662905 13.300709
-0.645925 19.968279
-0.621476 30.988356
-0.583468 43.263549
-0.538865 43.543158
-0.498082 38.466052
-0.461553 34.297368
-0.429118 31.028035
-0.399345 28.027856
-0.372910 25.315800
-0.348604 22.779187
-0.327641 19.239751
-0.309659 16.979098
-0.292769 17.354667
-0.275023 17.407298
-0.258437 15.908768
-0.242920 15.170968
-0.228102 14.320817
-0.214292 13.343130
-0.200675 14.505093
-0.185373 15.305072
-0.170621 14.347143
-0.156465 13.945234
-0.142342 14.625625
-0.126895 16.174201
-0.109883 17.954449
-0.091268 18.780793
-0.072674 18.440693
-0.054291 18.276845
-0.035999 18.366907
-0.017554 18.354869
0.001002 19.103446
0.021370 21.888948
0.046371 29.313341
0.082331 43.557381
0.133452 57.437492
0.194273 62.181093
0.256481 62.557918
0.319648 63.336122
0.383282 64.118139
0.448102 65.168621
0.512667 62.974673
0.573244 57.985039
0.628945 53.571041
0.680762 49.959845
0.729208 47.078600
0.775255 44.922897
0.819317 43.285619
0.862040 42.027533
0.903902 42.105002
0.946602 42.986671
0.989686 43.044068
1.032864 43.363626
1.076501 43.684519
1.120521 44.604911
1.166178 46.658703
1.213764 48.211580
1.262351 48.724012
1.311236 49.016589
1.360495 49.348179
1.409922 49.350303
1.459201 49.071157
1.508088 48.569644
1.556419 48.014816
1.604227 47.499812
1.651510 46.972170
1.698261 46.432251
1.744463 45.878049
1.790098 45.288934
1.835135 44.712303
1.879578 44.035699
1.923270 43.284936
1.966500 43.328668
2.010245 44.063801
2.054288 43.517102
2.097075 42.096961
2.138642 40.904701
2.178908 39.539968
2.217766 38.069795
2.255057 36.398299
2.290544 34.451319
2.323912 32.153716
2.354789 29.477015
2.382811 26.459174
2.407707 23.282504
2.429431 20.132337
2.448024 17.015931
2.463509 13.933210
2.475939 10.912008
2.485379 7.965813
2.491906 5.078631
2.495575 2.276495
2.496488 -0.451660
2.494705 -3.076981
2.490438 -5.373840
2.483999 -7.513322
2.475400 -9.640667
2.464731 -11.672413
2.452055 -13.633335
2.437462 -15.518568
2.421018 -17.311926
2.402818 -19.061868
2.382847 -20.838871
2.361129 -22.525677
2.337799 -24.066047
2.312988 -25.485923
2.286815 -26.789747
2.259391 -27.986271
2.230820 -29.083294
2.201198 -30.084381
2.170624 -30.985496
2.139194 -31.799407
2.106986 -32.539270
2.074073 -33.212248
2.040515 -33.825588
2.006373 -34.382253
1.971698 -34.892279
1.936534 -35.356263
1.900927 -35.780939
1.864913 -36.169335
1.828529 -36.518506
1.791816 -36.826581
1.754815 -37.098266
1.717556 -37.337612
1.680079 -37.533473
1.642425 -37.695684
1.604621 -37.832372
1.566692 -37.947321
1.528655 -38.047614
1.490526 -38.131260
1.452321 -38.200999
1.414053 -38.254221
1.375741 -38.291885
1.337397 -38.317555
1.299032 -38.336160
1.260649 -38.350691
1.222255 -38.359943
1.183853 -38.366303
1.145449 -38.364041
1.107053 -38.348686
1.068676 -38.327265
1.030322 -38.305377
0.991992 -38.273534
0.953702 -38.231092
0.915448 -38.206752
0.877203 -38.207131
0.838954 -38.214693
0.800700 -38.216143
0.762449 -38.207045
0.724212 -38.190432
0.685995 -38.163228
0.647810 -38.131654
0.609658 -38.092176
0.571552 -38.044727
0.533496 -37.988190
0.495509 -37.902627
0.457622 -37.796528
0.419845 -37.677221
0.382198 -37.537366
0.344701 -37.379138
0.307369 -37.209167
0.270212 -37.027853
0.233244 -36.832292
0.196477 -36.626916
0.159919 -36.414337
0.123578 -36.193398
0.087462 -35.966868
0.051574 -35.736240
0.015921 -35.496432
-0.019486 -35.243758
-0.054626 -34.959059
-0.089456 -34.622405
-0.123924 -34.235153
-0.157978 -33.795034
-0.191564 -33.302846
-0.224625 -32.736781
-0.257065 -32.056972
-0.288745 -31.201298
-0.319475 -30.181158
-0.349146 -29.095781
-0.377716 -27.982000
-0.405152 -26.827621
-0.431410 -25.630752
-0.456461 -24.422628
-0.480290 -23.171970
-0.502860 -21.946797
-0.524222 -20.703393
-0.544004 -18.548070
-0.561256 -16.096352
-0.575859 -12.534819
-0.585998 -7.916246
-0.592567 -5.875199
-0.598393 -5.731857
-0.604037 -5.574236
-0.609174 -4.279939
-0.612301 -2.072592
-0.613283 0.254934
-0.610349 6.904437
-0.598139 17.513930
-0.575348 27.937428
-0.543776 33.663340
-0.509577 34.524094
-0.474942 34.533934
-0.440493 34.385925
-0.405942 34.716022
-0.371265 34.226045
-0.337606 33.183258
-0.304856 32.067193
-0.273748 29.930478
-0.245049 27.452642
-0.218808 24.915101
-0.195022 22.817596
-0.173053 20.940284
-0.153221 18.701178
-0.135541 16.678838
-0.119831 14.652952
-0.106265 12.448846
-0.094892 10.293496
-0.085692 8.034875
-0.078698 6.099565
-0.073121 5.243268
-0.068344 3.959422
-0.065388 2.094672
-0.064036 0.572268
-0.064250 -0.972433
-0.065939 -2.385047
-0.068990 -3.692787
-0.073296 -4.894771
-0.078753 -5.988686
-0.085252 -6.979916
-0.092694 -7.872285
-0.100981 -8.672809
-0.110024 -9.375015
-0.119717 -9.978842
-0.129976 -10.506142
-0.140725 -10.958359
-0.151890 -11.336292
-0.163398 -11.647422
-0.175188 -11.898995
-0.187202 -12.096125
-0.199388 -12.243193
-0.211698 -12.345588
-0.224090 -12.408105
-0.236527 -12.435555
-0.248976 -12.431546
-0.261406 -12.398423
-0.273790 -12.341502
-0.286107 -12.265242
-0.298339 -12.171119
-0.310468 -12.060442
-0.322479 -11.934824
-0.334357 -11.794914
-0.346087 -11.638853
-0.357653 -11.468145
-0.369041 -11.282150
-0.380240 -11.095361
-0.391245 -10.882286
-0.402033 -10.691438
-0.412649 -10.498723
-0.422933 -9.950887
-0.432521 -9.255489
-0.441514 -8.714512
-0.449989 -8.238648
-0.458042 -7.864777
-0.465760 -7.566670
-0.473211 -7.328402
-0.480447 -7.135096
-0.487506 -6.973770
-0.494415 -6.833631
-0.501191 -6.704991
-0.507843 -6.588327
-0.514384 -6.482604
-0.520823 -6.383415
-0.527166 -6.289922
-0.533417 -6.200520
-0.539580 -6.114139
-0.545658 -6.029372
-0.551651 -5.945404
-0.557560 -5.861568
-0.563386 -5.777463
-0.569127 -5.692941
-0.574783 -5.607646
-0.580353 -5.521259
-0.585836 -5.433628
-0.591231 -5.344864
-0.596536 -5.255314
-0.601752 -5.165198
-0.606877 -5.075183
-0.611912 -4.985414
-0.616858 -4.896651
-0.621716 -4.810376
-0.626487 -4.719147
-0.631173 -4.653890
-0.635787 -4.536590
-0.640170 -4.165071
-0.644063 -3.608347
-0.647277 -2.700590
-0.649469 -1.789883
-0.651086 -1.554672
-0.652638 -1.488346
-0.654029 -1.312491
-0.655315 -1.284331
-0.656603 -1.265795
-0.657820 -1.161364
-0.658944 -1.105074
-0.660047 -1.092210
-0.661127 -1.068733
-0.662192 -1.061460
-0.663222 -0.963946
-0.664126 -0.879555
-0.664994 -0.828328
-0.665773 -0.741914
-0.666503 -0.724980
-0.667211 -0.668114
-0.667832 -0.585962
-0.668406 -0.571452
-0.668979 -0.566960
-0.669538 -0.551678
-0.670085 -0.541115
-0.670620 -0.528368
-0.671143 -0.515966
-0.671653 -0.503151
-0.672150 -0.490199
-0.672635 -0.477059
-0.673106 -0.463805
-0.673563 -0.450492
-0.674007 -0.437094
-0.674438 -0.423673
-0.674856 -0.410305
-0.675260 -0.397021
-0.675650 -0.383848
-0.676028 -0.370748
-0.676393 -0.357825
-0.676745 -0.345142
-0.677084 -0.332641
-0.677411 -0.320394
-0.677725 -0.308445
-0.678028 -0.296796
-0.678320 -0.285426
-0.678600 -0.274398
-0.678869 -0.263738
-0.679128 -0.253407
-0.679377 -0.243459
-0.679615 -0.233883
-0.679845 -0.224685
-0.680065 -0.215868
-0.680277 -0.207437
-0.680481 -0.199389
-0.680676 -0.191722
-0.680865 -0.184431
-0.681046 -0.177508
-0.681220 -0.170982
-0.681388 -0.164722
-0.681550 -0.159072
-0.681707 -0.153073
-0.681857 -0.149099
-0.682004 -0.142176
-0.682143 -0.138855
-0.682286 -0.147351
-0.682407 -0.061114
-0.682413 0.011285
-0.682413 -0.003261
-0.682413 0.000719
-0.682413 -0.000081
-0.682413 -0.000029
-0.682413 0.000026
-0.682413 -0.000013
-0.682413 0.000005
-0.682413 -0.000002
-0.682413 0.000001
-0.682413 -0.000000
-0.682413 0.000000
-0.682413 -0.000000
-0.682413 0.000000
-0.682413 -0.000000
-0.682413 0.000000
-0.682413 -0.000000
-0.682413 -0.000000
-0.682413 0.000000
-0.682413 -0.000000
-0.682413 0.000000
-0.682413 -0.000000
-0.682413 0.000000
-0.682413 -0.000000
-0.682413 0.000000
-0.682413 -0.000000
-0.682413 0.000000
-0.682413 -0.000000
-0.682413 0.000000
-0.682413 -0.000000
-0.682413 0.000000
-0.682413 -0.000000
-0.682413 0.000000
-0.682413 -0.000000
-0.682413 0.000000
-0.682413 -0.000000
-0.682413 0.000000
-0.682413 -0.000000
-0.682413 0.000000
-0.682413 -0.000000
-0.682413 0.000000
-0.682413 -0.000000
-0.682413 0.000000
-0.682413 -0.000000
-0.682413 0.000000
-0.682413 -0.000000
-0.682413 0.000000
-0.682413 -0.000000
-0.682413 0.000000
-0.682413 -0.000000
-0.682413 0.000000
-0.682413 -0.000000
-0.682413 0.000000
-0.682413 -0.000000
-0.682413 0.000000
-0.682413 -0.000000
-0.682413 0.000000
-0.682413 -0.000000
-0.682413 0.000000
-0.682413 -0.000000
-0.682413 0.000000
-0.682413 -0.000000
-0.682413 0.000000
-0.682413 -0.000000
-0.682413 0.000000
-0.682413 -0.000000
-0.682413 0.000000
-0.682413 -0.000000
-0.682413 0.000000
-0.682413 -0.000000
-0.682413 0.000000
-0.682413 -0.000000
-0.682413 0.000000
-0.682413 -0.000000
-0.682413 0.000000
-0.682413 -0.000000
-0.682413 0.000000
-0.682413 -0.000000
-0.682413 0.000000
-0.682413 -0.000000
-0.682413 0.000000
-0.682413 -0.000000
-0.682413 0.000000
-0.682413 -0.000000
-0.682413 0.000000
-0.682413 -0.000000
-0.682413 0.000000
-0.682413 -0.000000
-0.682413 0.000000
-0.682413 -0.000000
-0.682413 0.000000
-0.682413 -0.000000
-0.682413 0.000000
-0.682413 -0.000000
-0.682413 0.000000
-0.682413 -0.000000
-0.682413 0.000000
-0.682413 -0.000000
-0.682413 0.000000
-0.682413 -0.000000
-0.682413 0.000000
-0.682413 -0.000000
-0.682413 0.000000
-0.682413 -0.000000
-0.682413 0.000000
-0.682413 -0.000000
-0.682413 0.000000
-0.682413 -0.000000
-0.682413 0.000000
-0.682413 -0.000000
-0.682413 0.000000
