-0.075043 0.099822 -0.000015
0.290065 11.205968
0.301558 11.760831
0.313617 12.336218
0.326241 12.869877
0.339357 13.328192
0.352913 13.752028
0.366876 14.137567
0.381189 14.440558
0.395819 14.842109
0.410708 14.659310
0.425686 16.032030
0.441491 13.470828
0.454630 16.829128
0.480338 35.635436
0.526527 56.105653
0.591865 74.189036
0.662089 53.417565
0.693187 15.803062
0.703437 7.289749
0.710567 7.125896
0.716561 3.539325
0.717823 0.463582
0.718793 1.296506
0.720219 1.531138
0.721861 1.772979
0.723762 1.995698
0.725827 2.130577
0.728018 2.237258
0.730291 2.298974
0.732611 2.329902
0.734947 2.333522
0.737276 2.317058
0.739579 2.282559
0.741846 2.249822
0.744071 2.178370
0.746237 2.196336
0.748417 2.063715
0.750073 1.045132
0.750498 -0.009970
0.750386 -0.066331
0.750419 0.038347
0.750410 -0.015945
0.750412 0.005697
0.750412 -0.001838
0.750412 0.000543
0.750412 -0.000146
0.750412 0.000034
0.750412 -0.000006
0.750412 0.000001
0.750412 0.000000
0.750412 -0.000000
0.750412 0.000000
0.750412 -0.000000
0.750412 0.000000
0.750412 -0.000000
0.750412 0.000000
0.750412 -0.000000
0.750412 0.000000
0.750412 -0.000000
0.750412 0.000000
0.750412 0.000000
0.750412 -0.000000
0.750412 0.000000
0.750412 -0.000000
0.750412 0.000000
0.750412 -0.000000
0.750412 0.000000
0.750412 -0.000000
0.750412 0.000000
0.750412 0.000000
0.750412 -0.000000
0.750412 0.000000
0.750412 -0.000000
0.750412 0.000000
0.750412 -0.000000
0.750412 -0.000000
0.750412 0.000000
0.750412 -0.000000
0.750412 0.000000
0.750412 -0.000000
0.750412 0.000000
0.750412 -0.000000
0.750412 0.000000
0.750412 0.000000
0.750412 -0.000000
0.750412 0.000000
0.750412 -0.000000
0.750412 0.000001
0.750412 -0.000002
0.750412 0.000007
0.750412 -0.000023
0.750412 0.000069
0.750412 -0.000191
0.750412 0.000475
0.750412 -0.000999
0.750411 0.001391
0.750414 0.001124
0.750407 -0.018386
0.750419 0.088634
0.750418 -0.303096
0.749792 -0.754542
0.749076 -0.699205
0.748368 -0.718511
0.747640 -0.730506
0.746908 -0.734642
0.746169 -0.740509
0.745427 -0.741984
0.744684 -0.742100
0.743942 -0.740004
0.743203 -0.736333
0.742468 -0.731307
0.741739 -0.725279
0.741016 -0.718431
0.740301 -0.711046
0.739593 -0.703369
0.738893 -0.695499
0.738201 -0.687585
0.737516 -0.679717
0.736840 -0.671939
0.736171 -0.664368
0.735510 -0.657098
0.734855 -0.650120
0.734208 -0.643367
0.733567 -0.637375
0.732932 -0.630974
0.732303 -0.626493
0.731678 -0.621323
0.731062 -0.609898
0.730441 -0.645470
0.729832 -0.492703
0.729263 -0.914434
0.727853 -1.781082
0.725909 -2.013388
0.723908 -1.989115
0.721918 -1.993598
0.719914 -2.004826
0.717906 -2.009635
0.715890 -2.017879
0.713867 -2.025101
0.711835 -2.033238
0.709796 -2.041882
0.707747 -2.051296
0.705689 -2.061667
0.703619 -2.072860
0.701539 -2.085107
0.699445 -2.098698
0.697337 -2.113073
0.695214 -2.128073
0.693076 -2.144115
0.690921 -2.161125
0.688749 -2.178392
0.686560 -2.196225
0.684352 -2.214811
0.682126 -2.234086
0.679880 -2.252870
0.677615 -2.272965
0.675329 -2.294665
0.673028 -2.296658
0.670744 -2.257884
0.668519 -2.185149
0.666377 -2.091276
0.664337 -1.983243
0.662409 -1.868159
0.660597 -1.751618
0.658901 -1.637729
0.657317 -1.527845
0.655841 -1.422876
0.654466 -1.323494
0.653189 -1.229376
0.652004 -1.140485
0.650905 -1.055951
0.649888 -0.976202
0.648949 -0.901211
0.648082 -0.830038
0.647285 -0.763448
0.646552 -0.701390
0.645880 -0.643339
0.645263 -0.589813
0.644698 -0.540029
0.644180 -0.496325
0.643704 -0.453352
0.643271 -0.414957
0.642865 -0.400133
0.642505 -0.279453
0.642175 -0.551436
0.641246 -1.287754
0.639735 -1.609345
0.638148 -1.559548
0.636599 -1.552024
0.635040 -1.547814
0.633486 -1.584693
0.631911 -1.488943
0.630423 -1.640007
0.628423 -2.406227
0.625688 -2.926888
0.622736 -2.929485
0.619705 -3.286945
0.615952 -4.254692
0.611386 -4.626015
0.606706 -4.950877
0.601429 -5.410244
0.591133 -20.080894
0.557763 -45.134038
0.505244 -56.792605
0.447638 -57.739097
0.389916 -57.889657
0.331550 -58.617503
0.272650 -59.085618
0.213248 -59.592129
0.153360 -60.058267
0.093021 -60.494433
0.032259 -60.903563
-0.028897 -61.279648
-0.090403 -61.594793
-0.152187 -61.841957
-0.214193 -62.037175
-0.276370 -62.186597
-0.338678 -62.297024
-0.401078 -62.374789
-0.463544 -62.427732
-0.526040 -62.424017
-0.588494 -62.352487
-0.650748 -61.917268
-0.712076 -60.352612
-0.771119 -57.423354
-0.826721 -53.546540
-0.878139 -49.130173
-0.925019 -44.532196
-0.967319 -40.013052
-1.005207 -35.736362
-1.038973 -31.787379
-1.068962 -28.189780
-1.095520 -24.927314
-1.118970 -21.973141
-1.139603 -19.294957
-1.157680 -16.861016
-1.173433 -14.648789
-1.187075 -12.640572
-1.198802 -10.821567
-1.208798 -9.179524
-1.217236 -7.706282
-1.224280 -6.394819
-1.230090 -5.237617
-1.234816 -4.228703
-1.238602 -3.358613
-1.241583 -2.619752
-1.243888 -2.004070
-1.245632 -1.499030
-1.246923 -1.096663
-1.247857 -0.781608
-1.248514 -0.543297
-1.248969 -0.376138
-1.249285 -0.263711
-1.249513 -0.201410
-1.249702 -0.181828
-1.249888 -0.195957
-1.250104 -0.237679
-1.250371 -0.298704
-1.250708 -0.378622
-1.251133 -0.470047
-1.251651 -0.567655
-1.252271 -0.669706
-1.252992 -0.772266
-1.253815 -0.871348
-1.254735 -0.964915
-1.255746 -1.054679
-1.256844 -1.136460
-1.258018 -1.208574
-1.259261 -1.273952
-1.260565 -1.328771
-1.261918 -1.374000
-1.263313 -1.412335
-1.264742 -1.441722
-1.266197 -1.463571
-1.267670 -1.477311
-1.269153 -1.484859
-1.270641 -1.487088
-1.272128 -1.483891
-1.273609 -1.474716
-1.275079 -1.461916
-1.276536 -1.447462
-1.277975 -1.428506
-1.279395 -1.406933
-1.280792 -1.384022
-1.282165 -1.360537
-1.283515 -1.335110
-1.284838 -1.308009
-1.286134 -1.282308
-1.287404 -1.255526
-1.288647 -1.228701
-1.289865 -1.202805
-1.291055 -1.175299
-1.292218 -1.149924
-1.293357 -1.125553
-1.294472 -1.100994
-1.295562 -1.077490
-1.296629 -1.054552
-1.297674 -1.032896
-1.298697 -1.012669
-1.299701 -0.992848
-1.300685 -0.973409
-1.301651 -0.956192
-1.302599 -0.939223
-1.303532 -0.923927
-1.304450 -0.909847
-1.305353 -0.896519
-1.306245 -0.886113
-1.307127 -0.874918
-1.307998 -0.866125
-1.308861 -0.858638
-1.309716 -0.850503
-1.310565 -0.846002
-1.311410 -0.842002
-1.312251 -0.839108
-1.313091 -0.838251
-1.313930 -0.838453
-1.314770 -0.840592
-1.315613 -0.842647
-1.316458 -0.846628
-1.317309 -0.853076
-1.318165 -0.859037
-1.319029 -0.867075
-1.319902 -0.876300
-1.320784 -0.887372
-1.321679 -0.899524
-1.322585 -0.912142
-1.323505 -0.926290
-1.324440 -0.942288
-1.325392 -0.959167
-1.326361 -0.977368
-1.327349 -0.997562
-1.328358 -1.018255
-1.329389 -1.040829
-1.330442 -1.063785
-1.331519 -1.088588
-1.332622 -1.114746
-1.333750 -1.140135
-1.334905 -1.166307
-1.336086 -1.194290
-1.337296 -1.223788
-1.338536 -1.253658
-1.339805 -1.282225
-1.341104 -1.312310
-1.342434 -1.344908
-1.343796 -1.375851
-1.345188 -1.407109
-1.346613 -1.439411
-1.348069 -1.470843
-1.349558 -1.504803
-1.351082 -1.537870
-1.352637 -1.569305
-1.354224 -1.602707
-1.355845 -1.634694
-1.357497 -1.666630
-1.359182 -1.699533
-1.360899 -1.730825
-1.362646 -1.760993
-1.364425 -1.792698
-1.366235 -1.823692
-1.368075 -1.852309
-1.369944 -1.882352
-1.371843 -1.911280
-1.373770 -1.938941
-1.375726 -1.968584
-1.377710 -1.996370
-1.379722 -2.022391
-1.381759 -2.048295
-1.383823 -2.075051
-1.385914 -2.102345
-1.388030 -2.126323
-1.390171 -2.150996
-1.392337 -2.175357
-1.394526 -2.198677
-1.396739 -2.223659
-1.398976 -2.245141
-1.401234 -2.266575
-1.403515 -2.290152
-1.405818 -2.310892
-1.408141 -2.331442
-1.410486 -2.352885
-1.412850 -2.371721
-1.415234 -2.391504
-1.417638 -2.410759
-1.420060 -2.428066
-1.422500 -2.446827
-1.424958 -2.464930
-1.427434 -2.482989
-1.429929 -2.502236
-1.432443 -2.519883
-1.434975 -2.539897
-1.437529 -2.561951
-1.440103 -2.582227
-1.442700 -2.606216
-1.445321 -2.629759
-1.447965 -2.653526
-1.450635 -2.681820
-1.453333 -2.707695
-1.456056 -2.736013
-1.458811 -2.766260
-1.461594 -2.794640
-1.464407 -2.826394
-1.467252 -2.858050
-1.470129 -2.889234
-1.473037 -2.921550
-1.475978 -2.954586
-1.478952 -2.986920
-1.481957 -3.017824
-1.484994 -3.050312
-1.488063 -3.080885
-1.491162 -3.111663
-1.494293 -3.143369
-1.497454 -3.172648
-1.500645 -3.202885
-1.503867 -3.233613
-1.507118 -3.262097
-1.510397 -3.289605
-1.513704 -3.318154
-1.517039 -3.344719
-1.520400 -3.369898
-1.523785 -3.394114
-1.527195 -3.417384
-1.530627 -3.439602
-1.534080 -3.458767
-1.537551 -3.476900
-1.541040 -3.494316
-1.544545 -3.508346
-1.548064 -3.521432
-1.551594 -3.531387
-1.555133 -3.540228
-1.558681 -3.548121
-1.562235 -3.550782
-1.565790 -3.552772
-1.569347 -3.553175
-1.572903 -3.551998
-1.576457 -3.548950
-1.580007 -3.543371
-1.583551 -3.537599
-1.587089 -3.529897
-1.590617 -3.521056
-1.594137 -3.510379
-1.597645 -3.497861
-1.601140 -3.487088
-1.604625 -3.474549
-1.608095 -3.458304
-1.611549 -3.441617
-1.614985 -3.425007
-1.618406 -3.410132
-1.621811 -3.391985
-1.625196 -3.371173
-1.628561 -3.351542
-1.631905 -3.329572
-1.635227 -3.308871
-1.638529 -3.286172
-1.641805 -3.261104
-1.645058 -3.237093
-1.648286 -3.212106
-1.651488 -3.185684
-1.654663 -3.157491
-1.657809 -3.128937
-1.660927 -3.100222
-1.664015 -3.069763
-1.667072 -3.038796
-1.670099 -3.007014
-1.673092 -2.973481
-1.676051 -2.939105
-1.678976 -2.904671
-1.681866 -2.868141
-1.684717 -2.829407
-1.687530 -2.791036
-1.690304 -2.751230
-1.693038 -2.710228
-1.695730 -2.667508
-1.698378 -2.623137
-1.700981 -2.579018
-1.703541 -2.534156
-1.706054 -2.486765
-1.708519 -2.438816
-1.710936 -2.390939
-1.713305 -2.342627
-1.715626 -2.293120
-1.717896 -2.242480
-1.720116 -2.192279
-1.722284 -2.139437
-1.724399 -2.087808
-1.726464 -2.036096
-1.728474 -1.981684
-1.730431 -1.928597
-1.732335 -1.874794
-1.734184 -1.819676
-1.735978 -1.764368
-1.737716 -1.708129
-1.739398 -1.651212
-1.741022 -1.595163
-1.742590 -1.535454
-1.744101 -1.489400
-1.745558 -1.402118
-1.746907 -1.311305
-1.748178 -1.205918
-1.749301 -1.039653
-1.750244 -0.826566
-1.750924 -0.519565
-1.751302 -0.264751
-1.751461 -0.031046
-1.751320 0.334782
-1.750746 0.834201
-1.749598 1.489852
-1.747707 2.316183
-1.744908 3.299528
-1.741052 4.429702
-1.736001 5.675648
-1.729622 7.123770
-1.721673 8.772205
-1.711985 10.644504
-1.700287 12.742089
-1.686355 15.199859
-1.669729 18.041146
-1.650246 20.856229
-1.628018 23.540464
-1.603157 26.106925
-1.575780 28.590386
-1.545938 31.017646
-1.513698 33.397613
-1.479093 35.726009
-1.442209 37.950959
-1.403147 40.080378
-1.361985 42.160554
-1.318759 44.187578
-1.273553 46.118296
-1.226452 47.982118
-1.177515 49.779153
-1.126820 51.499679
-1.074436 53.149915
-1.020426 54.764582
-0.964809 56.346059
-0.907643 57.862315
-0.848993 59.305624
-0.788931 60.692383
-0.727492 62.062202
-0.664700 63.379999
-0.600627 64.632869
-0.535324 65.827792
-0.468847 67.000703
-0.401185 68.185685
-0.332350 69.337449
-0.262385 70.447587
-0.191320 71.537793
-0.119182 72.580924
-0.046010 73.632329
0.028206 74.611605
0.103343 75.533764
0.179499 76.678685
0.255343 73.294130
0.325314 67.150501
0.388745 57.911038
0.439883 44.571011
0.477135 28.708683
0.498213 15.409070
0.511769 13.454182
0.526301 14.953679
0.540786 13.693725
0.553715 12.428876
0.565686 11.217846
0.576107 9.810215
0.585898 10.116240
0.596195 9.927302
0.605124 7.795652
0.612358 7.330215
0.620083 7.715768
0.627784 8.038658
0.635838 7.344625
0.642059 5.367002
0.647284 5.492012
0.652717 4.606780
0.656187 2.762481
0.658805 2.589255
0.661460 2.685013
0.664166 2.737939
0.666941 2.790661
0.669741 2.806568
0.672680 3.180797
0.675595 2.014362
0.676582 0.458361
0.677037 0.473230
0.677549 0.545240
0.678123 0.601415
0.678760 0.678959
0.679490 0.778681
0.680317 0.871459
0.681232 0.957393
0.682232 1.040507
0.683314 1.119273
0.684472 1.195387
0.685706 1.268948
0.687012 1.340115
0.688388 1.409116
0.689833 1.476656
0.691344 1.542508
0.692920 1.606764
0.694560 1.669963
0.696263 1.731637
0.698026 1.791319
0.699849 1.849400
0.701728 1.906113
0.703664 1.960781
0.705653 2.013417
0.707694 2.064467
0.709786 2.113654
0.711925 2.160865
0.714111 2.206481
0.716342 2.250498
0.718616 2.292601
0.720931 2.333022
0.723286 2.371659
0.725679 2.408372
0.728107 2.443643
0.730571 2.478345
0.733068 2.510351
0.735598 2.546344
0.738160 2.566328
0.740749 2.627522
0.743385 2.581988
0.745992 2.755602
0.748800 2.624723
0.750615 0.602029
0.750370 -0.329612
0.750417 0.123988
0.750412 -0.038484
0.750411 0.010015
0.750412 -0.002007
0.750411 0.000175
0.750412 0.000099
0.750412 -0.000078
0.750412 0.000037
0.750412 -0.000015
0.750412 0.000005
0.750412 -0.000002
0.750412 0.000001
0.750412 -0.000000
0.750412 0.000000
0.750412 -0.000000
0.750412 0.000000
0.750412 -0.000000
0.750412 -0.000000
0.750412 0.000000
0.750412 -0.000000
0.750412 0.000000
0.750412 -0.000000
0.750412 0.000000
0.750412 -0.000000
0.750412 0.000000
0.750412 -0.000000
0.750412 0.000000
0.750412 -0.000000
0.750412 0.000000
0.750412 -0.000000
0.750412 0.000000
0.750412 -0.000000
0.750412 0.000000
0.750412 -0.000000
0.750412 0.000000
0.750412 -0.000000
0.750412 0.000000
0.750412 -0.000000
0.750412 0.000000
0.750412 -0.000000
0.750412 0.000000
0.750412 -0.000000
0.750412 0.000000
0.750412 -0.000000
0.750412 0.000000
0.750412 -0.000000
0.750412 0.000000
0.750412 -0.000000
0.750412 0.000000
0.750412 -0.000000
0.750412 0.000000
0.750412 -0.000000
0.750412 0.000000
0.750412 -0.000000
0.750412 0.000000
0.750412 -0.000000
0.750412 0.000000
0.750412 -0.000000
0.750412 0.000000
0.750412 -0.000000
0.750412 0.000000
0.750412 -0.000000
0.750412 0.000000
0.750412 -0.000000
0.750412 0.000000
0.750412 -0.000000
0.750412 0.000000
0.750412 -0.000000
0.750412 0.000000
0.750412 -0.000000
0.750412 0.000000
0.750412 -0.000000
0.750412 0.000000
0.750412 -0.000000
0.750412 0.000000
0.750412 -0.000000
0.750412 0.000000
0.750412 -0.000000
0.750412 0.000000
0.750412 -0.000000
0.750412 0.000000
0.750412 -0.000000
0.750412 0.000000
0.750412 -0.000000
0.750412 0.000000
0.750412 -0.000000
0.750412 0.000000
0.750412 -0.000000
0.750412 0.000000
0.750412 -0.000000
0.750412 0.000000
0.750412 -0.000000
0.750412 0.000000
0.750412 -0.000000
0.750412 0.000000
0.750412 -0.000000
0.750412 0.000000
0.750412 -0.000000
0.750412 0.000000
0.750412 -0.000000
0.750412 0.000000
0.750412 -0.000000
0.750412 0.000000
0.750412 -0.000000
0.750412 0.000000
0.750412 -0.000000
0.750412 0.000000
0.750412 -0.000000
0.750412 0.000000
0.750412 -0.000000
0.750412 0.000000
0.750412 -0.000000
0.750412 0.000000
0.750412 -0.000000
0.750412 0.000000
0.750412 -0.000000
0.750412 0.000000
0.750412 -0.000000
0.750412 0.000000
0.750412 -0.000000
0.750412 0.000000
0.750412 -0.000000
0.750412 0.000000
0.750412 -0.000000
0.750412 0.000000
0.750412 -0.000000
0.750412 0.000000
0.750412 -0.000000
0.750412 0.000000
0.750412 -0.000000
0.750412 0.000000
0.750412 -0.000000
0.750412 0.000000
0.750412 -0.000000
0.750412 0.000000
0.750412 -0.000000
0.750412 0.000000
0.750412 -0.000000
0.750412 0.000000
0.750412 -0.000000
0.750412 0.000000
0.750412 -0.000000
0.750412 0.000000
0.750412 -0.000000
0.750412 0.000000
0.750412 -0.000000
0.750412 0.000000
0.750412 -0.000000
0.750412 0.000000
0.750412 -0.000000
0.750412 0.000000
0.750412 -0.000000
0.750412 0.000000
0.750412 -0.000000
0.750412 0.000000
0.750412 -0.000000
0.750412 0.000000
0.750412 -0.000000
0.750412 0.000000
0.750412 -0.000000
0.750412 0.000000
0.750412 -0.000000
0.750412 0.000000
0.750412 -0.000000
0.750412 0.000000
0.750412 -0.000000
0.750412 0.000000
0.750412 -0.000000
0.750412 0.000000
0.750412 -0.000000
0.750412 0.000000
0.750412 -0.000000
0.750412 0.000000
0.750412 -0.000000
0.750412 0.000000
0.750412 -0.000000
0.750412 0.000000
0.750412 -0.000000
0.750412 0.000000
0.750412 -0.000000
0.750412 0.000000
0.750412 -0.000000
0.750412 0.000000
0.750412 -0.000000
0.750412 0.000000
0.750412 -0.000000
0.750412 0.000000
0.750412 -0.000000
0.750412 0.000000
0.750412 -0.000000
0.750412 0.000000
0.750412 -0.000000
0.750412 0.000000
0.750412 -0.000000
0.750412 0.000000
0.750412 -0.000000
0.750412 0.000000
0.750412 -0.000000
0.750412 0.000000
0.750412 -0.000000
0.750412 0.000000
0.750412 -0.000000
0.750412 0.000000
0.750412 -0.000000
0.750412 0.000000
0.750412 -0.000000
0.750412 0.000000
0.750412 -0.000000
0.750412 0.000000
0.750412 -0.000000
0.750412 0.000000
0.750412 -0.000000
0.750412 0.000000
0.750412 -0.000000
0.750412 0.000000
0.750412 -0.000000
0.750412 0.000000
0.750412 -0.000000
0.750412 0.000000
0.750412 -0.000000
0.750412 0.000000
0.750412 -0.000000
0.750412 0.000000
0.750412 -0.000000
0.750412 0.000000
0.750412 -0.000000
0.750412 0.000000
0.750412 -0.000000
0.750412 0.000000
0.750412 -0.000000
0.750412 0.000000
0.750412 -0.000000
0.750412 0.000000
0.750412 -0.000000
0.750412 0.000000
0.750412 -0.000000
0.750412 0.000000
0.750412 -0.000000
0.750412 0.000000
0.750412 -0.000000
0.750412 0.000000
0.750412 -0.000000
0.750412 0.000000
0.750412 -0.000000
0.750412 0.000000
0.750412 -0.000000
0.750412 0.000000
0.750412 -0.000000
0.750412 0.000000
0.750412 -0.000000
0.750412 0.000000
0.750412 -0.000000
0.750412 0.000000
0.750412 -0.000000
0.750412 0.000000
0.750412 -0.000000
0.750412 0.000000
0.750412 -0.000000
0.750412 0.000000
0.750412 -0.000000
0.750412 0.000000
0.750412 -0.000000
0.750412 0.000000
0.750412 -0.000000
0.750412 0.000000
0.750412 -0.000000
0.750412 0.000000
0.750412 -0.000000
0.750412 0.000000
0.750412 -0.000000
0.750412 0.000000
0.750412 -0.000000
0.750412 0.000000
0.750412 -0.000000
0.750412 0.000000
0.750412 -0.000000
0.750412 0.000000
0.750412 -0.000000
0.750412 0.000000
0.750412 -0.000000
0.750412 0.000000
0.750412 -0.000000
0.750412 0.000000
0.750412 -0.000000
0.750412 0.000000
0.750412 -0.000000
0.750412 0.000000
0.750412 -0.000000
0.750412 0.000000
0.750412 -0.000000
0.750412 0.000000
0.750412 -0.000000
0.750412 0.000000
0.750412 -0.000000
0.750412 0.000000
0.750412 -0.000000
0.750412 0.000000
0.750412 -0.000000
0.750412 -0.000000
0.750412 0.000000
0.750412 -0.000000
0.750412 0.000000
0.750412 -0.000000
0.750412 0.000000
0.750412 -0.000001
0.750412 0.000003
0.750412 -0.000009
0.750412 0.000023
0.750412 -0.000046
0.750412 0.000051
0.750412 0.000138
0.750411 -0.001243
0.750412 0.005610
0.750412 -0.019229
0.750405 0.051640
0.750446 -0.086485
0.750059 -0.745311
0.749128 -0.882337
0.748308 -0.970650
0.746723 -2.442938
0.743239 -4.449350
0.737969 -5.994067
0.731599 -6.460635
0.724811 -7.597845
0.715897 -10.207418
0.704153 -13.485819
0.689086 -16.200479
0.672188 -17.509423
0.654068 -18.711061
0.634963 -19.210736
0.615767 -19.233577
0.596595 -18.845042
0.578181 -18.030991
0.560411 -17.471737
0.543270 -16.712296
0.526861 -16.229242
0.510653 -16.123549
0.494716 -15.616297
0.479451 -14.922348
0.464814 -14.309467
0.450811 -13.674101
0.437433 -13.054854
0.424675 -12.437969
0.412530 -11.826926
0.400996 -11.220316
0.390066 -10.618034
0.379737 -10.019287
0.370006 -9.424066
0.360869 -8.832007
0.352323 -8.242862
0.344366 -7.657153
0.336993 -7.074999
0.330200 -6.497431
0.323983 -5.923845
0.318338 -5.359014
0.313255 -4.792007
0.308734 -4.256024
0.304747 -3.682828
0.301345 -3.155096
0.298297 -3.029503
0.295229 -3.056700
0.292321 -2.651337
0.289976 -2.082214
0.288118 -1.617855
0.286743 -1.135224
0.285836 -0.678852
0.285381 -0.232550
0.285361 0.184514
0.285755 0.617530
0.286562 0.945719
0.287700 1.426767
0.289350 1.700973
0.290928 1.443049
0.293712 5.600492
0.290065 11.205968
