0.011145 0.012792 -0.173123
-0.422580 2.050697
-0.422237 -1.000895
-0.423855 -1.867978
-0.425518 -1.363024
-0.426435 -0.414221
-0.426278 0.744463
-0.424923 1.967947
-0.422331 3.212865
-0.418493 4.453029
-0.413422 5.675046
-0.407139 6.872869
-0.399671 8.044523
-0.391043 9.188589
-0.381286 10.301181
-0.370431 11.383121
-0.358532 12.360960
-0.345426 14.112330
-0.329064 19.502865
-0.306274 25.214044
-0.280020 26.626979
-0.254401 23.741831
-0.233581 17.585032
-0.219387 10.854904
-0.207883 16.009698
-0.180719 40.993195
-0.124157 70.945887
-0.040236 96.250812
0.067565 118.642012
0.196395 138.364943
0.343754 155.636012
0.507090 170.244094
0.683590 181.876250
0.870097 190.182280
1.063107 194.806779
1.258848 195.678157
1.453751 193.239576
1.644763 187.950197
1.829159 180.059638
2.004456 169.811642
2.168439 157.514033
2.319248 143.565051
2.455458 128.421738
2.576096 112.520604
2.680592 96.223490
2.768707 79.841028
2.840481 63.600411
2.896124 47.626564
2.935960 32.041910
2.960451 16.993451
2.970194 2.586105
2.965857 -11.137388
2.948129 -24.166371
2.917711 -36.490662
2.875316 -48.091591
2.821689 -58.919184
2.757650 -68.876653
2.684084 -77.976761
2.601913 -85.959422
2.512124 -93.549742
2.415421 -98.758869
2.316775 -96.875851
2.222729 -91.237152
2.133902 -86.245953
2.049961 -81.562328
1.970469 -77.314440
1.895083 -73.349881
1.823547 -69.610313
1.755670 -66.028923
1.691318 -62.564693
1.630385 -59.192637
1.572793 -55.883853
1.518489 -52.625208
1.467419 -49.420565
1.419530 -46.270881
1.374766 -43.179183
1.333062 -40.158043
1.294348 -37.200411
1.258557 -34.331353
1.225613 -31.473992
1.195456 -28.887501
1.168125 -25.265261
1.145580 -19.530313
1.129111 -13.538796
1.118286 -8.112908
1.112775 -2.967953
1.112303 2.052669
1.117084 7.669064
1.127957 14.186661
1.145704 21.359964
1.170880 29.014859
1.203931 37.085651
1.245219 45.436088
1.294926 53.881773
1.353080 62.294226
1.419587 70.552060
1.494237 78.546126
1.576724 86.202677
1.666683 93.462926
1.763683 100.260090
1.867226 106.525705
1.976747 112.190355
2.091607 117.181957
2.211107 121.460050
2.334534 125.029466
2.461151 127.804340
2.590081 129.629302
2.720321 130.411032
2.850800 130.100002
2.980409 128.670425
3.108021 126.109052
3.232518 122.464969
3.352840 117.755281
3.468146 112.690665
3.578573 108.002903
3.684211 102.844013
3.783978 96.219951
3.876309 87.993774
3.959626 78.221515
4.032428 67.010511
4.093352 54.513058
4.141218 40.980702
4.175166 26.762017
4.194670 12.166267
4.199489 -2.530660
4.189660 -17.059398
4.165471 -31.184958
4.127423 -44.724002
4.076176 -57.535865
4.012538 -69.444302
3.937479 -80.362891
3.851979 -90.297309
3.757346 -98.304441
3.656177 -103.302896
3.551242 -106.178841
3.443873 -108.256857
3.334710 -109.738717
3.224349 -110.701717
3.113203 -111.311204
3.001608 -111.609138
2.889852 -111.635764
2.778197 -111.411298
2.666882 -110.959131
2.556123 -110.306193
2.446106 -109.481652
2.336990 -108.508843
2.228919 -107.393438
2.122033 -106.143443
2.016458 -104.779618
1.912299 -103.312652
1.809657 -101.751419
1.708624 -100.096137
1.609296 -98.344706
1.511771 -96.494038
1.416151 -94.537193
1.322544 -92.469489
1.231065 -90.285501
1.141830 -87.987575
1.054953 -85.572611
0.970552 -83.043122
0.888737 -80.405745
0.809615 -77.662285
0.733288 -74.823922
0.659847 -71.896083
0.589378 -68.890294
0.521951 -65.815767
0.457634 -62.684753
0.396470 -59.514250
0.338496 -56.313357
0.283734 -53.099987
0.232189 -49.889689
0.183851 -46.691451
0.138704 -43.517794
0.096717 -40.378918
0.057842 -37.309145
0.021995 -34.325433
-0.010903 -31.419175
-0.040933 -28.592117
-0.068171 -25.844457
-0.092704 -23.189517
-0.114631 -20.637327
-0.134057 -18.196584
-0.151099 -15.872003
-0.165873 -13.665569
-0.178498 -11.581036
-0.189100 -9.622170
-0.197804 -7.788752
-0.204735 -6.081289
-0.210022 -4.504217
-0.213797 -3.060184
-0.216192 -1.746668
-0.217336 -0.561047
-0.217357 0.498311
-0.216380 1.432995
-0.214531 2.241258
-0.211936 2.921352
-0.208725 3.473608
-0.205023 3.902248
-0.200951 4.215800
-0.196618 4.424095
-0.192126 4.535509
-0.187569 4.552969
-0.183043 4.473770
-0.178647 4.293601
-0.174482 4.009574
-0.170654 3.622940
-0.167261 3.139801
-0.164397 2.570282
-0.162141 1.924480
-0.160566 1.210791
-0.159737 0.436730
-0.159710 -0.392219
-0.160539 -1.270133
-0.162268 -2.190835
-0.164937 -3.147592
-0.168579 -4.133004
-0.173218 -5.139722
-0.178873 -6.159002
-0.185550 -7.182183
-0.193250 -8.201723
-0.201966 -9.211366
-0.211686 -10.205871
-0.222392 -11.179454
-0.234058 -12.125476
-0.246655 -13.035722
-0.260142 -13.904895
-0.274474 -14.717558
-0.289595 -15.495913
-0.305441 -16.108322
-0.321631 -16.082158
-0.337366 -15.242700
-0.351998 -13.955808
-0.365268 -12.556879
-0.377148 -11.193467
-0.387712 -9.932473
-0.397075 -8.796216
-0.405364 -7.786804
-0.412704 -6.898322
-0.419212 -6.121119
-0.424992 -5.442910
-0.430138 -4.852033
-0.434731 -4.337171
-0.438843 -3.888132
-0.442534 -3.496384
-0.445859 -3.153895
-0.448862 -2.853657
-0.451584 -2.590524
-0.454060 -2.359960
-0.456319 -2.158542
-0.458390 -1.983279
-0.460297 -1.830901
-0.462062 -1.698573
-0.463703 -1.583351
-0.465237 -1.483162
-0.466677 -1.395962
-0.468035 -1.319982
-0.469323 -1.254149
-0.470549 -1.196882
-0.471722 -1.147411
-0.472848 -1.104743
-0.473935 -1.068087
-0.474988 -1.036895
-0.476013 -1.010247
-0.477012 -0.987977
-0.477992 -0.969474
-0.478954 -0.954662
-0.479904 -0.942565
-0.480842 -0.932713
-0.481772 -0.924893
-0.482695 -0.918971
-0.483612 -0.914909
-0.484527 -0.912442
-0.485440 -0.911601
-0.486352 -0.911923
-0.487266 -0.913511
-0.488181 -0.916270
-0.489100 -0.919735
-0.490023 -0.924151
-0.490951 -0.929421
-0.491884 -0.935632
-0.492824 -0.942144
-0.493770 -0.948354
-0.494723 -0.954874
-0.495682 -0.961553
-0.496648 -0.968260
-0.497620 -0.975151
-0.498600 -0.982267
-0.499587 -0.989358
-0.500581 -0.996466
-0.501582 -1.003605
-0.502590 -1.010645
-0.503605 -1.017537
-0.504627 -1.024324
-0.505656 -1.031004
-0.506691 -1.037790
-0.507733 -1.044211
-0.508781 -1.050080
-0.509835 -1.055380
-0.510894 -1.060043
-0.511957 -1.064304
-0.513025 -1.068212
-0.514096 -1.071979
-0.515171 -1.075204
-0.516248 -1.078213
-0.517329 -1.080992
-0.518412 -1.083417
-0.519498 -1.084009
-0.520585 -1.092624
-0.521677 -1.078327
-0.522387 0.006640
-0.521253 2.322935
-0.517922 4.081798
-0.513570 4.376918
-0.509534 3.549915
-0.506645 2.177144
-0.505195 0.745953
-0.505077 -0.460471
-0.505994 -1.299975
-0.507528 -1.687338
-0.509268 -1.761093
-0.511012 -1.708607
-0.512669 -1.596847
-0.514202 -1.465379
-0.515602 -1.332287
-0.516873 -1.209752
-0.518029 -1.103623
-0.519089 -1.016140
-0.520070 -0.946968
-0.520990 -0.895508
-0.521868 -0.860811
-0.522718 -0.840398
-0.523554 -0.830816
-0.524384 -0.827982
-0.525214 -0.831709
-0.526051 -0.841676
-0.526900 -0.854524
-0.527762 -0.868029
-0.528638 -0.880836
-0.529525 -0.892367
-0.530423 -0.901817
-0.531330 -0.909158
-0.532243 -0.914467
-0.533160 -0.917753
-0.534080 -0.919271
-0.535000 -0.919468
-0.535920 -0.918499
-0.536838 -0.916739
-0.537755 -0.914893
-0.538670 -0.912955
-0.539583 -0.911162
-0.540494 -0.909976
-0.541405 -0.909642
-0.542316 -0.910179
-0.543228 -0.911579
-0.544141 -0.914094
-0.545058 -0.917394
-0.545978 -0.921444
-0.546903 -0.926249
-0.547832 -0.931289
-0.548767 -0.936460
-0.549707 -0.941457
-0.550652 -0.946223
-0.551601 -0.950747
-0.552555 -0.954583
-0.553512 -0.957864
-0.554473 -0.960690
-0.555435 -0.962995
-0.556400 -0.964984
-0.557367 -0.967136
-0.558337 -0.969491
-0.559308 -0.971688
-0.560282 -0.973932
-0.561258 -0.976018
-0.562236 -0.977902
-0.563216 -0.979808
-0.564198 -0.981789
-0.565181 -0.983758
-0.566167 -0.985834
-0.567155 -0.988147
-0.568145 -0.990529
-0.569138 -0.993316
-0.570134 -0.996263
-0.571133 -0.999320
-0.572135 -1.002650
-0.573140 -1.006150
-0.574149 -1.009891
-0.575162 -1.013634
-0.576179 -1.017573
-0.577199 -1.021693
-0.578224 -1.025786
-0.579253 -1.030070
-0.580286 -1.034288
-0.581324 -1.038756
-0.582366 -1.043068
-0.583412 -1.047351
-0.584463 -1.051920
-0.585518 -1.056247
-0.586577 -1.060564
-0.587641 -1.064985
-0.588709 -1.069360
-0.589782 -1.073669
-0.590859 -1.077953
-0.591940 -1.082172
-0.593025 -1.086424
-0.594115 -1.090612
-0.595209 -1.094734
-0.596307 -1.098985
-0.597409 -1.103155
-0.598515 -1.107164
-0.599625 -1.111371
-0.600740 -1.115542
-0.601859 -1.119676
-0.602982 -1.123862
-0.604109 -1.127988
-0.605240 -1.132150
-0.606375 -1.136344
-0.607515 -1.140479
-0.608659 -1.144530
-0.609806 -1.148612
-0.610958 -1.152695
-0.612114 -1.156817
-0.613274 -1.160758
-0.614438 -1.164801
-0.615606 -1.168792
-0.616778 -1.172654
-0.617954 -1.176556
-0.619133 -1.180140
-0.620316 -1.183879
-0.621503 -1.187734
-0.622694 -1.191386
-0.623888 -1.194996
-0.625086 -1.198654
-0.626288 -1.202387
-0.627494 -1.206006
-0.628702 -1.209408
-0.629915 -1.212941
-0.631131 -1.216459
-0.632350 -1.219899
-0.633573 -1.223246
-0.634799 -1.226530
-0.636028 -1.229766
-0.637261 -1.232969
-0.638497 -1.236190
-0.639736 -1.239243
-0.640978 -1.242297
-0.642223 -1.245286
-0.643471 -1.248257
-0.644722 -1.251152
-0.645976 -1.253944
-0.647232 -1.256747
-0.648492 -1.259479
-0.649754 -1.262111
-0.651018 -1.264692
-0.652286 -1.267269
-0.653555 -1.269687
-0.654828 -1.272183
-0.656102 -1.274497
-0.657379 -1.276792
-0.658658 -1.279081
-0.659940 -1.281121
-0.661223 -1.283422
-0.662509 -1.285350
-0.663797 -1.287275
-0.665086 -1.289330
-0.666378 -1.290994
-0.667671 -1.292498
-0.668965 -1.294007
-0.670261 -1.295477
-0.671559 -1.296850
-0.672858 -1.298079
-0.674158 -1.299292
-0.675459 -1.300446
-0.676761 -1.301397
-0.678064 -1.302488
-0.679368 -1.303308
-0.680673 -1.304096
-0.681979 -1.304880
-0.683286 -1.305386
-0.684593 -1.306027
-0.685900 -1.306396
-0.687208 -1.306744
-0.688516 -1.307130
-0.689825 -1.307172
-0.691133 -1.307382
-0.692442 -1.307288
-0.693751 -1.307239
-0.695059 -1.306997
-0.696367 -1.306626
-0.697675 -1.306367
-0.698982 -1.305841
-0.700289 -1.305262
-0.701596 -1.304624
-0.702901 -1.303695
-0.704206 -1.303292
-0.705509 -1.300367
-0.706812 -1.306944
-0.708117 -1.286282
-0.709405 -1.317406
-0.710824 -1.557552
-0.712412 -1.465525
-0.714500 -3.596366
-0.720840 -9.408947
-0.732856 -13.782625
-0.747077 -14.091019
-0.760500 -12.700041
-0.772476 -11.230630
-0.783032 -9.908384
-0.792325 -8.623713
-0.800393 -7.627304
-0.807458 -6.220516
-0.812294 -3.158155
-0.813778 -0.086484
-0.812813 1.949997
-0.810109 3.283233
-0.806754 3.075348
-0.804574 1.001420
-0.804410 -0.056946
-0.804000 0.948085
-0.802932 0.695074
-0.802748 0.022323
-0.802350 0.961277
-0.801121 1.009132
-0.800641 0.124327
-0.800411 0.621758
-0.799228 1.620649
-0.797623 1.252392
-0.796972 0.132928
-0.796845 0.546132
-0.795642 1.668614
-0.793851 1.752675
-0.792243 1.507647
-0.790848 1.216615
-0.789914 0.604507
-0.789435 0.601414
-0.788511 1.195011
-0.787219 1.260003
-0.785955 1.425183
-0.784338 1.671807
-0.782715 1.599107
-0.781118 1.582299
-0.779552 1.551505
-0.778008 1.533384
-0.776480 1.519567
-0.774964 1.510081
-0.773456 1.503253
-0.771954 1.498514
-0.770456 1.495355
-0.768961 1.488868
-0.767476 1.479734
-0.765997 1.475470
-0.764520 1.476584
-0.763041 1.479281
-0.761559 1.481285
-0.760075 1.482774
-0.758591 1.483691
-0.757105 1.484040
-0.755620 1.484081
-0.754134 1.483731
-0.752649 1.483022
-0.751165 1.481720
-0.749683 1.480271
-0.748202 1.478603
-0.746723 1.476337
-0.745247 1.473436
-0.743773 1.469863
-0.742304 1.465690
-0.740839 1.460730
-0.739380 1.455137
-0.737926 1.449006
-0.736479 1.442115
-0.735040 1.433887
-0.733609 1.423514
-0.732191 1.410136
-0.730788 1.391005
-0.729408 1.364433
-0.728062 1.321849
-0.726761 1.282069
-0.725513 1.189687
-0.724366 1.137281
-0.723246 1.053321
-0.722247 0.999178
-0.721038 1.569427
-0.719128 2.072493
-0.716662 3.255923
-0.710630 10.371935
-0.693010 26.139970
-0.659134 39.402052
-0.617817 41.606228
-0.577609 38.502883
-0.540913 34.862387
-0.507646 31.725544
-0.477149 29.335082
-0.448749 27.450681
-0.422173 25.625386
-0.397431 23.847207
-0.374246 22.624371
-0.351943 21.983834
-0.330190 21.477231
-0.309034 20.703665
-0.288838 19.639001
-0.269718 18.569831
-0.251637 17.572851
-0.234507 16.666337
-0.218246 15.835826
-0.202785 15.063245
-0.188074 14.334215
-0.174075 13.641434
-0.160754 12.980114
-0.148080 12.346267
-0.136029 11.735107
-0.124580 11.142810
-0.113717 10.563959
-0.103427 9.997206
-0.093703 9.427129
-0.084541 8.895786
-0.075940 8.225799
-0.067849 8.225953
-0.059236 8.934059
-0.050217 8.880869
-0.041702 8.089243
-0.034007 7.344821
-0.026946 6.755944
-0.020466 6.212932
-0.014482 5.746464
-0.008964 5.272113
-0.003918 4.826097
0.000692 4.362457
0.004967 4.351893
0.009749 5.374752
0.015506 5.734055
0.020811 4.842185
0.025260 4.130204
0.029160 3.657030
0.032603 3.250479
0.035692 2.919743
0.038473 2.661355
0.041000 2.341094
0.043241 2.263985
0.045844 3.120924
0.049406 3.729334
0.052954 3.271208
0.055907 2.670719
0.058369 2.273829
0.060498 1.990963
0.062377 1.775015
0.064062 1.592077
0.065563 1.406145
0.066879 1.225728
0.068013 1.031342
0.068978 0.938413
0.069879 0.809475
0.070873 1.502758
0.072918 2.286245
0.075084 1.974498
0.076843 1.579025
0.078287 1.307888
0.079482 1.099893
0.080516 0.971259
0.081436 0.870428
0.082260 0.775721
0.082990 0.682277
0.083628 0.593549
0.084179 0.507973
0.084646 0.424999
0.085031 0.346384
0.085339 0.269356
0.085571 0.195039
0.085731 0.124376
0.085819 0.050033
0.085836 -0.009870
0.085782 -0.122705
0.085770 0.301120
0.086474 0.992755
0.087528 0.998618
0.088406 0.804184
0.089155 0.658676
0.089720 0.498995
0.090180 0.418033
0.090560 0.346389
0.090878 0.287742
0.091137 0.231028
0.091341 0.177329
0.091493 0.127757
0.091597 0.078001
0.091650 0.028275
0.091654 -0.019436
0.091610 -0.069326
0.091515 -0.120600
0.091368 -0.173442
0.091167 -0.228460
0.090910 -0.284778
0.090596 -0.344169
0.090221 -0.405199
0.089781 -0.476240
0.089272 -0.531695
0.088896 -0.049130
0.089278 0.746062
0.090129 0.760046
0.090699 0.471960
0.091123 0.331544
0.091348 0.146532
0.091449 0.057733
0.091470 -0.010830
0.091440 -0.040102
0.091404 -0.028380
0.091391 0.006246
0.091420 0.052061
0.091494 0.093409
0.091602 0.121219
0.091731 0.133614
0.091866 0.132693
0.091992 0.117956
0.092096 0.087060
0.092161 0.040334
0.092171 -0.024712
0.092106 -0.107365
0.091949 -0.210944
0.091677 -0.335323
0.091271 -0.480571
0.090707 -0.648776
0.089964 -0.840282
0.089016 -1.057022
0.087839 -1.299975
0.086405 -1.569375
0.084689 -1.864322
0.082662 -2.190071
0.080295 -2.543567
0.077561 -2.924062
0.074432 -3.332125
0.070882 -3.763686
0.066889 -4.219355
0.062427 -4.700061
0.057470 -5.209903
0.051986 -5.752315
0.045943 -6.326688
0.039308 -6.934819
0.032046 -7.581677
0.024118 -8.264178
0.015488 -8.988204
0.006108 -9.757919
-0.004062 -10.570408
-0.015069 -11.430017
-0.026961 -12.337128
-0.039784 -13.290075
-0.053583 -14.289637
-0.068404 -15.325322
-0.084248 -16.311001
-0.100686 -16.182177
-0.116060 -14.301032
-0.129202 -12.076725
-0.140462 -10.524562
-0.150474 -9.576997
-0.159777 -9.056191
-0.168677 -8.750408
-0.177332 -8.552175
-0.185812 -8.396325
-0.194146 -8.254778
-0.202340 -8.117057
-0.210396 -7.980274
-0.218316 -7.844282
-0.226101 -7.709688
-0.233752 -7.576447
-0.241270 -7.444588
-0.248656 -7.313490
-0.255912 -7.183652
-0.263038 -7.054309
-0.270034 -6.924467
-0.276900 -6.792952
-0.283633 -6.659207
-0.290231 -6.523209
-0.296692 -6.384560
-0.303012 -6.243635
-0.309191 -6.100044
-0.315224 -5.953608
-0.321109 -5.804110
-0.326842 -5.651239
-0.332421 -5.494847
-0.337842 -5.334771
-0.343100 -5.171280
-0.348194 -5.004240
-0.353117 -4.832428
-0.357866 -4.655584
-0.362436 -4.473601
-0.366821 -4.286084
-0.371015 -4.094059
-0.375017 -3.903047
-0.378834 -3.726152
-0.382485 -3.573399
-0.385995 -3.441934
-0.389380 -3.322755
-0.392649 -3.209049
-0.395805 -3.098046
-0.398852 -2.988895
-0.401790 -2.881326
-0.404621 -2.775783
-0.407347 -2.671736
-0.409970 -2.568982
-0.412491 -2.466853
-0.414909 -2.365452
-0.417227 -2.265180
-0.419444 -2.166141
-0.421564 -2.068556
-0.423586 -1.972457
-0.425513 -1.877475
-0.427346 -1.785361
-0.429086 -1.690199
-0.430733 -1.606537
-0.432301 -1.519574
-0.433535 -0.711133
-0.432434 3.966115
-0.423663 14.431976
-0.402646 27.580995
-0.369297 38.179828
-0.328154 42.953672
-0.284890 42.972659
-0.242623 41.490015
-0.202027 39.407075
-0.164573 34.798863
-0.133276 27.445018
-0.109777 19.644163
-0.093432 13.389851
-0.082233 9.345570
-0.074124 7.095968
-0.067667 5.926861
-0.062089 5.265647
-0.057065 4.782462
-0.052501 4.338163
-0.048380 3.895541
-0.044703 3.451576
-0.041467 3.014275
-0.038665 2.587199
-0.036284 2.172901
-0.034312 1.766211
-0.032748 1.359888
-0.031588 0.958661
-0.030827 0.562660
-0.030459 0.174712
-0.030473 -0.201463
-0.030859 -0.568769
-0.031608 -0.924188
-0.032706 -1.268264
-0.034143 -1.601424
-0.035908 -1.922842
-0.037989 -2.232712
-0.040373 -2.529822
-0.043049 -2.814670
-0.046005 -3.088612
-0.049229 -3.351043
-0.052709 -3.601280
-0.056436 -3.842996
-0.060401 -4.077197
-0.064596 -4.305898
-0.069019 -4.529211
-0.073663 -4.750310
-0.078529 -4.971468
-0.083617 -5.194470
-0.088930 -5.422806
-0.094475 -5.656808
-0.100258 -5.899507
-0.106289 -6.151511
-0.112577 -6.413092
-0.119131 -6.685031
-0.125963 -6.964138
-0.133078 -7.257057
-0.140488 -7.540354
-0.148197 -7.892761
-0.156104 -7.688701
-0.163277 -6.546817
-0.169192 -5.350269
-0.174139 -4.604780
-0.178520 -4.185790
-0.182578 -3.945323
-0.186451 -3.803199
-0.190207 -3.704024
-0.193872 -3.620899
-0.197457 -3.542716
-0.200965 -3.466061
-0.204397 -3.390523
-0.207754 -3.316713
-0.211038 -3.245244
-0.214252 -3.176646
-0.217398 -3.111296
-0.220481 -3.049039
-0.223504 -2.989861
-0.226468 -2.933746
-0.229378 -2.880535
-0.232236 -2.829889
-0.235044 -2.781950
-0.237806 -2.736569
-0.240524 -2.693287
-0.243199 -2.652249
-0.245834 -2.613322
-0.248431 -2.576300
-0.250992 -2.540858
-0.253519 -2.507066
-0.256012 -2.474690
-0.258474 -2.443710
-0.260905 -2.414009
-0.263307 -2.385302
-0.265681 -2.357743
-0.268027 -2.330864
-0.270347 -2.304923
-0.272642 -2.279531
-0.274911 -2.254693
-0.277156 -2.230621
-0.279377 -2.206723
-0.281574 -2.183344
-0.283748 -2.160422
-0.285899 -2.137790
-0.288028 -2.115609
-0.290135 -2.093820
-0.292220 -2.072212
-0.294284 -2.051196
-0.296327 -2.030590
-0.298349 -2.010359
-0.300351 -1.990543
-0.302334 -1.971242
-0.304298 -1.952551
-0.306243 -1.934127
-0.308170 -1.916500
-0.310080 -1.899411
-0.311973 -1.882532
-0.313849 -1.866203
-0.315709 -1.850166
-0.317553 -1.833847
-0.319381 -1.817389
-0.321192 -1.801179
-0.322987 -1.785154
-0.324766 -1.769591
-0.326530 -1.754564
-0.328278 -1.739622
-0.330012 -1.724984
-0.331732 -1.710713
-0.333437 -1.696611
-0.335129 -1.682689
-0.336806 -1.668985
-0.338470 -1.655403
-0.340120 -1.642060
-0.341758 -1.628875
-0.343381 -1.615777
-0.344992 -1.602903
-0.346590 -1.590173
-0.348176 -1.577777
-0.349749 -1.565375
-0.351310 -1.553147
-0.352859 -1.541342
-0.354396 -1.529484
-0.355921 -1.517868
-0.357435 -1.506625
-0.358937 -1.495481
-0.360429 -1.484527
-0.361909 -1.473885
-0.363379 -1.463334
-0.364839 -1.453106
-0.366289 -1.443127
-0.367728 -1.433387
-0.369158 -1.423939
-0.370579 -1.414657
-0.371991 -1.405891
-0.373394 -1.397056
-0.374788 -1.388738
-0.376174 -1.380588
-0.377552 -1.372364
-0.378922 -1.364656
-0.380284 -1.356469
-0.381637 -1.348205
-0.382983 -1.340054
-0.384320 -1.332024
-0.385650 -1.324386
-0.386972 -1.317054
-0.388286 -1.309866
-0.389594 -1.303039
-0.390895 -1.296388
-0.392189 -1.289967
-0.393478 -1.283741
-0.394760 -1.277717
-0.396036 -1.272065
-0.397306 -1.266455
-0.398571 -1.261052
-0.399831 -1.256030
-0.401086 -1.251159
-0.402336 -1.246492
-0.403581 -1.242082
-0.404823 -1.237935
-0.406060 -1.233975
-0.407293 -1.230225
-0.408523 -1.226823
-0.409749 -1.223491
-0.410972 -1.220477
-0.412193 -1.217711
-0.413410 -1.215062
-0.414625 -1.212660
-0.415838 -1.210887
-0.417049 -1.208746
-0.418259 -1.208712
-0.419467 -1.200718
-0.420674 -1.225011
-0.421882 -1.139373
-0.423063 -1.379551
-0.424366 -0.785208
-0.422580 2.050697
