0.033683 0.046596 -0.000018
0.756724 -27.149487
0.723340 -39.542279
0.677579 -51.879893
0.619643 -63.719573
0.550409 -74.369059
0.471303 -83.376580
0.384132 -90.457738
0.290874 -95.538060
0.193504 -98.701045
0.093848 -100.147018
-0.006503 -100.133469
-0.106224 -98.932979
-0.204254 -96.792842
-0.299777 -93.973869
-0.392186 -90.543761
-0.481001 -86.979745
-0.565967 -82.359866
-0.645448 -76.430249
-0.708453 -38.949925
-0.723362 -1.276246
-0.722908 0.732879
-0.722870 -0.182541
-0.722897 0.030922
-0.722891 -0.003792
-0.722892 0.000461
-0.722892 -0.000146
-0.722892 0.000064
-0.722892 -0.000024
-0.722892 0.000009
-0.722892 -0.000011
-0.722892 0.000033
-0.722892 -0.000119
-0.722892 0.000446
-0.722892 -0.001709
-0.722892 0.006687
-0.722892 -0.025997
-0.722892 0.096407
-0.722881 -0.325748
-0.722963 0.992672
-0.722652 -2.959169
-0.722723 11.564731
-0.689902 54.852931
-0.622922 68.127775
-0.561046 58.816176
-0.502918 56.259536
-0.449208 51.323941
-0.399963 47.000354
-0.355147 42.574682
-0.314674 38.311567
-0.278394 34.207965
-0.246121 30.310502
-0.217638 26.636342
-0.192718 23.192954
-0.171131 19.974207
-0.152657 16.973236
-0.137084 14.171036
-0.124215 11.582303
-0.113868 9.077807
-0.106178 6.163378
-0.101528 3.250876
-0.099852 -0.209081
-0.103148 -7.269063
-0.114983 -16.061961
-0.134978 -23.876505
-0.162617 -31.190824
-0.197128 -37.622573
-0.237651 -43.195866
-0.283322 -47.917536
-0.333316 -51.840278
-0.386896 -55.135029
-0.443426 -57.619797
-0.502345 -60.386425
-0.563382 -60.344045
-0.624362 -63.922643
-0.685117 -48.805005
-0.716145 -15.930929
-0.723030 -1.094782
-0.722786 0.408124
-0.722916 -0.197559
-0.722889 0.073298
-0.722892 -0.021883
-0.722892 0.005697
-0.722892 -0.001405
-0.722892 0.000348
-0.722892 -0.000090
-0.722892 0.000024
-0.722892 -0.000007
-0.722892 0.000002
-0.722892 -0.000000
-0.722892 0.000000
-0.722892 -0.000000
-0.722892 0.000000
-0.722892 -0.000000
-0.722892 0.000000
-0.722892 -0.000000
-0.722892 0.000000
-0.722892 -0.000000
-0.722892 0.000000
-0.722892 -0.000000
-0.722892 0.000000
-0.722892 -0.000000
-0.722892 0.000000
-0.722892 -0.000000
-0.722892 0.000000
-0.722892 -0.000000
-0.722892 0.000000
-0.722892 -0.000000
-0.722892 0.000000
-0.722892 -0.000000
-0.722892 0.000000
-0.722892 -0.000000
-0.722892 0.000000
-0.722892 -0.000000
-0.722892 0.000000
-0.722892 -0.000000
-0.722892 0.000000
-0.722892 -0.000000
-0.722892 0.000000
-0.722892 -0.000000
-0.722892 0.000000
-0.722892 -0.000000
-0.722892 0.000000
-0.722892 -0.000000
-0.722892 0.000000
-0.722892 -0.000000
-0.722892 0.000000
-0.722892 -0.000000
-0.722892 0.000000
-0.722892 -0.000000
-0.722892 0.000000
-0.722892 -0.000000
-0.722892 0.000000
-0.722892 -0.000000
-0.722892 0.000000
-0.722892 -0.000000
-0.722892 0.000000
-0.722892 -0.000000
-0.722892 0.000000
-0.722892 -0.000000
-0.722892 0.000000
-0.722892 -0.000000
-0.722892 0.000000
-0.722892 -0.000000
-0.722892 0.000000
-0.722892 -0.000000
-0.722892 0.000000
-0.722892 -0.000000
-0.722892 0.000000
-0.722892 -0.000000
-0.722892 0.000000
-0.722892 -0.000000
-0.722892 0.000000
-0.722892 -0.000000
-0.722892 0.000000
-0.722892 -0.000000
-0.722892 0.000000
-0.722892 -0.000000
-0.722892 0.000000
-0.722892 -0.000000
-0.722892 0.000000
-0.722892 -0.000000
-0.722892 0.000000
-0.722892 -0.000000
-0.722892 0.000000
-0.722892 -0.000000
-0.722892 0.000000
-0.722892 -0.000000
-0.722892 0.000000
-0.722892 -0.000000
-0.722892 0.000000
-0.722892 -0.000000
-0.722892 0.000000
-0.722892 -0.000000
-0.722892 0.000000
-0.722892 -0.000000
-0.722892 0.000000
-0.722892 -0.000000
-0.722892 0.000000
-0.722892 -0.000000
-0.722892 0.000000
-0.722892 -0.000000
-0.722892 0.000000
-0.722892 -0.000000
-0.722892 0.000000
-0.722892 -0.000000
-0.722892 0.000000
-0.722892 -0.000000
-0.722892 0.000000
-0.722892 -0.000000
-0.722892 0.000000
-0.722892 -0.000000
-0.722892 0.000000
-0.722892 -0.000000
-0.722892 0.000000
-0.722892 -0.000000
-0.722892 0.000000
-0.722892 -0.000000
-0.722892 0.000000
-0.722892 -0.000000
-0.722892 0.000000
-0.722892 -0.000000
-0.722892 0.000000
-0.722892 -0.000000
-0.722892 0.000000
-0.722892 -0.000000
-0.722892 0.000000
-0.722892 -0.000000
-0.722892 0.000000
-0.722892 -0.000000
-0.722892 0.000000
-0.722892 -0.000000
-0.722892 0.000000
-0.722892 -0.000000
-0.722892 0.000000
-0.722892 -0.000000
-0.722892 0.000000
-0.722892 -0.000000
-0.722892 0.000000
-0.722892 -0.000000
-0.722892 0.000000
-0.722892 -0.000000
-0.722892 0.000000
-0.722892 -0.000000
-0.722892 0.000000
-0.722892 -0.000000
-0.722892 0.000000
-0.722892 -0.000000
-0.722892 0.000000
-0.722892 -0.000000
-0.722892 0.000000
-0.722892 -0.000000
-0.722892 0.000000
-0.722892 -0.000000
-0.722892 0.000000
-0.722892 -0.000000
-0.722892 0.000000
-0.722892 -0.000000
-0.722892 0.000000
-0.722892 -0.000000
-0.722892 0.000000
-0.722892 -0.000000
-0.722892 0.000000
-0.722892 -0.000000
-0.722892 0.000000
-0.722892 -0.000000
-0.722892 0.000000
-0.722892 -0.000000
-0.722892 0.000000
-0.722892 -0.000000
-0.722892 0.000000
-0.722892 -0.000000
-0.722892 0.000000
-0.722892 -0.000000
-0.722892 0.000000
-0.722892 -0.000000
-0.722892 0.000000
-0.722892 -0.000000
-0.722892 0.000000
-0.722892 -0.000000
-0.722892 0.000000
-0.722892 -0.000000
-0.722892 0.000000
-0.722892 -0.000000
-0.722892 0.000000
-0.722892 -0.000000
-0.722892 0.000000
-0.722892 -0.000000
-0.722892 0.000000
-0.722892 -0.000000
-0.722892 0.000000
-0.722892 -0.000000
-0.722892 0.000000
-0.722892 -0.000000
-0.722892 0.000000
-0.722892 -0.000000
-0.722892 0.000000
-0.722892 -0.000000
-0.722892 0.000000
-0.722892 -0.000000
-0.722892 0.000000
-0.722892 -0.000000
-0.722892 0.000000
-0.722892 -0.000000
-0.722892 0.000000
-0.722892 -0.000000
-0.722892 0.000000
-0.722892 -0.000000
-0.722892 0.000000
-0.722892 -0.000000
-0.722892 0.000000
-0.722892 -0.000000
-0.722892 0.000000
-0.722892 -0.000000
-0.722892 0.000000
-0.722892 -0.000000
-0.722892 0.000000
-0.722892 -0.000000
-0.722892 0.000000
-0.722892 -0.000000
-0.722892 0.000000
-0.722892 -0.000000
-0.722892 0.000000
-0.722892 -0.000000
-0.722892 0.000000
-0.722892 -0.000000
-0.722892 0.000000
-0.722892 -0.000000
-0.722892 0.000000
-0.722892 -0.000000
-0.722892 0.000000
-0.722892 0.000000
-0.722892 -0.000000
-0.722892 0.000000
-0.722892 -0.000000
-0.722892 0.000000
-0.722892 -0.000000
-0.722892 0.000000
-0.722892 -0.000000
-0.722892 0.000000
-0.722892 -0.000000
-0.722892 0.000000
-0.722892 -0.000000
-0.722892 0.000000
-0.722892 -0.000000
-0.722892 0.000000
-0.722892 -0.000000
-0.722892 0.000000
-0.722892 -0.000000
-0.722892 0.000000
-0.722892 -0.000000
-0.722892 0.000000
-0.722892 -0.000000
-0.722892 0.000000
-0.722892 -0.000000
-0.722892 0.000000
-0.722892 -0.000000
-0.722892 0.000000
-0.722892 -0.000000
-0.722892 0.000000
-0.722892 -0.000000
-0.722892 0.000000
-0.722892 -0.000000
-0.722892 0.000000
-0.722892 -0.000000
-0.722892 0.000000
-0.722892 -0.000000
-0.722892 0.000000
-0.722892 -0.000000
-0.722892 0.000000
-0.722892 -0.000000
-0.722892 0.000000
-0.722892 -0.000000
-0.722892 0.000000
-0.722892 -0.000000
-0.722892 0.000000
-0.722892 -0.000000
-0.722892 0.000000
-0.722892 -0.000000
-0.722892 0.000000
-0.722892 -0.000000
-0.722892 0.000000
-0.722892 -0.000000
-0.722892 0.000000
-0.722892 -0.000000
-0.722892 0.000000
-0.722892 -0.000000
-0.722892 0.000000
-0.722892 -0.000000
-0.722892 0.000000
-0.722892 -0.000000
-0.722892 0.000000
-0.722892 -0.000000
-0.722892 0.000000
-0.722892 -0.000000
-0.722892 0.000000
-0.722892 -0.000000
-0.722892 0.000000
-0.722892 -0.000000
-0.722892 0.000000
-0.722892 -0.000000
-0.722892 0.000000
-0.722892 -0.000000
-0.722892 0.000000
-0.722892 -0.000000
-0.722892 0.000000
-0.722892 -0.000000
-0.722892 0.000000
-0.722892 -0.000000
-0.722892 0.000000
-0.722892 -0.000000
-0.722892 0.000000
-0.722892 -0.000000
-0.722892 0.000000
-0.722892 -0.000000
-0.722892 0.000000
-0.722892 -0.000000
-0.722892 0.000000
-0.722892 -0.000000
-0.722892 0.000000
-0.722892 -0.000000
-0.722892 0.000000
-0.722892 -0.000000
-0.722892 0.000000
-0.722892 -0.000000
-0.722892 0.000000
-0.722892 -0.000000
-0.722892 0.000000
-0.722892 -0.000000
-0.722892 0.000000
-0.722892 -0.000000
-0.722892 0.000000
-0.722892 -0.000000
-0.722892 0.000000
-0.722892 -0.000000
-0.722892 0.000000
-0.722892 -0.000000
-0.722892 0.000000
-0.722892 -0.000000
-0.722892 0.000000
-0.722892 -0.000000
-0.722892 0.000000
-0.722892 -0.000000
-0.722892 0.000000
-0.722892 -0.000000
-0.722892 0.000000
-0.722892 -0.000000
-0.722892 0.000000
-0.722892 -0.000000
-0.722892 0.000000
-0.722892 -0.000000
-0.722892 0.000000
-0.722892 -0.000000
-0.722892 0.000000
-0.722892 -0.000000
-0.722892 0.000000
-0.722892 -0.000000
-0.722892 0.000000
-0.722892 -0.000000
-0.722892 0.000000
-0.722892 -0.000000
-0.722892 0.000000
-0.722892 -0.000000
-0.722892 0.000000
-0.722892 -0.000000
-0.722892 0.000000
-0.722892 -0.000000
-0.722892 0.000000
-0.722892 -0.000000
-0.722892 0.000000
-0.722892 -0.000000
-0.722892 0.000000
-0.722892 -0.000000
-0.722892 0.000000
-0.722892 -0.000000
-0.722892 0.000000
-0.722892 -0.000000
-0.722892 0.000000
-0.722892 -0.000000
-0.722892 0.000000
-0.722892 -0.000000
-0.722892 0.000000
-0.722892 -0.000000
-0.722892 0.000000
-0.722892 -0.000000
-0.722892 0.000000
-0.722892 -0.000000
-0.722892 0.000000
-0.722892 -0.000000
-0.722892 0.000000
-0.722892 -0.000000
-0.722892 0.000000
-0.722892 -0.000000
-0.722892 0.000000
-0.722892 -0.000000
-0.722892 0.000000
-0.722892 -0.000000
-0.722892 0.000000
-0.722892 -0.000000
-0.722892 0.000000
-0.722892 -0.000000
-0.722892 0.000000
-0.722892 -0.000000
-0.722892 0.000000
-0.722892 -0.000000
-0.722892 0.000000
-0.722892 -0.000000
-0.722892 0.000000
-0.722892 -0.000000
-0.722892 0.000000
-0.722892 -0.000000
-0.722892 0.000000
-0.722892 -0.000000
-0.722892 0.000000
-0.722892 -0.000000
-0.722892 0.000000
-0.722892 -0.000000
-0.722892 0.000000
-0.722892 -0.000000
-0.722892 0.000000
-0.722892 -0.000000
-0.722892 0.000000
-0.722892 -0.000000
-0.722892 0.000000
-0.722892 -0.000000
-0.722892 0.000000
-0.722892 -0.000000
-0.722892 0.000000
-0.722892 -0.000000
-0.722892 0.000000
-0.722892 -0.000000
-0.722892 0.000000
-0.722892 -0.000000
-0.722892 0.000000
-0.722892 -0.000000
-0.722892 0.000000
-0.722892 -0.000000
-0.722892 0.000000
-0.722892 -0.000000
-0.722892 0.000000
-0.722892 -0.000000
-0.722892 0.000000
-0.722892 -0.000000
-0.722892 0.000000
-0.722892 -0.000000
-0.722892 0.000000
-0.722892 -0.000000
-0.722892 0.000000
-0.722892 -0.000000
-0.722892 0.000000
-0.722892 -0.000000
-0.722892 0.000000
-0.722892 -0.000001
-0.722892 0.000002
-0.722892 -0.000008
-0.722892 0.000030
-0.722892 -0.000111
-0.722892 0.000428
-0.722892 -0.001737
-0.722892 0.007140
-0.722892 -0.028110
-0.722894 0.098212
-0.722863 -0.278203
-0.723044 0.565006
-0.721425 2.329547
-0.718604 3.423541
-0.714401 5.026336
-0.700048 32.083113
-0.642572 81.912833
-0.544882 105.299593
-0.439056 106.825627
-0.330492 109.924662
-0.219072 112.770120
-0.104645 115.858135
0.012906 119.034613
0.133714 122.362796
0.257845 125.596451
0.385091 128.629966
0.515409 131.802476
0.649073 135.315058
0.786383 139.044887
0.927347 142.492551
1.071477 145.411615
1.218242 147.670916
1.365827 146.073112
1.506949 133.291428
1.629778 111.822368
1.731297 91.791622
1.815568 77.824578
1.888667 68.547074
1.954096 63.155274
2.016974 63.369319
2.082397 67.885472
2.153856 75.322366
2.234040 85.299906
2.325022 96.464911
2.426901 106.842498
2.537845 113.994130
2.653577 116.531092
2.769988 115.615341
2.884245 112.318567
2.993950 106.322818
3.096594 98.799780
3.192080 92.274244
3.281478 86.200707
3.364168 78.670952
3.438395 69.396743
3.503206 60.440052
3.559916 53.040681
3.609567 46.159370
3.652325 39.272573
3.688214 32.455128
3.717393 25.914346
3.740264 19.882974
3.757417 14.505877
3.769522 9.779870
3.777205 5.680266
3.781071 2.111454
3.781192 -2.176971
3.775977 -8.670581
3.763363 -16.573844
3.742775 -24.541531
3.714313 -32.264204
3.678309 -39.605201
3.635160 -46.535415
3.585291 -53.028824
3.529139 -59.094248
3.467120 -64.752707
3.399636 -70.015316
3.327071 -74.913255
3.249773 -79.472646
3.168070 -83.722580
3.082252 -87.698163
2.992579 -91.431666
2.899278 -94.948358
2.802556 -98.273016
2.702595 -101.418428
2.599577 -104.381124
2.493686 -107.156050
2.385112 -109.745838
2.274039 -112.142653
2.160667 -114.344144
2.045188 -116.347113
1.927809 -118.144568
1.808731 -119.735898
1.688169 -121.113284
1.566336 -122.268166
1.443463 -123.196113
1.319776 -123.889461
1.195519 -124.334731
1.070941 -124.528723
0.946301 -124.458633
0.821866 -124.115607
0.697915 -123.491132
0.574733 -122.576082
0.452617 -121.362967
0.331866 -119.844617
0.212790 -118.018637
0.095701 -115.869134
-0.019085 -113.434824
-0.131255 -110.579429
-0.240467 -107.727915
-0.346437 -103.406626
-0.447342 -98.651643
-0.543648 -93.030634
-0.629971 -76.563309
-0.690820 -41.790255
-0.715624 -12.978570
-0.722857 -2.309841
-0.722836 0.604485
-0.722891 -0.208635
-0.722894 0.054930
-0.722891 -0.012864
-0.722892 0.002961
-0.722892 -0.000731
-0.722892 0.000198
-0.722892 -0.000055
-0.722892 0.000015
-0.722892 -0.000004
-0.722892 0.000001
-0.722892 0.000001
-0.722892 -0.000003
-0.722892 0.000004
-0.722892 -0.000031
-0.722892 0.000471
-0.722892 -0.003928
-0.722889 0.021982
-0.722892 -0.081306
-0.722958 0.098394
-0.722128 1.976536
-0.719092 3.580151
-0.711558 15.381060
-0.678634 56.148229
-0.603169 84.868003
-0.518621 83.939846
-0.435304 82.462998
-0.353567 80.874991
-0.273374 79.341131
-0.194728 77.800167
-0.117606 76.295540
-0.041970 74.834921
0.032233 73.432596
0.105065 72.097552
0.176597 70.837038
0.246907 69.654349
0.316074 68.558252
0.384157 67.451962
0.451081 66.247149
0.516568 64.395111
0.579143 59.976032
0.635661 52.623534
0.684299 44.681258
0.725422 37.665074
0.760063 31.724027
0.789259 26.758010
0.813901 22.597305
0.834716 19.085342
0.852282 16.088395
0.867061 13.499343
0.879415 11.232698
0.889635 9.223579
0.897951 7.423042
0.904552 5.793186
0.909597 4.308360
0.913211 2.922498
0.915468 1.598454
0.916384 0.195146
0.915623 -1.915170
0.912292 -4.799439
0.906003 -7.717769
0.896927 -10.377921
0.885306 -12.800586
0.871379 -14.986237
0.855379 -16.944532
0.837530 -18.683828
0.818045 -20.211908
0.797134 -21.532935
0.775004 -22.650247
0.751856 -23.565730
0.727892 -24.280679
0.703312 -24.796446
0.678315 -25.114509
0.653098 -25.237739
0.627854 -25.167903
0.602777 -24.904275
0.578062 -24.442491
0.553910 -23.780291
0.530518 -22.923048
0.508079 -21.882859
0.486764 -20.676370
0.466733 -19.325131
0.448116 -17.853914
0.431021 -16.288290
0.415529 -14.655555
0.401694 -12.981276
0.389546 -11.290486
0.379088 -9.606663
0.370304 -7.949833
0.363158 -6.337077
0.357598 -4.781534
0.353560 -3.300321
0.350960 -1.912233
0.349678 -0.687151
0.349454 0.148672
0.349857 0.629066
0.350692 1.045362
0.351957 1.485216
0.353672 1.942745
0.355853 2.417569
0.358516 2.906400
0.361675 3.405697
0.365336 3.910850
0.369505 4.417348
0.374179 4.919868
0.379351 5.413630
0.385012 5.892721
0.391142 6.351059
0.397718 6.784651
0.404715 7.188199
0.412098 7.557632
0.419833 7.891444
0.427885 8.190108
0.436219 8.456301
0.444804 8.692763
0.453613 8.902605
0.462620 9.090276
0.471805 9.258605
0.481151 9.411463
0.490643 9.551956
0.500271 9.683614
0.510028 9.809780
0.519909 9.932314
0.529912 10.054314
0.540038 10.177906
0.550289 10.304556
0.560669 10.435901
0.571184 10.573173
0.581839 10.717034
0.592642 10.868741
0.603601 11.028772
0.614724 11.196775
0.626020 11.372747
0.637495 11.556674
0.649158 11.747366
0.661015 11.943913
0.673072 12.145556
0.685332 12.350767
0.697798 12.557189
0.710471 12.763549
0.723351 12.968647
0.736433 13.169241
0.749714 13.363773
0.763185 13.550049
0.776837 13.725376
0.790659 13.888108
0.804636 14.035535
0.818752 14.165509
0.832989 14.275811
0.847325 14.364094
0.861738 14.428405
0.876202 14.466888
0.890691 14.477744
0.905177 14.459129
0.919628 14.409275
0.934014 14.328248
0.948302 14.213831
0.962459 14.066569
0.976452 13.885515
0.990219 13.587916
1.003437 12.637638
1.015080 10.371868
1.023636 6.411458
1.027047 -0.153373
1.021966 -10.804904
1.004131 -25.306935
0.970799 -41.313237
0.921658 -56.611052
0.858169 -69.796059
0.782925 -79.988480
0.699176 -86.751764
0.610405 -90.046679
0.519971 -90.140294
0.430860 -87.487246
0.345559 -82.622389
0.266007 -76.089015
0.193614 -68.399752
0.129302 -60.016168
0.073561 -51.335440
0.026518 -42.685022
-0.011991 -34.322890
-0.042352 -26.427161
-0.065095 -19.121764
-0.080838 -12.427874
-0.090249 -6.552751
-0.094397 -1.997467
-0.094751 1.049844
-0.092596 3.194786
-0.088407 5.183103
-0.082191 7.254996
-0.073862 9.389559
-0.063406 11.488048
-0.050909 13.447837
-0.036563 15.167912
-0.020647 16.574532
-0.003495 17.637256
0.014553 18.372485
0.033197 18.839716
0.052210 19.126034
0.071459 19.327352
0.090907 19.538635
0.110606 19.840823
0.130681 20.302155
0.151322 20.978981
0.172765 21.907524
0.195268 23.094584
0.219075 24.504268
0.244374 26.059077
0.271255 27.642458
0.299676 29.112441
0.329453 30.327076
0.360266 31.168535
0.391702 31.560786
0.423293 31.480212
0.454576 30.952013
0.485129 30.032691
0.514596 28.797093
0.542702 27.324223
0.569245 25.686982
0.594093 23.948646
0.617173 22.160429
0.638455 20.362680
0.657946 18.586308
0.675680 16.853355
0.691707 15.181406
0.706097 13.583356
0.718929 12.069157
0.730290 10.645650
0.740274 9.319754
0.748982 8.094778
0.756514 6.972029
0.762974 5.952527
0.768464 5.032684
0.773082 4.209642
0.776923 3.478140
0.780074 2.832299
0.782619 2.264835
0.784632 1.769055
0.786182 1.338473
0.787331 0.965715
0.788133 0.645281
0.788634 0.357845
0.788841 0.045607
0.788702 -0.337466
0.788152 -0.763222
0.787181 -1.166268
0.785839 -1.503054
0.784196 -1.769630
0.782315 -1.978506
0.780250 -2.141598
0.778040 -2.269308
0.775716 -2.369323
0.773303 -2.448581
0.770820 -2.510673
0.768281 -2.559099
0.765700 -2.595498
0.763089 -2.619393
0.760460 -2.631257
0.757826 -2.630145
0.755200 -2.614055
0.752598 -2.580900
0.750039 -2.528841
0.747543 -2.455284
0.745131 -2.359297
0.742827 -2.240695
0.740652 -2.100178
0.738629 -1.939664
0.736775 -1.761178
0.735108 -1.567203
0.733642 -1.360865
0.732387 -1.145247
0.731351 -0.923824
0.730538 -0.699482
0.729951 -0.475140
0.729584 -0.259920
0.729417 -0.085116
0.729396 0.035777
0.729477 0.121375
0.729634 0.191648
0.729860 0.259749
0.730153 0.326269
0.730512 0.391636
0.730936 0.453966
0.731420 0.513231
0.731962 0.569085
0.732558 0.620862
0.733204 0.668598
0.733895 0.711623
0.734627 0.750536
0.735396 0.785008
0.736197 0.815042
0.737027 0.840923
0.737880 0.863269
0.738754 0.881958
0.739645 0.897715
0.740550 0.911465
0.741468 0.922792
0.742397 0.932545
0.743335 0.940776
0.744280 0.947940
0.745232 0.953897
0.746189 0.958617
0.747151 0.962547
0.748116 0.965341
0.749083 0.966752
0.750051 0.967171
0.751019 0.966323
0.751985 0.964075
0.752949 0.960637
0.753908 0.955476
0.754861 0.949275
0.755808 0.941441
0.756746 0.932359
0.757674 0.922486
0.758592 0.910844
0.759497 0.898167
0.760390 0.885110
0.761269 0.870984
0.762133 0.856153
0.762983 0.841162
0.763817 0.825890
0.764636 0.810532
0.765440 0.794890
0.766228 0.779832
0.767001 0.765076
0.767760 0.750472
0.768504 0.736360
0.769234 0.722890
0.769951 0.710015
0.770656 0.697400
0.771348 0.685899
0.772029 0.674320
0.772698 0.663223
0.773357 0.652928
0.774005 0.643173
0.774644 0.633476
0.775274 0.623859
0.775894 0.614959
0.776505 0.606071
0.777107 0.597602
0.777701 0.589222
0.778287 0.580945
0.778864 0.573010
0.779434 0.565503
0.779996 0.555433
0.780550 0.557175
0.781096 0.513902
0.781636 0.642651
0.782185 0.180162
0.782581 1.468149
0.783628 -1.730345
0.756724 -27.149487
