-0.153598 0.103497 0.000007
-0.744676 9.289671
-0.733937 12.068961
-0.720707 14.269792
-0.705525 16.003943
-0.688761 17.454262
-0.670630 18.759387
-0.651215 20.035554
-0.630500 21.366234
-0.608403 22.807032
-0.584794 24.387336
-0.559529 26.117113
-0.532458 27.995201
-0.503440 30.002302
-0.472358 32.117230
-0.439114 34.312097
-0.403650 36.551569
-0.365936 38.798217
-0.325989 41.004046
-0.283871 43.134453
-0.239667 45.167590
-0.193483 47.086873
-0.145440 48.880470
-0.095673 50.527690
-0.044342 52.000522
0.008367 53.279020
0.062252 54.346087
0.117089 55.175161
0.172622 55.732669
0.228562 55.980428
0.284582 55.888860
0.340330 55.432657
0.395434 54.604354
0.449521 53.395104
0.502208 51.815320
0.553124 49.841734
0.601834 47.399437
0.647897 44.594370
0.691052 41.609668
0.731174 38.549286
0.768230 35.495646
0.802254 32.494556
0.833309 29.564982
0.861468 26.710139
0.886805 23.923042
0.909382 21.194042
0.929251 18.510606
0.946450 15.858181
0.961006 13.229058
0.972943 10.625405
0.982288 8.051005
0.989073 5.509692
0.993331 3.006384
0.995106 0.547513
0.994445 -1.859051
0.991406 -4.200079
0.986065 -6.454971
0.978518 -8.606893
0.968871 -10.648704
0.957237 -12.577041
0.943730 -14.390957
0.928464 -16.091159
0.911552 -17.681797
0.893099 -19.170757
0.873202 -20.569501
0.851945 -21.889102
0.829404 -23.136547
0.805649 -24.315118
0.780748 -25.425071
0.754771 -26.466132
0.727786 -27.437330
0.699865 -28.337256
0.671079 -29.165545
0.641499 -29.922794
0.611197 -30.608831
0.580244 -31.222911
0.548711 -31.769526
0.516663 -32.252218
0.484164 -32.670404
0.451268 -33.054377
0.418022 -33.338465
0.384442 -33.868687
0.350180 -34.509249
0.315581 -34.472657
0.281358 -33.860487
0.247890 -32.953517
0.215475 -31.777038
0.184343 -30.390311
0.154701 -28.800294
0.126744 -27.030333
0.100637 -25.107551
0.076532 -23.024924
0.054590 -20.797016
0.034923 -18.490568
0.017582 -16.153020
0.002578 -13.835400
-0.010141 -11.591116
-0.020661 -9.446399
-0.029092 -7.420218
-0.035560 -5.524453
-0.040197 -3.762802
-0.043139 -2.139357
-0.044526 -0.653601
-0.044491 0.701300
-0.043159 1.944365
-0.040636 3.073360
-0.037057 4.050518
-0.032583 4.861930
-0.027380 5.502913
-0.021624 5.968173
-0.015488 6.264516
-0.009139 6.391831
-0.002748 6.350401
0.003521 6.147741
0.009506 5.785162
0.015050 5.264952
0.019996 4.591827
0.024193 3.769306
0.027493 2.800736
0.029754 1.693440
0.030841 0.457254
0.030635 -0.882055
0.029055 -2.279182
0.026063 -3.701573
0.021646 -5.121108
0.015822 -6.507229
0.008636 -7.839239
0.000151 -9.102387
-0.009560 -10.284208
-0.020408 -11.376399
-0.032302 -12.369911
-0.045136 -13.253320
-0.058796 -14.017571
-0.073157 -14.654220
-0.088090 -15.160727
-0.103463 -15.531824
-0.119139 -15.767314
-0.134987 -15.874110
-0.150879 -15.860625
-0.166705 -15.742262
-0.182364 -15.529083
-0.197766 -15.231892
-0.212832 -14.856896
-0.227486 -14.411901
-0.241666 -13.912168
-0.255322 -13.364649
-0.268408 -12.774442
-0.280885 -12.147553
-0.292719 -11.495021
-0.303892 -10.826598
-0.314391 -10.149032
-0.324211 -9.473479
-0.333359 -8.803109
-0.341839 -8.145494
-0.349672 -7.505703
-0.356871 -6.882311
-0.363459 -6.284410
-0.369461 -5.710618
-0.374899 -5.158882
-0.379798 -4.635431
-0.384187 -4.137102
-0.388090 -3.666010
-0.391535 -3.220118
-0.394545 -2.799173
-0.397148 -2.403935
-0.399366 -2.033047
-0.401226 -1.685740
-0.402748 -1.360486
-0.403957 -1.059468
-0.404875 -0.777390
-0.405521 -0.515966
-0.405915 -0.274460
-0.406076 -0.049176
-0.406019 0.160447
-0.405764 0.341177
-0.405349 0.480938
-0.404812 0.587784
-0.404180 0.670706
-0.403478 0.727408
-0.402732 0.761025
-0.401961 0.774476
-0.401189 0.764360
-0.400438 0.733406
-0.399729 0.679745
-0.399084 0.604133
-0.398527 0.504324
-0.398083 0.380795
-0.397770 0.242480
-0.397601 0.091513
-0.397589 -0.067813
-0.397737 -0.225118
-0.398034 -0.365698
-0.398462 -0.487483
-0.399001 -0.580296
-0.399614 -0.642015
-0.400280 -0.685162
-0.400980 -0.711853
-0.401703 -0.732179
-0.402446 -0.752685
-0.403210 -0.774268
-0.403996 -0.797313
-0.404807 -0.821263
-0.405641 -0.845169
-0.406499 -0.870267
-0.407384 -0.898656
-0.408300 -0.931318
-0.409251 -0.971809
-0.410249 -1.023199
-0.411302 -1.082815
-0.412419 -1.149140
-0.413606 -1.224383
-0.414872 -1.306291
-0.416222 -1.392379
-0.417661 -1.482799
-0.419192 -1.577457
-0.420820 -1.672859
-0.422542 -1.770311
-0.424364 -1.868569
-0.426281 -1.962225
-0.428291 -2.050615
-0.430385 -2.133993
-0.432559 -2.207333
-0.434801 -2.269648
-0.437101 -2.325242
-0.439451 -2.367842
-0.441837 -2.397130
-0.444246 -2.413667
-0.446665 -2.417656
-0.449082 -2.407417
-0.451480 -2.382703
-0.453847 -2.344506
-0.456170 -2.294229
-0.458436 -2.232191
-0.460636 -2.163271
-0.462765 -2.087835
-0.464814 -2.005796
-0.466779 -1.919731
-0.468656 -1.831342
-0.470447 -1.746671
-0.472154 -1.665502
-0.473783 -1.590530
-0.475340 -1.521236
-0.476831 -1.459162
-0.478265 -1.405700
-0.479648 -1.359210
-0.480988 -1.320829
-0.482295 -1.290436
-0.483574 -1.266595
-0.484833 -1.250396
-0.486080 -1.242455
-0.487322 -1.240646
-0.488566 -1.245473
-0.489819 -1.258194
-0.491086 -1.274774
-0.492373 -1.297170
-0.493685 -1.324415
-0.495026 -1.355938
-0.496401 -1.391067
-0.497811 -1.429358
-0.499263 -1.470077
-0.500755 -1.513427
-0.502294 -1.560553
-0.503880 -1.608156
-0.505514 -1.657872
-0.507200 -1.710169
-0.508938 -1.762774
-0.510730 -1.818604
-0.512579 -1.873789
-0.514481 -1.929292
-0.516442 -1.987148
-0.518460 -2.045457
-0.520537 -2.104234
-0.522673 -2.163330
-0.524868 -2.222939
-0.527123 -2.282513
-0.529439 -2.344210
-0.531816 -2.404445
-0.534253 -2.466313
-0.536753 -2.528302
-0.539315 -2.590861
-0.541939 -2.651509
-0.544624 -2.713816
-0.547373 -2.776324
-0.550181 -2.837462
-0.553053 -2.899171
-0.555985 -2.959182
-0.558978 -3.021103
-0.562033 -3.081350
-0.565147 -3.140748
-0.568321 -3.200134
-0.571553 -3.259075
-0.574845 -3.317650
-0.578195 -3.375117
-0.581602 -3.431943
-0.585066 -3.488388
-0.588585 -3.543844
-0.592160 -3.598939
-0.595790 -3.652814
-0.599473 -3.705726
-0.603208 -3.756721
-0.606993 -3.806051
-0.610828 -3.856837
-0.614714 -3.905272
-0.618646 -3.951315
-0.622625 -3.999016
-0.626651 -4.044054
-0.630721 -4.087751
-0.634837 -4.136946
-0.638999 -4.175875
-0.642968 -3.530055
-0.645712 -1.821875
-0.646566 0.035039
-0.645836 1.310939
-0.644156 1.943667
-0.642148 1.965800
-0.640398 1.456766
-0.639364 0.552719
-0.639353 -0.536668
-0.640395 -1.497945
-0.642283 -2.251113
-0.644861 -2.881090
-0.648016 -3.408823
-0.651657 -3.850263
-0.655699 -4.213584
-0.660070 -4.509314
-0.664707 -4.746858
-0.669556 -4.932450
-0.674566 -5.072677
-0.679700 -5.179299
-0.684927 -5.259508
-0.690224 -5.323239
-0.695579 -5.374129
-0.700976 -5.403441
-0.706393 -5.419963
-0.711825 -5.431630
-0.717266 -5.439990
-0.722716 -5.447624
-0.728172 -5.456071
-0.733639 -5.465124
-0.739113 -5.473102
-0.744597 -5.483830
-0.750092 -5.494006
-0.755595 -5.502290
-0.761108 -5.511678
-0.766630 -5.520954
-0.772159 -5.525795
-0.777693 -5.532088
-0.783234 -5.536131
-0.788775 -5.537108
-0.794319 -5.539711
-0.799865 -5.539070
-0.805408 -5.537226
-0.810950 -5.536053
-0.816491 -5.533709
-0.822028 -5.529321
-0.827561 -5.525816
-0.833091 -5.522791
-0.838617 -5.519180
-0.844140 -5.515194
-0.849659 -5.510623
-0.855172 -5.504614
-0.860679 -5.499428
-0.866181 -5.492726
-0.871675 -5.484404
-0.877161 -5.475821
-0.882637 -5.466240
-0.888104 -5.453884
-0.893556 -5.441398
-0.898997 -5.426705
-0.904420 -5.411806
-0.909831 -5.396143
-0.915222 -5.377053
-0.920596 -5.358858
-0.925950 -5.339549
-0.931285 -5.318492
-0.936598 -5.296459
-0.941888 -5.273851
-0.947156 -5.250524
-0.952400 -5.227956
-0.957622 -5.204406
-0.962819 -5.179135
-0.967991 -5.154610
-0.973139 -5.130992
-0.978262 -5.104582
-0.983358 -5.078267
-0.988429 -5.052537
-0.993473 -5.026908
-0.998492 -4.999003
-1.003481 -4.970562
-1.008444 -4.944640
-1.013380 -4.916480
-1.018287 -4.888247
-1.023166 -4.860018
-1.028016 -4.830139
-1.032836 -4.801377
-1.037628 -4.771759
-1.042389 -4.741827
-1.047121 -4.711303
-1.051821 -4.680988
-1.056492 -4.649278
-1.061129 -4.617057
-1.065736 -4.587048
-1.070311 -4.551711
-1.074849 -4.519555
-1.079359 -4.486710
-1.083831 -4.452164
-1.088272 -4.419555
-1.092678 -4.382329
-1.097047 -4.348514
-1.101383 -4.313350
-1.105682 -4.276325
-1.109944 -4.239964
-1.114170 -4.204290
-1.118361 -4.167118
-1.122513 -4.128802
-1.126627 -4.092166
-1.130704 -4.053021
-1.134742 -4.015462
-1.138743 -3.977106
-1.142704 -3.937431
-1.146626 -3.898782
-1.150508 -3.858019
-1.154350 -3.818079
-1.158152 -3.777636
-1.161912 -3.735668
-1.165631 -3.693384
-1.169307 -3.652144
-1.172942 -3.608408
-1.176531 -3.564985
-1.180079 -3.522921
-1.183583 -3.477115
-1.187041 -3.433419
-1.190456 -3.388561
-1.193824 -3.342075
-1.197148 -3.298712
-1.200427 -3.252203
-1.203659 -3.204998
-1.206844 -3.159518
-1.209984 -3.113148
-1.213076 -3.065160
-1.216120 -3.016992
-1.219117 -2.970458
-1.222067 -2.923430
-1.224969 -2.874047
-1.227821 -2.826370
-1.230627 -2.777445
-1.233381 -2.727468
-1.236088 -2.679778
-1.238746 -2.631027
-1.241355 -2.581292
-1.243913 -2.530488
-1.246421 -2.480324
-1.248879 -2.431245
-1.251288 -2.380522
-1.253645 -2.329035
-1.255951 -2.279525
-1.258208 -2.228328
-1.260413 -2.177562
-1.262567 -2.124844
-1.264667 -2.073956
-1.266719 -2.023510
-1.268717 -1.970533
-1.270664 -1.918714
-1.272558 -1.866287
-1.274401 -1.815793
-1.276193 -1.761727
-1.277928 -1.708638
-1.279613 -1.656331
-1.281244 -1.603905
-1.282824 -1.550430
-1.284348 -1.496778
-1.285821 -1.443572
-1.287238 -1.389013
-1.288602 -1.336577
-1.289913 -1.281639
-1.291169 -1.227895
-1.292371 -1.174256
-1.293519 -1.119594
-1.294613 -1.064753
-1.295651 -1.010641
-1.296636 -0.956478
-1.297566 -0.901366
-1.298441 -0.846711
-1.299260 -0.790973
-1.300025 -0.736688
-1.300735 -0.681827
-1.301389 -0.625732
-1.301988 -0.570778
-1.302532 -0.515876
-1.303020 -0.459881
-1.303453 -0.404607
-1.303830 -0.348350
-1.304150 -0.292342
-1.304415 -0.236464
-1.304624 -0.180714
-1.304778 -0.126229
-1.304878 -0.075245
-1.304921 -0.001862
-1.304881 0.072437
-1.304739 0.257177
-1.304238 0.825133
-1.302887 1.992334
-1.300100 3.608941
-1.295575 5.485560
-1.288997 7.723841
-1.279980 10.356776
-1.268133 13.376690
-1.253074 16.775965
-1.234429 20.530906
-1.211867 24.598255
-1.185100 28.917011
-1.153915 33.415611
-1.118160 38.038546
-1.077739 42.729309
-1.032609 47.439670
-0.982771 52.131300
-0.928261 56.766513
-0.869154 61.311262
-0.805556 65.736350
-0.737597 70.021365
-0.665424 74.152855
-0.589196 78.124962
-0.509073 81.933047
-0.425221 85.573588
-0.337809 89.049051
-0.247001 92.355638
-0.152970 95.491474
-0.055884 98.456275
0.044081 101.243919
0.146747 103.852854
0.251933 106.279116
0.359455 108.517505
0.469127 110.579392
0.580775 112.460226
0.694228 114.208790
0.809335 115.700928
0.925957 117.478445
1.043983 117.623778
1.161331 117.441898
1.279064 117.145642
1.389389 97.466648
1.462958 44.118631
1.482389 4.779138
1.484070 0.039055
1.484011 -0.075289
1.483984 0.005049
1.483994 0.005317
1.483992 -0.002610
1.483992 0.000786
1.483992 -0.000190
1.483992 0.000042
1.483992 -0.000010
1.483992 0.000002
1.483992 -0.000001
1.483992 0.000000
1.483992 -0.000000
1.483992 0.000000
1.483992 -0.000000
1.483992 0.000000
1.483992 -0.000000
1.483992 0.000000
1.483992 -0.000000
1.483992 0.000000
1.483992 -0.000000
1.483992 0.000000
1.483992 -0.000000
1.483992 0.000000
1.483992 -0.000000
1.483992 0.000000
1.483992 -0.000000
1.483992 0.000000
1.483992 -0.000000
1.483992 0.000000
1.483992 -0.000000
1.483992 0.000000
1.483992 -0.000000
1.483992 0.000000
1.483992 -0.000000
1.483992 0.000000
1.483992 -0.000000
1.483992 0.000000
1.483992 -0.000000
1.483992 0.000000
1.483992 -0.000000
1.483992 0.000000
1.483992 -0.000000
1.483992 0.000000
1.483992 -0.000000
1.483992 0.000000
1.483992 -0.000000
1.483992 0.000000
1.483992 -0.000000
1.483992 0.000000
1.483992 -0.000000
1.483992 0.000000
1.483992 -0.000000
1.483992 0.000000
1.483992 -0.000000
1.483992 0.000000
1.483992 -0.000000
1.483992 0.000000
1.483992 -0.000000
1.483992 0.000000
1.483992 -0.000000
1.483992 0.000000
1.483992 -0.000000
1.483992 0.000000
1.483992 -0.000000
1.483992 0.000000
1.483992 -0.000000
1.483992 0.000000
1.483992 -0.000000
1.483992 0.000000
1.483992 -0.000000
1.483992 0.000000
1.483992 -0.000000
1.483992 0.000000
1.483992 -0.000000
1.483992 0.000000
1.483992 -0.000000
1.483992 0.000000
1.483992 -0.000000
1.483992 0.000000
1.483992 -0.000000
1.483992 0.000000
1.483992 -0.000000
1.483992 0.000000
1.483992 -0.000000
1.483992 0.000000
1.483992 -0.000000
1.483992 0.000000
1.483992 -0.000000
1.483992 0.000000
1.483992 -0.000000
1.483992 0.000000
1.483992 -0.000000
1.483992 0.000000
1.483992 -0.000000
1.483992 0.000000
1.483992 -0.000000
1.483992 0.000000
1.483992 -0.000000
1.483992 0.000000
1.483992 -0.000000
1.483992 0.000000
1.483992 -0.000000
1.483992 0.000000
1.483992 -0.000000
1.483992 0.000000
1.483992 -0.000000
1.483992 0.000000
1.483992 -0.000000
1.483992 0.000000
1.483992 -0.000000
1.483992 0.000000
1.483992 -0.000000
1.483992 0.000000
1.483992 -0.000000
1.483992 0.000000
1.483992 -0.000000
1.483992 0.000000
1.483992 -0.000000
1.483992 0.000000
1.483992 -0.000000
1.483992 0.000000
1.483992 -0.000000
1.483992 0.000000
1.483992 -0.000000
1.483992 0.000000
1.483992 -0.000000
1.483992 0.000000
1.483992 0.000000
1.483992 -0.000000
1.483992 0.000000
1.483992 -0.000000
1.483992 0.000000
1.483992 -0.000000
1.483992 0.000000
1.483992 -0.000000
1.483992 0.000000
1.483992 -0.000000
1.483992 0.000000
1.483992 -0.000000
1.483992 0.000000
1.483992 -0.000000
1.483992 0.000000
1.483992 -0.000000
1.483992 0.000000
1.483992 -0.000000
1.483992 0.000000
1.483992 -0.000000
1.483992 0.000000
1.483992 -0.000000
1.483992 0.000000
1.483992 -0.000000
1.483992 0.000000
1.483992 -0.000000
1.483992 0.000000
1.483992 -0.000000
1.483992 0.000000
1.483992 -0.000000
1.483992 0.000000
1.483992 -0.000000
1.483992 0.000000
1.483992 -0.000000
1.483992 0.000000
1.483992 -0.000000
1.483992 0.000000
1.483992 -0.000000
1.483992 0.000000
1.483992 -0.000000
1.483992 0.000000
1.483992 -0.000000
1.483992 0.000000
1.483992 -0.000000
1.483992 0.000000
1.483992 -0.000000
1.483992 0.000000
1.483992 -0.000000
1.483992 0.000000
1.483992 -0.000000
1.483992 0.000000
1.483992 -0.000000
1.483992 0.000000
1.483992 -0.000000
1.483992 0.000000
1.483992 -0.000000
1.483992 0.000000
1.483992 -0.000000
1.483992 0.000000
1.483992 -0.000000
1.483992 0.000000
1.483992 -0.000000
1.483992 0.000000
1.483992 -0.000000
1.483992 0.000000
1.483992 -0.000000
1.483992 0.000000
1.483992 -0.000000
1.483992 0.000000
1.483992 -0.000000
1.483992 0.000000
1.483992 -0.000000
1.483992 0.000000
1.483992 -0.000000
1.483992 0.000000
1.483992 -0.000000
1.483992 0.000000
1.483992 -0.000000
1.483992 0.000000
1.483992 -0.000000
1.483992 0.000000
1.483992 -0.000000
1.483992 0.000000
1.483992 -0.000000
1.483992 0.000000
1.483992 -0.000000
1.483992 0.000000
1.483992 -0.000000
1.483992 0.000000
1.483992 -0.000000
1.483992 0.000000
1.483992 -0.000000
1.483992 0.000000
1.483992 -0.000000
1.483992 0.000000
1.483992 -0.000000
1.483992 0.000000
1.483992 -0.000000
1.483992 0.000000
1.483992 -0.000000
1.483992 0.000000
1.483992 -0.000000
1.483992 0.000000
1.483992 -0.000000
1.483992 0.000000
1.483992 -0.000000
1.483992 0.000000
1.483992 -0.000000
1.483992 0.000000
1.483992 -0.000000
1.483992 0.000000
1.483992 -0.000000
1.483992 0.000000
1.483992 -0.000000
1.483992 0.000000
1.483992 -0.000000
1.483992 0.000000
1.483992 -0.000002
1.483992 0.000006
1.483992 -0.000021
1.483992 0.000078
1.483992 -0.000290
1.483992 0.001113
1.483992 -0.004434
1.483993 0.017743
1.483992 -0.067702
1.483985 0.229830
1.484058 -0.653211
1.483715 1.573987
1.484331 -4.825626
1.464234 -40.655399
1.389745 -116.025707
1.235245 -181.521859
1.041450 -201.728859
0.836703 -205.995607
0.630402 -206.199604
0.423881 -206.433512
0.217565 -205.337554
0.015392 -196.455231
-0.170868 -172.975656
-0.326646 -136.732586
-0.443490 -97.140985
-0.523020 -63.235891
-0.573188 -38.620667
-0.603236 -22.688966
-0.620737 -13.129591
-0.630890 -7.671983
-0.636909 -4.648100
-0.640654 -2.998192
-0.643164 -2.104923
-0.645005 -1.619397
-0.646477 -1.349138
-0.647744 -1.193316
-0.648885 -1.093567
-0.649942 -1.019233
-0.650929 -0.954513
-0.651852 -0.889040
-0.652706 -0.814076
-0.653480 -0.732254
-0.654169 -0.643224
-0.654765 -0.547201
-0.655265 -0.451814
-0.655671 -0.359877
-0.655989 -0.280052
-0.656236 -0.213251
-0.656420 -0.156879
-0.656555 -0.116553
-0.656658 -0.090464
-0.656741 -0.079085
-0.656821 -0.083000
-0.656912 -0.100605
-0.657027 -0.131784
-0.657179 -0.173530
-0.657378 -0.225432
-0.657633 -0.284437
-0.657949 -0.346756
-0.658328 -0.410568
-0.658770 -0.473897
-0.659276 -0.534466
-0.659839 -0.589324
-0.660453 -0.636920
-0.661111 -0.676224
-0.661804 -0.706522
-0.662522 -0.726512
-0.663255 -0.737008
-0.663994 -0.737939
-0.664730 -0.731539
-0.665457 -0.719920
-0.666169 -0.702768
-0.666863 -0.683318
-0.667538 -0.664341
-0.668193 -0.644169
-0.668827 -0.624814
-0.669444 -0.607395
-0.670044 -0.591348
-0.670629 -0.577027
-0.671200 -0.565910
-0.671763 -0.558706
-0.672320 -0.555764
-0.672877 -0.557673
-0.673437 -0.562182
-0.674004 -0.569302
-0.674578 -0.579581
-0.675165 -0.592252
-0.675765 -0.606676
-0.676380 -0.622700
-0.677011 -0.637240
-0.677656 -0.653259
-0.678318 -0.668515
-0.678994 -0.681434
-0.679683 -0.695875
-0.680386 -0.706730
-0.681098 -0.718057
-0.681822 -0.727257
-0.682553 -0.734735
-0.683293 -0.741952
-0.684039 -0.748431
-0.684791 -0.752749
-0.685545 -0.755402
-0.686304 -0.758881
-0.687064 -0.760430
-0.687826 -0.762531
-0.688589 -0.762136
-0.689353 -0.763459
-0.690117 -0.763292
-0.690880 -0.761934
-0.691644 -0.763016
-0.692407 -0.762634
-0.693170 -0.762247
-0.693933 -0.762148
-0.694697 -0.763204
-0.695461 -0.763651
-0.696226 -0.765928
-0.696994 -0.767003
-0.697761 -0.767254
-0.698531 -0.770344
-0.699303 -0.773069
-0.700079 -0.774906
-0.700855 -0.776487
-0.701633 -0.778752
-0.702413 -0.780025
-0.703195 -0.782403
-0.703979 -0.783018
-0.704763 -0.782736
-0.705547 -0.784117
-0.706332 -0.783970
-0.707116 -0.783177
-0.707900 -0.783983
-0.708684 -0.781015
-0.709465 -0.780338
-0.710247 -0.780216
-0.711026 -0.777818
-0.711804 -0.775776
-0.712579 -0.773567
-0.713353 -0.771516
-0.714123 -0.766543
-0.714888 -0.763967
-0.715651 -0.758312
-0.716407 -0.753777
-0.717161 -0.751530
-0.717910 -0.745187
-0.718654 -0.741492
-0.719395 -0.738065
-0.720131 -0.733394
-0.720863 -0.728230
-0.721589 -0.724499
-0.722313 -0.720797
-0.723032 -0.715132
-0.723745 -0.711431
-0.724456 -0.708216
-0.725163 -0.703152
-0.725864 -0.698519
-0.726561 -0.694774
-0.727254 -0.689058
-0.727941 -0.684320
-0.728625 -0.680841
-0.729303 -0.674440
-0.729975 -0.670004
-0.730645 -0.665414
-0.731307 -0.659197
-0.731965 -0.654247
-0.732616 -0.647451
-0.733261 -0.642360
-0.733902 -0.637329
-0.734537 -0.632253
-0.735168 -0.625851
-0.735790 -0.619355
-0.736408 -0.615406
-0.737021 -0.608653
-0.737628 -0.604292
-0.738231 -0.599252
-0.738827 -0.593542
-0.739420 -0.588623
-0.740005 -0.582877
-0.740587 -0.577760
-0.741161 -0.570817
-0.741729 -0.564051
-0.742291 -0.557941
-0.742846 -0.551126
-0.743394 -0.544619
-0.743937 -0.537987
-0.744471 -0.530668
-0.744999 -0.524551
-0.745521 -0.517202
-0.746035 -0.511444
-0.746544 -0.503858
-0.747044 -0.497095
-0.747540 -0.491214
-0.748027 -0.483184
-0.748507 -0.476416
-0.748981 -0.470413
-0.749449 -0.462987
-0.749908 -0.456213
-0.750362 -0.449213
-0.750808 -0.442635
-0.751248 -0.435289
-0.751679 -0.427897
-0.752105 -0.422153
-0.752524 -0.415658
-0.752937 -0.408373
-0.753341 -0.400213
-0.753739 -0.394268
-0.754130 -0.386534
-0.754515 -0.385491
-0.754893 -0.358320
-0.755265 -0.428615
-0.755639 -0.163214
-0.755923 -0.891227
-0.756574 0.927580
-0.744676 9.289671
