0.159741 0.175897 0.588577
-0.852529 -10.456823
-0.860682 -6.104155
-0.865292 -3.377753
-0.867806 -1.733877
-0.869123 -1.166229
-0.869920 0.062051
-0.869986 -1.668675
-0.871624 1.506663
-0.864933 10.785281
-0.852539 12.548861
-0.839881 14.098745
-0.823622 17.721685
-0.804949 19.708144
-0.784259 21.417104
-0.762404 22.128303
-0.740234 22.012701
-0.718626 21.024590
-0.698393 19.284313
-0.680218 16.947391
-0.664578 14.270615
-0.651694 11.457590
-0.641654 8.603602
-0.634444 5.824873
-0.629930 3.232487
-0.627889 0.891541
-0.628051 -1.166817
-0.630128 -2.935913
-0.633834 -4.423196
-0.638895 -5.645537
-0.645055 -6.621530
-0.652069 -7.351767
-0.659691 -7.836049
-0.667683 -8.098696
-0.675836 -8.155733
-0.683944 -8.013256
-0.691817 -7.688170
-0.699281 -7.197490
-0.706181 -6.570810
-0.712389 -5.802934
-0.717790 -5.008138
-0.722422 -4.233967
-0.726265 -3.455092
-0.729357 -2.731769
-0.731746 -2.046291
-0.733466 -1.395512
-0.734543 -0.753938
-0.734969 -0.094794
-0.734738 0.550614
-0.733880 1.156881
-0.732435 1.723056
-0.730443 2.250173
-0.727941 2.743710
-0.724959 3.210783
-0.721520 3.657786
-0.717641 4.090782
-0.713333 4.516079
-0.708601 4.939137
-0.703444 5.364940
-0.697858 5.797462
-0.691834 6.240621
-0.685359 6.697543
-0.678420 7.170565
-0.670998 7.661352
-0.663076 8.170857
-0.654634 8.699283
-0.645653 9.246187
-0.636117 9.810707
-0.626007 10.391000
-0.615310 10.984124
-0.604014 11.586595
-0.592112 12.194476
-0.579600 12.803129
-0.566481 13.407722
-0.552761 14.002573
-0.538453 14.583089
-0.523574 15.138903
-0.508151 15.674664
-0.492207 16.168654
-0.475728 16.823486
-0.458464 17.665978
-0.440416 18.341571
-0.421772 18.932784
-0.402313 20.123581
-0.381334 21.766263
-0.358892 22.942764
-0.335661 23.344822
-0.312472 22.799501
-0.290418 21.051464
-0.270720 18.125298
-0.254372 14.476378
-0.241408 11.818267
-0.230128 10.907819
-0.219341 10.682686
-0.208694 10.600597
-0.198111 10.542094
-0.187597 10.458590
-0.177188 10.329256
-0.166940 10.135021
-0.156925 9.859189
-0.147230 9.496380
-0.137944 9.043108
-0.129155 8.502621
-0.120949 7.880321
-0.113405 7.179689
-0.106597 6.411231
-0.100588 5.588974
-0.095421 4.728374
-0.091131 3.840131
-0.087739 2.933452
-0.085260 2.020956
-0.083691 1.115333
-0.083019 0.232293
-0.083212 -0.609879
-0.084221 -1.393308
-0.085975 -2.097451
-0.088389 -2.709629
-0.091366 -3.219068
-0.094797 -3.617439
-0.098569 -3.900155
-0.102568 -4.073316
-0.106658 -4.047787
-0.110581 -3.749638
-0.114111 -3.290947
-0.117141 -2.748002
-0.119585 -2.122307
-0.121366 -1.422876
-0.122412 -0.660452
-0.122672 0.148850
-0.122102 0.996817
-0.120667 1.873048
-0.118345 2.770019
-0.115118 3.677121
-0.110983 4.585729
-0.105939 5.490491
-0.099995 6.381384
-0.093170 7.250403
-0.085489 8.092450
-0.076981 8.900625
-0.067683 9.668615
-0.057639 10.392134
-0.046895 11.066766
-0.035501 11.688136
-0.023514 12.252391
-0.010993 12.753864
0.002007 13.217314
0.015489 13.743801
0.029533 14.304349
0.044103 14.794238
0.059126 15.208559
0.074524 15.543710
0.090218 15.799655
0.106129 15.975897
0.122176 16.073680
0.138285 16.100450
0.154385 16.055677
0.170404 15.939774
0.186275 15.758753
0.201934 15.519338
0.217327 15.228433
0.232407 14.895568
0.247137 14.530615
0.261491 14.144741
0.275452 13.750471
0.289019 13.356514
0.302196 12.974894
0.315003 12.616853
0.327465 12.287175
0.339614 11.993161
0.351489 11.739688
0.363131 11.529734
0.374586 11.364176
0.385897 11.242712
0.397108 11.163714
0.408260 11.124836
0.419393 11.123573
0.430541 11.156383
0.441738 11.220928
0.453014 11.312943
0.464396 11.431773
0.475908 11.573861
0.487573 11.736064
0.499411 11.917711
0.511438 12.115333
0.523671 12.328859
0.536125 12.556293
0.548812 12.795452
0.561745 13.045197
0.574932 13.303719
0.588382 13.569990
0.602101 13.841525
0.616093 14.115258
0.630360 14.390095
0.644902 14.663891
0.659715 14.932654
0.674795 15.196294
0.690136 15.453562
0.705730 15.701521
0.721567 15.939384
0.737638 16.166838
0.753929 16.381567
0.770430 16.585071
0.787130 16.779856
0.804018 16.959097
0.821074 17.115943
0.838279 17.256473
0.855616 17.378822
0.873058 17.462829
0.890562 17.502598
0.908086 17.504923
0.925595 17.473493
0.943057 17.409251
0.960437 17.310712
0.977703 17.181406
0.994826 17.026884
1.011783 16.850173
1.028554 16.656886
1.045126 16.451198
1.061487 16.236046
1.077630 16.017319
1.093553 15.796066
1.109253 15.574247
1.124733 15.354246
1.139993 15.136189
1.155037 14.921919
1.169867 14.709595
1.184486 14.500438
1.198898 14.294332
1.213104 14.089713
1.227107 13.887630
1.240907 13.685902
1.254506 13.485167
1.267905 13.284313
1.281102 13.083559
1.294098 12.882631
1.306893 12.681495
1.319487 12.481018
1.331880 12.280632
1.344073 12.082261
1.356069 11.884852
1.367867 11.688966
1.379471 11.495570
1.390882 11.304733
1.402104 11.117737
1.413141 10.934530
1.423997 10.757087
1.434678 10.584007
1.445188 10.415833
1.455533 10.255394
1.465721 10.099595
1.475755 9.951019
1.485645 9.810489
1.495398 9.676211
1.505020 9.549685
1.514518 9.429428
1.523900 9.315816
1.533171 9.208288
1.542336 9.104213
1.551399 9.003470
1.560362 8.905300
1.569227 8.807584
1.577994 8.709523
1.586663 8.609792
1.595231 8.508110
1.603695 8.403315
1.612053 8.294162
1.620299 8.180055
1.628427 8.060596
1.636434 7.935786
1.644312 7.803740
1.652055 7.665645
1.659657 7.520521
1.667109 7.367731
1.674404 7.207568
1.681536 7.039473
1.688495 6.863553
1.695274 6.679734
1.701865 6.487284
1.708258 6.285565
1.714446 6.074930
1.720417 5.854669
1.726163 5.624746
1.731674 5.384581
1.736940 5.134419
1.741951 4.875703
1.746698 4.608039
1.751174 4.334396
1.755374 4.054546
1.759292 3.776647
1.762937 3.506770
1.766312 3.237093
1.769414 2.956618
1.772225 2.655415
1.774722 2.328434
1.776876 1.970815
1.778659 1.587481
1.780047 1.181619
1.781018 0.756904
1.781559 0.323602
1.781665 -0.112810
1.781335 -0.545162
1.780578 -0.963737
1.779410 -1.366804
1.777848 -1.749940
1.775915 -2.108747
1.773634 -2.444093
1.771031 -2.753741
1.768130 -3.036488
1.764959 -3.295449
1.761539 -3.537027
1.757882 -3.767434
1.754000 -3.987744
1.749902 -4.196573
1.745602 -4.393400
1.741111 -4.576545
1.736444 -4.747061
1.731612 -4.905018
1.726629 -5.049611
1.721507 -5.182515
1.716257 -5.305641
1.710888 -5.420096
1.705409 -5.524872
1.699829 -5.624075
1.694151 -5.718782
1.688381 -5.807715
1.682527 -5.886812
1.676603 -5.945675
1.670634 -5.972760
1.664653 -5.976085
1.658672 -5.974567
1.652692 -5.972850
1.646714 -5.971465
1.640738 -5.968335
1.634766 -5.963586
1.628800 -5.956136
1.622843 -5.945592
1.616898 -5.931660
1.610969 -5.913941
1.605059 -5.893853
1.599171 -5.869806
1.593309 -5.842067
1.587476 -5.811648
1.581675 -5.778107
1.575909 -5.742956
1.570178 -5.705126
1.564488 -5.664571
1.558838 -5.623420
1.553230 -5.579952
1.547667 -5.535331
1.542149 -5.490001
1.536677 -5.441638
1.531255 -5.393067
1.525881 -5.342397
1.520560 -5.289905
1.515291 -5.236756
1.510077 -5.180875
1.504919 -5.123512
1.499820 -5.064256
1.494781 -5.002591
1.489805 -4.939803
1.484893 -4.874636
1.480047 -4.807821
1.475268 -4.739168
1.470560 -4.668211
1.465923 -4.596047
1.461359 -4.522200
1.456870 -4.446249
1.452458 -4.368513
1.448124 -4.290868
1.443869 -4.210487
1.439695 -4.128831
1.435603 -4.046782
1.431594 -3.962912
1.427670 -3.878227
1.423830 -3.792875
1.420077 -3.706897
1.416409 -3.619658
1.412830 -3.531694
1.409339 -3.444212
1.405935 -3.355717
1.402621 -3.266831
1.399395 -3.177849
1.396258 -3.089851
1.393209 -3.000845
1.390251 -2.911332
1.387381 -2.823289
1.384598 -2.735706
1.381903 -2.648795
1.379296 -2.561443
1.376775 -2.475439
1.374339 -2.390531
1.371989 -2.306897
1.369721 -2.223392
1.367537 -2.142160
1.365432 -2.062583
1.363407 -1.982881
1.361461 -1.906153
1.359591 -1.831244
1.357795 -1.757650
1.356071 -1.685556
1.354419 -1.617470
1.352831 -1.556384
1.351297 -1.512096
1.349788 -1.515785
1.348234 -1.604449
1.346548 -1.775803
1.344662 -1.998886
1.342540 -2.239728
1.340183 -2.464408
1.337618 -2.655719
1.334879 -2.809680
1.332005 -2.927258
1.329030 -3.010686
1.325987 -3.065474
1.322900 -3.097986
1.319791 -3.110385
1.316679 -3.105014
1.313581 -3.083261
1.310512 -3.046369
1.307486 -2.997019
1.304514 -2.939317
1.301604 -2.873901
1.298763 -2.801196
1.295997 -2.725515
1.293308 -2.647703
1.290697 -2.568063
1.288166 -2.488561
1.285715 -2.409220
1.283342 -2.331559
1.281046 -2.256656
1.278824 -2.184240
1.276671 -2.117002
1.274584 -2.053939
1.272558 -1.994290
1.270589 -1.941787
1.268669 -1.894965
1.266794 -1.852226
1.264959 -1.816509
1.263156 -1.784957
1.261383 -1.759036
1.259632 -1.739601
1.257899 -1.725886
1.256174 -1.721361
1.254449 -1.727370
1.252711 -1.746428
1.250948 -1.779198
1.249144 -1.827005
1.247285 -1.890881
1.245354 -1.969891
1.243336 -2.064028
1.241217 -2.173398
1.238981 -2.296216
1.236616 -2.428784
1.234115 -2.572034
1.231464 -2.724463
1.228658 -2.882683
1.225691 -3.047144
1.222556 -3.215697
1.219252 -3.387538
1.215774 -3.562581
1.212119 -3.739472
1.208287 -3.917680
1.204275 -4.097352
1.200084 -4.277646
1.195711 -4.458515
1.191157 -4.640495
1.186421 -4.823358
1.181501 -5.006498
1.176397 -5.190788
1.171108 -5.377404
1.165631 -5.565330
1.159966 -5.755252
1.154109 -5.946180
1.148061 -6.137996
1.141821 -6.329080
1.135391 -6.518536
1.128772 -6.704525
1.121970 -6.885114
1.114990 -7.059545
1.107840 -7.225657
1.100527 -7.383013
1.093062 -7.530810
1.085453 -7.669240
1.077711 -7.797736
1.069846 -7.916222
1.061866 -8.025158
1.053781 -8.127715
1.045597 -8.222203
1.037323 -8.309326
1.028964 -8.391955
1.020524 -8.469981
1.012008 -8.543620
1.003421 -8.613922
0.994764 -8.681333
0.986041 -8.746663
0.977254 -8.807954
0.968407 -8.873011
0.959491 -8.936245
0.950496 -9.059520
0.941294 -9.364084
0.931707 -9.795070
0.921676 -10.250732
0.911174 -10.739646
0.900158 -11.280018
0.888572 -11.877120
0.876361 -12.530847
0.863470 -13.230599
0.849845 -14.015592
0.835294 -15.151117
0.819337 -16.812300
0.801549 -18.734978
0.781816 -20.696706
0.760113 -22.660065
0.736461 -24.593577
0.710890 -26.488208
0.683455 -28.312140
0.654233 -30.064546
0.623293 -31.733251
0.590742 -33.285171
0.556699 -34.710100
0.521297 -36.001042
0.484672 -37.151307
0.446969 -38.154870
0.408336 -39.008395
0.368925 -39.708450
0.328891 -40.251902
0.288392 -40.639992
0.247581 -40.874133
0.206613 -40.954935
0.165639 -40.886759
0.124806 -40.674677
0.084254 -40.326356
0.044115 -39.849842
0.004514 -39.254134
-0.034436 -38.551112
-0.072634 -37.753814
-0.109990 -36.870937
-0.146424 -35.913249
-0.181869 -34.895769
-0.216269 -33.828652
-0.249583 -32.729991
-0.281792 -31.623783
-0.312897 -30.526737
-0.342914 -29.449673
-0.371864 -28.396880
-0.399773 -27.370299
-0.426668 -26.370796
-0.452576 -25.397794
-0.477523 -24.450100
-0.501533 -23.526785
-0.524631 -22.626681
-0.546839 -21.748231
-0.568178 -20.890131
-0.588668 -20.050559
-0.608325 -19.228060
-0.627168 -18.421647
-0.645210 -17.630194
-0.662468 -16.852542
-0.678954 -16.088328
-0.694681 -15.337074
-0.709663 -14.598167
-0.723911 -13.871619
-0.737438 -13.157737
-0.750257 -12.457212
-0.762382 -11.770891
-0.773827 -11.099977
-0.784610 -10.445718
-0.794746 -9.809197
-0.804254 -9.191607
-0.813154 -8.594114
-0.821466 -8.017631
-0.829213 -7.462823
-0.836415 -6.930576
-0.843095 -6.421110
-0.849278 -5.935728
-0.854987 -5.474911
-0.860253 -5.057075
-0.865151 -4.759633
-0.869837 -4.629465
-0.874440 -4.560135
-0.878949 -4.436267
-0.883283 -4.197001
-0.887289 -3.771667
-0.890783 -3.194027
-0.893671 -2.580003
-0.895963 -2.011153
-0.897726 -1.527504
-0.899040 -1.101516
-0.899989 -0.848303
-0.900649 -0.328198
-0.901092 -1.144303
-0.901381 2.714263
-0.901570 -11.145447
-0.901701 40.907089
-0.901820 -153.231995
-0.901983 571.174905
0.000000 571.286192
0.000000 -153.075674
0.000000 41.016503
0.000000 -10.990339
0.000000 2.944852
0.000000 -0.789071
0.000000 0.211431
0.000000 -0.056653
0.000000 0.015180
0.000000 -0.004067
0.000000 0.001090
0.000000 -0.000292
0.000000 0.000078
0.000000 -0.000021
0.000000 0.000006
0.000000 -0.000002
0.000000 0.000000
0.000000 -0.000000
0.000000 0.000000
0.000000 -0.000000
0.000000 0.000000
0.000000 -0.000000
0.000000 0.000000
0.000000 -0.000000
0.000000 0.000000
0.000000 -0.000000
0.000000 0.000000
0.000000 -0.000000
0.000000 0.000000
0.000000 -0.000000
0.000000 0.000000
0.000000 -0.000000
0.000000 0.000000
0.000000 -0.000000
0.000000 0.000000
0.000000 -0.000000
0.000000 0.000000
0.000000 -0.000000
0.000000 0.000000
0.000000 -0.000000
0.000000 0.000000
0.000000 -0.000000
0.000000 0.000000
0.000000 -0.000000
0.000000 0.000000
0.000000 -0.000000
0.000000 0.000000
0.000000 -0.000000
0.000000 0.000000
0.000000 -0.000000
0.000000 0.000000
0.000000 -0.000000
0.000000 0.000000
0.000000 -0.000000
0.000000 0.000000
0.000000 -0.000000
0.000000 0.000000
0.000000 -0.000000
0.000000 0.000000
0.000000 -0.000000
0.000000 0.000000
0.000000 -0.000000
0.000000 0.000000
0.000000 -0.000000
0.000000 0.000000
0.000000 -0.000000
0.000000 0.000000
0.000000 -0.000000
0.000000 0.000000
0.000000 -0.000000
0.000000 0.000000
0.000000 -0.000000
0.000000 0.000000
0.000000 -0.000000
0.000000 0.000000
0.000000 -0.000000
0.000000 0.000000
0.000000 -0.000000
0.000000 0.000000
0.000000 -0.000000
0.000000 0.000000
0.000000 -0.000000
0.000000 0.000000
0.000000 -0.000000
0.000000 0.000000
0.000000 -0.000000
0.000000 0.000000
0.000000 -0.000000
0.000000 0.000000
0.000000 -0.000000
0.000000 0.000000
0.000000 -0.000000
0.000000 0.000000
0.000000 -0.000000
0.000000 0.000000
0.000000 -0.000000
0.000000 0.000000
0.000000 -0.000000
0.000000 0.000000
0.000000 -0.000000
0.000000 0.000000
0.000000 -0.000000
0.000000 0.000000
0.000000 -0.000000
0.000000 0.000000
0.000000 -0.000000
0.000000 0.000000
0.000000 -0.000000
0.000000 0.000000
0.000000 -0.000000
0.000000 0.000000
0.000000 -0.000000
0.000000 0.000000
0.000000 -0.000000
0.000000 0.000000
0.000000 -0.000000
0.000000 0.000000
0.000000 -0.000000
0.000000 0.000000
0.000000 -0.000000
0.000000 0.000000
0.000000 -0.000000
0.000000 0.000000
0.000000 -0.000000
0.000000 0.000000
0.000000 -0.000000
0.000000 0.000000
0.000000 -0.000000
0.000000 0.000000
0.000000 -0.000000
0.000000 0.000000
0.000000 -0.000000
0.000000 0.000000
0.000000 -0.000000
0.000000 0.000000
0.000000 -0.000000
0.000000 0.000000
0.000000 -0.000000
0.000000 0.000000
0.000000 -0.000000
0.000000 0.000000
0.000000 -0.000000
0.000000 0.000000
0.000000 -0.000000
0.000000 0.000000
0.000000 -0.000000
0.000000 0.000000
0.000000 -0.000000
0.000000 0.000000
0.000000 -0.000000
0.000000 0.000000
0.000000 -0.000000
0.000000 0.000000
0.000000 -0.000000
0.000000 0.000000
0.000000 -0.000000
0.000000 0.000000
0.000000 -0.000000
0.000000 0.000000
0.000000 -0.000000
0.000000 0.000000
0.000000 -0.000000
0.000000 0.000000
0.000000 -0.000000
0.000000 0.000000
0.000000 -0.000000
0.000000 0.000000
0.000000 -0.000000
0.000000 0.000000
0.000000 -0.000000
0.000000 0.000000
0.000000 -0.000000
0.000000 0.000000
0.000000 -0.000000
0.000000 0.000000
0.000000 -0.000000
0.000000 0.000000
0.000000 -0.000000
0.000000 0.000000
0.000000 -0.000000
0.000000 0.000000
0.000000 -0.000000
0.000000 0.000000
0.000000 -0.000000
0.000000 0.000000
0.000000 -0.000000
0.000000 0.000000
0.000000 -0.000000
0.000000 0.000000
0.000000 -0.000000
0.000000 0.000000
0.000000 -0.000000
0.000000 0.000000
0.000000 -0.000000
0.000000 0.000000
0.000000 -0.000000
0.000000 0.000000
0.000000 -0.000000
0.000000 0.000000
0.000000 -0.000000
0.000000 0.000000
0.000000 -0.000000
0.000000 0.000000
0.000000 -0.000000
0.000000 0.000000
0.000000 -0.000000
0.000000 0.000000
0.000000 -0.000000
0.000000 0.000000
0.000000 -0.000000
0.000000 0.000000
0.000000 -0.000000
0.000000 0.000000
0.000000 -0.000000
0.000000 0.000000
0.000000 -0.000000
0.000000 0.000000
0.000000 -0.000000
0.000000 0.000000
0.000000 -0.000000
0.000000 0.000000
0.000000 -0.000000
0.000000 0.000000
0.000000 -0.000000
0.000000 0.000000
0.000000 -0.000000
0.000000 0.000000
0.000000 -0.000000
0.000000 0.000000
0.000000 -0.000000
0.000000 0.000000
0.000000 -0.000000
0.000000 0.000000
0.000000 -0.000000
0.000000 0.000000
0.000000 -0.000000
0.000000 0.000000
0.000000 -0.000000
0.000000 0.000000
0.000000 -0.000000
0.000000 0.000000
0.000000 -0.000000
0.000000 0.000000
0.000000 -0.000000
0.000000 0.000000
0.000000 -0.000000
0.000000 0.000000
0.000000 -0.000000
0.000000 0.000000
0.000000 -0.000000
0.000000 0.000000
0.000000 -0.000000
0.000000 0.000000
0.000000 -0.000000
0.000000 0.000000
0.000000 -0.000000
0.000000 0.000000
0.000000 -0.000000
0.000000 0.000000
0.000000 -0.000000
0.000000 0.000000
0.000000 -0.000000
0.000000 0.000000
0.000000 -0.000000
0.000000 0.000000
0.000000 -0.000000
0.000000 0.000000
0.000000 -0.000000
0.000000 0.000000
0.000000 -0.000000
0.000000 0.000000
0.000000 -0.000000
0.000000 0.000000
0.000000 -0.000000
0.000000 0.000000
0.000000 -0.000000
0.000000 0.000000
0.000000 -0.000000
0.000000 0.000000
0.000000 -0.000000
0.000000 0.000000
0.000000 -0.000000
0.000000 0.000000
0.000000 -0.000000
0.000000 0.000000
0.000000 -0.000000
0.000000 0.000000
0.000000 -0.000000
0.000000 0.000000
0.000000 -0.000000
0.000000 0.000000
0.000000 -0.000000
0.000000 0.000000
0.000000 -0.000000
0.000000 0.000000
0.000000 -0.000000
0.000000 0.000000
0.000000 -0.000000
0.000000 0.000000
0.000000 -0.000000
0.000000 0.000000
0.000000 -0.000000
0.000000 0.000000
0.000000 -0.000000
0.000000 0.000000
0.000000 -0.000000
0.000000 0.000000
0.000000 -0.000000
0.000000 0.000000
0.000000 -0.000000
0.000000 0.000000
0.000000 -0.000000
0.000000 0.000000
0.000000 -0.000000
0.000000 0.000000
0.000000 -0.000000
0.000000 0.000000
0.000000 -0.000000
0.000000 0.000000
0.000000 -0.000000
0.000000 0.000000
0.000000 -0.000000
0.000000 0.000000
0.000000 -0.000000
0.000000 0.000000
0.000000 -0.000000
0.000000 0.000000
0.000000 -0.000000
0.000000 0.000000
0.000000 -0.000000
0.000000 0.000000
0.000000 -0.000000
0.000000 0.000000
0.000000 -0.000000
0.000000 0.000000
0.000000 -0.000000
0.000000 0.000000
0.000000 -0.000000
0.000000 0.000000
0.000000 -0.000000
0.000000 0.000000
0.000000 -0.000000
0.000000 0.000000
0.000000 -0.000000
0.000000 0.000000
0.000000 -0.000000
0.000000 0.000000
0.000000 -0.000000
0.000000 0.000000
0.000000 -0.000000
0.000000 0.000000
0.000000 -0.000000
0.000000 0.000000
0.000000 -0.000000
0.000000 0.000000
0.000000 -0.000000
0.000000 0.000000
0.000000 -0.000000
0.000000 0.000000
0.000000 -0.000000
0.000000 0.000000
0.000000 -0.000000
0.000000 0.000000
0.000000 -0.000000
0.000000 0.000000
0.000000 -0.000000
0.000000 0.000000
0.000000 -0.000000
0.000000 0.000000
0.000000 -0.000000
0.000000 0.000000
0.000000 -0.000000
0.000000 0.000000
0.000000 -0.000000
0.000000 0.000000
0.000000 -0.000000
0.000000 0.000000
0.000000 -0.000000
0.000000 0.000000
0.000000 -0.000000
0.000000 0.000000
0.000000 -0.000000
0.000000 0.000000
0.000000 -0.000000
0.000000 0.000000
0.000000 -0.000000
0.000000 0.000000
0.000000 -0.000000
0.000000 0.000000
0.000000 -0.000000
0.000000 0.000000
0.000000 -0.000000
0.000000 0.000000
0.000000 -0.000000
0.000000 0.000000
0.000000 -0.000000
0.000000 0.000000
0.000000 -0.000000
0.000000 0.000000
0.000000 -0.000000
0.000000 0.000000
0.000000 -0.000000
0.000000 0.000000
0.000000 -0.000000
-0.852529 -10.456823
