0.019362 0.024460 -0.198560
-0.502571 9.533774
-0.492331 10.816537
-0.481137 11.438863
-0.469214 12.707865
-0.456584 11.314747
-0.448458 4.238902
-0.447041 0.329356
-0.446346 0.775849
-0.445513 1.147137
-0.443768 2.360587
-0.440737 3.723855
-0.436294 5.143998
-0.430473 6.461647
-0.423422 7.585721
-0.415368 8.465830
-0.406548 9.121868
-0.397167 9.594726
-0.387385 9.931399
-0.377327 10.139335
-0.367091 10.333203
-0.356772 10.131309
-0.346027 12.268648
-0.329123 23.658180
-0.295645 44.094492
-0.239853 67.506477
-0.160601 90.608082
-0.059045 111.944102
0.062759 131.024118
0.202466 147.706164
0.357655 161.955634
0.525887 173.765016
0.704720 183.135696
0.891710 190.063180
1.084418 194.568350
1.280551 197.019591
1.478243 197.645623
1.675574 196.283315
1.870515 192.859386
2.060992 187.375062
2.244994 179.955883
2.420700 170.847209
2.586552 160.304196
2.741219 148.530698
2.883562 135.710562
3.012621 122.020217
3.127622 107.657220
3.228002 92.848140
3.313422 77.794206
3.383712 62.635640
3.438838 47.534963
3.478940 32.623296
3.504252 18.017782
3.515159 3.854611
3.512149 -9.769220
3.495815 -22.751066
3.466800 -35.138727
3.426522 -44.367446
3.379116 -50.178530
3.326180 -55.643438
3.267619 -61.406854
3.203120 -67.537472
3.132288 -74.030446
3.054679 -81.218149
2.969863 -87.881771
2.879329 -92.779076
2.784015 -97.988772
2.682855 -104.100275
2.575777 -109.699248
2.463813 -113.570438
2.349698 -113.579886
2.238097 -108.582478
2.133689 -99.468340
2.039824 -87.767120
1.958385 -74.848483
1.890031 -61.769582
1.834543 -49.227126
1.791167 -37.616272
1.758845 -27.175270
1.736362 -17.934538
1.722437 -10.203516
1.715862 -2.688705
1.718437 8.972630
1.734689 23.223115
1.764534 36.286130
1.807033 48.447642
1.861167 59.531942
1.925844 69.499715
1.999917 78.302694
2.082214 85.930789
2.171557 92.379161
2.266763 97.645320
2.366648 101.729357
2.470033 104.638446
2.575749 106.391267
2.682652 107.016393
2.789631 106.548190
2.895611 105.027080
2.999560 102.500814
3.100499 99.019053
3.197497 94.641170
3.289688 89.417055
3.376249 83.410412
3.456434 76.679031
3.529537 69.277631
3.594926 61.269725
3.652019 52.721603
3.700313 43.689833
3.739350 34.249128
3.768765 24.463412
3.788236 14.408118
3.797540 4.143497
3.796484 -6.263186
3.784979 -16.735315
3.762987 -27.186180
3.730518 -37.739459
3.687852 -47.035245
3.637212 -53.757985
3.580503 -59.658546
3.517633 -65.985465
3.448300 -72.611327
3.372122 -79.667502
3.288633 -87.238979
3.197249 -95.470392
3.097225 -104.531557
2.987635 -114.617510
2.867353 -125.923729
2.735090 -138.564694
2.589543 -152.414125
2.429759 -166.855202
2.255726 -180.613881
2.068994 -191.902183
1.872794 -199.425474
1.671352 -202.127022
1.471130 -195.851989
1.282188 -180.790544
1.110010 -163.263734
0.955074 -146.515498
0.816186 -131.264371
0.691727 -117.679246
0.580065 -105.673156
0.479690 -95.102604
0.389240 -85.818788
0.307501 -77.672084
0.233410 -70.514296
0.166043 -64.219159
0.104593 -58.675597
0.048360 -53.776025
-0.003262 -49.461412
-0.050800 -45.560215
-0.094692 -42.312835
-0.135209 -38.162273
-0.170627 -32.614276
-0.200666 -27.555378
-0.226053 -23.276905
-0.247478 -19.633615
-0.265550 -16.560138
-0.280795 -13.974910
-0.293666 -11.804224
-0.304544 -9.984801
-0.313754 -8.460596
-0.321564 -7.181560
-0.328200 -6.107894
-0.333849 -5.205778
-0.338670 -4.447892
-0.342794 -3.811571
-0.346327 -3.254462
-0.349309 -2.696024
-0.351663 -1.954379
-0.353074 -0.769392
-0.353021 0.961810
-0.351004 3.127305
-0.346676 5.546155
-0.339870 8.055515
-0.330557 10.540071
-0.318803 12.921006
-0.304744 15.137511
-0.288569 17.142551
-0.270507 18.900860
-0.250820 20.387078
-0.229789 21.583408
-0.207709 22.481298
-0.184881 23.080858
-0.161599 23.388320
-0.138149 23.419661
-0.114798 23.194800
-0.091790 22.739862
-0.069340 22.083005
-0.047637 21.254651
-0.026835 20.286749
-0.007058 19.213172
0.011604 18.063361
0.029085 16.855899
0.045336 15.606181
0.060318 14.323146
0.074003 13.017121
0.086372 11.693936
0.097410 10.357490
0.107106 9.014125
0.115455 7.666418
0.122454 6.318685
0.128106 4.973886
0.132414 3.636980
0.135391 2.313433
0.137051 1.006358
0.137413 -0.278710
0.136503 -1.535854
0.134349 -2.761299
0.130986 -3.951623
0.126452 -5.101078
0.120788 -6.206832
0.114041 -7.265614
0.106259 -8.274814
0.097493 -9.230275
0.087799 -10.130057
0.077232 -10.971899
0.065853 -11.754520
0.053720 -12.475826
0.040897 -13.133957
0.027447 -13.729331
0.013432 -14.260579
-0.001082 -14.728302
-0.016032 -15.131938
-0.031355 -15.472742
-0.046988 -15.750329
-0.062867 -15.965938
-0.078931 -16.119274
-0.095116 -16.208551
-0.111358 -16.232124
-0.127590 -16.188369
-0.143745 -16.076092
-0.159751 -15.894025
-0.175541 -15.642381
-0.191045 -15.322264
-0.206194 -14.936224
-0.220924 -14.482661
-0.235167 -13.963972
-0.248862 -13.388942
-0.261955 -12.763124
-0.274399 -12.095674
-0.286159 -11.393339
-0.297200 -10.662629
-0.307498 -9.911330
-0.317037 -9.146114
-0.325807 -8.374094
-0.333802 -7.600117
-0.341024 -6.832374
-0.347484 -6.075786
-0.353193 -5.333500
-0.358167 -4.608610
-0.362425 -3.902584
-0.365988 -3.219390
-0.368879 -2.561093
-0.371125 -1.932951
-0.372761 -1.342656
-0.373828 -0.797347
-0.374376 -0.307323
-0.374466 0.115858
-0.374170 0.460763
-0.373574 0.713174
-0.372778 0.859835
-0.371891 0.891292
-0.371035 0.797682
-0.370337 0.575384
-0.369927 0.221639
-0.369937 -0.263273
-0.370497 -0.876964
-0.371735 -1.616115
-0.373772 -2.473133
-0.376708 -3.394719
-0.380531 -4.205681
-0.385030 -4.724203
-0.389887 -4.938111
-0.394845 -4.938273
-0.399729 -4.802783
-0.404433 -4.586532
-0.408897 -4.327184
-0.413090 -4.050316
-0.417005 -3.772742
-0.420646 -3.504936
-0.424027 -3.253239
-0.427166 -3.020904
-0.430082 -2.809290
-0.432797 -2.618443
-0.435331 -2.447519
-0.437703 -2.295422
-0.439932 -2.160517
-0.442034 -2.041404
-0.444024 -1.936575
-0.445915 -1.844273
-0.447720 -1.763427
-0.449449 -1.692404
-0.451111 -1.630014
-0.452714 -1.575247
-0.454267 -1.527095
-0.455774 -1.484681
-0.457241 -1.446857
-0.458672 -1.413130
-0.460071 -1.383479
-0.461442 -1.357050
-0.462789 -1.335291
-0.464115 -1.311952
-0.465416 -1.290213
-0.466679 -1.211682
-0.467730 -0.795858
-0.468125 0.061052
-0.467582 0.994055
-0.466240 1.613738
-0.464498 1.793500
-0.462771 1.607705
-0.461318 1.306593
-0.460158 0.996209
-0.459080 1.416750
-0.456587 4.041848
-0.450356 8.561715
-0.439476 12.991511
-0.424807 16.042934
-0.407883 17.519953
-0.390173 17.674697
-0.372825 16.851621
-0.356664 15.346009
-0.342257 13.376017
-0.329985 11.104008
-0.320089 8.646472
-0.312710 6.086221
-0.307919 3.481699
-0.305741 0.871901
-0.306163 -1.707734
-0.309140 -4.228943
-0.314600 -6.662222
-0.322441 -8.985076
-0.332474 -10.963772
-0.344142 -12.196458
-0.356628 -12.641493
-0.369267 -12.538021
-0.381609 -12.074059
-0.393366 -11.389298
-0.404371 -10.585141
-0.414541 -9.731393
-0.423853 -8.877253
-0.432323 -8.054487
-0.439995 -7.282492
-0.446923 -6.571958
-0.453174 -5.927145
-0.458812 -5.348212
-0.463902 -4.832719
-0.468506 -4.376347
-0.472682 -3.974224
-0.476479 -3.621042
-0.479945 -3.311325
-0.483121 -3.040220
-0.486043 -2.803065
-0.488743 -2.595638
-0.491248 -2.414213
-0.493584 -2.255495
-0.495771 -2.116592
-0.497827 -1.995029
-0.499770 -1.888503
-0.501612 -1.795235
-0.503367 -1.713519
-0.505046 -1.641550
-0.506657 -1.577693
-0.508207 -1.520920
-0.509704 -1.470751
-0.511153 -1.426732
-0.512562 -1.388433
-0.513935 -1.355435
-0.515277 -1.327364
-0.516594 -1.303828
-0.517889 -1.284425
-0.519166 -1.268542
-0.520429 -1.255684
-0.521681 -1.245377
-0.522923 -1.237219
-0.524158 -1.230768
-0.525388 -1.225716
-0.526613 -1.221742
-0.527834 -1.218644
-0.529053 -1.216381
-0.530269 -1.214721
-0.531485 -1.213537
-0.532699 -1.212819
-0.533913 -1.212411
-0.535126 -1.212139
-0.536340 -1.211953
-0.537553 -1.211844
-0.538766 -1.211935
-0.539979 -1.212297
-0.541193 -1.212963
-0.542408 -1.214001
-0.543624 -1.215534
-0.544841 -1.217536
-0.546061 -1.219985
-0.547284 -1.222993
-0.548510 -1.226301
-0.549739 -1.230007
-0.550972 -1.234169
-0.552210 -1.238456
-0.553452 -1.243015
-0.554699 -1.247721
-0.555950 -1.252500
-0.557206 -1.257306
-0.558467 -1.262016
-0.559733 -1.266783
-0.561003 -1.271381
-0.562278 -1.275867
-0.563557 -1.280228
-0.564841 -1.284433
-0.566129 -1.288572
-0.567421 -1.292566
-0.568716 -1.296466
-0.570016 -1.300289
-0.571319 -1.304030
-0.572627 -1.307780
-0.573938 -1.311534
-0.575252 -1.315250
-0.576571 -1.319022
-0.577893 -1.322824
-0.579219 -1.326687
-0.580549 -1.330580
-0.581883 -1.334497
-0.583221 -1.338416
-0.584562 -1.342357
-0.585908 -1.346168
-0.587257 -1.349818
-0.588610 -1.353429
-0.589967 -1.357046
-0.591327 -1.360442
-0.592691 -1.363717
-0.594057 -1.366987
-0.595427 -1.370076
-0.596800 -1.373086
-0.598176 -1.375908
-0.599555 -1.378656
-0.600936 -1.381326
-0.602320 -1.383818
-0.603707 -1.386204
-0.605095 -1.388528
-0.606486 -1.390715
-0.607879 -1.392770
-0.609275 -1.394787
-0.610672 -1.396766
-0.612071 -1.398573
-0.613472 -1.400348
-0.614874 -1.401977
-0.616278 -1.403526
-0.617684 -1.405088
-0.619091 -1.406422
-0.620500 -1.407738
-0.621910 -1.408918
-0.623320 -1.409982
-0.624732 -1.410950
-0.626145 -1.411774
-0.627559 -1.412468
-0.628973 -1.412997
-0.630388 -1.413502
-0.631803 -1.413808
-0.633218 -1.413950
-0.634633 -1.414078
-0.636049 -1.414007
-0.637464 -1.413750
-0.638879 -1.413490
-0.640294 -1.412926
-0.641708 -1.412250
-0.643121 -1.411434
-0.644533 -1.410418
-0.645945 -1.409289
-0.647355 -1.407960
-0.648763 -1.406587
-0.650171 -1.405013
-0.651576 -1.403371
-0.652980 -1.401534
-0.654382 -1.399605
-0.655782 -1.397523
-0.657180 -1.395292
-0.658576 -1.392986
-0.659969 -1.390426
-0.661359 -1.387617
-0.662747 -1.384657
-0.664131 -1.381648
-0.665513 -1.378497
-0.666891 -1.375106
-0.668265 -1.370500
-0.669634 -1.364592
-0.670997 -1.358673
-0.672355 -1.353974
-0.673708 -1.351501
-0.675061 -1.350642
-0.676412 -1.349902
-0.677763 -1.348158
-0.679111 -1.344118
-0.680453 -1.337605
-0.681788 -1.329925
-0.683116 -1.322327
-0.684436 -1.315615
-0.685750 -1.309957
-0.687059 -1.305062
-0.688362 -1.299326
-0.689654 -1.275390
-0.690901 -1.207074
-0.692043 -1.057076
-0.693004 -0.869045
-0.693794 -0.715616
-0.694449 -0.598199
-0.694989 -0.472735
-0.695377 -0.290949
-0.695543 -0.022880
-0.695440 0.191814
-0.695191 0.312121
-0.694813 0.438659
-0.694315 0.556252
-0.693701 0.670906
-0.692974 0.781378
-0.692138 0.888286
-0.691196 0.991701
-0.690153 1.091365
-0.689013 1.186565
-0.687780 1.276382
-0.686460 1.359624
-0.685060 1.435451
-0.683589 1.503136
-0.682055 1.560266
-0.680469 1.606458
-0.678845 1.632244
-0.677201 1.657590
-0.675473 1.843563
-0.673438 2.246011
-0.670991 2.605161
-0.668294 2.751422
-0.665546 2.709324
-0.662923 2.507727
-0.660563 2.192367
-0.658554 1.814976
-0.656934 1.423396
-0.655696 1.057243
-0.654799 0.747784
-0.654176 0.507385
-0.653763 0.327062
-0.653506 0.191420
-0.653369 0.088353
-0.653322 0.008393
-0.653346 -0.055095
-0.653428 -0.106221
-0.653556 -0.147284
-0.653720 -0.179033
-0.653911 -0.201257
-0.654119 -0.213660
-0.654335 -0.215614
-0.654547 -0.205794
-0.654743 -0.182963
-0.654909 -0.145566
-0.655029 -0.092852
-0.655089 -0.024334
-0.655073 0.060240
-0.654964 0.159953
-0.654748 0.273601
-0.654412 0.399552
-0.653944 0.535459
-0.653337 0.678650
-0.652585 0.825057
-0.651685 0.972721
-0.650640 1.111742
-0.649460 1.249100
-0.648146 1.367958
-0.646733 1.450481
-0.645244 1.527229
-0.643677 1.601311
-0.642045 1.655607
-0.640366 1.698630
-0.638644 1.739818
-0.636886 1.772240
-0.635100 1.794701
-0.633298 1.802663
-0.631488 1.818622
-0.629674 1.782572
-0.627909 1.777456
-0.626474 0.698483
-0.627237 -2.557217
-0.631006 -4.052938
-0.634551 -3.149564
-0.637444 -2.641760
-0.639857 -2.186354
-0.641858 -1.842290
-0.643533 -1.462863
-0.644754 -0.986291
-0.645542 -0.610731
-0.646015 -0.348405
-0.646256 -0.136487
-0.646293 0.060495
-0.646147 0.221314
-0.645859 0.354491
-0.645443 0.471258
-0.644871 0.721903
-0.643970 1.054282
-0.642794 1.286121
-0.641419 1.445618
-0.639914 1.560662
-0.638297 1.670971
-0.636570 1.778154
-0.634738 1.882866
-0.632802 1.982701
-0.630770 2.076558
-0.628647 2.164043
-0.626440 2.245163
-0.624155 2.319931
-0.621797 2.388505
-0.619375 2.451164
-0.616892 2.508000
-0.614356 2.559188
-0.611770 2.605215
-0.609142 2.646155
-0.606474 2.682852
-0.603772 2.714689
-0.601040 2.744981
-0.598280 2.764427
-0.595497 2.809033
-0.592652 2.866893
-0.589745 2.961806
-0.586713 3.084665
-0.583600 3.118063
-0.580486 3.107322
-0.577375 3.107722
-0.574264 3.109221
-0.571148 3.117980
-0.568020 3.131947
-0.564877 3.146959
-0.561719 3.163630
-0.558543 3.181530
-0.555349 3.201064
-0.552134 3.222363
-0.548897 3.245690
-0.545636 3.271323
-0.542347 3.299584
-0.539029 3.330685
-0.535678 3.364762
-0.532292 3.401422
-0.528868 3.440152
-0.525404 3.480656
-0.521899 3.522579
-0.518351 3.565576
-0.514760 3.609530
-0.511125 3.654343
-0.507444 3.700044
-0.503717 3.746303
-0.499944 3.793084
-0.496123 3.840371
-0.492255 3.888120
-0.488339 3.936323
-0.484375 3.984858
-0.480361 4.033772
-0.476299 4.082971
-0.472187 4.132471
-0.468026 4.182200
-0.463814 4.232070
-0.459553 4.281994
-0.455242 4.331912
-0.450880 4.381930
-0.446469 4.431945
-0.442008 4.481755
-0.437497 4.531526
-0.432936 4.581274
-0.428325 4.630819
-0.423665 4.680413
-0.418955 4.730017
-0.414195 4.779654
-0.409386 4.829459
-0.404526 4.879356
-0.399617 4.929305
-0.394658 4.979347
-0.389649 5.029176
-0.384590 5.079051
-0.379481 5.128123
-0.374323 5.177522
-0.369116 5.225207
-0.363862 5.271829
-0.358562 5.317934
-0.353217 5.361874
-0.347828 5.404712
-0.342397 5.446044
-0.336925 5.485870
-0.331415 5.523312
-0.325868 5.559970
-0.320284 5.594767
-0.314668 5.627952
-0.309017 5.660796
-0.303335 5.691298
-0.297624 5.721353
-0.291882 5.749921
-0.286113 5.776899
-0.280317 5.803107
-0.274496 5.827473
-0.268650 5.851288
-0.262782 5.873572
-0.256892 5.894138
-0.250982 5.914243
-0.245052 5.932845
-0.239105 5.950300
-0.233140 5.966968
-0.227159 5.981807
-0.221164 5.996588
-0.215155 6.010188
-0.209132 6.022565
-0.203097 6.034660
-0.197051 6.045737
-0.190994 6.055885
-0.184927 6.065938
-0.178850 6.075197
-0.172765 6.083678
-0.166671 6.091432
-0.160570 6.099636
-0.154460 6.106599
-0.148344 6.113487
-0.142221 6.120999
-0.136091 6.127061
-0.129954 6.133163
-0.123812 6.138952
-0.117664 6.144974
-0.111510 6.151111
-0.105350 6.156443
-0.099184 6.162947
-0.093011 6.171898
-0.086828 6.179578
-0.080640 6.183455
-0.074449 6.186758
-0.068254 6.192073
-0.062053 6.196165
-0.055849 6.199232
-0.049642 6.203095
-0.043431 6.206909
-0.037216 6.210807
-0.030996 6.216449
-0.024771 6.221365
-0.018541 6.226234
-0.012306 6.230536
-0.006068 6.232966
0.000172 6.234877
0.006414 6.235365
0.012656 6.236312
0.018898 6.236106
0.025140 6.234190
0.031379 6.231850
0.037616 6.228931
0.043849 6.223921
0.050076 6.217513
0.056296 6.210758
0.062509 6.201505
0.068711 6.190716
0.074902 6.178569
0.081080 6.163593
0.087241 6.147601
0.093386 6.129222
0.099511 6.108589
0.105615 6.085630
0.111694 6.060156
0.117747 6.032888
0.123771 6.002506
0.129763 5.970539
0.135723 5.936620
0.141647 5.899028
0.147532 5.860025
0.153378 5.819194
0.159181 5.775267
0.164940 5.729818
0.170652 5.681413
0.176314 5.631402
0.181925 5.579351
0.187482 5.524430
0.192984 5.468142
0.198429 5.409341
0.203813 5.348667
0.209136 5.285382
0.214394 5.220189
0.219586 5.153365
0.224710 5.084823
0.229765 5.014069
0.234748 4.942250
0.239659 4.869535
0.244496 4.794905
0.249259 4.720023
0.253945 4.643534
0.258555 4.567363
0.263089 4.491164
0.267546 4.413200
0.271925 4.336602
0.276228 4.260140
0.280453 4.181957
0.284600 4.103974
0.288669 4.024384
0.292657 3.945336
0.296568 3.867098
0.300399 3.789023
0.304153 3.710074
0.307826 3.628975
0.311418 3.547738
0.314928 3.465328
0.318355 3.382085
0.321699 3.298184
0.324958 3.212937
0.328131 3.126484
0.331217 3.039551
0.334217 2.953881
0.337127 2.857454
0.339949 2.795680
0.342681 2.606114
0.345027 2.000340
0.346697 1.428145
0.347608 0.022481
0.346399 -2.412458
0.343035 -4.077594
0.338625 -4.574507
0.334136 -4.295443
0.330149 -3.648062
0.326836 -2.990105
0.324109 -2.491478
0.321783 -2.189782
0.319669 -2.058406
0.317620 -2.051389
0.315535 -2.125964
0.313348 -2.248922
0.311022 -2.402727
0.308532 -2.574815
0.305864 -2.757571
0.303009 -2.945603
0.299966 -3.135477
0.296728 -3.335781
0.293284 -3.548255
0.289624 -3.764225
0.285749 -3.975498
0.281668 -4.175497
0.277395 -4.359244
0.272948 -4.523146
0.268347 -4.664817
0.263616 -4.785931
0.258773 -4.886106
0.253840 -4.968977
0.248829 -5.039941
0.243753 -5.099589
0.238621 -5.153220
0.233437 -5.206337
0.228197 -5.262675
0.222898 -5.327467
0.217527 -5.405811
0.212070 -5.500808
0.206508 -5.615264
0.200821 -5.751562
0.194986 -5.909548
0.188983 -6.088104
0.182792 -6.285226
0.176396 -6.496194
0.169783 -6.718160
0.162944 -6.946858
0.155874 -7.177438
0.148575 -7.407044
0.141047 -7.631806
0.133298 -7.848400
0.125338 -8.055647
0.117175 -8.251590
0.108822 -8.435012
0.100291 -8.608194
0.091592 -8.772065
0.082731 -8.932384
0.073707 -9.097501
0.064515 -9.269780
0.055147 -9.447968
0.045599 -9.631552
0.035863 -9.820232
0.025937 -10.012290
0.015816 -10.211140
0.005493 -10.415842
-0.005038 -10.625676
-0.015782 -10.841210
-0.026744 -11.062027
-0.037928 -11.282152
-0.049337 -11.520114
-0.060951 -11.639073
-0.072501 -11.346298
-0.083563 -10.742888
-0.094012 -10.150074
-0.103915 -9.651429
-0.113364 -9.242028
-0.122443 -8.907532
-0.131214 -8.625043
-0.139722 -8.378590
-0.147996 -8.156068
-0.156056 -7.949001
-0.163913 -7.752899
-0.171580 -7.565620
-0.179062 -7.384778
-0.186366 -7.210230
-0.193499 -7.041310
-0.200465 -6.878009
-0.207270 -6.718771
-0.213918 -6.566638
-0.220418 -6.419007
-0.226771 -6.276020
-0.232984 -6.137792
-0.239060 -6.002879
-0.245003 -5.872947
-0.250818 -5.745716
-0.256507 -5.621338
-0.262073 -5.499808
-0.267518 -5.380182
-0.272845 -5.263138
-0.278056 -5.148536
-0.283153 -5.034987
-0.288137 -4.924042
-0.293011 -4.814739
-0.297777 -4.707164
-0.302436 -4.602504
-0.306992 -4.499978
-0.311446 -4.399616
-0.315801 -4.302186
-0.320059 -4.207065
-0.324224 -4.114842
-0.328299 -4.026091
-0.332285 -3.939688
-0.336187 -3.855931
-0.340006 -3.775666
-0.343746 -3.697984
-0.347410 -3.622318
-0.350999 -3.550112
-0.354518 -3.479839
-0.357967 -3.411653
-0.361349 -3.345814
-0.364666 -3.281286
-0.367919 -3.218662
-0.371110 -3.157798
-0.374241 -3.097967
-0.377312 -3.039392
-0.380326 -2.981961
-0.383283 -2.926116
-0.386185 -2.871684
-0.389032 -2.818219
-0.391827 -2.766209
-0.394571 -2.715307
-0.397264 -2.665846
-0.399908 -2.617685
-0.402505 -2.570869
-0.405055 -2.525370
-0.407561 -2.481306
-0.410023 -2.438530
-0.412444 -2.397099
-0.414823 -2.356991
-0.417163 -2.318138
-0.419464 -2.280509
-0.421729 -2.244034
-0.423957 -2.208629
-0.426151 -2.174357
-0.428311 -2.140969
-0.430437 -2.108611
-0.432532 -2.077120
-0.434596 -2.046381
-0.436629 -2.016510
-0.438633 -1.987383
-0.440608 -1.958991
-0.442555 -1.931277
-0.444475 -1.904370
-0.446368 -1.878105
-0.448235 -1.852548
-0.450077 -1.827727
-0.451895 -1.803605
-0.453688 -1.780260
-0.455459 -1.757507
-0.457207 -1.735510
-0.458934 -1.714147
-0.460639 -1.693243
-0.462324 -1.673120
-0.463989 -1.653527
-0.465634 -1.634484
-0.467261 -1.616095
-0.468870 -1.598233
-0.470461 -1.581084
-0.472035 -1.564386
-0.473593 -1.548204
-0.475135 -1.532653
-0.476662 -1.517520
-0.478173 -1.502968
-0.479671 -1.488817
-0.481154 -1.475181
-0.482624 -1.462131
-0.484082 -1.449677
-0.485527 -1.437901
-0.486961 -1.427358
-0.488385 -1.418247
-0.489800 -1.409848
-0.491207 -1.401856
-0.492607 -1.393570
-0.493997 -1.384415
-0.495378 -1.374594
-0.496749 -1.364488
-0.498110 -1.354915
-0.499462 -1.346518
-0.500806 -1.339540
-0.502144 -1.332650
-0.503476 -1.330238
-0.504802 -1.312697
-0.506124 -1.355807
-0.507445 -1.185507
-0.508712 -1.657975
-0.510214 -0.480320
-0.502571 9.533774
