0.016387 0.039069 -0.000020
0.411490 -32.334502
0.368090 -54.283225
0.303009 -75.650926
0.217114 -95.586732
0.112705 -112.344099
-0.007225 -127.379645
-0.139808 -134.918670
-0.281262 -154.236644
-0.413085 -67.143917
-0.418047 12.869459
-0.419851 -4.611630
-0.419382 1.575354
-0.419445 -0.473494
-0.419446 0.127769
-0.419443 -0.032657
-0.419444 0.008279
-0.419444 -0.002146
-0.419444 0.000573
-0.419444 -0.000156
-0.419444 0.000042
-0.419444 -0.000011
-0.419444 0.000003
-0.419444 -0.000001
-0.419444 0.000000
-0.419444 -0.000000
-0.419444 0.000000
-0.419444 -0.000000
-0.419444 0.000000
-0.419444 -0.000000
-0.419444 0.000000
-0.419444 -0.000000
-0.419444 0.000000
-0.419444 -0.000000
-0.419444 0.000000
-0.419444 -0.000000
-0.419444 0.000000
-0.419444 -0.000000
-0.419444 0.000000
-0.419444 -0.000000
-0.419444 0.000000
-0.419444 -0.000000
-0.419444 0.000000
-0.419444 -0.000000
-0.419444 0.000000
-0.419444 -0.000000
-0.419444 0.000000
-0.419444 -0.000000
-0.419444 0.000000
-0.419444 -0.000000
-0.419444 0.000000
-0.419444 -0.000000
-0.419444 0.000000
-0.419444 -0.000000
-0.419444 0.000000
-0.419444 -0.000000
-0.419444 0.000000
-0.419444 -0.000000
-0.419444 0.000000
-0.419444 -0.000000
-0.419444 0.000000
-0.419444 -0.000000
-0.419444 0.000000
-0.419444 -0.000000
-0.419444 0.000000
-0.419444 -0.000000
-0.419444 0.000000
-0.419444 -0.000000
-0.419444 0.000000
-0.419444 -0.000000
-0.419444 0.000000
-0.419444 -0.000000
-0.419444 0.000000
-0.419444 -0.000000
-0.419444 0.000000
-0.419444 -0.000000
-0.419444 0.000000
-0.419444 -0.000000
-0.419444 0.000000
-0.419444 -0.000000
-0.419444 0.000000
-0.419444 -0.000000
-0.419444 0.000000
-0.419444 -0.000000
-0.419444 0.000000
-0.419444 -0.000000
-0.419444 0.000000
-0.419444 -0.000000
-0.419444 0.000000
-0.419444 -0.000000
-0.419444 0.000000
-0.419444 -0.000000
-0.419444 0.000000
-0.419444 -0.000000
-0.419444 0.000000
-0.419444 -0.000000
-0.419444 0.000000
-0.419444 -0.000000
-0.419444 0.000000
-0.419444 -0.000000
-0.419444 0.000000
-0.419444 -0.000000
-0.419444 0.000000
-0.419444 -0.000000
-0.419444 0.000000
-0.419444 -0.000000
-0.419444 0.000000
-0.419444 -0.000000
-0.419444 0.000000
-0.419444 -0.000000
-0.419444 0.000000
-0.419444 -0.000000
-0.419444 0.000000
-0.419444 -0.000000
-0.419444 0.000000
-0.419444 -0.000000
-0.419444 0.000000
-0.419444 -0.000000
-0.419444 0.000000
-0.419444 -0.000000
-0.419444 0.000000
-0.419444 -0.000000
-0.419444 0.000000
-0.419444 -0.000000
-0.419444 0.000000
-0.419444 -0.000000
-0.419444 0.000000
-0.419444 -0.000000
-0.419444 0.000000
-0.419444 -0.000000
-0.419444 0.000000
-0.419444 -0.000000
-0.419444 0.000000
-0.419444 -0.000000
-0.419444 0.000000
-0.419444 -0.000000
-0.419444 0.000000
-0.419444 -0.000000
-0.419444 0.000000
-0.419444 -0.000000
-0.419444 0.000000
-0.419444 -0.000000
-0.419444 0.000000
-0.419444 -0.000000
-0.419444 0.000000
-0.419444 -0.000000
-0.419444 0.000000
-0.419444 -0.000000
-0.419444 0.000000
-0.419444 -0.000000
-0.419444 0.000000
-0.419444 -0.000000
-0.419444 0.000000
-0.419444 -0.000000
-0.419444 0.000000
-0.419444 -0.000000
-0.419444 0.000000
-0.419444 -0.000000
-0.419444 0.000000
-0.419444 -0.000000
-0.419444 0.000000
-0.419444 -0.000000
-0.419444 0.000000
-0.419444 -0.000000
-0.419444 0.000000
-0.419444 -0.000000
-0.419444 0.000000
-0.419444 -0.000000
-0.419444 0.000000
-0.419444 -0.000000
-0.419444 0.000000
-0.419444 -0.000000
-0.419444 0.000000
-0.419444 -0.000000
-0.419444 0.000000
-0.419444 -0.000000
-0.419444 0.000000
-0.419444 -0.000000
-0.419444 0.000000
-0.419444 -0.000000
-0.419444 0.000000
-0.419444 -0.000000
-0.419444 0.000000
-0.419444 -0.000000
-0.419444 0.000000
-0.419444 -0.000000
-0.419444 0.000000
-0.419444 -0.000000
-0.419444 0.000000
-0.419444 -0.000000
-0.419444 0.000000
-0.419444 -0.000000
-0.419444 0.000000
-0.419444 -0.000000
-0.419444 0.000000
-0.419444 -0.000000
-0.419444 0.000000
-0.419444 -0.000000
-0.419444 0.000000
-0.419444 -0.000000
-0.419444 0.000000
-0.419444 -0.000000
-0.419444 0.000000
-0.419444 -0.000000
-0.419444 0.000000
-0.419444 -0.000000
-0.419444 0.000000
-0.419444 -0.000000
-0.419444 0.000000
-0.419444 -0.000000
-0.419444 0.000000
-0.419444 -0.000000
-0.419444 0.000000
-0.419444 -0.000000
-0.419444 0.000000
-0.419444 -0.000000
-0.419444 0.000000
-0.419444 -0.000000
-0.419444 0.000000
-0.419444 -0.000000
-0.419444 0.000000
-0.419444 -0.000000
-0.419444 0.000000
-0.419444 -0.000000
-0.419444 0.000000
-0.419444 -0.000000
-0.419444 0.000000
-0.419444 -0.000000
-0.419444 0.000000
-0.419444 -0.000000
-0.419444 0.000000
-0.419444 -0.000000
-0.419444 0.000000
-0.419444 -0.000000
-0.419444 0.000000
-0.419444 -0.000000
-0.419444 0.000000
-0.419444 -0.000000
-0.419444 0.000000
-0.419444 -0.000000
-0.419444 0.000000
-0.419444 -0.000000
-0.419444 0.000000
-0.419444 -0.000000
-0.419444 0.000000
-0.419444 -0.000000
-0.419444 0.000000
-0.419444 -0.000000
-0.419444 0.000000
-0.419444 -0.000000
-0.419444 0.000000
-0.419444 -0.000000
-0.419444 0.000000
-0.419444 -0.000000
-0.419444 0.000000
-0.419444 -0.000000
-0.419444 0.000000
-0.419444 -0.000000
-0.419444 0.000000
-0.419444 -0.000000
-0.419444 0.000000
-0.419444 -0.000000
-0.419444 0.000000
-0.419444 -0.000000
-0.419444 0.000000
-0.419444 -0.000000
-0.419444 0.000000
-0.419444 -0.000000
-0.419444 0.000000
-0.419444 -0.000000
-0.419444 0.000000
-0.419444 -0.000000
-0.419444 0.000000
-0.419444 -0.000000
-0.419444 0.000000
-0.419444 -0.000000
-0.419444 0.000000
-0.419444 -0.000000
-0.419444 0.000000
-0.419444 -0.000000
-0.419444 0.000000
-0.419444 -0.000000
-0.419444 0.000000
-0.419444 -0.000000
-0.419444 0.000000
-0.419444 -0.000000
-0.419444 0.000000
-0.419444 -0.000000
-0.419444 0.000000
-0.419444 -0.000000
-0.419444 0.000000
-0.419444 0.000000
-0.419444 -0.000000
-0.419444 0.000000
-0.419444 -0.000000
-0.419444 0.000000
-0.419444 -0.000000
-0.419444 0.000000
-0.419444 -0.000000
-0.419444 0.000000
-0.419444 -0.000000
-0.419444 0.000000
-0.419444 -0.000000
-0.419444 0.000000
-0.419444 -0.000000
-0.419444 0.000000
-0.419444 -0.000000
-0.419444 0.000000
-0.419444 -0.000000
-0.419444 0.000000
-0.419444 -0.000000
-0.419444 0.000000
-0.419444 -0.000000
-0.419444 0.000000
-0.419444 -0.000000
-0.419444 0.000000
-0.419444 -0.000000
-0.419444 0.000000
-0.419444 -0.000000
-0.419444 0.000000
-0.419444 -0.000000
-0.419444 0.000000
-0.419444 -0.000000
-0.419444 0.000000
-0.419444 -0.000000
-0.419444 0.000000
-0.419444 -0.000000
-0.419444 0.000000
-0.419444 -0.000000
-0.419444 0.000000
-0.419444 -0.000000
-0.419444 0.000000
-0.419444 -0.000000
-0.419444 0.000000
-0.419444 -0.000000
-0.419444 0.000000
-0.419444 -0.000000
-0.419444 0.000000
-0.419444 -0.000000
-0.419444 0.000000
-0.419444 -0.000000
-0.419444 0.000000
-0.419444 -0.000000
-0.419444 0.000000
-0.419444 -0.000000
-0.419444 0.000000
-0.419444 -0.000000
-0.419444 0.000000
-0.419444 -0.000000
-0.419444 0.000000
-0.419444 -0.000000
-0.419444 0.000000
-0.419444 -0.000000
-0.419444 0.000000
-0.419444 -0.000000
-0.419444 0.000000
-0.419444 -0.000000
-0.419444 0.000000
-0.419444 -0.000000
-0.419444 0.000000
-0.419444 -0.000000
-0.419444 0.000000
-0.419444 -0.000000
-0.419444 0.000000
-0.419444 -0.000000
-0.419444 0.000000
-0.419444 -0.000000
-0.419444 0.000000
-0.419444 -0.000000
-0.419444 0.000000
-0.419444 -0.000000
-0.419444 0.000000
-0.419444 -0.000000
-0.419444 0.000000
-0.419444 -0.000000
-0.419444 0.000000
-0.419444 -0.000000
-0.419444 0.000000
-0.419444 -0.000000
-0.419444 0.000000
-0.419444 -0.000000
-0.419444 0.000000
-0.419444 -0.000000
-0.419444 0.000000
-0.419444 -0.000000
-0.419444 0.000000
-0.419444 -0.000000
-0.419444 0.000000
-0.419444 -0.000000
-0.419444 0.000000
-0.419444 -0.000000
-0.419444 0.000000
-0.419444 -0.000000
-0.419444 0.000000
-0.419444 -0.000000
-0.419444 0.000000
-0.419444 -0.000000
-0.419444 0.000000
-0.419444 -0.000000
-0.419444 0.000000
-0.419444 -0.000000
-0.419444 0.000000
-0.419444 -0.000000
-0.419444 0.000000
-0.419444 -0.000000
-0.419444 0.000000
-0.419444 -0.000000
-0.419444 0.000000
-0.419444 -0.000000
-0.419444 0.000000
-0.419444 -0.000000
-0.419444 0.000000
-0.419444 -0.000000
-0.419444 0.000000
-0.419444 -0.000000
-0.419444 0.000000
-0.419444 -0.000000
-0.419444 0.000000
-0.419444 -0.000000
-0.419444 0.000000
-0.419444 -0.000000
-0.419444 0.000000
-0.419444 -0.000000
-0.419444 0.000000
-0.419444 -0.000000
-0.419444 0.000000
-0.419444 -0.000000
-0.419444 0.000000
-0.419444 -0.000000
-0.419444 0.000000
-0.419444 -0.000000
-0.419444 0.000000
-0.419444 -0.000000
-0.419444 0.000000
-0.419444 -0.000000
-0.419444 0.000000
-0.419444 -0.000000
-0.419444 0.000000
-0.419444 -0.000000
-0.419444 0.000000
-0.419444 -0.000000
-0.419444 0.000000
-0.419444 -0.000000
-0.419444 0.000000
-0.419444 -0.000000
-0.419444 0.000000
-0.419444 -0.000000
-0.419444 0.000000
-0.419444 -0.000000
-0.419444 0.000000
-0.419444 -0.000000
-0.419444 0.000000
-0.419444 -0.000000
-0.419444 0.000000
-0.419444 -0.000000
-0.419444 0.000000
-0.419444 -0.000000
-0.419444 0.000000
-0.419444 -0.000000
-0.419444 0.000000
-0.419444 -0.000000
-0.419444 0.000000
-0.419444 -0.000000
-0.419444 0.000000
-0.419444 -0.000000
-0.419444 0.000000
-0.419444 -0.000000
-0.419444 0.000000
-0.419444 -0.000000
-0.419444 0.000000
-0.419444 -0.000000
-0.419444 0.000000
-0.419444 -0.000000
-0.419444 0.000000
-0.419444 -0.000000
-0.419444 0.000000
-0.419444 -0.000000
-0.419444 0.000000
-0.419444 -0.000000
-0.419444 0.000000
-0.419444 -0.000000
-0.419444 0.000000
-0.419444 -0.000000
-0.419444 0.000000
-0.419444 -0.000000
-0.419444 0.000000
-0.419444 -0.000000
-0.419444 0.000000
-0.419444 -0.000000
-0.419444 0.000000
-0.419444 -0.000000
-0.419444 0.000000
-0.419444 -0.000000
-0.419444 0.000000
-0.419444 -0.000000
-0.419444 0.000000
-0.419444 -0.000000
-0.419444 0.000000
-0.419444 -0.000000
-0.419444 0.000000
-0.419444 -0.000000
-0.419444 0.000000
-0.419444 -0.000000
-0.419444 0.000000
-0.419444 -0.000000
-0.419444 0.000000
-0.419444 -0.000000
-0.419444 0.000000
-0.419444 -0.000000
-0.419444 0.000000
-0.419444 -0.000000
-0.419444 0.000000
-0.419444 -0.000000
-0.419444 0.000000
-0.419444 -0.000000
-0.419444 0.000000
-0.419444 -0.000000
-0.419444 0.000000
-0.419444 -0.000000
-0.419444 0.000000
-0.419444 -0.000000
-0.419444 0.000000
-0.419444 -0.000000
-0.419444 0.000000
-0.419444 -0.000000
-0.419444 0.000000
-0.419444 -0.000000
-0.419444 0.000000
-0.419444 -0.000000
-0.419444 0.000000
-0.419444 -0.000000
-0.419444 0.000000
-0.419444 -0.000000
-0.419444 0.000000
-0.419444 -0.000000
-0.419444 0.000000
-0.419444 -0.000000
-0.419444 0.000000
-0.419444 -0.000000
-0.419444 0.000000
-0.419444 -0.000000
-0.419444 0.000000
-0.419444 -0.000000
-0.419444 0.000000
-0.419444 -0.000000
-0.419444 0.000000
-0.419444 -0.000000
-0.419444 0.000000
-0.419444 -0.000000
-0.419444 0.000000
-0.419444 -0.000000
-0.419444 0.000000
-0.419444 -0.000000
-0.419444 0.000000
-0.419444 -0.000000
-0.419444 0.000000
-0.419444 -0.000000
-0.419444 0.000000
-0.419444 -0.000001
-0.419444 0.000003
-0.419444 -0.000010
-0.419444 0.000036
-0.419444 -0.000139
-0.419444 0.000537
-0.419444 -0.002051
-0.419444 0.007520
-0.419443 -0.025774
-0.419448 0.083200
-0.419431 -0.271986
-0.419427 1.066711
-0.416351 5.235624
-0.408892 9.564060
-0.399071 8.296123
-0.383836 32.345433
-0.304716 145.106616
-0.097662 244.890736
0.156288 256.959352
0.412110 255.059438
0.667079 253.641691
0.919286 250.379904
1.168152 246.556314
1.412651 242.011184
1.652073 235.710382
1.882977 224.711859
2.102018 213.927384
2.313357 209.427619
2.522255 207.810637
2.729038 205.125447
2.932337 200.703839
3.130448 195.085936
3.322250 187.520841
3.503809 173.794401
3.667845 153.051946
3.809852 131.207627
3.931471 112.203009
4.035237 95.460252
4.123388 81.130528
4.198531 69.410647
4.263137 60.056445
4.319261 52.190681
4.367896 45.141463
4.409914 38.929434
4.446036 33.327683
4.476790 28.187117
4.502599 23.442691
4.523859 19.107591
4.540988 15.179490
4.554386 11.664758
4.564461 8.511175
4.571534 5.682034
4.575945 3.177909
4.577968 0.891170
4.577467 -2.182394
4.572984 -7.098440
4.562875 -13.154719
4.546525 -19.581943
4.523534 -26.423752
4.493485 -33.684556
4.455953 -41.377680
4.410501 -49.507059
4.356696 -58.066374
4.294114 -67.039474
4.222357 -76.391343
4.141064 -86.085446
4.049919 -96.063335
3.948669 -106.269986
3.837116 -116.626528
3.715162 -127.044207
3.582777 -137.451861
3.440021 -147.744584
3.287060 -157.832065
3.124141 -167.619061
2.951620 -177.006191
2.769941 -185.895467
2.579666 -194.159632
2.381468 -201.719501
2.176083 -208.499245
1.964338 -214.421012
1.747112 -219.442620
1.525338 -223.492405
1.299985 -226.627655
1.072038 -228.537983
0.842562 -230.117451
0.612299 -228.827990
0.385606 -224.066409
0.163364 -220.363944
-0.055932 -217.768879
-0.261016 -180.429257
-0.393761 -72.986917
-0.418958 -0.975981
-0.419460 -0.129409
-0.419441 0.048309
-0.419444 -0.015527
-0.419444 0.004352
-0.419444 -0.001122
-0.419444 0.000281
-0.419444 -0.000071
-0.419444 0.000019
-0.419444 -0.000005
-0.419444 0.000001
-0.419444 -0.000000
-0.419444 0.000000
-0.419444 -0.000000
-0.419444 0.000000
-0.419444 -0.000000
-0.419444 0.000000
-0.419444 -0.000000
-0.419444 0.000000
-0.419444 -0.000000
-0.419444 0.000000
-0.419444 -0.000000
-0.419444 0.000000
-0.419444 -0.000000
-0.419444 0.000000
-0.419444 -0.000000
-0.419444 0.000000
-0.419444 -0.000000
-0.419444 0.000000
-0.419444 -0.000000
-0.419444 0.000000
-0.419444 -0.000000
-0.419444 0.000000
-0.419444 -0.000000
-0.419444 0.000000
-0.419444 -0.000000
-0.419444 0.000000
-0.419444 -0.000000
-0.419444 0.000000
-0.419444 -0.000000
-0.419444 0.000000
-0.419444 -0.000000
-0.419444 0.000000
-0.419444 -0.000000
-0.419444 0.000000
-0.419444 -0.000000
-0.419444 0.000000
-0.419444 -0.000000
-0.419444 0.000000
-0.419444 -0.000000
-0.419444 0.000000
-0.419444 -0.000000
-0.419444 0.000000
-0.419444 -0.000000
-0.419444 0.000000
-0.419444 -0.000000
-0.419444 0.000000
-0.419444 -0.000000
-0.419444 0.000000
-0.419444 -0.000000
-0.419444 0.000000
-0.419444 -0.000000
-0.419444 0.000000
-0.419444 -0.000000
-0.419444 0.000000
-0.419444 -0.000000
-0.419444 0.000000
-0.419444 -0.000000
-0.419444 0.000000
-0.419444 -0.000000
-0.419444 0.000000
-0.419444 -0.000000
-0.419444 0.000000
-0.419444 0.000000
-0.419444 -0.000000
-0.419444 0.000000
-0.419444 -0.000000
-0.419444 0.000000
-0.419444 -0.000000
-0.419444 0.000000
-0.419444 -0.000000
-0.419444 0.000000
-0.419444 -0.000000
-0.419444 0.000000
-0.419444 -0.000000
-0.419444 0.000000
-0.419444 -0.000000
-0.419444 0.000000
-0.419444 -0.000000
-0.419444 0.000000
-0.419444 -0.000000
-0.419444 0.000000
-0.419444 -0.000000
-0.419444 0.000000
-0.419444 -0.000000
-0.419444 0.000000
-0.419444 -0.000000
-0.419444 0.000000
-0.419444 -0.000000
-0.419444 0.000000
-0.419444 -0.000000
-0.419444 0.000000
-0.419444 -0.000000
-0.419444 0.000000
-0.419444 -0.000000
-0.419444 0.000000
-0.419444 -0.000000
-0.419444 0.000000
-0.419444 -0.000000
-0.419444 0.000000
-0.419444 -0.000000
-0.419444 0.000000
-0.419444 -0.000000
-0.419444 0.000000
-0.419444 -0.000000
-0.419444 0.000000
-0.419444 -0.000000
-0.419444 0.000000
-0.419444 -0.000000
-0.419444 0.000000
-0.419444 -0.000000
-0.419444 0.000000
-0.419444 -0.000000
-0.419444 0.000000
-0.419444 -0.000000
-0.419444 0.000000
-0.419444 -0.000000
-0.419444 0.000000
-0.419444 -0.000000
-0.419444 0.000000
-0.419444 -0.000000
-0.419444 0.000000
-0.419444 -0.000000
-0.419444 0.000000
-0.419444 -0.000001
-0.419444 0.000004
-0.419444 -0.000014
-0.419444 0.000052
-0.419444 -0.000191
-0.419444 0.000732
-0.419444 -0.002939
-0.419443 0.011977
-0.419444 -0.046458
-0.419448 0.159762
-0.419398 -0.453318
-0.419666 1.001087
-0.418246 -0.100127
-0.407728 35.175921
-0.343254 84.147623
-0.250045 100.810229
-0.145172 106.264097
-0.040938 100.827885
0.053960 87.222064
0.131726 67.757794
0.189760 48.739627
0.230620 33.667523
0.258602 22.910060
0.277633 15.590889
0.290614 10.665489
0.299522 7.348832
0.305691 5.125513
0.310041 3.675408
0.313241 2.801767
0.315804 2.388732
0.318127 2.286786
0.320421 2.300066
0.322732 2.313361
0.325043 2.300754
0.327334 2.274149
0.329601 2.262538
0.331881 2.303438
0.334239 2.424114
0.336762 2.630845
0.339531 2.911894
0.342609 3.242963
0.346030 3.593529
0.349799 3.931444
0.353885 4.223161
0.358229 4.441610
0.362746 4.566216
0.367335 4.583610
0.371885 4.489696
0.376288 4.289622
0.380442 3.996424
0.384263 3.627222
0.387686 3.203338
0.390665 2.745445
0.393177 2.272971
0.395216 1.802997
0.396793 1.350639
0.397928 0.921504
0.398652 0.534806
0.398988 0.116163
0.398821 -0.493043
0.397966 -1.206869
0.396436 -1.826246
0.394365 -2.280216
0.391929 -2.559197
0.389294 -2.680127
0.386611 -2.658689
0.384012 -2.516289
0.381607 -2.274989
0.379483 -1.958082
0.377703 -1.590660
0.376308 -1.193288
0.375316 -0.791164
0.374725 -0.386754
0.374510 -0.076453
0.374525 0.093695
0.374679 0.208576
0.374936 0.303408
0.375284 0.389073
0.375711 0.461386
0.376203 0.518862
0.376744 0.560903
0.377320 0.587592
0.377916 0.599316
0.378516 0.597400
0.379108 0.584037
0.379682 0.561523
0.380229 0.531512
0.380744 0.496613
0.381223 0.459135
0.381663 0.421073
0.382067 0.385204
0.382436 0.352673
0.382774 0.324954
0.383088 0.304001
0.383385 0.290385
0.383672 0.284742
0.383958 0.286988
0.384249 0.296344
0.384554 0.312661
0.384877 0.335424
0.385227 0.362757
0.385605 0.393946
0.386016 0.427938
0.386462 0.463245
0.386944 0.498486
0.387460 0.532426
0.388009 0.564460
0.388589 0.593620
0.389196 0.618366
0.389826 0.639467
0.390474 0.655532
0.391136 0.666557
0.391808 0.673551
0.392483 0.675284
0.393158 0.673128
0.393829 0.667482
0.394493 0.658328
0.395147 0.646600
0.395787 0.633406
0.396414 0.618453
0.397025 0.603025
0.397621 0.587607
0.398202 0.572442
0.398768 0.558073
0.399319 0.544928
0.399859 0.533701
0.400388 0.523329
0.400907 0.514777
0.401420 0.508549
0.401926 0.503421
0.402428 0.500156
0.402928 0.498041
0.403425 0.496762
0.403923 0.497057
0.404421 0.497526
0.404919 0.498223
0.405418 0.499455
0.405919 0.500467
0.406420 0.501419
0.406922 0.501626
0.407424 0.501473
0.407926 0.500686
0.408426 0.498941
0.408925 0.497035
0.409421 0.493783
0.409913 0.489991
0.410402 0.485863
0.410886 0.481162
0.411365 0.475397
0.411837 0.469808
0.412305 0.464313
0.412767 0.457734
0.413222 0.452104
0.413672 0.446388
0.414115 0.440235
0.414553 0.434874
0.414986 0.430197
0.415415 0.425252
0.415838 0.420855
0.416257 0.417463
0.416674 0.414017
0.417087 0.411194
0.417497 0.408810
0.417905 0.406690
0.418311 0.404914
0.418716 0.403696
0.419119 0.402291
0.419521 0.401398
0.419923 0.400646
0.420323 0.399610
0.420723 0.399090
0.421122 0.398073
0.421520 0.397368
0.421918 0.396443
0.422314 0.395672
0.422710 0.395236
0.423105 0.393871
0.423499 0.393133
0.423892 0.392521
0.424284 0.391394
0.424676 0.390683
0.425066 0.389904
0.425456 0.389187
0.425846 0.388641
0.426234 0.387804
0.426622 0.387638
0.427010 0.387232
0.427398 0.387128
0.427785 0.386961
0.428172 0.386970
0.428560 0.387552
0.428948 0.387714
0.429337 0.388394
0.429726 0.389032
0.430115 0.389729
0.430506 0.390564
0.430898 0.391770
0.431290 0.392873
0.431684 0.394237
0.432079 0.395582
0.432476 0.397010
0.432874 0.398530
0.433274 0.399814
0.433675 0.401727
0.434078 0.403171
0.434482 0.404679
0.434888 0.406225
0.435295 0.407776
0.435705 0.409291
0.436115 0.411745
0.436528 0.411290
0.436942 0.421126
0.437358 0.391385
0.437776 0.512797
0.438211 0.113588
0.438517 1.254135
0.439404 -1.554443
0.411490 -32.334502
