0.152650 0.176707 0.547420
-0.818778 -12.366309
-0.828549 -7.849472
-0.835879 -7.489701
-0.841002 0.486366
-0.835145 7.744639
-0.827337 9.488347
-0.814896 14.989270
-0.797557 19.805218
-0.775368 24.254285
-0.748731 29.508613
-0.718617 27.794700
-0.697148 13.908703
-0.689030 5.240766
-0.683936 4.722701
-0.679658 3.958126
-0.675881 3.586892
-0.672460 3.265365
-0.669336 2.966042
-0.666483 2.783112
-0.663866 2.296407
-0.662223 0.800026
-0.662370 -1.012532
-0.664076 -2.304300
-0.666865 -3.242486
-0.670344 -3.509980
-0.673550 -2.752332
-0.675672 -1.448368
-0.676341 0.180657
-0.675179 2.201512
-0.671978 4.089137
-0.667165 5.461024
-0.661206 6.349507
-0.654633 6.698942
-0.647925 6.659787
-0.641364 6.428581
-0.635078 6.126699
-0.629112 5.784284
-0.623478 5.502133
-0.618141 5.089427
-0.613129 5.156591
-0.607716 5.525086
-0.602317 5.146574
-0.597563 4.318846
-0.593708 3.378957
-0.590790 2.462317
-0.588750 1.632068
-0.587489 0.903511
-0.586908 0.274223
-0.586910 -0.265093
-0.587413 -0.728933
-0.588344 -1.116891
-0.589618 -1.412563
-0.591137 -1.604161
-0.592803 -1.714171
-0.594552 -1.772043
-0.596335 -1.785160
-0.598114 -1.762048
-0.599853 -1.707595
-0.601523 -1.625195
-0.603098 -1.518108
-0.604555 -1.389991
-0.605874 -1.242156
-0.607036 -1.075399
-0.608022 -0.892324
-0.608818 -0.696009
-0.609412 -0.489350
-0.609795 -0.275045
-0.609961 -0.056190
-0.609906 0.165003
-0.609630 0.387533
-0.609130 0.611063
-0.608406 0.836180
-0.607455 1.063558
-0.606276 1.294093
-0.604863 1.528642
-0.603214 1.768132
-0.601321 2.014115
-0.599179 2.268350
-0.596777 2.532643
-0.594104 2.808549
-0.591149 3.098509
-0.587897 3.400672
-0.584334 3.725780
-0.580441 4.042669
-0.576210 4.450926
-0.571599 4.651781
-0.566938 4.730180
-0.561775 5.869987
-0.556690 2.500591
-0.557245 -2.295566
-0.558509 1.232223
-0.553651 8.139346
-0.542755 13.425306
-0.527259 17.255650
-0.508665 19.719998
-0.488128 21.138888
-0.466687 21.531422
-0.445326 21.013630
-0.424866 19.752235
-0.405988 17.873611
-0.389247 15.503658
-0.375061 12.799195
-0.363644 10.030008
-0.354876 7.575477
-0.348269 5.749325
-0.343133 4.622123
-0.338829 4.053242
-0.334898 3.843361
-0.331063 3.846542
-0.327176 3.915000
-0.323266 3.861527
-0.319487 3.681462
-0.315868 3.584137
-0.312234 3.721201
-0.308342 4.086416
-0.304008 4.585550
-0.299154 5.109695
-0.293798 5.574699
-0.288029 5.930641
-0.281967 6.159998
-0.275739 6.262421
-0.269468 6.249089
-0.263262 6.135368
-0.257214 5.937319
-0.251398 5.672666
-0.245873 5.358255
-0.240683 5.006919
-0.235857 4.633004
-0.231411 4.248446
-0.227353 3.860267
-0.223682 3.475961
-0.220390 3.103814
-0.217461 2.753533
-0.214870 2.426362
-0.212596 2.119278
-0.210619 1.835128
-0.208914 1.575224
-0.207458 1.337572
-0.206229 1.121673
-0.205204 0.931596
-0.204350 0.783738
-0.203618 0.686367
-0.202965 0.622083
-0.202366 0.577375
-0.201805 0.544808
-0.201273 0.519000
-0.200764 0.498711
-0.200273 0.483156
-0.199795 0.472073
-0.199328 0.462259
-0.198869 0.455015
-0.198416 0.450189
-0.197967 0.447890
-0.197518 0.448653
-0.197068 0.452357
-0.196611 0.460122
-0.196145 0.472203
-0.195665 0.488621
-0.195166 0.508830
-0.194645 0.532119
-0.194098 0.560944
-0.193522 0.590501
-0.192915 0.622816
-0.192249 0.732250
-0.191402 0.982337
-0.190237 1.367488
-0.188629 1.860437
-0.186491 2.417294
-0.183785 2.987601
-0.180518 3.534923
-0.176722 4.039839
-0.172452 4.479792
-0.167779 4.844240
-0.162779 5.131017
-0.157530 5.346158
-0.152096 5.501464
-0.146533 5.608127
-0.140880 5.681459
-0.135164 5.736607
-0.129397 5.785346
-0.123581 5.836826
-0.117708 5.899372
-0.111765 5.979775
-0.105730 6.080630
-0.099584 6.202557
-0.093305 6.347695
-0.086868 6.515870
-0.080253 6.704702
-0.073440 6.911356
-0.066409 7.140964
-0.059136 7.391405
-0.051603 7.667576
-0.043774 7.980354
-0.035620 8.312348
-0.027132 8.644480
-0.018316 8.969399
-0.009179 9.282993
0.000265 9.584188
0.010003 9.870167
0.020019 10.139094
0.030297 10.393177
0.040820 10.628852
0.051569 10.844550
0.062525 11.041248
0.073667 11.219118
0.084979 11.379009
0.096442 11.519627
0.108036 11.643615
0.119747 11.751599
0.131558 11.844573
0.143455 11.923129
0.155423 11.988246
0.167452 12.042468
0.179528 12.084222
0.191641 12.116198
0.203782 12.139548
0.215941 12.153584
0.228111 12.160488
0.240284 12.160571
0.252455 12.155308
0.264617 12.144307
0.276766 12.128551
0.288898 12.109036
0.301007 12.085180
0.313091 12.057976
0.325147 12.029085
0.337172 11.996112
0.349162 11.960600
0.361117 11.923712
0.373032 11.883467
0.384907 11.842216
0.396739 11.798515
0.408527 11.753014
0.420268 11.705772
0.431962 11.657101
0.443606 11.607206
0.455199 11.555602
0.466740 11.504112
0.478230 11.451462
0.489665 11.397724
0.501048 11.344558
0.512377 11.291392
0.523654 11.238863
0.534878 11.187014
0.546050 11.136357
0.557173 11.087365
0.568248 11.039902
0.579276 10.994175
0.590259 10.951352
0.601201 10.910371
0.612103 10.872412
0.622969 10.837436
0.633800 10.804750
0.644601 10.776043
0.655375 10.751493
0.666127 10.730452
0.676859 10.713729
0.687577 10.700467
0.698283 10.691831
0.708984 10.688554
0.719683 10.689267
0.730385 10.694999
0.741096 10.705923
0.751820 10.720856
0.762561 10.741690
0.773327 10.767927
0.784120 10.798432
0.794947 10.834877
0.805813 10.876805
0.816724 10.923833
0.827684 10.976009
0.838700 11.035124
0.849778 11.099080
0.860923 11.168745
0.872140 11.243624
0.883432 11.318467
0.894800 11.394377
0.906246 11.475776
0.917776 11.561503
0.929393 11.649017
0.941094 11.728325
0.952870 11.798455
0.964715 11.869398
0.976633 11.942618
0.988625 12.017293
1.000692 12.093914
1.012837 12.171655
1.025060 12.248748
1.037359 12.325863
1.049736 12.402411
1.062188 12.477020
1.074714 12.548433
1.087310 12.617494
1.099974 12.684677
1.112703 12.746585
1.125491 12.804160
1.138336 12.859032
1.151233 12.908638
1.164177 12.953553
1.177165 12.994750
1.190191 13.030982
1.203251 13.061691
1.216339 13.087371
1.229450 13.109183
1.242582 13.125851
1.255727 13.138313
1.268883 13.145952
1.282044 13.148632
1.295206 13.148541
1.308365 13.142778
1.321516 13.133633
1.334657 13.120558
1.347783 13.103769
1.360890 13.083598
1.373975 13.059090
1.387033 13.031698
1.400062 12.999772
1.413058 12.966382
1.426020 12.928425
1.438940 12.886684
1.451818 12.843437
1.464651 12.795861
1.477435 12.745307
1.490167 12.692658
1.502844 12.636014
1.515463 12.576663
1.528022 12.514677
1.540516 12.448892
1.552944 12.381773
1.565303 12.310407
1.577589 12.236733
1.589800 12.160701
1.601933 12.080691
1.613985 11.998494
1.625953 11.913716
1.637835 11.825434
1.649627 11.734289
1.661327 11.641225
1.672931 11.544522
1.684438 11.445212
1.695844 11.342300
1.707144 11.237083
1.718339 11.129265
1.729424 11.017592
1.740396 10.903364
1.751251 10.785815
1.761988 10.666137
1.772604 10.542608
1.783094 10.416421
1.793457 10.287982
1.803689 10.155404
1.813787 10.019621
1.823748 9.882235
1.833570 9.741520
1.843249 9.596013
1.852781 9.449483
1.862166 9.301152
1.871401 9.152181
1.880489 9.004051
1.889428 8.857122
1.898222 8.714255
1.906876 8.577274
1.915394 8.439874
1.923773 8.304891
1.932023 8.179327
1.940147 8.050539
1.948138 7.915144
1.955991 7.773305
1.963712 7.666586
1.971366 7.638218
1.979016 7.646556
1.986682 7.677477
1.994392 7.724035
2.002129 7.721627
2.009829 7.654538
2.017439 7.543363
2.024927 7.421856
2.032311 7.340487
2.039644 7.323364
2.046990 7.360426
2.054388 7.422107
2.061845 7.470236
2.069327 7.467677
2.076771 7.393966
2.084101 7.236527
2.091231 6.996252
2.098083 6.680556
2.104584 6.301113
2.110681 5.872559
2.116330 5.408622
2.121502 4.923360
2.126183 4.428299
2.130367 3.932935
2.134059 3.445339
2.137270 2.971674
2.140014 2.514441
2.142310 2.076085
2.144177 1.657817
2.145635 1.258962
2.146704 0.879199
2.147401 0.516086
2.147742 0.168181
2.147743 -0.165298
2.147415 -0.487950
2.146769 -0.799839
2.145816 -1.103998
2.144561 -1.402710
2.143009 -1.697217
2.141164 -1.988858
2.139028 -2.278390
2.136603 -2.568498
2.133886 -2.858049
2.130880 -3.148438
2.127582 -3.441205
2.123991 -3.735346
2.120104 -4.030883
2.115920 -4.328182
2.111438 -4.627520
2.106656 -4.927245
2.101573 -5.228664
2.096188 -5.531344
2.090500 -5.833236
2.084509 -6.135168
2.078217 -6.438233
2.071621 -6.739787
2.064724 -7.039370
2.057528 -7.338165
2.050034 -7.635027
2.042243 -7.931081
2.034157 -8.223957
2.025779 -8.514604
2.017111 -8.803214
2.008156 -9.088299
1.998917 -9.371491
1.989395 -9.652319
1.979594 -9.929553
1.969517 -10.204068
1.959166 -10.476719
1.948544 -10.745519
1.937655 -11.011733
1.926499 -11.275860
1.915081 -11.537227
1.903403 -11.795366
1.891468 -12.050995
1.879278 -12.303093
1.866838 -12.552314
1.854149 -12.798922
1.841216 -13.041758
1.828040 -13.281720
1.814627 -13.517377
1.800979 -13.750675
1.787100 -13.980164
1.772993 -14.205025
1.758662 -14.426984
1.744111 -14.644134
1.729346 -14.857012
1.714369 -15.067050
1.699183 -15.271960
1.683796 -15.472097
1.668209 -15.668115
1.652430 -15.859059
1.636461 -16.045847
1.620308 -16.227746
1.603975 -16.404291
1.587468 -16.576655
1.570790 -16.744125
1.553948 -16.906331
1.536945 -17.064540
1.519786 -17.216217
1.502479 -17.363945
1.485025 -17.507054
1.467432 -17.644370
1.449703 -17.777009
1.431844 -17.904629
1.413859 -18.027455
1.395755 -18.145174
1.377534 -18.257655
1.359205 -18.364633
1.340770 -18.468213
1.322233 -18.565686
1.303603 -18.657455
1.284882 -18.745121
1.266077 -18.826989
1.247192 -18.904201
1.228232 -18.977144
1.209202 -19.043496
1.190109 -19.104813
1.170956 -19.161932
1.151749 -19.213282
1.132492 -19.259730
1.113192 -19.301452
1.093853 -19.336671
1.074482 -19.367063
1.055081 -19.393788
1.035658 -19.413686
1.016217 -19.428421
0.996763 -19.439234
0.977301 -19.444713
0.957837 -19.442118
0.938376 -19.446432
0.918903 -19.458253
0.899399 -19.534267
0.879767 -19.695159
0.859968 -19.859027
0.840020 -19.990850
0.819966 -20.062805
0.799860 -20.116341
0.779676 -20.223503
0.759352 -20.393280
0.738840 -20.588559
0.718133 -20.784594
0.697233 -20.968876
0.676170 -21.104927
0.655002 -21.176699
0.633796 -21.183764
0.612610 -21.137606
0.591492 -21.048788
0.570480 -20.930278
0.549594 -20.798015
0.528843 -20.664782
0.508220 -20.542488
0.487710 -20.438818
0.467293 -20.360334
0.446940 -20.308808
0.426626 -20.283196
0.406326 -20.279681
0.386020 -20.294916
0.365690 -20.326778
0.345321 -20.370953
0.324903 -20.426314
0.304426 -20.488694
0.283883 -20.555878
0.263272 -20.626349
0.242590 -20.696008
0.221839 -20.764303
0.201020 -20.830017
0.180138 -20.891823
0.159196 -20.949819
0.138198 -21.001942
0.117152 -21.048907
0.096060 -21.090960
0.074930 -21.127315
0.053764 -21.160344
0.032567 -21.192834
0.011336 -21.226700
-0.009931 -21.265320
-0.031240 -21.312232
-0.052602 -21.370521
-0.074029 -21.443396
-0.095536 -21.530358
-0.117137 -21.629572
-0.138842 -21.740226
-0.160663 -21.858457
-0.182604 -21.979026
-0.204665 -22.098108
-0.226842 -22.209047
-0.249123 -22.306409
-0.271493 -22.386094
-0.293932 -22.442701
-0.316414 -22.470464
-0.338907 -22.465639
-0.361378 -22.425214
-0.383789 -22.345110
-0.406099 -22.222788
-0.428265 -22.056312
-0.450241 -21.843810
-0.471980 -21.584280
-0.493436 -21.277084
-0.514561 -20.922265
-0.535307 -20.519403
-0.555626 -20.070007
-0.575471 -19.572061
-0.594794 -19.028956
-0.613565 -18.481369
-0.631817 -18.003779
-0.649675 -17.723766
-0.667375 -17.670172
-0.685066 -17.661743
-0.702723 -17.619072
-0.720319 -17.516033
-0.737727 -17.225240
-0.754692 -16.598381
-0.770797 -15.489718
-0.785565 -13.970681
-0.798688 -12.217476
-0.809992 -10.366223
-0.819459 -8.567942
-0.827195 -6.919913
-0.833378 -5.469467
-0.838217 -4.233443
-0.841920 -3.196500
-0.844674 -2.332194
-0.846638 -1.613825
-0.847944 -1.014307
-0.848703 -0.519413
-0.849015 -0.116115
-0.848959 0.217217
-0.848597 0.498303
-0.847977 0.734539
-0.847140 0.931207
-0.846123 1.095578
-0.844954 1.236156
-0.843652 1.365016
-0.842221 1.497109
-0.840649 1.646467
-0.838914 1.826392
-0.836979 2.048601
-0.834795 2.322688
-0.832309 2.656213
-0.829456 3.054347
-0.826171 3.520431
-0.822387 4.050419
-0.818037 4.657643
-0.813034 5.348762
-0.807388 5.862119
-0.801518 5.718188
-0.796405 4.179824
-0.793530 1.501601
-0.793046 -0.118622
-0.793381 -0.580178
-0.794146 -0.857577
-0.794974 -0.764840
-0.795648 -0.583900
-0.796150 -0.423380
-0.796501 -0.278612
-0.796711 -0.142053
-0.796789 -0.018410
-0.796752 0.092758
-0.796605 0.199551
-0.796357 0.291207
-0.796024 0.378288
-0.795600 0.463428
-0.795102 0.530856
-0.794539 0.592808
-0.793914 0.656101
-0.793228 0.713368
-0.792489 0.761193
-0.791706 0.803521
-0.790882 0.842031
-0.790022 0.876399
-0.789129 0.906146
-0.788209 0.932226
-0.787264 0.954930
-0.786298 0.974286
-0.785315 0.989889
-0.784317 1.002239
-0.783309 1.011512
-0.782293 1.017670
-0.781272 1.022113
-0.780248 1.025042
-0.779221 1.025139
-0.778196 1.022405
-0.777177 1.012443
-0.776168 1.004771
-0.775163 1.002813
-0.774164 0.991757
-0.773179 0.976537
-0.772210 0.959116
-0.771258 0.943836
-0.770318 0.933588
-0.769392 0.913664
-0.768490 0.890763
-0.767608 0.871789
-0.766744 0.854382
-0.765899 0.832206
-0.765080 0.806028
-0.764283 0.786833
-0.763506 0.763167
-0.762756 0.736911
-0.762029 0.716530
-0.761324 0.689176
-0.760648 0.665107
-0.759992 0.642255
-0.759363 0.615679
-0.758758 0.592010
-0.758179 0.566567
-0.757623 0.542782
-0.757092 0.517899
-0.756586 0.494086
-0.756103 0.470452
-0.755644 0.446472
-0.755209 0.423472
-0.754797 0.400760
-0.754407 0.378194
-0.754039 0.356009
-0.753694 0.334406
-0.753370 0.312860
-0.753067 0.292493
-0.752784 0.271535
-0.752523 0.252091
-0.752280 0.232623
-0.752058 0.210972
-0.751859 0.184647
-0.751694 0.142136
-0.751578 0.087476
-0.751520 0.027541
-0.751526 -0.039135
-0.751600 -0.111262
-0.751750 -0.189113
-0.751981 -0.272358
-0.752297 -0.361360
-0.752706 -0.455679
-0.753211 -0.554633
-0.753818 -0.657204
-0.754528 -0.762157
-0.755344 -0.867836
-0.756265 -0.972160
-0.757289 -1.073204
-0.758411 -1.168708
-0.759626 -1.256107
-0.760923 -1.333210
-0.762291 -1.397519
-0.763715 -1.446295
-0.765180 -1.477452
-0.766667 -1.489769
-0.768156 -1.482670
-0.769629 -1.456327
-0.771066 -1.411790
-0.772450 -1.350549
-0.773765 -1.274875
-0.774998 -1.187491
-0.776139 -1.091215
-0.777181 -0.989147
-0.778119 -0.884340
-0.778951 -0.779780
-0.779681 -0.678341
-0.780311 -0.581479
-0.780847 -0.491502
-0.781298 -0.410323
-0.781671 -0.337837
-0.781978 -0.276432
-0.782229 -0.228050
-0.782439 -0.192670
-0.782619 -0.170224
-0.782784 -0.160019
-0.782943 -0.161099
-0.783109 -0.172171
-0.783291 -0.191483
-0.783495 -0.216973
-0.783727 -0.246926
-0.783990 -0.279717
-0.784287 -0.313499
-0.784618 -0.346710
-0.784981 -0.378094
-0.785373 -0.406151
-0.785792 -0.429669
-0.786232 -0.447944
-0.786687 -0.460137
-0.787151 -0.465936
-0.787617 -0.465061
-0.788080 -0.457496
-0.788531 -0.443547
-0.788966 -0.423569
-0.789377 -0.398177
-0.789761 -0.367866
-0.790112 -0.333320
-0.790427 -0.295579
-0.790703 -0.255337
-0.790938 -0.213361
-0.791130 -0.170721
-0.791280 -0.128033
-0.791387 -0.086118
-0.791453 -0.045855
-0.791479 -0.007765
-0.791469 0.027189
-0.791426 0.057968
-0.791355 0.083564
-0.791261 0.102406
-0.791153 0.113029
-0.791038 0.114811
-0.790926 0.108070
-0.790824 0.093787
-0.790740 0.073726
-0.790678 0.049583
-0.790642 0.022763
-0.790633 -0.005359
-0.790653 -0.034082
-0.790701 -0.062402
-0.790777 -0.089619
-0.790880 -0.115345
-0.791007 -0.138749
-0.791157 -0.159854
-0.791326 -0.178309
-0.791513 -0.194129
-0.791714 -0.207834
-0.791928 -0.219255
-0.792153 -0.228668
-0.792385 -0.236126
-0.792625 -0.241620
-0.792869 -0.245308
-0.793115 -0.247451
-0.793363 -0.248100
-0.793611 -0.247367
-0.793858 -0.245636
-0.794103 -0.242995
-0.794345 -0.239807
-0.794583 -0.236274
-0.794818 -0.232738
-0.795049 -0.229533
-0.795277 -0.226604
-0.795503 -0.224331
-0.795727 -0.222948
-0.795949 -0.222407
-0.796172 -0.223030
-0.796396 -0.224752
-0.796623 -0.227594
-0.796852 -0.231717
-0.797087 -0.237051
-0.797327 -0.243638
-0.797575 -0.251309
-0.797831 -0.260219
-0.798096 -0.269991
-0.798372 -0.280489
-0.798658 -0.291741
-0.798956 -0.303532
-0.799266 -0.315540
-0.799588 -0.327639
-0.799922 -0.339819
-0.800268 -0.351695
-0.800626 -0.363336
-0.800995 -0.374402
-0.801375 -0.384793
-0.801765 -0.394573
-0.802165 -0.403431
-0.802573 -0.411501
-0.802988 -0.418649
-0.803411 -0.424883
-0.803839 -0.430208
-0.804271 -0.434603
-0.804708 -0.438130
-0.805148 -0.440718
-0.805590 -0.442456
-0.806034 -0.443300
-0.806478 -0.443439
-0.806921 -0.442662
-0.807364 -0.441204
-0.807804 -0.439087
-0.808242 -0.436207
-0.808677 -0.432761
-0.809109 -0.428674
-0.809535 -0.424009
-0.809957 -0.418790
-0.810374 -0.413030
-0.810784 -0.406726
-0.811188 -0.399894
-0.811584 -0.392540
-0.811973 -0.384652
-0.812354 -0.376235
-0.812726 -0.367254
-0.813089 -0.357686
-0.813442 -0.347527
-0.813785 -0.336737
-0.814116 -0.325292
-0.814436 -0.313181
-0.814743 -0.300376
-0.815037 -0.286864
-0.815317 -0.272658
-0.815583 -0.257754
-0.815833 -0.242146
-0.816067 -0.225862
-0.816285 -0.208923
-0.816485 -0.191325
-0.816668 -0.173078
-0.816832 -0.154206
-0.816976 -0.134642
-0.817101 -0.114735
-0.817205 -0.093208
-0.817289 -0.075144
-0.817350 -0.040552
-0.817346 0.066496
-0.817165 0.329482
-0.816599 0.852609
-0.815334 1.748390
-0.812933 3.140939
-0.808885 5.015073
-0.802916 6.821578
-0.795384 8.161096
-0.786814 8.790585
-0.778104 8.466239
-0.770243 7.008925
-0.764437 4.457492
-0.761089 2.595574
-0.758862 1.868935
-0.757324 1.212122
-0.756369 0.752122
-0.755810 0.316356
-0.755734 -0.114478
-0.756006 -0.446039
-0.756670 -0.905462
-0.757859 -1.484373
-0.759667 -2.138668
-0.762154 -2.835002
-0.765338 -3.516745
-0.769171 -4.128251
-0.773560 -4.613936
-0.778350 -4.925005
-0.783353 -5.034435
-0.788354 -4.919389
-0.793135 -4.605456
-0.797529 -4.156291
-0.801425 -3.614370
-0.804746 -3.014108
-0.807451 -2.387520
-0.809525 -1.758864
-0.810979 -1.150208
-0.811839 -0.575079
-0.812144 -0.041273
-0.811937 0.446576
-0.811266 0.885580
-0.810181 1.273731
-0.808733 1.609359
-0.806977 1.890415
-0.804968 2.114548
-0.802763 2.279553
-0.800425 2.382593
-0.798014 2.423181
-0.795594 2.402292
-0.793225 2.322805
-0.790962 2.188535
-0.788860 2.003265
-0.786966 1.775744
-0.785318 1.509543
-0.783958 1.200841
-0.782926 0.856234
-0.782251 0.489805
-0.781948 0.115000
-0.782019 -0.255144
-0.782452 -0.605304
-0.783219 -0.920872
-0.784280 -1.189770
-0.785582 -1.399980
-0.787061 -1.543255
-0.788646 -1.611600
-0.790265 -1.612887
-0.791858 -1.562072
-0.793376 -1.464555
-0.794777 -1.329633
-0.796029 -1.167143
-0.797107 -0.984183
-0.797996 -0.789753
-0.798687 -0.591299
-0.799180 -0.394474
-0.799479 -0.204902
-0.799594 -0.026652
-0.799537 0.136571
-0.799327 0.281817
-0.798980 0.407112
-0.798519 0.510805
-0.797965 0.591854
-0.797341 0.649839
-0.796672 0.684881
-0.795978 0.697471
-0.795282 0.688826
-0.794605 0.660441
-0.793966 0.614248
-0.793381 0.552810
-0.792864 0.478663
-0.792426 0.394928
-0.792075 0.304745
-0.791817 0.211122
-0.791652 0.117513
-0.791581 0.026644
-0.791597 -0.058742
-0.791695 -0.136152
-0.791867 -0.203841
-0.792100 -0.260071
-0.792383 -0.304104
-0.792704 -0.335371
-0.793050 -0.353601
-0.793408 -0.359475
-0.793766 -0.353661
-0.794113 -0.337124
-0.794438 -0.311218
-0.794733 -0.277398
-0.794991 -0.237461
-0.795207 -0.192936
-0.795376 -0.145287
-0.795497 -0.096336
-0.795569 -0.047568
-0.795593 -0.000391
-0.795571 0.044200
-0.795506 0.085018
-0.795402 0.121015
-0.795265 0.151861
-0.795100 0.176846
-0.794913 0.195629
-0.794711 0.208280
-0.794498 0.214694
-0.794283 0.215254
-0.794069 0.210170
-0.793864 0.199964
-0.793670 0.185778
-0.793494 0.165969
-0.793337 0.150585
-0.793203 0.103945
-0.793091 0.170448
-0.793010 -0.207423
-0.792939 1.115070
-0.792925 -3.998471
-0.818778 -12.366309
