solsol_wf 1.40770217925
solta_wf 0.267489247361
gasgas_wf 0.69623389742
vasvas_wf 1.8
hamham_wf 0.263775789401
gluglu_wf 0.373944659504
tata_wl 2.28999105259
hfhf_wl 0.2
hamhf_wl 2.16647197444
ta_bl 0.756234990798
hf_bl 0.534586146601
ham_bl 0.7
kbodyweight 0.8
kp 1.71745170403
kd 0.6
kref 0.0
hipkp_hf 1.5840643235
hipkd_hf 0.199855726629
hipkp_glu 0.994800976222
hipkd_glu 0.176442982865
kref_hip -1.99106680647
kneekp_vas 1.7999448299
kneekd_vas 0.304775003221
kref_knee 0.160202305836
deltas 0.586475283641
sol_activitybasal 0.01
ta_activitybasal 0.0694031492023
gas_activitybasal 0.018222592081
vas_activitybasal 0.0564767453585
ham_activitybasal 0.0840532936453
glu_activitybasal 0.0182690809822
hf_activitybasal 0.0958684854703
stance_end 1.4046459477
swing_end -1.98200598457
kphiknee 0.0848770646135
kphiknee_off 2.1671336514
klean 1.69907173533
