0.059680 0.095763 0.013956
-0.622958 0.000000
-0.622958 -0.000000
-0.622958 0.000000
-0.622958 -0.000000
-0.622958 0.000000
-0.622958 -0.000000
-0.622958 0.000000
-0.622958 -0.000000
-0.622958 0.000000
-0.622958 -0.000000
-0.622958 0.000000
-0.622958 -0.000000
-0.622958 0.000000
-0.622958 -0.000000
-0.622958 0.000000
-0.622958 -0.000000
-0.622958 0.000000
-0.622958 -0.000000
-0.622958 0.000000
-0.622958 -0.000000
-0.622958 0.000000
-0.622958 -0.000000
-0.622958 0.000000
-0.622958 0.000000
-0.622958 -0.000000
-0.622958 0.000000
-0.622958 -0.000000
-0.622958 0.000000
-0.622958 -0.000000
-0.622958 0.000000
-0.622958 -0.000000
-0.622958 0.000000
-0.622958 0.000002
-0.622958 -0.000016
-0.622958 0.000074
-0.622958 -0.000283
-0.622958 0.000952
-0.622958 -0.002875
-0.622959 0.007750
-0.622955 -0.017860
-0.622970 0.030386
-0.622923 -0.008683
-0.623044 -0.217773
-0.622683 1.600047
-0.619712 3.805047
-0.614452 7.845528
-0.603242 14.172181
-0.586114 20.395370
-0.562884 25.200624
-0.536267 28.192908
-0.506740 30.291319
-0.476294 30.380614
-0.445961 30.339820
-0.415230 31.269336
-0.383471 31.865109
-0.351756 31.501408
-0.320276 31.525481
-0.288475 32.051780
-0.256097 32.611847
-0.223326 32.751510
-0.190638 32.562202
-0.158116 32.434406
-0.125687 32.359766
-0.093319 32.321901
-0.060957 32.346438
-0.028543 32.426111
0.003975 32.551647
0.036636 32.710549
0.069473 32.903497
0.102522 33.136056
0.135825 33.408099
0.169417 33.715434
0.203327 34.034487
0.237547 34.332430
0.272050 34.598406
0.306797 34.816698
0.341729 34.963011
0.376763 35.017207
0.411797 34.962299
0.446720 34.795059
0.481421 34.520176
0.515797 34.148767
0.549763 33.705514
0.583260 33.216398
0.616253 32.698719
0.648716 32.159150
0.680630 31.604830
0.711985 31.039136
0.742770 30.470475
0.772989 29.907520
0.802646 29.348287
0.831749 28.804106
0.860321 28.286276
0.888389 27.801756
0.915989 27.345779
0.943139 26.899310
0.969839 26.443850
0.996078 25.983837
1.021858 25.523904
1.047174 25.055045
1.072019 24.587013
1.096404 24.139460
1.120373 23.770732
1.144006 23.439666
1.167290 23.082060
1.190222 22.741555
1.212821 22.408510
1.235078 22.059272
1.256973 21.678002
1.278477 21.295664
1.299557 20.763986
1.319984 20.045011
1.339575 18.990692
1.357910 17.655357
1.374951 16.407738
1.390662 14.871290
1.406573 18.879695
1.430351 28.559404
1.462505 34.510996
1.497785 35.494016
1.533448 36.127381
1.570481 37.866642
1.609236 39.542382
1.649554 40.946177
1.691063 41.910344
1.733299 42.396104
1.775796 42.448044
1.818170 42.170331
1.860142 41.657582
1.901518 40.992979
1.942177 40.229200
1.982029 39.381891
2.020995 38.459466
2.059001 37.466946
2.095980 36.403383
2.131856 35.266030
2.166559 34.056337
2.200012 32.770340
2.232139 31.407458
2.262864 29.968223
2.292109 28.450211
2.319796 26.856322
2.345852 25.189960
2.370202 23.451268
2.392778 21.644892
2.413513 19.770560
2.432335 17.824926
2.449174 15.806254
2.463955 13.714973
2.476610 11.557849
2.487074 9.340660
2.495291 7.067234
2.501205 4.742003
2.504770 2.374348
2.505948 -0.026601
2.504708 -2.455095
2.501026 -4.902765
2.494888 -7.363903
2.486281 -9.834189
2.475200 -12.302689
2.461653 -14.765405
2.445644 -17.216637
2.427193 -19.642067
2.406330 -22.037946
2.383085 -24.400255
2.357497 -26.714091
2.329619 -28.979124
2.299499 -31.189299
2.267202 -33.328373
2.232802 -35.389317
2.196380 -37.366763
2.158023 -39.256170
2.117821 -41.050086
2.075872 -42.748347
2.032270 -44.352968
1.987110 -45.860805
1.940489 -47.272874
1.892500 -48.593291
1.843237 -49.818402
1.792796 -50.947375
1.741270 -51.985888
1.688748 -52.939672
1.635317 -53.797283
1.581080 -54.551330
1.526139 -55.203577
1.470603 -55.734719
1.414593 -56.160090
1.358196 -56.509431
1.301493 -56.763370
1.244592 -56.907178
1.187592 -56.967973
1.130568 -56.950170
1.073607 -56.844439
1.016795 -56.651158
0.960235 -56.327821
0.904075 -55.860470
0.848458 -55.225316
0.793573 -54.411527
0.739554 -53.514111
0.686441 -52.607425
0.634251 -51.649800
0.583084 -50.553719
0.533065 -49.388713
0.484235 -48.142693
0.436732 -46.750726
0.390644 -45.345141
0.345952 -43.937243
0.302691 -42.502676
0.260854 -41.090311
0.220410 -39.730013
0.181288 -38.449522
0.143410 -37.243064
0.106697 -36.127500
0.071048 -35.115827
0.036365 -34.194379
0.002563 -33.354388
-0.030436 -32.589021
-0.062701 -31.886003
-0.094290 -31.239049
-0.125256 -30.636072
-0.155634 -30.064601
-0.185455 -29.522208
-0.214743 -28.995415
-0.243507 -28.478502
-0.271758 -27.964974
-0.299497 -27.462559
-0.326724 -26.918222
-0.353426 -26.488873
-0.379587 -25.557961
-0.404487 -24.310831
-0.428460 -23.670062
-0.451708 -22.529773
-0.473536 -21.304365
-0.494428 -20.283821
-0.514107 -19.151548
-0.532778 -18.044709
-0.550137 -16.649280
-0.566138 -15.338652
-0.580695 -13.580289
-0.592920 -10.606489
-0.602163 -8.331755
-0.609966 -7.151969
-0.616229 -5.217063
-0.620309 -2.977809
-0.622349 -1.212657
-0.622973 -0.155880
-0.622943 0.053943
-0.622962 -0.026577
-0.622957 0.010162
-0.622958 -0.003333
-0.622958 0.000952
-0.622958 -0.000227
-0.622958 0.000038
-0.622958 0.000000
-0.622958 -0.000004
-0.622958 0.000002
-0.622958 -0.000001
-0.622958 0.000000
-0.622958 -0.000000
-0.622958 0.000000
-0.622958 -0.000000
-0.622958 0.000000
-0.622958 0.000000
-0.622958 -0.000000
-0.622958 0.000000
-0.622958 -0.000000
-0.622958 0.000000
-0.622958 -0.000000
-0.622958 0.000000
-0.622958 -0.000000
-0.622958 0.000000
-0.622958 -0.000000
-0.622958 0.000000
-0.622958 -0.000000
-0.622958 0.000000
-0.622958 -0.000000
-0.622958 0.000000
-0.622958 -0.000000
-0.622958 0.000000
-0.622958 -0.000000
-0.622958 0.000000
-0.622958 -0.000000
-0.622958 0.000000
-0.622958 -0.000000
-0.622958 0.000000
-0.622958 -0.000000
-0.622958 0.000000
-0.622958 -0.000000
-0.622958 0.000000
-0.622958 -0.000000
-0.622958 0.000000
-0.622958 -0.000000
-0.622958 0.000000
-0.622958 -0.000000
-0.622958 0.000000
-0.622958 -0.000000
-0.622958 0.000000
-0.622958 -0.000000
-0.622958 0.000000
-0.622958 -0.000000
-0.622958 0.000000
-0.622958 -0.000000
-0.622958 0.000000
-0.622958 -0.000000
-0.622958 0.000000
-0.622958 -0.000000
-0.622958 0.000000
-0.622958 -0.000000
-0.622958 0.000000
-0.622958 -0.000000
-0.622958 0.000000
-0.622958 -0.000000
-0.622958 0.000000
-0.622958 -0.000000
-0.622958 0.000000
-0.622958 -0.000000
-0.622958 0.000000
-0.622958 -0.000000
-0.622958 0.000000
-0.622958 -0.000000
-0.622958 0.000000
-0.622958 -0.000000
-0.622958 0.000000
-0.622958 -0.000000
-0.622958 0.000000
-0.622958 -0.000000
-0.622958 0.000000
-0.622958 -0.000000
-0.622958 0.000000
-0.622958 -0.000000
-0.622958 0.000000
-0.622958 -0.000000
-0.622958 0.000000
-0.622958 -0.000000
-0.622958 0.000000
-0.622958 -0.000000
-0.622958 0.000000
-0.622958 -0.000000
-0.622958 0.000000
-0.622958 -0.000000
-0.622958 0.000000
-0.622958 -0.000000
-0.622958 0.000000
-0.622958 -0.000000
-0.622958 0.000000
-0.622958 -0.000000
-0.622958 0.000000
-0.622958 -0.000000
-0.622958 0.000000
-0.622958 -0.000000
-0.622958 0.000000
-0.622958 -0.000000
-0.622958 0.000000
-0.622958 -0.000000
-0.622958 0.000000
-0.622958 -0.000000
-0.622958 0.000000
-0.622958 -0.000000
-0.622958 0.000000
-0.622958 -0.000000
-0.622958 0.000000
-0.622958 -0.000000
-0.622958 0.000000
-0.622958 -0.000000
-0.622958 0.000000
-0.622958 -0.000000
-0.622958 0.000000
-0.622958 -0.000000
-0.622958 0.000000
-0.622958 -0.000000
-0.622958 0.000000
-0.622958 -0.000000
-0.622958 0.000000
-0.622958 -0.000000
-0.622958 0.000000
-0.622958 -0.000000
-0.622958 0.000000
-0.622958 -0.000000
-0.622958 0.000000
-0.622958 -0.000000
-0.622958 0.000000
-0.622958 -0.000000
-0.622958 0.000000
-0.622958 -0.000000
-0.622958 0.000000
-0.622958 -0.000000
-0.622958 0.000000
-0.622958 -0.000000
-0.622958 0.000000
-0.622958 -0.000000
-0.622958 0.000000
-0.622958 -0.000000
-0.622958 0.000000
-0.622958 -0.000000
-0.622958 0.000000
-0.622958 -0.000000
-0.622958 0.000000
-0.622958 -0.000000
-0.622958 0.000000
-0.622958 -0.000000
-0.622958 0.000000
-0.622958 -0.000000
-0.622958 0.000000
-0.622958 -0.000000
-0.622958 0.000000
-0.622958 -0.000000
-0.622958 0.000000
-0.622958 -0.000000
-0.622958 0.000000
-0.622958 -0.000000
-0.622958 0.000000
-0.622958 -0.000000
-0.622958 0.000000
-0.622958 -0.000000
-0.622958 0.000000
-0.622958 -0.000000
-0.622958 0.000000
-0.622958 -0.000000
-0.622958 0.000000
-0.622958 -0.000000
-0.622958 0.000000
-0.622958 -0.000000
-0.622958 0.000000
-0.622958 -0.000000
-0.622958 0.000000
-0.622958 -0.000000
-0.622958 0.000000
-0.622958 -0.000000
-0.622958 0.000000
-0.622958 -0.000000
-0.622958 0.000000
-0.622958 -0.000000
-0.622958 0.000000
-0.622958 -0.000000
-0.622958 0.000000
-0.622958 -0.000000
-0.622958 0.000000
-0.622958 -0.000000
-0.622958 0.000000
-0.622958 -0.000000
-0.622958 0.000000
-0.622958 -0.000000
-0.622958 0.000000
-0.622958 -0.000000
-0.622958 0.000000
-0.622958 -0.000000
-0.622958 0.000000
-0.622958 -0.000000
-0.622958 0.000000
-0.622958 -0.000000
-0.622958 0.000000
-0.622958 -0.000000
-0.622958 0.000000
-0.622958 -0.000000
-0.622958 0.000000
-0.622958 -0.000000
-0.622958 0.000000
-0.622958 -0.000000
-0.622958 0.000000
-0.622958 -0.000000
-0.622958 0.000000
-0.622958 -0.000000
-0.622958 0.000000
-0.622958 -0.000000
-0.622958 0.000000
-0.622958 -0.000000
-0.622958 0.000000
-0.622958 -0.000000
-0.622958 0.000000
-0.622958 -0.000000
-0.622958 0.000000
-0.622958 -0.000000
-0.622958 0.000000
-0.622958 -0.000000
-0.622958 0.000000
-0.622958 -0.000000
-0.622958 0.000000
-0.622958 -0.000000
-0.622958 0.000000
-0.622958 -0.000000
-0.622958 0.000000
-0.622958 -0.000000
-0.622958 0.000000
-0.622958 -0.000000
-0.622958 0.000000
-0.622958 -0.000000
-0.622958 0.000000
-0.622958 -0.000000
-0.622958 0.000000
-0.622958 -0.000000
-0.622958 0.000000
-0.622958 -0.000000
-0.622958 0.000000
-0.622958 -0.000000
-0.622958 0.000000
-0.622958 -0.000000
-0.622958 0.000000
-0.622958 -0.000000
-0.622958 0.000000
-0.622958 -0.000000
-0.622958 0.000000
-0.622958 -0.000000
-0.622958 0.000000
-0.622958 -0.000000
-0.622958 0.000000
-0.622958 -0.000000
-0.622958 0.000000
-0.622958 -0.000000
-0.622958 0.000000
-0.622958 -0.000000
-0.622958 0.000000
-0.622958 -0.000000
-0.622958 0.000000
-0.622958 -0.000000
-0.622958 -0.000000
-0.622958 0.000000
-0.622958 -0.000000
-0.622958 0.000000
-0.622958 -0.000000
-0.622958 0.000000
-0.622958 -0.000000
-0.622958 0.000000
-0.622958 -0.000000
-0.622958 -0.000005
-0.622958 0.000031
-0.622958 -0.000137
-0.622958 0.000506
-0.622958 -0.001662
-0.622959 0.004903
-0.622956 -0.012790
-0.622965 0.027730
-0.622937 -0.039188
-0.623018 -0.030013
-0.622604 1.155345
-0.620860 1.876867
-0.619191 1.565968
-0.617417 2.177397
-0.614855 2.721616
-0.611692 4.092624
-0.606498 5.953286
-0.600201 6.533001
-0.593545 6.734311
-0.586364 8.000209
-0.577382 9.704159
-0.566734 12.014891
-0.553268 14.506277
-0.537717 16.921654
-0.519246 19.770869
-0.498240 22.307893
-0.473869 26.992163
-0.444681 30.239872
-0.414408 30.253868
-0.383907 30.886371
-0.352467 31.838306
-0.320454 31.927421
-0.288678 31.628882
-0.256999 31.733092
-0.225042 32.153808
-0.192731 32.262499
-0.160551 32.077508
-0.128470 32.015408
-0.096452 31.965613
-0.064461 31.959019
-0.032456 31.993488
-0.000397 32.067439
0.031755 32.175822
0.064029 32.312126
0.096450 32.468702
0.129036 32.640506
0.161800 32.821668
0.194745 33.002824
0.227870 33.178423
0.261163 33.336081
0.294599 33.465403
0.328148 33.557107
0.361765 33.602071
0.395401 33.593592
0.428999 33.522603
0.462490 33.381661
0.495804 33.165867
0.528865 32.880832
0.561611 32.533870
0.593978 32.125512
0.625910 31.670168
0.657374 31.193279
0.688357 30.709369
0.718854 30.224262
0.748862 29.728130
0.778367 29.224385
0.807371 28.723938
0.835871 28.219048
0.863867 27.718881
0.891368 27.228034
0.918379 26.741669
0.944909 26.268828
0.970975 25.813487
0.996589 25.363265
1.021753 24.913877
1.046469 24.470183
1.070744 24.031367
1.094587 23.614638
1.118035 23.242370
1.141123 22.883842
1.163842 22.506971
1.186184 22.137516
1.208168 21.786176
1.229807 21.455799
1.251077 20.988719
1.271949 20.888133
1.292808 20.527794
1.313400 21.227464
1.335340 22.031685
1.357059 21.492238
1.378500 21.349497
1.400068 22.007332
1.423005 24.001060
1.448177 26.172914
1.475578 28.868610
1.506226 32.323828
1.539975 34.834199
1.575774 36.776394
1.613594 38.696322
1.653096 40.172835
1.693831 41.083728
1.735193 41.536218
1.776907 41.749096
1.818673 41.657490
1.860226 41.328668
1.901356 40.827900
1.941922 40.203864
1.981805 39.463855
2.020894 38.619680
2.059093 37.689401
2.096323 36.681305
2.132502 35.591841
2.167552 34.424464
2.201395 33.180889
2.233953 31.857510
2.265146 30.452444
2.294893 28.970298
2.323120 27.414154
2.349751 25.782162
2.374712 24.077284
2.397929 22.297346
2.419324 20.437535
2.438819 18.501296
2.456340 16.492218
2.471813 14.412345
2.485171 12.266835
2.496351 10.058539
2.505290 7.794000
2.511937 5.478685
2.516244 3.119454
2.518170 0.724159
2.517683 -1.701924
2.514755 -4.152346
2.509364 -6.620755
2.501497 -9.098019
2.491148 -11.579651
2.478316 -14.058021
2.463008 -16.524492
2.445240 -18.972729
2.425034 -21.392751
2.402423 -23.777137
2.377445 -26.123861
2.350140 -28.420844
2.320566 -30.658871
2.288780 -32.838523
2.254850 -34.936195
2.218868 -36.943651
2.180919 -38.862166
2.141098 -40.685122
2.099498 -42.414973
2.056216 -44.046199
2.011349 -45.582008
1.964994 -47.018377
1.917256 -48.343529
1.868244 -49.567225
1.818053 -50.697061
1.766778 -51.738793
1.714503 -52.689652
1.661325 -53.543554
1.607337 -54.309748
1.552623 -54.996951
1.497261 -55.602218
1.441336 -56.123091
1.384930 -56.561413
1.328133 -56.898324
1.271053 -57.133195
1.213787 -57.266371
1.156435 -57.311671
1.099073 -57.284470
1.041775 -57.187802
0.984603 -57.030396
0.927639 -56.756618
0.871021 -56.348403
0.814867 -55.827295
0.759304 -55.157004
0.704498 -54.320007
0.650627 -53.270129
0.597940 -51.954197
0.546648 -50.537597
0.496754 -49.147770
0.448277 -47.688620
0.401295 -46.190168
0.355796 -44.714765
0.311781 -43.224341
0.269258 -41.743069
0.228185 -40.340528
0.188462 -39.041663
0.149990 -37.843907
0.112666 -36.742048
0.076403 -35.726757
0.041112 -34.797803
0.006715 -33.937459
-0.026853 -33.143159
-0.059658 -32.409077
-0.091751 -31.721597
-0.123178 -31.073938
-0.153970 -30.453092
-0.184177 -29.928065
-0.213715 -28.890280
-0.242051 -27.958493
-0.269864 -27.555468
-0.297168 -27.004733
-0.323942 -26.496319
-0.350198 -25.942790
-0.375904 -25.461392
-0.401133 -24.863449
-0.425539 -23.842365
-0.448963 -23.114796
-0.471798 -22.336878
-0.493550 -21.162170
-0.514267 -20.293031
-0.534075 -19.120724
-0.552467 -17.709998
-0.569190 -15.277504
-0.582899 -12.383047
-0.594370 -10.654667
-0.604195 -8.822577
-0.611806 -6.312419
-0.616975 -4.230399
-0.620257 -2.093266
-0.621453 -0.817044
-0.622288 -0.725006
-0.622797 -0.311105
-0.622961 -0.048125
-0.622960 0.015865
-0.622957 -0.003199
-0.622959 -0.000073
-0.622958 0.000459
-0.622958 -0.000289
-0.622958 0.000131
-0.622958 -0.000051
-0.622958 0.000018
-0.622958 -0.000006
-0.622958 0.000002
-0.622958 -0.000000
-0.622958 0.000000
-0.622958 -0.000000
-0.622958 0.000000
-0.622958 0.000000
-0.622958 -0.000000
-0.622958 0.000000
-0.622958 -0.000000
-0.622958 0.000000
-0.622958 -0.000000
-0.622958 0.000000
-0.622958 -0.000000
-0.622958 -0.000000
-0.622958 0.000000
-0.622958 -0.000000
-0.622958 0.000000
-0.622958 -0.000000
-0.622958 0.000000
-0.622958 -0.000000
-0.622958 0.000000
-0.622958 -0.000000
-0.622958 0.000000
-0.622958 -0.000000
-0.622958 0.000000
-0.622958 -0.000000
-0.622958 0.000000
-0.622958 -0.000000
-0.622958 0.000000
-0.622958 -0.000000
-0.622958 0.000000
-0.622958 -0.000000
-0.622958 0.000000
-0.622958 -0.000000
-0.622958 0.000000
-0.622958 -0.000000
-0.622958 0.000000
-0.622958 -0.000000
-0.622958 0.000000
-0.622958 -0.000000
-0.622958 0.000000
-0.622958 -0.000000
-0.622958 0.000000
-0.622958 -0.000000
-0.622958 0.000000
-0.622958 -0.000000
-0.622958 0.000000
-0.622958 -0.000000
-0.622958 0.000000
-0.622958 -0.000000
-0.622958 0.000000
-0.622958 -0.000000
-0.622958 0.000000
-0.622958 -0.000000
-0.622958 0.000000
-0.622958 -0.000000
-0.622958 0.000000
-0.622958 -0.000000
-0.622958 0.000000
-0.622958 -0.000000
-0.622958 0.000000
-0.622958 -0.000000
-0.622958 0.000000
-0.622958 -0.000000
-0.622958 0.000000
-0.622958 -0.000000
-0.622958 0.000000
-0.622958 -0.000000
-0.622958 0.000000
-0.622958 -0.000000
-0.622958 0.000000
-0.622958 -0.000000
-0.622958 0.000000
-0.622958 -0.000000
-0.622958 0.000000
-0.622958 -0.000000
-0.622958 0.000000
-0.622958 -0.000000
-0.622958 0.000000
-0.622958 -0.000000
-0.622958 0.000000
-0.622958 -0.000000
-0.622958 0.000000
-0.622958 -0.000000
-0.622958 0.000000
-0.622958 -0.000000
-0.622958 0.000000
-0.622958 -0.000000
-0.622958 0.000000
-0.622958 -0.000000
-0.622958 0.000000
-0.622958 -0.000000
-0.622958 0.000000
-0.622958 -0.000000
-0.622958 0.000000
-0.622958 -0.000000
-0.622958 0.000000
-0.622958 -0.000000
-0.622958 0.000000
-0.622958 -0.000000
-0.622958 0.000000
-0.622958 -0.000000
-0.622958 0.000000
-0.622958 -0.000000
-0.622958 0.000000
-0.622958 -0.000000
-0.622958 0.000000
-0.622958 -0.000000
-0.622958 0.000000
-0.622958 -0.000000
-0.622958 0.000000
-0.622958 -0.000000
-0.622958 0.000000
-0.622958 -0.000000
-0.622958 0.000000
-0.622958 -0.000000
-0.622958 0.000000
-0.622958 -0.000000
-0.622958 0.000000
-0.622958 -0.000000
-0.622958 0.000000
-0.622958 -0.000000
-0.622958 0.000000
-0.622958 -0.000000
-0.622958 0.000000
-0.622958 -0.000000
-0.622958 0.000000
-0.622958 -0.000000
-0.622958 0.000000
-0.622958 -0.000000
-0.622958 0.000000
-0.622958 -0.000000
-0.622958 0.000000
-0.622958 -0.000000
-0.622958 0.000000
-0.622958 -0.000000
-0.622958 0.000000
-0.622958 -0.000000
-0.622958 0.000000
-0.622958 -0.000000
-0.622958 0.000000
-0.622958 -0.000000
-0.622958 0.000000
-0.622958 -0.000000
-0.622958 0.000000
-0.622958 -0.000000
-0.622958 0.000000
-0.622958 -0.000000
-0.622958 0.000000
-0.622958 -0.000000
-0.622958 0.000000
-0.622958 -0.000000
-0.622958 0.000000
-0.622958 -0.000000
-0.622958 0.000000
-0.622958 -0.000000
-0.622958 0.000000
-0.622958 -0.000000
-0.622958 0.000000
-0.622958 -0.000000
-0.622958 0.000000
-0.622958 -0.000000
-0.622958 0.000000
-0.622958 -0.000000
-0.622958 0.000000
-0.622958 -0.000000
-0.622958 0.000000
-0.622958 -0.000000
-0.622958 0.000000
-0.622958 -0.000000
-0.622958 0.000000
-0.622958 -0.000000
-0.622958 0.000000
-0.622958 -0.000000
-0.622958 0.000000
-0.622958 -0.000000
-0.622958 0.000000
-0.622958 -0.000000
-0.622958 0.000000
-0.622958 -0.000000
-0.622958 0.000000
-0.622958 -0.000000
-0.622958 0.000000
-0.622958 -0.000000
-0.622958 0.000000
-0.622958 -0.000000
-0.622958 0.000000
-0.622958 -0.000000
-0.622958 0.000000
-0.622958 -0.000000
-0.622958 0.000000
-0.622958 -0.000000
-0.622958 0.000000
-0.622958 -0.000000
-0.622958 0.000000
-0.622958 -0.000000
-0.622958 0.000000
-0.622958 -0.000000
-0.622958 0.000000
-0.622958 -0.000000
-0.622958 0.000000
-0.622958 -0.000000
-0.622958 0.000000
-0.622958 -0.000000
-0.622958 0.000000
-0.622958 -0.000000
-0.622958 0.000000
-0.622958 -0.000000
-0.622958 0.000000
-0.622958 -0.000000
-0.622958 0.000000
-0.622958 -0.000000
-0.622958 0.000000
-0.622958 -0.000000
-0.622958 0.000000
-0.622958 -0.000000
-0.622958 0.000000
-0.622958 -0.000000
-0.622958 0.000000
-0.622958 -0.000000
-0.622958 0.000000
-0.622958 -0.000000
-0.622958 0.000000
-0.622958 -0.000000
-0.622958 0.000000
-0.622958 -0.000000
-0.622958 0.000000
-0.622958 -0.000000
-0.622958 0.000000
-0.622958 -0.000000
-0.622958 0.000000
-0.622958 -0.000000
-0.622958 0.000000
-0.622958 -0.000000
-0.622958 0.000000
-0.622958 -0.000000
-0.622958 0.000000
-0.622958 -0.000000
-0.622958 0.000000
-0.622958 -0.000000
-0.622958 0.000000
-0.622958 -0.000000
-0.622958 0.000000
-0.622958 0.000000
