solsol_wf 1.13254372239
solta_wf 0.764423262606
gasgas_wf 0.624080280088
vasvas_wf 1.7481739076
hamham_wf 0.431372980161
gluglu_wf 0.340370697691
tata_wl 1.36448652115
hfhf_wl 1.08974470277
hamhf_wl 0.0720113441708
ta_bl 0.267896326579
hf_bl 0.771092435938
ham_bl 0.913045794498
kbodyweight 0.955500178132
kp 2.24476179718
kd 0.452946062359
kref 0.0
deltas 0.589118889656
sol_activitybasal 0.0489741185316
ta_activitybasal 0.0362375588006
gas_activitybasal 0.0314919473912
vas_activitybasal 0.0501422409303
ham_activitybasal 0.0917161717279
glu_activitybasal 0.0853403477029
hf_activitybasal 0.0619379530084
kphiknee 0.0
klean 1.55186214857
