0.017143 0.024364 -0.000560
-0.560468 11.073235
-0.548403 12.784690
-0.535370 13.006543
-0.522620 12.462476
-0.510448 11.834962
-0.498936 11.178161
-0.488021 10.668065
-0.477516 10.345958
-0.467243 10.220290
-0.457028 10.172779
-0.446918 10.000221
-0.437040 9.730628
-0.427435 9.470175
-0.418095 9.166879
-0.409055 8.946776
-0.400189 8.711446
-0.391539 8.701543
-0.382553 9.336438
-0.372977 9.584436
-0.363595 9.144412
-0.354633 8.814688
-0.345923 8.559335
-0.337526 8.216749
-0.329452 7.938001
-0.321613 7.721384
-0.313996 7.497471
-0.306605 7.268023
-0.299444 7.043468
-0.292419 7.075971
-0.285238 7.227152
-0.277994 7.244488
-0.270572 7.749274
-0.262481 8.251654
-0.254357 7.840581
-0.246854 7.221071
-0.239786 6.945082
-0.232939 6.701819
-0.226386 6.407715
-0.220064 6.252598
-0.213874 6.078747
-0.207922 5.823655
-0.202174 5.692563
-0.196536 5.528287
-0.191085 5.426926
-0.185460 5.959930
-0.179157 6.482523
-0.172770 6.141142
-0.166903 5.677443
-0.161322 5.458755
-0.155989 5.197996
-0.150907 4.963255
-0.146029 4.797885
-0.141284 4.686124
-0.136658 4.542681
-0.132206 4.349115
-0.127939 4.192024
-0.123771 4.163886
-0.119653 3.984240
-0.115687 4.125926
-0.111211 4.813150
-0.106245 4.919054
-0.101540 4.496173
-0.097189 4.238012
-0.093033 4.046366
-0.089098 3.825379
-0.085341 3.706230
-0.081672 3.604929
-0.078137 3.463600
-0.074726 3.355432
-0.071417 3.253421
-0.068195 3.206596
-0.065012 3.117582
-0.061973 2.969413
-0.059069 2.814621
-0.056304 2.762955
-0.053532 2.728357
-0.050877 2.587354
-0.048163 3.011668
-0.044815 3.533204
-0.041331 3.332166
-0.038170 3.055534
-0.035160 2.940573
-0.032306 2.753803
-0.029637 2.597140
-0.027087 2.501421
-0.024619 2.436604
-0.022198 2.403350
-0.019809 2.363609
-0.017471 2.309748
-0.015182 2.264211
-0.012946 2.194477
-0.010796 2.105146
-0.008725 2.036367
-0.006717 1.972115
-0.004775 1.911377
-0.002891 1.849268
-0.001067 1.805175
0.000730 1.782150
0.002491 1.730746
0.004191 1.668904
0.005836 1.616123
0.007427 1.562681
0.008965 1.510593
0.010452 1.461507
0.011891 1.414562
0.013282 1.360983
0.014623 1.327540
0.015950 1.327158
0.017272 1.305150
0.018563 1.283190
0.019821 1.199020
0.021038 1.336681
0.022551 1.636589
0.024206 1.612074
0.025758 1.526416
0.027278 1.488526
0.028722 1.403969
0.030098 1.348857
0.031425 1.299951
0.032703 1.257133
0.033947 1.230585
0.035166 1.201710
0.036347 1.157030
0.037483 1.113980
0.038579 1.074259
0.039632 1.031400
0.040645 0.991183
0.041617 0.951388
0.042549 0.910583
0.043441 0.874184
0.044296 0.828991
0.045103 0.791554
0.045887 0.772113
0.046639 0.723505
0.047336 0.676674
0.047997 0.637522
0.048608 0.586085
0.049172 0.540676
0.049689 0.491221
0.050155 0.440962
0.050572 0.390610
0.050937 0.339242
0.051243 0.264029
0.051500 0.293607
0.051785 0.185944
0.051948 0.304941
0.052577 0.968494
0.053721 1.132642
0.054711 0.896813
0.055564 0.803156
0.056305 0.667826
0.056903 0.540201
0.057404 0.463874
0.057840 0.411220
0.058231 0.369485
0.058592 0.365244
0.058956 0.342219
0.059263 0.277104
0.059518 0.233586
0.059728 0.181317
0.059880 0.125537
0.059980 0.073315
0.060025 0.018069
0.060017 -0.034414
0.059951 -0.103946
0.059822 -0.136014
0.059676 -0.174168
0.059455 -0.265022
0.059152 -0.337067
0.058779 -0.414773
0.058319 -0.502332
0.057773 -0.589557
0.057136 -0.682487
0.056406 -0.777936
0.055577 -0.879745
0.054644 -0.982657
0.053603 -1.103597
0.052443 -1.199415
0.051202 -1.295226
0.049844 -1.411081
0.048378 -1.525494
0.046779 -1.671476
0.045032 -1.816473
0.043142 -1.961468
0.041103 -2.111669
0.038914 -2.263107
0.036570 -2.420943
0.034066 -2.583635
0.031396 -2.751865
0.028557 -2.919874
0.025554 -3.078570
0.022400 -3.218792
0.019116 -3.338700
0.015722 -3.438829
0.012238 -3.521102
0.008675 -3.597895
0.005033 -3.679600
0.001305 -3.771285
-0.002522 -3.877572
-0.006463 -3.999946
-0.010536 -4.139920
-0.014758 -4.300161
-0.019152 -4.482352
-0.023739 -4.686615
-0.028542 -4.912834
-0.033582 -5.161612
-0.038883 -5.433344
-0.044467 -5.726257
-0.050354 -6.039474
-0.056565 -6.374377
-0.063122 -6.729519
-0.070046 -7.109607
-0.077360 -7.501749
-0.085077 -7.929851
-0.093233 -8.351210
-0.101779 -8.723031
-0.110639 -8.923231
-0.119442 -8.518519
-0.127524 -7.605565
-0.134704 -6.801714
-0.141236 -6.282784
-0.147344 -5.947793
-0.153190 -5.752412
-0.158891 -5.650081
-0.164515 -5.588526
-0.170086 -5.547535
-0.175618 -5.496217
-0.181075 -5.399130
-0.186422 -5.289173
-0.191668 -5.191393
-0.196817 -5.097338
-0.201874 -5.006552
-0.206842 -4.920231
-0.211725 -4.837139
-0.216527 -4.759771
-0.221251 -4.674973
-0.225878 -4.562760
-0.230384 -4.443072
-0.234778 -4.338396
-0.239073 -4.244183
-0.243277 -4.156134
-0.247395 -4.073631
-0.251433 -3.995144
-0.255394 -3.920072
-0.259282 -3.846862
-0.263097 -3.777287
-0.266845 -3.711103
-0.270519 -3.622408
-0.274091 -3.515094
-0.277560 -3.416971
-0.280926 -3.301535
-0.284162 -3.165327
-0.287268 -3.044003
-0.290262 -2.940247
-0.293158 -2.845912
-0.295962 -2.758426
-0.298681 -2.675384
-0.301319 -2.595120
-0.303877 -2.516605
-0.306358 -2.439204
-0.308761 -2.362592
-0.311088 -2.287227
-0.313340 -2.213166
-0.315519 -2.140230
-0.317625 -2.068324
-0.319661 -1.998039
-0.321626 -1.929307
-0.323523 -1.861803
-0.325354 -1.795569
-0.327119 -1.730741
-0.328819 -1.667529
-0.330457 -1.605449
-0.332034 -1.544635
-0.333550 -1.485421
-0.335008 -1.427463
-0.336408 -1.370769
-0.337753 -1.315432
-0.339042 -1.261429
-0.340279 -1.208855
-0.341463 -1.157620
-0.342597 -1.107730
-0.343681 -1.059056
-0.344717 -1.011834
-0.345707 -0.966287
-0.346652 -0.919635
-0.347552 -0.884711
-0.348413 -0.821540
-0.349175 -0.692591
-0.349752 -0.420004
-0.349810 0.470115
-0.348490 2.320333
-0.344969 4.758217
-0.338983 7.141423
-0.330856 8.972550
-0.321282 10.018035
-0.311075 10.237290
-0.301009 9.789090
-0.291639 8.855846
-0.283347 7.721338
-0.276144 6.698600
-0.269832 5.990007
-0.264044 5.604043
-0.258625 5.180030
-0.253745 4.543022
-0.249560 3.816812
-0.246088 3.136039
-0.243256 2.530324
-0.240988 2.028810
-0.239153 1.653370
-0.237652 1.354018
-0.236419 1.122322
-0.235390 0.937386
-0.234537 0.767925
-0.233844 0.625099
-0.233278 0.505803
-0.232839 0.362189
-0.232564 0.185652
-0.232477 -0.017856
-0.232583 -0.170868
-0.232768 -0.172865
-0.232910 -0.117246
-0.233015 -0.097786
-0.233118 -0.117004
-0.233250 -0.137664
-0.233386 -0.134224
-0.233518 -0.128641
-0.233647 -0.132610
-0.233792 -0.164103
-0.233987 -0.230677
-0.234259 -0.313137
-0.234608 -0.377232
-0.235004 -0.408957
-0.235425 -0.434971
-0.235878 -0.471421
-0.236366 -0.499346
-0.236884 -0.544754
-0.237470 -0.631517
-0.238155 -0.738407
-0.238951 -0.852395
-0.239861 -0.964969
-0.240877 -1.060106
-0.241975 -1.132032
-0.243140 -1.195707
-0.244368 -1.256565
-0.245654 -1.312548
-0.246994 -1.362785
-0.248380 -1.406412
-0.249809 -1.446854
-0.251276 -1.484816
-0.252781 -1.522999
-0.254324 -1.556191
-0.255891 -1.572482
-0.257470 -1.584445
-0.259064 -1.599462
-0.260669 -1.605462
-0.262279 -1.612319
-0.263900 -1.626288
-0.265535 -1.641793
-0.267187 -1.658203
-0.268855 -1.674367
-0.270538 -1.689464
-0.272237 -1.703306
-0.273948 -1.715831
-0.275671 -1.726337
-0.277404 -1.735950
-0.279146 -1.744178
-0.280895 -1.750744
-0.282651 -1.756354
-0.284411 -1.760600
-0.286175 -1.763939
-0.287942 -1.766342
-0.289711 -1.767753
-0.291481 -1.768154
-0.293250 -1.767511
-0.295019 -1.765939
-0.296786 -1.763745
-0.298550 -1.760647
-0.300310 -1.756740
-0.302067 -1.752593
-0.303819 -1.747605
-0.305565 -1.741995
-0.307306 -1.735949
-0.309040 -1.729197
-0.310767 -1.721670
-0.312487 -1.713403
-0.314197 -1.704379
-0.315899 -1.694862
-0.317590 -1.684892
-0.319272 -1.674449
-0.320943 -1.663565
-0.322602 -1.652441
-0.324251 -1.640937
-0.325887 -1.629148
-0.327512 -1.617130
-0.329125 -1.604801
-0.330725 -1.591664
-0.332312 -1.580715
-0.333886 -1.560167
-0.335447 -1.574253
-0.336994 -1.457560
-0.338528 -1.829407
-0.340047 -0.373821
-0.341553 -5.741844
-0.343047 14.349871
-0.344495 -60.475745
-0.346109 218.375325
0.000000 219.427303
0.000000 -58.795369
0.000000 15.754172
0.000000 -4.221318
0.000000 1.131099
0.000000 -0.303077
0.000000 0.081209
0.000000 -0.021760
0.000000 0.005831
0.000000 -0.001562
0.000000 0.000419
0.000000 -0.000112
0.000000 0.000030
0.000000 -0.000008
0.000000 0.000002
0.000000 -0.000001
0.000000 0.000000
0.000000 -0.000000
0.000000 0.000000
0.000000 -0.000000
0.000000 0.000000
0.000000 -0.000000
0.000000 0.000000
0.000000 -0.000000
0.000000 0.000000
0.000000 -0.000000
0.000000 0.000000
0.000000 -0.000000
0.000000 0.000000
0.000000 -0.000000
0.000000 0.000000
0.000000 -0.000000
0.000000 0.000000
0.000000 -0.000000
0.000000 0.000000
0.000000 -0.000000
0.000000 0.000000
0.000000 -0.000000
0.000000 0.000000
0.000000 -0.000000
0.000000 0.000000
0.000000 -0.000000
0.000000 0.000000
0.000000 -0.000000
0.000000 0.000000
0.000000 -0.000000
0.000000 0.000000
0.000000 -0.000000
0.000000 0.000000
0.000000 -0.000000
0.000000 0.000000
0.000000 -0.000000
0.000000 0.000000
0.000000 -0.000000
0.000000 0.000000
0.000000 -0.000000
0.000000 0.000000
0.000000 -0.000000
0.000000 0.000000
0.000000 -0.000000
0.000000 0.000000
0.000000 -0.000000
0.000000 0.000000
0.000000 -0.000000
0.000000 0.000000
0.000000 -0.000000
0.000000 0.000000
0.000000 -0.000000
0.000000 0.000000
0.000000 -0.000000
0.000000 0.000000
0.000000 -0.000000
0.000000 0.000000
0.000000 -0.000000
0.000000 0.000000
0.000000 -0.000000
0.000000 0.000000
0.000000 -0.000000
0.000000 0.000000
0.000000 -0.000000
0.000000 0.000000
0.000000 -0.000000
0.000000 0.000000
0.000000 -0.000000
0.000000 0.000000
0.000000 -0.000000
0.000000 0.000000
0.000000 -0.000000
0.000000 0.000000
0.000000 -0.000000
0.000000 0.000000
0.000000 -0.000000
0.000000 0.000000
0.000000 -0.000000
0.000000 0.000000
0.000000 -0.000000
0.000000 0.000000
0.000000 -0.000000
0.000000 0.000000
0.000000 -0.000000
0.000000 0.000000
0.000000 -0.000000
0.000000 0.000000
0.000000 -0.000000
0.000000 0.000000
0.000000 -0.000000
0.000000 0.000000
0.000000 -0.000000
0.000000 0.000000
0.000000 -0.000000
0.000000 0.000000
0.000000 -0.000000
0.000000 0.000000
0.000000 -0.000000
0.000000 0.000000
0.000000 -0.000000
0.000000 0.000000
0.000000 -0.000000
0.000000 0.000000
0.000000 -0.000000
0.000000 0.000000
0.000000 -0.000000
0.000000 0.000000
0.000000 -0.000000
0.000000 0.000000
0.000000 -0.000000
0.000000 0.000000
0.000000 -0.000000
0.000000 0.000000
0.000000 -0.000000
0.000000 0.000000
0.000000 -0.000000
0.000000 0.000000
0.000000 -0.000000
0.000000 0.000000
0.000000 -0.000000
0.000000 0.000000
0.000000 -0.000000
0.000000 0.000000
0.000000 -0.000000
0.000000 0.000000
0.000000 -0.000000
0.000000 0.000000
0.000000 -0.000000
0.000000 0.000000
0.000000 -0.000000
0.000000 0.000000
0.000000 -0.000000
0.000000 0.000000
0.000000 -0.000000
0.000000 0.000000
0.000000 -0.000000
0.000000 0.000000
0.000000 -0.000000
0.000000 0.000000
0.000000 -0.000000
0.000000 0.000000
0.000000 -0.000000
0.000000 0.000000
0.000000 -0.000000
0.000000 0.000000
0.000000 -0.000000
0.000000 0.000000
0.000000 -0.000000
0.000000 0.000000
0.000000 -0.000000
0.000000 0.000000
0.000000 -0.000000
0.000000 0.000000
0.000000 -0.000000
0.000000 0.000000
0.000000 -0.000000
0.000000 0.000000
0.000000 -0.000000
0.000000 0.000000
0.000000 -0.000000
0.000000 0.000000
0.000000 -0.000000
0.000000 0.000000
0.000000 -0.000000
0.000000 0.000000
0.000000 -0.000000
0.000000 0.000000
0.000000 -0.000000
0.000000 0.000000
0.000000 -0.000000
0.000000 0.000000
0.000000 -0.000000
0.000000 0.000000
0.000000 -0.000000
0.000000 0.000000
0.000000 -0.000000
0.000000 0.000000
0.000000 -0.000000
0.000000 0.000000
0.000000 -0.000000
0.000000 0.000000
0.000000 -0.000000
0.000000 0.000000
0.000000 -0.000000
0.000000 0.000000
0.000000 -0.000000
0.000000 0.000000
0.000000 -0.000000
0.000000 0.000000
0.000000 -0.000000
0.000000 0.000000
0.000000 -0.000000
0.000000 0.000000
0.000000 -0.000000
0.000000 0.000000
0.000000 -0.000000
0.000000 0.000000
0.000000 -0.000000
0.000000 0.000000
0.000000 -0.000000
0.000000 0.000000
0.000000 -0.000000
0.000000 0.000000
0.000000 -0.000000
0.000000 0.000000
0.000000 -0.000000
0.000000 0.000000
0.000000 -0.000000
0.000000 0.000000
0.000000 -0.000000
0.000000 0.000000
0.000000 -0.000000
0.000000 0.000000
0.000000 -0.000000
0.000000 0.000000
0.000000 -0.000000
0.000000 0.000000
0.000000 -0.000000
0.000000 0.000000
0.000000 -0.000000
0.000000 0.000000
0.000000 -0.000000
0.000000 0.000000
0.000000 -0.000000
0.000000 0.000000
0.000000 -0.000000
0.000000 0.000000
0.000000 -0.000000
0.000000 0.000000
0.000000 -0.000000
0.000000 0.000000
0.000000 -0.000000
0.000000 0.000000
0.000000 -0.000000
0.000000 0.000000
0.000000 -0.000000
0.000000 0.000000
0.000000 -0.000000
0.000000 0.000000
0.000000 -0.000000
0.000000 0.000000
0.000000 -0.000000
0.000000 0.000000
0.000000 -0.000000
0.000000 0.000000
0.000000 -0.000000
0.000000 0.000000
0.000000 -0.000000
0.000000 0.000000
0.000000 -0.000000
0.000000 0.000000
0.000000 -0.000000
0.000000 0.000000
0.000000 -0.000000
0.000000 0.000000
0.000000 -0.000000
0.000000 0.000000
0.000000 -0.000000
0.000000 0.000000
0.000000 -0.000000
0.000000 0.000000
0.000000 -0.000000
0.000000 0.000000
0.000000 -0.000000
0.000000 0.000000
0.000000 -0.000000
0.000000 0.000000
0.000000 -0.000000
0.000000 0.000000
0.000000 -0.000000
0.000000 0.000000
0.000000 -0.000000
0.000000 0.000000
0.000000 -0.000000
0.000000 0.000000
0.000000 -0.000000
0.000000 0.000000
0.000000 -0.000000
0.000000 0.000000
0.000000 -0.000000
0.000000 0.000000
0.000000 -0.000000
0.000000 0.000000
0.000000 -0.000000
0.000000 0.000000
0.000000 -0.000000
0.000000 0.000000
0.000000 -0.000000
0.000000 0.000000
0.000000 -0.000000
0.000000 0.000000
0.000000 -0.000000
0.000000 0.000000
0.000000 -0.000000
0.000000 0.000000
0.000000 -0.000000
0.000000 0.000000
0.000000 -0.000000
0.000000 0.000000
0.000000 -0.000000
0.000000 0.000000
0.000000 -0.000000
0.000000 0.000000
0.000000 -0.000000
0.000000 0.000000
0.000000 -0.000000
0.000000 0.000000
0.000000 -0.000000
0.000000 0.000000
0.000000 -0.000000
0.000000 0.000000
0.000000 -0.000000
0.000000 0.000000
0.000000 -0.000000
0.000000 0.000000
0.000000 -0.000000
0.000000 0.000000
0.000000 -0.000000
0.000000 0.000000
0.000000 -0.000000
0.000000 0.000000
0.000000 -0.000000
0.000000 0.000000
0.000000 -0.000000
0.000000 0.000000
0.000000 -0.000000
0.000000 0.000000
0.000000 -0.000000
0.000000 0.000000
0.000000 -0.000000
0.000000 0.000000
0.000000 -0.000000
0.000000 0.000000
0.000000 -0.000000
0.000000 0.000000
0.000000 -0.000000
0.000000 0.000000
0.000000 -0.000000
0.000000 0.000000
0.000000 -0.000000
0.000000 0.000000
0.000000 -0.000000
0.000000 0.000000
0.000000 -0.000000
0.000000 0.000000
0.000000 -0.000000
0.000000 0.000000
0.000000 -0.000000
0.000000 0.000000
0.000000 -0.000000
0.000000 0.000000
0.000000 -0.000000
0.000000 0.000000
0.000000 -0.000000
0.000000 0.000000
0.000000 -0.000000
0.000000 0.000000
0.000000 -0.000000
0.000000 0.000000
0.000000 -0.000000
0.000000 0.000000
0.000000 -0.000000
0.000000 0.000000
0.000000 -0.000000
0.000000 0.000000
0.000000 -0.000000
0.000000 0.000000
0.000000 -0.000000
0.000000 0.000000
0.000000 -0.000000
0.000000 0.000000
0.000000 -0.000000
0.000000 0.000000
0.000000 -0.000000
0.000000 0.000000
0.000000 -0.000000
0.000000 0.000000
0.000000 -0.000000
0.000000 0.000000
0.000000 -0.000000
0.000000 0.000000
0.000000 -0.000000
0.000000 0.000000
0.000000 -0.000000
0.000000 0.000000
0.000000 -0.000000
0.000000 0.000000
0.000000 -0.000000
0.000000 0.000000
0.000000 -0.000000
0.000000 0.000000
0.000000 -0.000000
0.000000 0.000000
0.000000 -0.000000
0.000000 0.000000
0.000000 -0.000000
0.000000 0.000000
0.000000 -0.000000
0.000000 0.000000
0.000000 -0.000000
0.000000 0.000000
0.000000 -0.000000
0.000000 0.000000
0.000000 -0.000000
0.000000 0.000000
0.000000 -0.000000
0.000000 0.000000
0.000000 -0.000000
0.000000 0.000000
0.000000 -0.000000
0.000000 0.000000
0.000000 -0.000000
0.000000 0.000000
0.000000 -0.000000
0.000000 0.000000
0.000000 -0.000000
0.000000 0.000000
0.000000 -0.000000
0.000000 0.000000
0.000000 -0.000000
0.000000 0.000000
0.000000 -0.000000
0.000000 0.000000
0.000000 -0.000000
0.000000 0.000000
0.000000 -0.000000
0.000000 0.000000
0.000000 -0.000000
0.000000 0.000000
0.000000 -0.000000
0.000000 0.000000
0.000000 -0.000000
0.000000 0.000000
0.000000 -0.000000
0.000000 0.000000
0.000000 -0.000000
0.000000 0.000000
0.000000 -0.000000
0.000000 0.000000
0.000000 -0.000000
0.000000 0.000000
0.000000 -0.000000
0.000000 0.000000
0.000000 -0.000000
0.000000 0.000000
0.000000 -0.000000
0.000000 0.000000
0.000000 -0.000000
0.000000 0.000000
0.000000 -0.000000
0.000000 0.000000
0.000000 -0.000000
0.000000 0.000000
0.000000 -0.000000
0.000000 0.000000
0.000000 -0.000000
0.000000 0.000000
0.000000 -0.000000
0.000000 0.000000
0.000000 -0.000000
0.000000 0.000000
0.000000 -0.000000
0.000000 0.000000
0.000000 -0.000000
0.000000 0.000000
0.000000 -0.000000
0.000000 0.000000
0.000000 -0.000000
0.000000 0.000000
0.000000 -0.000000
0.000000 0.000000
0.000000 -0.000000
0.000000 0.000000
0.000000 -0.000000
0.000000 0.000000
0.000000 -0.000000
0.000000 0.000000
0.000000 -0.000000
0.000000 0.000000
0.000000 -0.000000
0.000000 0.000000
0.000000 -0.000000
0.000000 0.000000
0.000000 -0.000000
0.000000 0.000000
0.000000 -0.000000
0.000000 0.000000
0.000000 -0.000000
0.000000 0.000000
0.000000 -0.000000
0.000000 0.000000
0.000000 -0.000000
0.000000 0.000000
0.000000 -0.000000
0.000000 0.000000
0.000000 -0.000000
0.000000 0.000000
0.000000 -0.000000
0.000000 0.000000
0.000000 -0.000000
0.000000 0.000000
0.000000 -0.000000
0.000000 0.000000
0.000000 -0.000000
0.000000 0.000000
0.000000 -0.000000
0.000000 0.000000
0.000000 -0.000000
0.000000 0.000000
0.000000 -0.000000
0.000000 0.000000
0.000000 -0.000000
0.000000 0.000000
0.000000 -0.000000
0.000000 0.000000
0.000000 -0.000000
0.000000 0.000000
0.000000 -0.000000
0.000000 0.000000
0.000000 -0.000000
0.000000 0.000000
0.000000 -0.000000
0.000000 0.000000
0.000000 -0.000000
0.000000 0.000000
0.000000 -0.000000
0.000000 0.000000
0.000000 -0.000000
0.000000 0.000000
0.000000 -0.000000
0.000000 0.000000
0.000000 -0.000000
0.000000 0.000000
0.000000 -0.000000
0.000000 0.000000
0.000000 -0.000000
0.000000 0.000000
0.000000 -0.000000
0.000000 0.000000
0.000000 -0.000000
0.000000 0.000000
0.000000 -0.000000
0.000000 0.000000
0.000000 -0.000000
0.000000 0.000000
0.000000 -0.000000
0.000000 0.000000
0.000000 -0.000000
0.000000 0.000000
0.000000 -0.000000
0.000000 0.000000
0.000000 0.000000
0.000000 0.000000
0.000000 0.000000
0.000000 0.000000
0.000000 0.000000
0.000000 0.000000
0.000000 0.000000
0.000000 0.000000
0.000000 0.000000
0.000000 0.000000
0.000000 0.000000
0.000000 0.000000
0.000000 0.000000
0.000000 0.000000
0.000000 0.000000
0.000000 0.000000
0.000000 0.000000
0.000000 0.000000
0.000000 0.000000
0.000000 0.000000
0.000000 0.000000
0.000000 0.000000
0.000000 0.000000
0.000000 0.000000
0.000000 0.000000
0.000000 0.000000
-0.560468 11.073235
