-0.412104 0.396399 0.000012
-0.704697 11.002025
-0.692532 13.286896
-0.678132 15.466449
-0.661781 17.008003
-0.644410 17.566456
-0.626830 17.472471
-0.609539 17.052186
-0.592670 16.698091
-0.575971 16.758099
-0.558958 17.302825
-0.541241 18.115662
-0.522683 18.952577
-0.503339 19.666006
-0.483376 20.184993
-0.463000 20.492316
-0.442418 20.597234
-0.421823 20.526208
-0.401371 20.316944
-0.381183 20.003874
-0.361343 19.631135
-0.341884 19.250913
-0.322794 18.896914
-0.304036 18.591696
-0.285552 18.350332
-0.267276 18.175821
-0.249142 18.067610
-0.231083 18.024540
-0.213036 18.042366
-0.194945 18.111643
-0.176760 18.230928
-0.158436 18.380806
-0.139948 18.571841
-0.121228 18.845025
-0.102195 19.194451
-0.082788 19.583401
-0.062986 19.979761
-0.042797 20.348744
-0.022273 20.641725
-0.001502 20.845347
0.019438 20.986432
0.040503 21.097327
0.061673 21.200663
0.082950 21.314287
0.104351 21.449457
0.125898 21.603321
0.147606 21.772054
0.169490 21.953289
0.191560 22.144869
0.213826 22.342114
0.236288 22.538104
0.258945 22.728355
0.281785 22.900927
0.304788 23.058550
0.327913 23.111734
0.351163 23.480654
0.375033 24.183327
0.399497 24.643654
0.424279 24.831333
0.449141 24.815026
0.473909 24.650141
0.498461 24.393856
0.522740 24.123169
0.546754 23.848125
0.570543 23.747311
0.594214 23.399633
0.617775 24.210549
0.641591 21.748345
0.664513 28.870468
0.690868 10.452466
0.706929 56.438987
0.823721 161.953501
0.967922 77.944189
0.979930 -5.571938
0.991125 13.881037
0.998762 6.485779
1.009190 14.317152
1.022010 5.921553
1.022866 2.984312
1.030895 8.768493
1.037113 4.640662
1.040265 0.750217
1.039422 -0.723959
1.039664 0.345243
1.039596 -0.135469
1.039615 0.048291
1.039609 -0.016230
1.039611 0.005236
1.039610 -0.001638
1.039611 0.000500
1.039610 -0.000149
1.039610 0.000044
1.039610 -0.000013
1.039610 0.000004
1.039610 -0.000001
1.039610 0.000000
1.039610 -0.000000
1.039610 0.000000
1.039610 -0.000000
1.039610 0.000000
1.039610 -0.000000
1.039610 0.000000
1.039610 -0.000000
1.039610 0.000000
1.039610 -0.000000
1.039610 -0.000000
1.039610 0.000000
1.039610 -0.000000
1.039610 0.000000
1.039610 -0.000000
1.039610 0.000000
1.039610 -0.000000
1.039610 0.000000
1.039610 -0.000000
1.039610 0.000000
1.039610 -0.000000
1.039610 0.000000
1.039610 -0.000000
1.039610 0.000000
1.039610 -0.000000
1.039610 0.000000
1.039610 -0.000000
1.039610 0.000000
1.039610 -0.000000
1.039610 0.000000
1.039610 -0.000000
1.039610 0.000000
1.039610 -0.000000
1.039610 0.000000
1.039610 -0.000000
1.039610 0.000000
1.039610 -0.000000
1.039610 0.000000
1.039610 -0.000000
1.039610 0.000000
1.039610 -0.000000
1.039610 0.000000
1.039610 -0.000000
1.039610 0.000000
1.039610 -0.000000
1.039610 0.000000
1.039610 -0.000000
1.039610 0.000000
1.039610 -0.000000
1.039610 0.000000
1.039610 -0.000000
1.039610 0.000000
1.039610 -0.000000
1.039610 0.000000
1.039610 -0.000000
1.039610 0.000000
1.039610 -0.000000
1.039610 0.000000
1.039610 -0.000000
1.039610 0.000000
1.039610 -0.000000
1.039610 0.000000
1.039610 -0.000000
1.039610 0.000000
1.039610 -0.000000
1.039610 0.000000
1.039610 -0.000000
1.039610 0.000000
1.039610 -0.000000
1.039610 0.000000
1.039610 -0.000000
1.039610 0.000000
1.039610 -0.000000
1.039610 0.000000
1.039610 -0.000000
1.039610 0.000000
1.039610 -0.000000
1.039610 0.000000
1.039610 -0.000000
1.039610 0.000000
1.039610 -0.000000
1.039610 0.000000
1.039610 -0.000000
1.039610 0.000000
1.039610 -0.000000
1.039610 0.000000
1.039610 -0.000000
1.039610 0.000000
1.039610 -0.000000
1.039610 0.000000
1.039610 -0.000000
1.039610 0.000000
1.039610 -0.000000
1.039610 0.000000
1.039610 -0.000000
1.039610 0.000000
1.039610 -0.000000
1.039610 0.000000
1.039610 -0.000000
1.039610 0.000000
1.039610 -0.000000
1.039610 0.000000
1.039610 -0.000000
1.039610 0.000000
1.039610 -0.000000
1.039610 0.000000
1.039610 -0.000000
1.039610 0.000000
1.039610 -0.000000
1.039610 0.000000
1.039610 -0.000000
1.039610 0.000000
1.039610 -0.000000
1.039610 0.000000
1.039610 -0.000000
1.039610 0.000000
1.039610 -0.000000
1.039610 0.000000
1.039610 -0.000000
1.039610 0.000000
1.039610 -0.000000
1.039610 0.000000
1.039610 -0.000000
1.039610 0.000000
1.039610 -0.000000
1.039610 0.000000
1.039610 -0.000000
1.039610 0.000000
1.039610 -0.000000
1.039610 0.000000
1.039610 -0.000000
1.039610 0.000000
1.039610 -0.000000
1.039610 0.000000
1.039610 -0.000000
1.039610 0.000000
1.039610 -0.000000
1.039610 0.000000
1.039610 -0.000000
1.039610 0.000000
1.039610 -0.000000
1.039610 0.000000
1.039610 -0.000000
1.039610 0.000000
1.039610 -0.000000
1.039610 0.000000
1.039610 -0.000000
1.039610 0.000000
1.039610 -0.000000
1.039610 0.000000
1.039610 -0.000000
1.039610 0.000000
1.039610 -0.000000
1.039610 0.000000
1.039610 -0.000000
1.039610 0.000000
1.039610 -0.000000
1.039610 0.000000
1.039610 -0.000000
1.039610 0.000000
1.039610 -0.000000
1.039610 0.000000
1.039610 -0.000000
1.039610 0.000000
1.039610 -0.000000
1.039610 0.000000
1.039610 -0.000000
1.039610 0.000000
1.039610 -0.000000
1.039610 0.000000
1.039610 -0.000000
1.039610 0.000000
1.039610 -0.000000
1.039610 0.000000
1.039610 -0.000000
1.039610 0.000000
1.039610 -0.000000
1.039610 0.000000
1.039610 -0.000000
1.039610 0.000000
1.039610 -0.000000
1.039610 0.000000
1.039610 -0.000000
1.039610 0.000000
1.039610 -0.000000
1.039610 0.000000
1.039610 -0.000000
1.039610 0.000000
1.039610 -0.000000
1.039610 0.000000
1.039610 -0.000000
1.039610 0.000000
1.039610 -0.000000
1.039610 0.000000
1.039610 -0.000000
1.039610 0.000000
1.039610 -0.000000
1.039610 0.000000
1.039610 -0.000000
1.039610 0.000000
1.039610 -0.000000
1.039610 0.000000
1.039610 -0.000000
1.039610 0.000000
1.039610 -0.000000
1.039610 0.000000
1.039610 -0.000000
1.039610 0.000000
1.039610 -0.000000
1.039610 0.000000
1.039610 -0.000000
1.039610 0.000000
1.039610 -0.000000
1.039610 0.000000
1.039610 -0.000000
1.039610 0.000000
1.039610 -0.000000
1.039610 0.000000
1.039610 -0.000000
1.039610 0.000000
1.039610 -0.000000
1.039610 0.000000
1.039610 -0.000000
1.039610 0.000000
1.039610 -0.000000
1.039610 0.000000
1.039610 -0.000000
1.039610 0.000000
1.039610 -0.000000
1.039610 0.000000
1.039610 -0.000000
1.039610 0.000000
1.039610 -0.000000
1.039610 0.000000
1.039610 -0.000000
1.039610 0.000000
1.039610 -0.000000
1.039610 0.000000
1.039610 -0.000000
1.039610 0.000000
1.039610 -0.000000
1.039610 0.000000
1.039610 -0.000000
1.039610 0.000000
1.039610 -0.000000
1.039610 0.000000
1.039610 -0.000000
1.039610 0.000000
1.039610 -0.000000
1.039610 0.000000
1.039610 -0.000000
1.039610 0.000000
1.039610 -0.000000
1.039610 0.000000
1.039610 -0.000000
1.039610 0.000000
1.039610 -0.000000
1.039610 0.000000
1.039610 -0.000000
1.039610 0.000000
1.039610 -0.000000
1.039610 0.000000
1.039610 -0.000000
1.039610 0.000000
1.039610 -0.000000
1.039610 0.000000
1.039610 -0.000000
1.039610 0.000000
1.039610 -0.000000
1.039610 0.000000
1.039610 -0.000000
1.039610 0.000000
1.039610 -0.000000
1.039610 0.000000
1.039610 -0.000000
1.039610 0.000000
1.039610 -0.000000
1.039610 0.000000
1.039610 -0.000000
1.039610 0.000000
1.039610 -0.000000
1.039610 0.000000
1.039610 -0.000000
1.039610 0.000000
1.039610 -0.000000
1.039610 0.000000
1.039610 -0.000000
1.039610 0.000000
1.039610 -0.000000
1.039610 0.000000
1.039610 -0.000000
1.039610 0.000000
1.039610 -0.000000
1.039610 0.000000
1.039610 -0.000000
1.039610 0.000000
1.039610 -0.000000
1.039610 0.000000
1.039610 -0.000000
1.039610 0.000000
1.039610 -0.000000
1.039610 0.000000
1.039610 -0.000000
1.039610 0.000000
1.039610 -0.000000
1.039610 0.000000
1.039610 -0.000000
1.039610 0.000000
1.039610 -0.000000
1.039610 0.000000
1.039610 -0.000000
1.039610 0.000000
1.039610 -0.000000
1.039610 0.000000
1.039610 -0.000000
1.039610 0.000000
1.039610 -0.000000
1.039610 0.000000
1.039610 -0.000000
1.039610 0.000000
1.039610 -0.000000
1.039610 0.000000
1.039610 -0.000000
1.039610 0.000000
1.039610 -0.000000
1.039610 0.000000
1.039610 -0.000000
1.039610 0.000000
1.039610 -0.000000
1.039610 0.000000
1.039610 -0.000000
1.039610 0.000000
1.039610 -0.000000
1.039610 0.000000
1.039610 -0.000000
1.039610 0.000000
1.039610 -0.000000
1.039610 0.000000
1.039610 -0.000000
1.039610 0.000000
1.039610 -0.000000
1.039610 0.000000
1.039610 -0.000000
1.039610 0.000000
1.039610 -0.000000
1.039610 0.000000
1.039610 -0.000000
1.039610 0.000000
1.039610 -0.000000
1.039610 0.000000
1.039610 -0.000000
1.039610 0.000000
1.039610 -0.000000
1.039610 0.000000
1.039610 -0.000000
1.039610 0.000000
1.039610 -0.000000
1.039610 0.000000
1.039610 -0.000000
1.039610 0.000000
1.039610 -0.000000
1.039610 0.000000
1.039610 -0.000000
1.039610 0.000000
1.039610 -0.000000
1.039610 0.000000
1.039610 -0.000000
1.039610 0.000000
1.039610 -0.000000
1.039610 0.000000
1.039610 -0.000000
1.039610 0.000000
1.039610 -0.000000
1.039610 0.000000
1.039610 -0.000000
1.039610 0.000000
1.039610 -0.000000
1.039610 0.000000
1.039610 -0.000000
1.039610 0.000000
1.039610 -0.000000
1.039610 0.000000
1.039610 -0.000000
1.039610 0.000000
1.039610 -0.000000
1.039610 -0.000000
1.039610 0.000000
1.039610 -0.000000
1.039610 0.000001
1.039610 -0.000005
1.039610 0.000019
1.039610 -0.000073
1.039610 0.000278
1.039611 -0.001021
1.039610 0.003643
1.039611 -0.012628
1.039609 0.042409
1.039617 -0.137079
1.039581 0.421248
1.039733 -1.200600
1.039117 2.992909
1.041547 -5.335668
1.025324 -22.988081
0.982321 -80.212840
0.821552 -266.867774
0.491318 -323.852097
0.183636 -349.556003
-0.275575 -576.300809
-0.857753 -466.283001
-1.122629 -97.188777
-1.140407 7.922113
-1.148487 -11.995273
-1.163361 -28.732807
-1.196587 -17.230241
-1.193855 6.263623
-1.194152 -0.527070
-1.195641 -9.508700
-1.210574 -10.655426
-1.222120 -27.226383
-1.259405 -26.784501
-1.266382 1.710015
-1.266273 -0.639663
-1.266367 0.894862
-1.263272 6.055441
-1.248857 27.359555
-1.198990 77.160513
-1.100122 109.758615
-0.995339 94.145923
-0.904291 100.562489
-0.783163 139.494905
-0.639930 133.748263
-0.521898 108.522790
-0.410009 121.233596
-0.278896 134.821564
-0.142610 140.874549
-0.003314 127.599189
0.105466 92.212960
0.190076 83.139042
0.273080 77.569704
0.339890 55.574250
0.384779 34.893690
0.411917 20.717212
0.427849 11.319386
0.435400 4.382537
0.437525 0.150167
0.436261 -2.403524
0.433049 -3.953216
0.428351 -5.490620
0.423613 -2.362592
0.423587 0.663837
0.423554 -0.469529
0.422842 -1.018007
0.421462 -1.727914
0.419565 -1.890803
0.417387 -2.923012
0.414395 -1.910924
0.413181 -2.036683
0.411631 1.773909
0.415746 2.628181
0.386295 -88.219363
0.217272 -244.577794
-0.074859 -315.547183
-0.368154 -247.754882
-0.558451 -142.758664
-0.664281 -68.703637
-0.698647 -2.596323
-0.678040 37.853899
-0.630352 55.861940
-0.572266 55.702315
-0.524485 38.611389
-0.496343 17.393121
-0.490153 -5.291459
-0.505538 -23.785515
-0.540524 -50.526633
-0.605022 -72.260679
-0.679067 -75.643548
-0.755966 -77.545223
-0.833229 -76.199254
-0.907963 -73.191009
-0.979722 -70.075671
-1.048691 -68.269064
-1.115242 -63.001551
-1.177604 -66.075271
-1.244938 -61.396999
-1.295016 -40.220846
-1.327772 -25.972764
-1.348212 -15.317277
-1.359485 -7.802923
-1.367161 -10.260787
-1.379776 -11.964861
-1.388813 -6.771392
-1.394401 -4.781188
-1.398701 -3.737075
-1.401930 -2.834446
-1.404677 -2.836095
-1.407565 -2.710668
-1.410151 -2.726396
-1.413358 -3.743872
-1.417645 -4.759603
-1.422796 -5.505769
-1.428598 -6.041315
-1.434830 -6.392420
-1.441298 -6.450590
-1.447811 -6.712039
-1.454377 -5.899913
-1.459431 -4.512002
-1.463798 -4.286339
-1.468027 -4.105200
-1.472043 -4.003369
-1.475939 -3.594614
-1.478901 -2.171106
-1.480680 -1.928784
-1.482647 -1.340614
-1.483117 -0.011063
-1.483106 0.008668
-1.483110 -0.004993
-1.483109 0.002284
-1.483109 -0.000928
-1.483109 0.000350
-1.483109 -0.000125
-1.483109 0.000043
-1.483109 -0.000014
-1.483109 0.000005
-1.483109 -0.000001
-1.483109 0.000000
-1.483109 -0.000000
-1.483109 0.000000
-1.483109 -0.000000
-1.483109 0.000000
-1.483109 -0.000000
-1.483109 0.000000
-1.483109 -0.000000
-1.483109 0.000000
-1.483109 -0.000000
-1.483109 0.000000
-1.483109 -0.000000
-1.483109 0.000000
-1.483109 -0.000000
-1.483109 0.000000
-1.483109 -0.000000
-1.483109 0.000000
-1.483109 -0.000000
-1.483109 0.000000
-1.483109 -0.000000
-1.483109 0.000000
-1.483109 -0.000000
-1.483109 0.000001
-1.483109 -0.000001
-1.483109 0.000001
-1.483109 0.000007
-1.483109 -0.000051
-1.483109 0.000257
-1.483109 -0.001095
-1.483109 0.004220
-1.483109 -0.014977
-1.483112 0.048783
-1.483095 -0.137638
-1.482971 0.922920
-1.479888 6.056091
-1.469731 14.532707
-1.450788 23.026613
-1.425216 26.773127
-1.398499 26.591613
-1.371962 26.462758
-1.345526 26.317029
-1.319110 26.665838
-1.292168 26.933472
-1.265389 26.601428
-1.238890 26.334096
-1.212671 26.057650
-1.186751 25.697919
-1.161219 25.353687
-1.135843 25.455989
-1.110263 25.536778
-1.084875 25.149138
-1.059937 24.692718
-1.035434 24.254169
-1.011387 23.796482
-0.987799 23.323777
-0.964670 22.918110
-0.941962 22.375714
-0.919712 22.320516
-0.897054 22.932011
-0.873974 23.026693
-0.851107 22.664851
-0.828590 22.330131
-0.806391 22.029075
-0.784498 21.697007
-0.762923 21.454590
-0.741354 21.786745
-0.719406 21.819628
-0.697827 21.384675
-0.676534 21.130510
-0.655546 20.810447
-0.634867 20.502980
-0.614503 20.182149
-0.594465 19.853706
-0.574760 19.514050
-0.555402 19.160416
-0.536406 18.790907
-0.517788 18.404081
-0.499567 18.000581
-0.481757 17.580838
-0.464379 17.132773
-0.447469 16.649421
-0.431064 16.116457
-0.415210 15.563038
-0.399906 15.011677
-0.385298 14.037116
-0.372159 11.996629
-0.361639 8.882224
-0.354400 5.697245
-0.349937 3.399334
-0.347325 1.909526
-0.345935 0.955992
-0.345284 0.382867
-0.345096 0.026976
-0.345205 -0.251749
-0.345616 -0.578341
-0.346357 -0.887574
-0.347369 -1.123429
-0.348590 -1.310309
-0.349982 -1.467965
-0.351525 -1.615855
-0.353206 -1.730202
-0.355003 -1.885422
-0.357014 -2.141910
-0.359286 -2.384973
-0.361767 -2.562635
-0.364402 -2.696607
-0.367159 -2.808629
-0.370020 -2.907025
-0.372978 -3.002684
-0.376024 -3.074482
-0.379150 -3.199182
-0.382483 -3.488248
-0.386145 -3.809229
-0.390075 -4.025929
-0.394179 -4.165800
-0.398401 -4.264627
-0.402709 -4.339378
-0.407084 -4.401746
-0.411519 -4.457483
-0.416007 -4.509829
-0.420547 -4.560301
-0.425137 -4.609880
-0.429775 -4.658695
-0.434463 -4.707051
-0.439199 -4.754800
-0.443982 -4.801900
-0.448812 -4.848786
-0.453689 -4.894822
-0.458611 -4.940339
-0.463579 -4.985556
-0.468592 -5.029713
-0.473649 -5.073508
-0.478749 -5.116851
-0.483893 -5.159499
-0.489078 -5.201349
-0.494305 -5.242579
-0.499573 -5.281880
-0.504879 -5.320231
-0.510224 -5.358179
-0.515606 -5.395283
-0.521026 -5.432986
-0.526483 -5.470923
-0.531979 -5.508800
-0.537511 -5.545667
-0.543081 -5.581684
-0.548686 -5.616946
-0.554325 -5.650476
-0.559997 -5.681934
-0.565700 -5.711500
-0.571431 -5.739235
-0.577189 -5.764712
-0.582971 -5.787551
-0.588775 -5.809040
-0.594600 -5.829016
-0.600444 -5.846900
-0.606306 -5.863959
-0.612184 -5.879654
-0.618076 -5.893956
-0.623983 -5.906580
-0.629902 -5.920208
-0.635834 -5.931208
-0.641779 -5.950227
-0.647745 -5.965392
-0.653678 -5.851917
-0.659345 -5.391902
-0.664271 -4.328000
-0.667785 -2.590573
-0.669323 -0.447808
-0.668635 1.834471
-0.665730 3.877053
-0.661122 5.174941
-0.655689 5.514883
-0.650382 4.951810
-0.646009 3.690371
-0.643159 1.934659
-0.642241 -0.137969
-0.643480 -2.344525
-0.646928 -4.530284
-0.652502 -6.572496
-0.660010 -8.385133
-0.669195 -9.918442
-0.679759 -11.129200
-0.691358 -11.985931
-0.703649 -12.525133
-0.716350 -12.813649
-0.729235 -12.900989
-0.742124 -12.828639
-0.754875 -12.630119
-0.767377 -12.334008
-0.779543 -11.963966
-0.791311 -11.540330
-0.802636 -11.082011
-0.813490 -10.603237
-0.823860 -10.115223
-0.833746 -9.640719
-0.843153 -9.143295
-0.852029 -8.580119
-0.860324 -7.996468
-0.868051 -7.454228
-0.875273 -6.989948
-0.882076 -6.616715
-0.888550 -6.334037
-0.894784 -6.132617
-0.900850 -5.998570
-0.906810 -5.916017
-0.912706 -5.870479
-0.918570 -5.848547
-0.924420 -5.840201
-0.930264 -5.837367
-0.936103 -5.823496
-0.941913 -5.778128
-0.947662 -5.706317
-0.953335 -5.629551
-0.958933 -5.555884
-0.964460 -5.489453
-0.969926 -5.431588
-0.975337 -5.380521
-0.980699 -5.334243
-0.986017 -5.290479
-0.991291 -5.247623
-0.996522 -5.203494
-1.001708 -5.157703
-1.006847 -5.109100
-1.011935 -5.057247
-1.016970 -5.002435
-1.021949 -4.945370
-1.026870 -4.885927
-1.031730 -4.824205
-1.036528 -4.761262
-1.041262 -4.697030
-1.045931 -4.632184
-1.050535 -4.566711
-1.055073 -4.500232
-1.059545 -4.433828
-1.063950 -4.367389
-1.068288 -4.300870
-1.072560 -4.234712
-1.076766 -4.168345
-1.080905 -4.102194
-1.084979 -4.035800
-1.088985 -3.969750
-1.092926 -3.903368
-1.096800 -3.836529
-1.100607 -3.770435
-1.104348 -3.703198
-1.108021 -3.635537
-1.111626 -3.567805
-1.115163 -3.498804
-1.118631 -3.429560
-1.122029 -3.359558
-1.125356 -3.288567
-1.128612 -3.216532
-1.131795 -3.143506
-1.134905 -3.069425
-1.137940 -2.994401
-1.140899 -2.918106
-1.143781 -2.840104
-1.146585 -2.761282
-1.149309 -2.680981
-1.151952 -2.599163
-1.154512 -2.516007
-1.156988 -2.431536
-1.159383 -2.355149
-1.161712 -2.304066
-1.164022 -2.331684
-1.166449 -2.565692
-1.169261 -3.108933
-1.172760 -3.912002
-1.177117 -4.784893
-1.182285 -5.495121
-1.188002 -5.859119
-1.193872 -5.794558
-1.199466 -5.320739
-1.204423 -4.544863
-1.208513 -3.613955
-1.211644 -2.640696
-1.213813 -1.705272
-1.215093 -0.873895
-1.215607 -0.177167
-1.215492 0.384337
-1.214885 0.805624
-1.213927 1.084638
-1.212755 1.238722
-1.211480 1.295433
-1.210184 1.284732
-1.208923 1.228310
-1.207736 1.138474
-1.206648 1.035806
-1.205659 0.944004
-1.204747 0.884225
-1.203876 0.862762
-1.203011 0.868346
-1.202131 0.893478
-1.201218 0.932665
-1.200260 0.982803
-1.199247 1.043062
-1.198169 1.110952
-1.197020 1.186193
-1.195792 1.268098
-1.194482 1.348791
-1.193094 1.422724
-1.191635 1.492511
-1.190102 1.574037
-1.188475 1.680030
-1.186733 1.803872
-1.184863 1.931239
-1.182870 2.047765
-1.180768 2.149407
-1.178570 2.242946
-1.176278 2.336205
-1.173888 2.442719
-1.171380 2.571600
-1.168735 2.715627
-1.165941 2.865700
-1.162997 3.016921
-1.159902 3.166215
-1.156660 3.311679
-1.153274 3.451898
-1.149748 3.593721
-1.146077 3.743217
-1.142254 3.893560
-1.138284 4.037572
-1.134174 4.172768
-1.129933 4.300079
-1.125568 4.419779
-1.121086 4.533474
-1.116493 4.642953
-1.111792 4.748678
-1.106987 4.852317
-1.102079 4.954387
-1.097069 5.055054
-1.091958 5.155614
-1.086747 5.255521
-1.081437 5.354824
-1.076027 5.454241
-1.070518 5.553737
-1.064908 5.653897
-1.059198 5.753885
-1.053389 5.853683
-1.047479 5.954385
-1.041468 6.054972
-1.035357 6.154983
-1.029146 6.255359
-1.022834 6.355281
-1.016423 6.455092
-1.009911 6.554814
-1.003300 6.653736
-0.996590 6.752086
-0.989783 6.849981
-0.982877 6.946586
-0.975876 7.043001
-0.968777 7.138603
-0.961585 7.232250
-0.954298 7.325918
-0.946919 7.418157
-0.939448 7.509241
-0.931886 7.599184
-0.924235 7.687394
-0.916496 7.774455
-0.908671 7.860084
-0.900761 7.943743
-0.892768 8.025357
-0.884694 8.105540
-0.876541 8.183883
-0.868311 8.260533
-0.860004 8.335401
-0.851624 8.408649
-0.843171 8.480335
-0.834647 8.550171
-0.826054 8.618455
-0.817393 8.685161
-0.808666 8.750299
-0.799876 8.813637
-0.791022 8.875477
-0.782107 8.935613
-0.773133 8.994166
-0.764102 9.049982
-0.755016 9.103097
-0.745870 9.177954
-0.736686 9.121216
-0.727395 9.708005
-0.704697 11.002025
