0.085184 0.135106 0.088135
-0.630558 -0.000000
-0.630558 0.000000
-0.630558 -0.000000
-0.630558 0.000000
-0.630558 -0.000000
-0.630558 0.000000
-0.630558 -0.000000
-0.630558 0.000000
-0.630558 -0.000000
-0.630558 0.000000
-0.630558 -0.000000
-0.630558 0.000000
-0.630558 -0.000000
-0.630558 0.000000
-0.630558 0.000000
-0.630558 -0.000001
-0.630558 0.000006
-0.630558 -0.000027
-0.630558 0.000114
-0.630558 -0.000429
-0.630558 0.001464
-0.630558 -0.004380
-0.630560 0.010347
-0.630549 -0.009847
-0.630600 -0.089886
-0.629936 2.206827
-0.625822 5.580791
-0.620304 4.337531
-0.616096 6.218161
-0.603940 19.831006
-0.577585 29.877708
-0.546810 31.878600
-0.513674 34.149416
-0.479200 34.150933
-0.445454 33.699616
-0.411864 32.854748
-0.379831 31.554729
-0.348482 30.884184
-0.318236 29.507568
-0.289421 28.089788
-0.261991 26.701275
-0.235810 25.776728
-0.210532 24.413099
-0.187094 22.575115
-0.165269 20.941213
-0.145072 19.598080
-0.126043 18.225238
-0.108752 16.351564
-0.093242 14.673346
-0.079330 13.135286
-0.066960 11.552332
-0.056257 9.804202
-0.047394 7.870440
-0.040529 5.851764
-0.035630 3.978414
-0.032484 2.343535
-0.030857 0.954136
-0.030548 -0.356532
-0.031484 -1.406397
-0.033141 -1.791396
-0.035396 -3.154511
-0.036992 2.869665
-0.027636 14.933642
-0.009052 21.133069
0.015127 28.695647
0.051355 45.122902
0.103119 54.522950
0.159767 61.695353
0.231381 83.097038
0.322819 94.584117
0.415692 90.946684
0.504564 86.320082
0.588546 81.816022
0.668227 76.911103
0.742055 70.608255
0.809806 64.970101
0.872740 61.172701
0.932863 59.141631
0.991523 58.253675
1.049802 58.307361
1.108454 58.958957
1.167957 59.967793
1.228559 61.124337
1.290316 62.246979
1.353123 63.205872
1.416772 63.918031
1.480988 64.334758
1.545468 64.442810
1.609898 64.236776
1.673968 63.726733
1.737384 62.930823
1.799869 61.873303
1.861177 60.583335
1.921087 59.084139
1.979402 57.400654
2.035951 55.561907
2.090592 53.590154
2.143206 51.519254
2.193716 49.395397
2.242092 47.261558
2.288338 45.138531
2.332473 43.054045
2.374534 40.974956
2.414495 38.868432
2.452350 36.767235
2.488106 34.673680
2.521756 32.545902
2.553244 30.362228
2.582528 28.140959
2.609564 25.864276
2.634294 23.542372
2.656690 21.202793
2.676737 18.848803
2.694422 16.485248
2.709740 14.119204
2.722690 11.757969
2.733281 9.402966
2.741514 7.045618
2.747381 4.670696
2.750851 2.252225
2.751853 -0.276857
2.750230 -3.004516
2.745745 -6.008795
2.738111 -9.281086
2.727101 -12.744667
2.712543 -16.367423
2.694284 -20.137884
2.672196 -24.002617
2.646237 -27.847099
2.616492 -31.552356
2.583141 -35.041870
2.546420 -38.284869
2.506580 -41.273707
2.463874 -44.012543
2.418545 -46.515770
2.370822 -48.799515
2.320918 -50.875392
2.269034 -52.758574
2.215358 -54.453608
2.160078 -55.967178
2.103365 -57.321140
2.045373 -58.519245
1.986259 -59.568153
1.926163 -60.480262
1.865220 -61.264055
1.803555 -61.920147
1.741294 -62.460822
1.678545 -62.891889
1.615422 -63.211997
1.552025 -63.440048
1.488446 -63.573097
1.424786 -63.603827
1.361141 -63.544403
1.297599 -63.396586
1.234249 -63.164861
1.171168 -62.859974
1.108427 -62.482931
1.046099 -62.037971
0.984247 -61.535545
0.922924 -60.977376
0.862189 -60.360729
0.802098 -59.695382
0.742694 -58.983874
0.684027 -58.227394
0.626137 -57.430195
0.569064 -56.596147
0.512841 -55.733265
0.457495 -54.841343
0.403057 -53.921803
0.349551 -52.981333
0.296993 -52.028309
0.245396 -51.057229
0.194780 -50.073993
0.145149 -49.087275
0.096511 -48.089313
0.048877 -47.082354
0.002256 -46.063894
-0.043338 -45.029770
-0.087897 -44.006580
-0.131424 -42.938253
-0.173890 -41.959549
-0.215385 -40.855584
-0.255540 -39.323955
-0.294179 -37.993792
-0.331724 -37.023896
-0.368294 -36.033769
-0.403842 -34.978180
-0.438296 -33.847386
-0.471563 -32.591703
-0.503547 -31.344929
-0.533957 -29.024584
-0.560621 -23.607913
-0.581075 -17.756728
-0.596262 -12.180293
-0.605955 -8.087591
-0.613359 -6.707935
-0.619110 -4.505404
-0.622353 -2.225130
-0.623835 -0.755584
-0.624053 0.152139
-0.623741 0.429996
-0.623273 0.464331
-0.622822 0.466111
-0.622326 0.509480
-0.621811 0.526848
-0.621275 0.532821
-0.620719 0.612751
-0.619909 1.110776
-0.618568 1.390075
-0.617255 1.283554
-0.615857 1.602172
-0.614053 1.903078
-0.612083 2.097336
-0.609787 2.493416
-0.607141 2.738858
-0.604341 2.870760
-0.601527 2.604380
-0.598713 3.581248
-0.593163 8.136836
-0.582224 13.289285
-0.566695 18.030033
-0.546562 21.469484
-0.524445 22.715329
-0.501020 24.157039
-0.476279 25.010130
-0.451159 25.235314
-0.425728 25.549521
-0.400057 25.719314
-0.374278 25.769501
-0.348510 25.688694
-0.322897 25.464243
-0.297578 25.097942
-0.272702 24.577154
-0.248426 23.901644
-0.224902 23.074108
-0.202280 22.101610
-0.180700 20.993618
-0.160293 19.760193
-0.141178 18.412763
-0.123464 16.963951
-0.107246 15.426091
-0.092608 13.807092
-0.079626 12.123231
-0.068357 10.381253
-0.058853 8.606325
-0.051144 6.781092
-0.045264 4.995221
-0.041112 3.302811
-0.038636 1.658281
-0.037719 0.233252
-0.037940 -0.506331
-0.038554 -0.709599
-0.039362 -0.916946
-0.040398 -1.150342
-0.041586 -1.145782
-0.042618 -0.917933
-0.043428 -0.703777
-0.044046 -0.547716
-0.044643 -0.744676
-0.045570 -1.041527
-0.046584 -0.908557
-0.047322 -0.573738
-0.047725 -0.213951
-0.047719 0.239082
-0.047223 0.762016
-0.046031 1.771208
-0.043502 3.304633
-0.039364 4.992827
-0.033548 6.556068
-0.026412 7.598019
-0.018529 8.062295
-0.010446 8.003024
-0.002660 7.486897
0.004417 6.596033
0.010443 5.396703
0.015140 3.951432
0.018295 2.331801
0.019771 0.602075
0.019470 -1.219309
0.017305 -3.117022
0.013214 -5.060901
0.007167 -7.020588
-0.000837 -8.970027
-0.010780 -10.886088
-0.022610 -12.736948
-0.036251 -14.504026
-0.051617 -16.181644
-0.068616 -17.766352
-0.087152 -19.250769
-0.107117 -20.619863
-0.128393 -21.870767
-0.150859 -22.989948
-0.174376 -23.978600
-0.198824 -24.847593
-0.224074 -25.578033
-0.249983 -26.165320
-0.276412 -26.616945
-0.303223 -26.927156
-0.330277 -27.107031
-0.357431 -27.103780
-0.384514 -27.027905
-0.411480 -26.771660
-0.437779 -25.520615
-0.462261 -23.335272
-0.484548 -21.303848
-0.504875 -19.164063
-0.523033 -17.378821
-0.539769 -15.898617
-0.554859 -14.408745
-0.568664 -13.064472
-0.581104 -11.991609
-0.592569 -10.612176
-0.602035 -8.287573
-0.609571 -7.193446
-0.616578 -6.525245
-0.622268 -4.755778
-0.626151 -3.141322
-0.628556 -1.526380
-0.629407 -0.511038
-0.629926 -0.532875
-0.630399 -0.329984
-0.630558 -0.041364
-0.630560 0.010830
-0.630557 -0.001548
-0.630559 -0.000343
-0.630558 0.000399
-0.630558 -0.000213
-0.630558 0.000089
-0.630558 -0.000033
-0.630558 0.000011
-0.630558 -0.000003
-0.630558 0.000001
-0.630558 -0.000000
-0.630558 0.000000
-0.630558 -0.000000
-0.630558 -0.000000
-0.630558 0.000000
-0.630558 -0.000000
-0.630558 0.000000
-0.630558 -0.000000
-0.630558 0.000000
-0.630558 -0.000000
-0.630558 0.000000
-0.630558 -0.000000
-0.630558 -0.000000
-0.630558 0.000000
-0.630558 -0.000000
-0.630558 0.000000
-0.630558 -0.000000
-0.630558 0.000000
-0.630558 -0.000000
-0.630558 0.000000
-0.630558 -0.000000
-0.630558 0.000000
-0.630558 -0.000000
-0.630558 0.000000
-0.630558 -0.000000
-0.630558 0.000000
-0.630558 -0.000000
-0.630558 0.000000
-0.630558 -0.000000
-0.630558 0.000000
-0.630558 -0.000000
-0.630558 0.000000
-0.630558 -0.000000
-0.630558 0.000000
-0.630558 -0.000000
-0.630558 0.000000
-0.630558 -0.000000
-0.630558 0.000000
-0.630558 -0.000000
-0.630558 0.000000
-0.630558 -0.000000
-0.630558 0.000000
-0.630558 -0.000000
-0.630558 0.000000
-0.630558 -0.000000
-0.630558 0.000000
-0.630558 -0.000000
-0.630558 0.000000
-0.630558 -0.000000
-0.630558 0.000000
-0.630558 -0.000000
-0.630558 0.000000
-0.630558 -0.000000
-0.630558 0.000000
-0.630558 -0.000000
-0.630558 0.000000
-0.630558 -0.000000
-0.630558 0.000000
-0.630558 -0.000000
-0.630558 0.000000
-0.630558 -0.000000
-0.630558 0.000000
-0.630558 -0.000000
-0.630558 0.000000
-0.630558 -0.000000
-0.630558 0.000000
-0.630558 -0.000000
-0.630558 0.000000
-0.630558 -0.000000
-0.630558 0.000000
-0.630558 -0.000000
-0.630558 0.000000
-0.630558 -0.000000
-0.630558 0.000000
-0.630558 -0.000000
-0.630558 0.000000
-0.630558 -0.000000
-0.630558 0.000000
-0.630558 -0.000000
-0.630558 0.000000
-0.630558 -0.000000
-0.630558 0.000000
-0.630558 -0.000000
-0.630558 0.000000
-0.630558 -0.000000
-0.630558 0.000000
-0.630558 -0.000000
-0.630558 0.000000
-0.630558 -0.000000
-0.630558 0.000000
-0.630558 -0.000000
-0.630558 0.000000
-0.630558 0.000000
-0.630558 -0.000000
-0.630558 0.000000
-0.630558 -0.000000
-0.630558 0.000000
-0.630558 -0.000000
-0.630558 0.000000
-0.630558 -0.000000
-0.630558 0.000000
-0.630558 -0.000000
-0.630558 0.000000
-0.630558 -0.000000
-0.630558 0.000000
-0.630558 -0.000000
-0.630558 0.000000
-0.630558 -0.000000
-0.630558 0.000000
-0.630558 -0.000000
-0.630558 0.000000
-0.630558 -0.000000
-0.630558 0.000000
-0.630558 -0.000000
-0.630558 0.000000
-0.630558 -0.000000
-0.630558 0.000000
-0.630558 -0.000000
-0.630558 0.000000
-0.630558 -0.000000
-0.630558 0.000000
-0.630558 -0.000000
-0.630558 0.000000
-0.630558 -0.000000
-0.630558 0.000000
-0.630558 -0.000000
-0.630558 0.000000
-0.630558 -0.000000
-0.630558 0.000000
-0.630558 -0.000000
-0.630558 0.000000
-0.630558 -0.000000
-0.630558 0.000000
-0.630558 -0.000000
-0.630558 0.000000
-0.630558 -0.000000
-0.630558 0.000000
-0.630558 -0.000000
-0.630558 0.000000
-0.630558 -0.000000
-0.630558 0.000000
-0.630558 -0.000000
-0.630558 0.000000
-0.630558 -0.000000
-0.630558 0.000000
-0.630558 -0.000000
-0.630558 0.000000
-0.630558 -0.000000
-0.630558 0.000000
-0.630558 -0.000000
-0.630558 0.000000
-0.630558 -0.000000
-0.630558 0.000000
-0.630558 -0.000000
-0.630558 0.000000
-0.630558 -0.000000
-0.630558 0.000000
-0.630558 -0.000000
-0.630558 0.000000
-0.630558 -0.000000
-0.630558 0.000000
-0.630558 -0.000000
-0.630558 0.000000
-0.630558 -0.000000
-0.630558 0.000000
-0.630558 -0.000000
-0.630558 0.000000
-0.630558 -0.000000
-0.630558 0.000000
-0.630558 -0.000000
-0.630558 0.000000
-0.630558 -0.000000
-0.630558 0.000000
-0.630558 -0.000000
-0.630558 0.000000
-0.630558 -0.000000
-0.630558 0.000000
-0.630558 -0.000000
-0.630558 0.000000
-0.630558 0.000000
-0.630558 -0.000000
-0.630558 0.000000
-0.630558 -0.000001
-0.630558 0.000004
-0.630558 -0.000014
-0.630558 0.000039
-0.630558 -0.000098
-0.630558 0.000198
-0.630558 -0.000213
-0.630559 -0.000594
-0.630557 0.005031
-0.630560 -0.021492
-0.630561 0.069093
-0.630530 -0.165364
-0.630702 0.172248
-0.629532 2.465902
-0.624095 9.765283
-0.608751 20.754319
-0.584864 24.792126
-0.559920 26.423482
-0.531551 29.292466
-0.502904 27.282723
-0.476392 26.887993
-0.447892 30.037932
-0.416888 31.292758
-0.386082 30.035991
-0.356680 29.007921
-0.327943 28.173664
-0.300535 26.562941
-0.274465 25.846832
-0.248669 25.493995
-0.223585 24.667253
-0.199505 23.179809
-0.177191 21.653442
-0.156121 20.228428
-0.136906 18.168554
-0.119707 16.230775
-0.104394 14.345913
-0.090987 12.458781
-0.079429 10.639115
-0.069674 8.860084
-0.061661 7.172590
-0.055291 5.554203
-0.050516 4.011857
-0.047249 2.500437
-0.045532 0.923259
-0.044855 0.982936
-0.042331 4.738965
-0.035028 9.513369
-0.023052 14.985964
-0.004034 23.429713
0.024075 32.534527
0.060115 38.686862
0.102538 47.870608
0.156671 59.208612
0.219076 64.559987
0.283206 61.778415
0.343465 61.121584
0.407255 65.509782
0.474582 69.797626
0.546474 72.539152
0.619130 73.256003
0.692991 73.548025
0.765395 70.907311
0.834964 68.316499
0.902305 66.145051
0.967435 64.118254
1.030822 62.548332
1.092868 61.611442
1.154419 61.425170
1.215956 61.582428
1.277788 61.983142
1.340075 62.470394
1.402840 62.916815
1.465990 63.229231
1.529364 63.357028
1.592756 63.260059
1.655932 62.927575
1.718658 62.358569
1.780698 61.563082
1.841835 60.549423
1.901849 59.327543
1.960551 57.932629
2.017783 56.397226
2.073415 54.730799
2.127315 52.946088
2.179382 51.070410
2.229534 49.122298
2.277694 47.080612
2.323766 44.967628
2.367706 42.812868
2.409460 40.607492
2.448996 38.385025
2.486310 36.170972
2.521426 34.003974
2.554392 31.854191
2.585180 29.648725
2.613732 27.393442
2.640005 25.089203
2.663938 22.717691
2.685464 20.281199
2.704528 17.803894
2.721104 15.314040
2.735181 12.808809
2.746728 10.246542
2.755654 7.563024
2.761825 4.748606
2.765135 1.856679
2.765524 -1.090418
2.762933 -4.093891
2.757317 -7.130536
2.748657 -10.170178
2.736959 -13.202553
2.722223 -16.242074
2.704428 -19.323305
2.683493 -22.537640
2.659240 -25.953236
2.631493 -29.493803
2.600205 -32.999559
2.565483 -36.339764
2.527526 -39.462707
2.486553 -42.363911
2.442790 -45.033699
2.396472 -47.473450
2.347820 -49.697545
2.297048 -51.709137
2.244363 -53.526756
2.189947 -55.165929
2.133980 -56.629275
2.076629 -57.930240
2.018055 -59.076194
1.958408 -60.074378
1.897831 -60.936649
1.836455 -61.673710
1.774402 -62.286583
1.711795 -62.784254
1.648745 -63.168567
1.585368 -63.444001
1.521763 -63.621860
1.458028 -63.706138
1.394253 -63.702025
1.330525 -63.611806
1.266930 -63.437732
1.203549 -63.184618
1.140457 -62.860492
1.077726 -62.465819
1.015421 -62.011188
0.953600 -61.495447
0.892326 -60.923449
0.831648 -60.300275
0.771621 -59.626649
0.712289 -58.911145
0.653695 -58.152346
0.595883 -57.350027
0.538893 -56.510006
0.482760 -55.639068
0.427512 -54.743884
0.373170 -53.826855
0.319756 -52.890935
0.267287 -51.939878
0.215778 -50.972109
0.165246 -49.988889
0.115705 -48.991627
0.067167 -47.987682
0.019637 -46.972596
-0.026873 -45.959688
-0.072365 -44.918997
-0.116808 -43.899175
-0.160258 -42.901513
-0.202536 -41.422773
-0.243236 -40.089941
-0.282940 -39.185814
-0.321643 -38.153958
-0.359301 -37.054156
-0.395859 -36.055167
-0.431345 -34.639214
-0.464779 -31.941055
-0.494788 -27.736660
-0.520328 -23.592612
-0.542445 -20.721533
-0.562085 -18.665417
-0.579863 -16.758819
-0.595564 -14.635912
-0.608871 -11.632348
-0.618895 -8.757988
-0.626090 -4.941553
-0.629036 -1.870685
-0.630485 -0.747874
-0.630486 0.517992
-0.629796 0.741634
-0.629077 0.737094
-0.628296 0.804533
-0.627479 0.834384
-0.626622 0.874386
-0.625731 0.906607
-0.624808 0.935536
-0.623858 0.963891
-0.622885 0.971694
-0.621905 1.004542
-0.620894 0.979503
-0.619946 0.948387
-0.618706 1.784393
-0.616428 2.455584
-0.613879 2.857691
-0.610822 2.916380
-0.607754 3.834694
-0.601999 8.186866
-0.591093 13.350382
-0.575711 17.196924
-0.556977 20.107990
-0.535524 22.811981
-0.511628 24.555376
-0.486769 25.084995
-0.461451 25.484888
-0.435776 25.802964
-0.409827 26.019254
-0.383728 26.105109
-0.357608 26.061472
-0.331601 25.874869
-0.305857 25.537057
-0.280527 25.045091
-0.255768 24.398610
-0.231731 23.601519
-0.208567 22.657907
-0.186416 21.577553
-0.165411 20.368936
-0.145676 19.044211
-0.127321 17.611535
-0.110449 16.083737
-0.095149 14.471837
-0.081500 12.788718
-0.069565 11.047504
-0.059399 9.258596
-0.051039 7.440533
-0.044508 5.607663
-0.039750 3.963506
-0.036491 2.566980
-0.034593 1.224926
-0.033954 0.135484
-0.034141 -0.412188
-0.034695 -0.707382
-0.035491 -0.805637
-0.036327 -0.961206
-0.037405 -1.085045
-0.038258 -0.485608
-0.038302 0.339823
-0.037694 0.817010
-0.036585 1.536471
-0.034456 2.742378
-0.031162 3.746236
-0.027100 4.316909
-0.022658 4.474848
-0.018301 4.155160
-0.014380 3.712452
-0.010807 3.452836
-0.007339 3.577598
-0.003606 3.819017
0.000275 3.966190
0.004309 4.037174
0.008286 3.892544
0.012072 3.658262
0.015537 3.207151
0.018385 2.432748
0.020316 1.384961
0.021080 0.106798
0.020476 -1.334585
0.018368 -2.896339
0.014649 -4.543177
0.009261 -6.225787
0.002176 -7.933707
-0.006623 -9.645416
-0.017129 -11.341568
-0.029319 -13.006493
-0.043150 -14.618529
-0.058564 -16.166879
-0.075490 -17.637305
-0.093845 -19.019658
-0.113537 -20.309480
-0.134470 -21.495707
-0.156537 -22.577984
-0.179635 -23.552201
-0.203647 -24.404303
-0.228446 -25.119181
-0.253896 -25.715340
-0.279872 -26.142051
-0.306197 -26.462118
-0.332835 -26.741069
-0.359355 -25.886240
-0.384655 -25.015881
-0.409487 -24.296623
-0.432833 -22.188274
-0.454091 -20.629661
-0.474379 -19.807683
-0.493573 -18.465176
-0.511306 -16.999677
-0.527682 -15.762070
-0.542863 -14.529988
-0.556690 -13.056247
-0.569100 -11.876470
-0.580519 -10.851818
-0.590934 -10.152629
-0.600919 -9.677026
-0.609958 -8.155078
-0.616950 -5.746021
-0.621556 -3.620879
-0.624392 -2.073914
-0.626017 -1.451807
-0.627368 -1.040244
-0.628107 -0.650224
-0.628825 -0.724265
-0.629522 -0.693638
-0.630178 -0.555421
-0.630548 -0.161067
-0.630566 0.036303
-0.630555 -0.004024
-0.630560 -0.001575
-0.630558 0.001427
-0.630559 -0.000721
-0.630558 0.000297
-0.630558 -0.000109
-0.630558 0.000037
-0.630558 -0.000012
-0.630558 0.000004
-0.630558 -0.000001
-0.630558 0.000000
-0.630558 -0.000000
-0.630558 0.000000
-0.630558 -0.000000
-0.630558 -0.000000
-0.630558 0.000000
-0.630558 -0.000000
-0.630558 0.000000
-0.630558 -0.000000
-0.630558 0.000000
-0.630558 -0.000000
-0.630558 0.000000
-0.630558 -0.000000
-0.630558 0.000000
-0.630558 -0.000000
-0.630558 0.000000
-0.630558 -0.000000
-0.630558 0.000000
-0.630558 -0.000000
-0.630558 0.000000
-0.630558 -0.000000
-0.630558 0.000000
-0.630558 -0.000000
-0.630558 0.000000
-0.630558 -0.000000
-0.630558 0.000000
-0.630558 -0.000000
-0.630558 0.000000
-0.630558 -0.000000
-0.630558 0.000000
-0.630558 -0.000000
-0.630558 0.000000
-0.630558 -0.000000
-0.630558 0.000000
-0.630558 -0.000000
-0.630558 0.000000
-0.630558 -0.000000
-0.630558 0.000000
-0.630558 -0.000000
-0.630558 0.000000
-0.630558 -0.000000
-0.630558 0.000000
-0.630558 -0.000000
-0.630558 0.000000
-0.630558 -0.000000
-0.630558 0.000000
-0.630558 -0.000000
-0.630558 0.000000
-0.630558 -0.000000
-0.630558 0.000000
-0.630558 -0.000000
-0.630558 0.000000
-0.630558 -0.000000
-0.630558 0.000000
-0.630558 -0.000000
-0.630558 0.000000
-0.630558 -0.000000
-0.630558 0.000000
-0.630558 -0.000000
-0.630558 0.000000
-0.630558 -0.000000
-0.630558 0.000000
-0.630558 -0.000000
-0.630558 0.000000
-0.630558 -0.000000
-0.630558 0.000000
-0.630558 -0.000000
-0.630558 0.000000
-0.630558 -0.000000
-0.630558 0.000000
-0.630558 -0.000000
-0.630558 0.000000
-0.630558 -0.000000
-0.630558 0.000000
-0.630558 -0.000000
-0.630558 0.000000
-0.630558 -0.000000
-0.630558 0.000000
-0.630558 -0.000000
-0.630558 0.000000
-0.630558 -0.000000
-0.630558 0.000000
-0.630558 -0.000000
-0.630558 0.000000
-0.630558 -0.000000
-0.630558 0.000000
-0.630558 -0.000000
-0.630558 0.000000
-0.630558 -0.000000
-0.630558 0.000000
-0.630558 -0.000000
-0.630558 0.000000
-0.630558 -0.000000
-0.630558 0.000000
-0.630558 -0.000000
-0.630558 0.000000
-0.630558 -0.000000
-0.630558 0.000000
-0.630558 -0.000000
-0.630558 0.000000
-0.630558 -0.000000
-0.630558 0.000000
-0.630558 -0.000000
-0.630558 0.000000
-0.630558 -0.000000
-0.630558 0.000000
-0.630558 -0.000000
-0.630558 0.000000
-0.630558 -0.000000
-0.630558 0.000000
-0.630558 -0.000000
-0.630558 0.000000
-0.630558 -0.000000
-0.630558 0.000000
-0.630558 -0.000000
-0.630558 0.000000
-0.630558 -0.000000
-0.630558 0.000000
-0.630558 -0.000000
-0.630558 0.000000
-0.630558 -0.000000
-0.630558 0.000000
-0.630558 -0.000000
-0.630558 0.000000
-0.630558 -0.000000
-0.630558 0.000000
-0.630558 -0.000000
-0.630558 0.000000
-0.630558 -0.000000
-0.630558 0.000000
-0.630558 -0.000000
-0.630558 0.000000
-0.630558 -0.000000
-0.630558 0.000000
-0.630558 -0.000000
-0.630558 0.000000
-0.630558 -0.000000
-0.630558 0.000000
-0.630558 -0.000000
-0.630558 0.000000
-0.630558 -0.000000
-0.630558 0.000000
-0.630558 -0.000000
-0.630558 0.000000
-0.630558 -0.000000
-0.630558 0.000000
-0.630558 -0.000000
-0.630558 0.000000
-0.630558 -0.000000
-0.630558 0.000000
-0.630558 -0.000000
-0.630558 0.000000
-0.630558 -0.000000
-0.630558 0.000000
-0.630558 -0.000000
-0.630558 0.000000
-0.630558 -0.000000
-0.630558 0.000000
-0.630558 -0.000000
-0.630558 0.000000
-0.630558 -0.000000
-0.630558 0.000000
-0.630558 -0.000000
-0.630558 -0.000000
