0.069609 0.112087 0.234314
-0.455745 14.009837
-0.438895 19.420997
-0.417335 23.421532
-0.392411 26.204294
-0.365157 28.138480
-0.336253 29.547133
-0.306107 30.644922
-0.274932 31.654034
-0.242637 32.959579
-0.208855 34.540629
-0.173551 35.928163
-0.137196 36.507013
-0.100569 36.768873
-0.064337 34.775910
-0.029992 35.647871
0.008375 40.550740
0.048770 38.200076
0.084249 34.043686
0.118714 35.245560
0.155423 38.283413
0.195322 41.214951
0.237587 43.100912
0.281588 44.922291
0.327595 46.965536
0.375489 48.636601
0.424843 49.940725
0.475416 51.081002
0.527138 52.312026
0.580145 53.543812
0.634169 54.284520
0.688830 55.047860
0.744383 55.835242
0.800579 56.522367
0.857693 57.664331
0.915903 58.446223
0.974799 59.517435
1.035037 60.527320
1.095862 61.198930
1.157710 62.327662
1.220430 62.822262
1.283562 63.562177
1.347681 64.299454
1.412071 64.382598
1.476691 64.813698
1.541694 64.843126
1.606139 63.770333
1.669085 61.864645
1.729603 58.792077
1.786469 54.766867
1.839022 50.068130
1.886394 44.437480
1.927685 37.905973
1.961971 30.443622
1.988331 22.076111
2.005896 12.892963
2.013916 3.030124
2.011789 -7.352000
1.999032 -18.228787
1.975180 -29.450145
1.940212 -40.256746
1.894869 -50.213521
1.841068 -56.023459
1.784753 -55.711786
1.730708 -51.876228
1.682072 -44.518487
1.643680 -30.873159
1.620987 -15.060020
1.613917 1.911595
1.626905 25.151403
1.664458 48.954916
1.723320 67.985120
1.799141 82.749438
1.887654 93.524446
1.985009 100.200746
2.086768 102.418679
2.188693 100.563962
2.287040 95.539723
2.379326 88.604374
2.464191 80.965341
2.541294 72.953000
2.610081 64.452584
2.670333 55.966683
2.722277 47.931860
2.766562 40.703457
2.804108 34.504070
2.836043 29.515542
2.863622 25.796593
2.888080 23.251802
2.910490 21.657945
2.931662 20.733679
2.952133 20.212516
2.972189 19.874297
2.991931 19.565551
3.011334 19.181153
3.030285 18.656047
3.048625 17.954631
3.066167 17.064130
3.082724 15.985504
3.098109 14.724514
3.112147 13.297530
3.124682 11.722902
3.135575 10.022897
3.144710 8.210234
3.151987 6.325099
3.157368 4.425867
3.160847 2.524467
3.162435 0.661158
3.162186 -1.156005
3.160125 -2.958335
3.156292 -4.676926
3.150797 -6.289666
3.143734 -7.799982
3.135220 -9.196337
3.125358 -10.488267
3.114258 -11.672254
3.102002 -12.820915
3.088604 -13.929907
3.074154 -14.920055
3.058767 -15.811082
3.042514 -16.659680
3.025411 -17.517489
3.007434 -18.403863
2.988560 -19.311785
2.968764 -20.245401
2.948020 -21.202750
2.926310 -22.177784
2.903615 -23.169682
2.879920 -24.172746
2.855219 -25.181368
2.829509 -26.185601
2.802800 -27.177067
2.775107 -28.148872
2.746455 -29.091427
2.716877 -29.998592
2.686412 -30.863136
2.655105 -31.680928
2.623003 -32.450298
2.590157 -33.165936
2.556624 -33.825140
2.522457 -34.430717
2.487712 -34.981142
2.452443 -35.476464
2.416706 -35.918443
2.380551 -36.309785
2.344029 -36.653757
2.307185 -36.953650
2.270062 -37.212245
2.232699 -37.431775
2.195135 -37.616463
2.157401 -37.771767
2.119525 -37.898535
2.081537 -37.998151
2.043460 -38.075435
2.005317 -38.130607
1.967129 -38.166661
1.928913 -38.186334
1.890685 -38.190630
1.852460 -38.180967
1.814251 -38.158324
1.776070 -38.125334
1.737928 -38.081859
1.699833 -38.028953
1.661797 -37.965765
1.623828 -37.894596
1.585935 -37.815072
1.548125 -37.726852
1.510408 -37.630095
1.472793 -37.524448
1.435287 -37.411073
1.397899 -37.287016
1.360641 -37.154192
1.323520 -37.011302
1.286548 -36.856436
1.249737 -36.691882
1.213095 -36.516202
1.176636 -36.327296
1.140372 -36.126264
1.104315 -35.912158
1.068480 -35.683603
1.032881 -35.439761
0.997534 -35.182032
0.962451 -34.912164
0.927646 -34.626006
0.893134 -34.325897
0.858930 -34.011781
0.825049 -33.679986
0.791508 -33.330972
0.758327 -32.961648
0.725527 -32.569156
0.693132 -32.151190
0.661169 -31.706510
0.629664 -31.235145
0.598644 -30.739098
0.568133 -30.216772
0.538157 -29.673368
0.508733 -29.111828
0.479882 -28.529693
0.451620 -27.936903
0.423956 -27.333538
0.396903 -26.715915
0.370477 -26.078615
0.344699 -25.424015
0.319581 -24.760473
0.295132 -24.087689
0.271360 -23.406978
0.248276 -22.712145
0.225896 -21.999553
0.204236 -21.277612
0.183298 -20.557300
0.163077 -19.845296
0.143562 -19.148857
0.124734 -18.475427
0.106566 -17.827274
0.089035 -17.204272
0.072115 -16.605726
0.055782 -16.030776
0.040014 -15.478216
0.024788 -14.947263
0.010083 -14.436871
-0.004121 -13.945938
-0.017843 -13.473535
-0.031101 -13.019124
-0.043913 -12.581768
-0.056296 -12.160543
-0.068264 -11.755386
-0.079835 -11.365703
-0.091023 -10.991277
-0.101845 -10.632577
-0.112315 -10.290356
-0.122452 -9.965296
-0.132272 -9.657541
-0.141792 -9.367295
-0.151031 -9.095099
-0.160007 -8.840852
-0.168737 -8.604988
-0.177241 -8.392136
-0.185549 -8.212995
-0.193697 -8.073031
-0.201722 -7.967081
-0.209658 -7.892947
-0.217536 -7.852901
-0.225391 -7.847324
-0.233257 -7.875311
-0.241167 -7.932168
-0.249144 -8.009442
-0.257208 -8.106892
-0.265379 -8.219444
-0.273667 -8.341896
-0.282084 -8.476328
-0.290635 -8.607282
-0.299299 -8.690172
-0.308013 -8.712203
-0.316730 -8.701602
-0.325427 -8.671844
-0.334082 -8.613309
-0.342661 -8.525808
-0.351146 -8.424223
-0.359525 -8.318425
-0.367807 -8.236198
-0.376020 -8.171744
-0.384160 -8.087221
-0.392203 -7.981109
-0.400135 -7.865417
-0.407947 -7.741456
-0.415630 -7.606448
-0.423161 -7.429677
-0.430482 -7.185821
-0.437528 -6.882123
-0.444250 -6.549790
-0.450649 -6.243407
-0.456774 -6.010842
-0.462710 -5.860847
-0.468528 -5.770810
-0.474279 -5.726321
-0.480006 -5.725356
-0.485753 -5.761400
-0.491549 -5.821967
-0.497412 -5.893953
-0.503334 -5.921778
-0.509249 -5.893485
-0.515131 -5.860411
-0.520977 -5.813204
-0.526759 -5.736258
-0.532451 -5.628261
-0.538012 -5.474165
-0.543390 -5.259036
-0.548525 -4.997759
-0.553387 -4.711119
-0.557965 -4.449700
-0.562314 -4.244080
-0.566455 -4.018461
-0.570350 -3.767481
-0.573994 -3.506630
-0.577365 -3.229925
-0.580466 -2.970952
-0.583320 -2.734107
-0.585927 -2.457348
-0.588229 -2.147236
-0.590242 -1.887919
-0.592019 -1.661891
-0.593571 -1.440450
-0.594882 -1.155148
-0.595886 -0.875989
-0.596654 -0.653209
-0.597201 -0.452210
-0.597580 -0.310282
-0.597833 -0.202698
-0.597997 -0.130843
-0.598098 -0.066199
-0.598147 -0.054334
-0.598190 0.008275
-0.598105 0.149263
-0.597855 0.397815
-0.597175 1.044915
-0.595713 1.841798
-0.593496 2.615511
-0.590446 3.481523
-0.586557 4.253806
-0.582025 4.739197
-0.577173 4.913986
-0.572233 4.952654
-0.567260 4.983996
-0.562178 5.245491
-0.556739 5.564243
-0.551055 5.833755
-0.544977 6.353530
-0.538387 6.718034
-0.531589 6.896633
-0.524527 7.234394
-0.517101 7.585609
-0.509453 7.600071
-0.501916 7.525025
-0.494285 7.758569
-0.486409 7.915432
-0.478586 7.629568
-0.471266 6.948243
-0.464795 5.907349
-0.459569 4.478958
-0.455826 3.058376
-0.453461 1.592662
-0.452832 -0.457458
-0.454488 -2.838864
-0.458398 -4.867587
-0.464063 -6.389364
-0.471071 -7.555206
-0.479085 -8.407992
-0.487803 -8.957821
-0.496914 -9.196179
-0.506114 -9.136629
-0.515120 -8.819566
-0.523710 -8.320693
-0.531748 -7.733276
-0.539190 -7.138246
-0.546044 -6.559053
-0.552327 -5.999512
-0.558072 -5.490895
-0.563338 -5.034845
-0.568164 -4.613408
-0.572587 -4.230640
-0.576640 -3.867635
-0.580328 -3.498775
-0.583642 -3.122022
-0.586585 -2.766402
-0.589168 -2.374003
-0.591318 -1.922789
-0.593028 -1.502174
-0.594350 -1.154098
-0.595366 -0.890542
-0.596158 -0.703735
-0.596793 -0.568573
-0.597301 -0.447465
-0.597690 -0.331951
-0.597970 -0.229488
-0.598159 -0.155159
-0.598290 -0.109333
-0.598383 -0.080212
-0.598455 -0.064105
-0.598514 -0.053327
-0.598563 -0.044596
-0.598604 -0.037695
-0.598639 -0.033825
-0.598672 -0.032016
-0.598704 -0.031507
-0.598735 -0.031420
-0.598767 -0.031589
-0.598798 -0.031846
-0.598830 -0.032115
-0.598863 -0.032391
-0.598895 -0.032650
-0.598928 -0.032868
-0.598961 -0.033089
-0.598994 -0.033297
-0.599028 -0.033467
-0.599061 -0.033637
-0.599095 -0.033783
-0.599129 -0.033914
-0.599163 -0.034038
-0.599197 -0.034148
-0.599231 -0.034248
-0.599266 -0.034328
-0.599300 -0.034412
-0.599335 -0.034493
-0.599369 -0.034564
-0.599404 -0.034628
-0.599438 -0.034684
-0.599473 -0.034738
-0.599508 -0.034775
-0.599543 -0.034802
-0.599578 -0.034828
-0.599612 -0.034853
-0.599647 -0.034866
-0.599682 -0.034864
-0.599717 -0.034865
-0.599752 -0.034843
-0.599787 -0.034817
-0.599822 -0.034784
-0.599857 -0.034714
-0.599891 -0.034651
-0.599926 -0.034577
-0.599960 -0.034478
-0.599995 -0.034386
-0.600029 -0.034292
-0.600064 -0.034182
-0.600098 -0.034049
-0.600132 -0.033905
-0.600166 -0.033720
-0.600199 -0.033525
-0.600233 -0.033365
-0.600266 -0.033207
-0.600299 -0.033058
-0.600332 -0.032910
-0.600365 -0.032758
-0.600398 -0.032617
-0.600430 -0.032488
-0.600463 -0.032362
-0.600495 -0.032217
-0.600527 -0.032069
-0.600559 -0.031929
-0.600591 -0.031751
-0.600623 -0.031552
-0.600654 -0.031334
-0.600686 -0.031107
-0.600717 -0.030873
-0.600747 -0.030599
-0.600778 -0.030320
-0.600808 -0.030034
-0.600838 -0.029731
-0.600868 -0.029435
-0.600897 -0.029117
-0.600926 -0.028783
-0.600955 -0.028458
-0.600983 -0.028113
-0.601011 -0.027751
-0.601039 -0.027388
-0.601066 -0.027028
-0.601093 -0.026656
-0.601119 -0.026259
-0.601145 -0.025884
-0.601171 -0.025504
-0.601196 -0.025087
-0.601221 -0.024692
-0.601246 -0.024309
-0.601270 -0.023903
-0.601294 -0.023491
-0.601317 -0.023087
-0.601340 -0.022675
-0.601362 -0.022256
-0.601384 -0.021839
-0.601406 -0.021428
-0.601427 -0.021009
-0.601448 -0.020596
-0.601468 -0.020174
-0.601488 -0.019747
-0.601508 -0.019343
-0.601527 -0.018938
-0.601546 -0.018527
-0.601564 -0.018115
-0.601582 -0.017680
-0.601600 -0.017266
-0.601617 -0.016861
-0.601633 -0.016415
-0.601650 -0.015989
-0.601665 -0.015568
-0.601681 -0.015132
-0.601696 -0.014709
-0.601710 -0.014281
-0.601724 -0.013864
-0.601738 -0.013437
-0.601751 -0.012992
-0.601764 -0.012608
-0.601776 -0.012078
-0.601788 -0.011799
-0.601800 -0.011279
-0.601810 -0.009635
-0.601818 -0.003789
-0.601818 0.001900
-0.601815 0.003116
-0.601809 0.013194
-0.601786 0.031786
-0.601750 0.035731
-0.601715 0.038454
-0.601663 0.071576
-0.601572 0.103103
-0.601452 0.149304
-0.601287 0.153625
-0.601105 0.275539
-0.600634 0.701599
-0.599746 0.991842
-0.598794 0.847156
-0.598080 0.611710
-0.597510 0.553871
-0.596970 0.499864
-0.596539 0.356215
-0.596241 0.257983
-0.595995 0.242785
-0.595768 0.190025
-0.595607 0.160775
-0.595424 0.197876
-0.595239 0.148683
-0.595111 0.145183
-0.594896 0.299653
-0.594541 0.364755
-0.594195 0.340311
-0.593830 0.404590
-0.593389 0.459781
-0.592936 0.436686
-0.592500 0.457296
-0.592000 0.539533
-0.591440 0.559224
-0.590898 0.524197
-0.590368 0.557823
-0.589768 0.631100
-0.589126 0.640820
-0.588489 0.638559
-0.587850 0.628962
-0.587212 0.674537
-0.586477 0.787468
-0.585673 0.787207
-0.584913 0.752036
-0.584155 0.755697
-0.583392 0.782527
-0.582597 0.782437
-0.581809 0.833381
-0.580720 1.509030
-0.578560 2.866743
-0.574934 4.365082
-0.569736 6.117110
-0.562414 8.687398
-0.552102 11.982412
-0.538542 14.927025
-0.522216 17.879234
-0.502567 21.374727
-0.479589 24.373563
-0.453842 27.160909
-0.424475 32.160068
-0.389601 36.726835
-0.352972 35.226331
-0.320805 28.551293
-0.296383 20.165274
-0.281015 10.037656
-0.275886 1.116562
-0.277223 -3.139623
-0.281834 -6.386020
-0.290539 -11.223881
-0.304154 -15.612434
-0.321146 -18.056836
-0.339664 -18.583770
-0.357839 -17.576901
-0.374819 -16.466354
-0.390883 -15.589036
-0.406014 -14.670162
-0.420274 -13.814689
-0.433670 -12.956424
-0.446236 -12.170205
-0.458057 -11.448052
-0.469159 -10.737957
-0.479559 -10.043348
-0.489294 -9.431847
-0.498270 -8.306738
-0.505731 -6.602383
-0.511596 -5.221155
-0.516240 -4.009167
-0.519658 -2.903598
-0.522176 -2.167741
-0.523918 -1.192795
-0.524503 -0.034793
-0.524135 0.681454
-0.523184 1.262560
-0.521679 1.628343
-0.520048 1.623135
-0.518433 1.608165
-0.516828 1.594261
-0.515244 1.571849
-0.513681 1.550948
-0.512140 1.528108
-0.510621 1.505606
-0.509123 1.491194
-0.507636 1.477730
-0.506170 1.447128
-0.504735 1.427312
-0.503313 1.405453
-0.501922 1.381655
-0.500538 1.386395
-0.499151 1.375671
-0.497787 1.353857
-0.496440 1.335664
-0.495107 1.337203
-0.493771 1.313457
-0.492482 1.276653
-0.491202 1.280175
-0.489955 1.174885
-0.488726 1.441269
-0.486888 2.251662
-0.484373 2.595974
-0.481871 2.399368
-0.479467 2.511181
-0.476583 3.406067
-0.472430 4.955514
-0.466692 6.415186
-0.459846 7.097875
-0.452490 7.755223
-0.444215 8.725193
-0.435173 9.242614
-0.425787 9.534700
-0.416010 10.052219
-0.405589 10.789115
-0.394191 12.182103
-0.380727 14.994660
-0.364069 18.113293
-0.345062 19.439475
-0.325915 18.478889
-0.308248 16.976194
-0.291798 15.864566
-0.276507 14.694181
-0.262363 13.575343
-0.249300 12.544377
-0.237226 11.580829
-0.226094 10.678936
-0.215790 9.949620
-0.206155 9.279093
-0.197237 8.536050
-0.189053 7.831722
-0.181539 7.183054
-0.174646 6.615442
-0.168256 6.163670
-0.162280 5.791519
-0.156675 5.379318
-0.151542 4.870630
-0.146895 4.449347
-0.142606 4.113606
-0.138642 3.831251
-0.134902 3.649938
-0.131381 3.331033
-0.128240 2.991871
-0.125353 2.767199
-0.122710 2.514390
-0.120279 2.380647
-0.117928 2.294161
-0.115741 2.044405
-0.113819 1.844010
-0.112032 1.694870
-0.110437 1.512607
-0.108953 1.482156
-0.107482 1.411989
-0.106158 1.245080
-0.104981 1.105588
-0.103948 0.956406
-0.103064 0.812547
-0.102288 0.769548
-0.101521 0.734128
-0.100847 0.612224
-0.100305 0.462270
-0.099924 0.303932
-0.099683 0.185457
-0.099523 0.155822
-0.099364 0.147416
-0.099274 0.002299
-0.099370 -0.175350
-0.099610 -0.307019
-0.099987 -0.446327
-0.100502 -0.581711
-0.101152 -0.717883
-0.101939 -0.855482
-0.102866 -0.995083
-0.103932 -1.137072
-0.105143 -1.281765
-0.106499 -1.429043
-0.108005 -1.579273
-0.109662 -1.732712
-0.111475 -1.889070
-0.113445 -2.048220
-0.115576 -2.210163
-0.117871 -2.374711
-0.120331 -2.541826
-0.122960 -2.711210
-0.125760 -2.882611
-0.128732 -3.056104
-0.131879 -3.231321
-0.135201 -3.407976
-0.138702 -3.586479
-0.142382 -3.766216
-0.146242 -3.947179
-0.150286 -4.133279
-0.154512 -4.302551
-0.158886 -4.431093
-0.163376 -4.540613
-0.167968 -4.626308
-0.172623 -4.666790
-0.177307 -4.695573
-0.182023 -4.721295
-0.186755 -4.734106
-0.191494 -4.728769
-0.196222 -4.723841
-0.200962 -4.749283
-0.205728 -4.766848
-0.210501 -4.772377
-0.215279 -4.769287
-0.220046 -4.756264
-0.224804 -4.750859
-0.229553 -4.734732
-0.234279 -4.708045
-0.238980 -4.685235
-0.243646 -4.623813
-0.248219 -4.509327
-0.252667 -4.373228
-0.256968 -4.218073
-0.261114 -4.070086
-0.265122 -3.938977
-0.268982 -3.754320
-0.272626 -3.532244
-0.276065 -3.344111
-0.279329 -3.181657
-0.282441 -3.039754
-0.285421 -2.917830
-0.288288 -2.812265
-0.291057 -2.721541
-0.293741 -2.643503
-0.296353 -2.576561
-0.298902 -2.519131
-0.301398 -2.469730
-0.303849 -2.427357
-0.306260 -2.390933
-0.308637 -2.359428
-0.310985 -2.332024
-0.313307 -2.308142
-0.315607 -2.286857
-0.317886 -2.267747
-0.320147 -2.249637
-0.322390 -2.231114
-0.324614 -2.211982
-0.326818 -2.191537
-0.329000 -2.167420
-0.331156 -2.139359
-0.333282 -2.107949
-0.335375 -2.074316
-0.337434 -2.039113
-0.339456 -2.000306
-0.341438 -1.958245
-0.343376 -1.915478
-0.345272 -1.871979
-0.347123 -1.826647
-0.348929 -1.781090
-0.350690 -1.737291
-0.352408 -1.697276
-0.354089 -1.662637
-0.355739 -1.632891
-0.357360 -1.606914
-0.358956 -1.583007
-0.360530 -1.560855
-0.362082 -1.540592
-0.363615 -1.522636
-0.365131 -1.507341
-0.366633 -1.494479
-0.368124 -1.484471
-0.369606 -1.477448
-0.371083 -1.473816
-0.372558 -1.473684
-0.374034 -1.476594
-0.375515 -1.481816
-0.377001 -1.489130
-0.378496 -1.497879
-0.380000 -1.507385
-0.381514 -1.517447
-0.383038 -1.527537
-0.384572 -1.537154
-0.386116 -1.546089
-0.387667 -1.554081
-0.389226 -1.560698
-0.390791 -1.565967
-0.392361 -1.569931
-0.393934 -1.572306
-0.395508 -1.572983
-0.397082 -1.572121
-0.398655 -1.569825
-0.400225 -1.565981
-0.401790 -1.560751
-0.403349 -1.554093
-0.404901 -1.546189
-0.406444 -1.537116
-0.407978 -1.526888
-0.409501 -1.515821
-0.411012 -1.503760
-0.412511 -1.490937
-0.413997 -1.477616
-0.415469 -1.463676
-0.416927 -1.449282
-0.418370 -1.434611
-0.419799 -1.419637
-0.421212 -1.404571
-0.422611 -1.389471
-0.423994 -1.374627
-0.425363 -1.359957
-0.426717 -1.345236
-0.428056 -1.330972
-0.429381 -1.317120
-0.430693 -1.303720
-0.431992 -1.290754
-0.433277 -1.278035
-0.434550 -1.265929
-0.435812 -1.254411
-0.437062 -1.243245
-0.438301 -1.232487
-0.439530 -1.222296
-0.440748 -1.212485
-0.441957 -1.203222
-0.443157 -1.194407
-0.444348 -1.185897
-0.445531 -1.177843
-0.446707 -1.170177
-0.447874 -1.162877
-0.449035 -1.155972
-0.450189 -1.149407
-0.451336 -1.142994
-0.452477 -1.136792
-0.453612 -1.130738
-0.454741 -1.124680
-0.455863 -1.118619
-0.456980 -1.112362
-0.458090 -1.105759
-0.459194 -1.098898
-0.460290 -1.091719
-0.461379 -1.084129
-0.462461 -1.076271
-0.463534 -1.068229
-0.464599 -1.059704
-0.465655 -1.051111
-0.466703 -1.042392
-0.467742 -1.033661
-0.468773 -1.025050
-0.469794 -1.016351
-0.470807 -1.007864
-0.471812 -0.999433
-0.472808 -0.991192
-0.473797 -0.982939
-0.474776 -0.974642
-0.475748 -0.966649
-0.476711 -0.958626
-0.477667 -0.950533
-0.478614 -0.942526
-0.479554 -0.934365
-0.480485 -0.926163
-0.481408 -0.918081
-0.482323 -0.909670
-0.483229 -0.901262
-0.484127 -0.892809
-0.485017 -0.884022
-0.485897 -0.875294
-0.486769 -0.866380
-0.487631 -0.857191
-0.488485 -0.847833
-0.489329 -0.838273
-0.490163 -0.828557
-0.490987 -0.818472
-0.491802 -0.808212
-0.492605 -0.797689
-0.493398 -0.786777
-0.494181 -0.775844
-0.494951 -0.764371
-0.495711 -0.752572
-0.496458 -0.740885
-0.497194 -0.728530
-0.497917 -0.715810
-0.498627 -0.703156
-0.499324 -0.690054
-0.500008 -0.676468
-0.500678 -0.662611
-0.501335 -0.648670
-0.501977 -0.634438
-0.502605 -0.619813
-0.503218 -0.604933
-0.503816 -0.589854
-0.504398 -0.574548
-0.504966 -0.558904
-0.505517 -0.542929
-0.506053 -0.526738
-0.506572 -0.510443
-0.507074 -0.493817
-0.507560 -0.476893
-0.508029 -0.459735
-0.508481 -0.442220
-0.508914 -0.424537
-0.509330 -0.406720
-0.509728 -0.388380
-0.510108 -0.369706
-0.510469 -0.351078
-0.510811 -0.331956
-0.511133 -0.312636
-0.511436 -0.293043
-0.511720 -0.273202
-0.511983 -0.253397
-0.512227 -0.233152
-0.512450 -0.212727
-0.512653 -0.192336
-0.512835 -0.171740
-0.512997 -0.151053
-0.513137 -0.130303
-0.513257 -0.109493
-0.513357 -0.088741
-0.513435 -0.067939
-0.513493 -0.047033
-0.513529 -0.026366
-0.513545 -0.005870
-0.513541 0.014736
-0.513516 0.035029
-0.513471 0.055131
-0.513406 0.075266
-0.513320 0.095258
-0.513215 0.114846
-0.513090 0.134407
-0.512946 0.153923
-0.512782 0.173087
-0.512600 0.191898
-0.512398 0.210753
-0.512178 0.229041
-0.511941 0.243113
-0.511693 0.250810
-0.511440 0.254697
-0.511184 0.256597
-0.510928 0.253908
-0.510678 0.244886
-0.510439 0.232161
-0.510213 0.218485
-0.510001 0.205535
-0.509802 0.193342
-0.509614 0.182567
-0.509434 0.177756
-0.509257 0.175737
-0.509085 0.165900
-0.508927 0.150192
-0.508787 0.125255
-0.508675 0.104681
-0.508567 0.117846
-0.508435 0.143067
-0.508284 0.156677
-0.508122 0.168303
-0.507949 0.175053
-0.507776 0.167773
-0.507612 0.164271
-0.507440 0.181889
-0.507246 0.204620
-0.507034 0.215794
-0.506817 0.215894
-0.506604 0.210576
-0.506395 0.207888
-0.506171 0.255800
-0.505859 0.374656
-0.505431 0.463825
-0.504949 0.498019
-0.504426 0.554723
-0.503840 0.605344
-0.503229 0.612626
-0.502607 0.640196
-0.501940 0.688381
-0.501221 0.760385
-0.500409 0.857422
-0.499510 0.937746
-0.498538 1.000996
-0.497516 1.033805
-0.496475 1.046489
-0.495418 1.068038
-0.494335 1.094266
-0.493232 1.107486
-0.492115 1.127909
-0.490970 1.158831
-0.489799 1.179888
-0.488612 1.189262
-0.487421 1.188490
-0.486235 1.179733
-0.485061 1.164637
-0.483905 1.145001
-0.482771 1.119566
-0.481665 1.089468
-0.480595 1.044855
-0.479567 1.019394
-0.478574 0.933648
-0.477657 0.971182
-0.476670 0.887123
-0.476020 0.386335
-0.474786 3.213442
-0.455745 14.009837
