0.056117 0.092010 0.080570
-0.609904 -0.000000
-0.609904 0.000000
-0.609904 -0.000000
-0.609904 0.000000
-0.609904 -0.000002
-0.609904 0.000006
-0.609904 -0.000020
-0.609904 0.000070
-0.609904 -0.000243
-0.609904 0.000839
-0.609904 -0.002864
-0.609905 0.009646
-0.609903 -0.031977
-0.609909 0.103928
-0.609885 -0.329243
-0.609978 1.007257
-0.609627 -2.927297
-0.610940 7.818473
-0.606055 -17.640741
-0.623600 24.802498
-0.516515 186.782271
-0.287446 235.523685
-0.068675 213.298328
0.147181 213.858387
0.356482 205.464484
0.559076 198.732425
0.753716 190.116091
0.939390 180.606023
1.114790 169.599288
1.278407 157.030145
1.428654 142.930124
1.564036 127.281053
1.683016 110.268482
1.784507 92.396162
1.867826 74.021443
1.932618 55.405359
1.978750 36.796296
2.006408 18.557775
2.015963 0.500532
2.009105 -12.475032
1.992905 -19.705763
1.970003 -25.891844
1.941270 -31.476906
1.907011 -36.986676
1.867239 -42.446348
1.822114 -47.664946
1.771931 -52.532909
1.717065 -57.035239
1.657885 -61.120724
1.594837 -64.798620
1.528299 -68.054375
1.458774 -70.765435
1.386791 -72.984112
1.312802 -74.777277
1.237224 -76.157406
1.160471 -77.127471
1.082952 -77.686434
1.005080 -77.833068
0.927269 -77.563608
0.849938 -76.874988
0.773505 -75.767063
0.698392 -74.240002
0.625017 -72.291480
0.553803 -69.928100
0.485164 -67.135177
0.419549 -63.887989
0.357398 -60.229795
0.299085 -56.225557
0.244935 -51.916999
0.195240 -47.328151
0.150275 -42.467895
0.110304 -37.353501
0.075559 -32.042630
0.046215 -26.551693
0.022487 -20.807132
0.004644 -14.806304
-0.007180 -8.878245
-0.013057 -2.732455
-0.012609 3.536262
-0.007032 6.644192
-0.000053 7.516514
0.008361 9.424151
0.018876 11.518029
0.031776 14.676993
0.047982 17.005827
0.078369 56.939910
0.160478 92.384660
0.251212 91.530342
0.346481 98.944867
0.449374 106.584033
0.559640 113.555039
0.676432 119.686606
0.798790 124.432272
0.924763 126.833420
1.052173 127.623580
1.180033 127.715483
1.307628 127.113018
1.434306 125.888975
1.559455 124.054551
1.682457 121.602048
1.802689 118.510211
1.919497 114.764847
2.032238 110.388181
2.140293 105.409121
2.243061 99.813583
2.339920 93.618639
2.430327 86.948881
2.513869 79.909872
2.590206 72.567464
2.659061 64.962814
2.720179 57.109319
2.773330 49.061641
2.818362 40.900364
2.855192 32.678473
2.883780 24.443605
2.904146 16.261186
2.916370 8.183994
2.920582 0.263050
2.916970 -7.439334
2.905779 -14.870618
2.887303 -21.990436
2.861871 -28.760430
2.829854 -35.142971
2.791654 -41.107218
2.747708 -46.617850
2.698473 -51.686042
2.644391 -56.280697
2.585975 -60.348269
2.523747 -63.894201
2.458242 -66.890785
2.390015 -69.338352
2.319595 -71.280464
2.247471 -72.743015
2.174115 -73.748899
2.099969 -74.327291
2.025446 -74.504805
1.950935 -74.306142
1.876799 -73.763958
1.803367 -72.900642
1.730922 -71.829035
1.659626 -70.573844
1.589686 -69.159701
1.521212 -67.614575
1.454378 -65.898122
1.389316 -64.086610
1.326099 -62.207121
1.264793 -60.278199
1.205428 -58.331206
1.148013 -56.386467
1.092536 -54.462378
1.038969 -52.570633
0.987271 -50.732092
0.937378 -48.968327
0.889216 -47.268190
0.842715 -45.665722
0.797754 -44.179560
0.754241 -42.772427
0.712093 -41.457617
0.671208 -40.246457
0.631484 -39.139199
0.592816 -38.135642
0.555104 -37.230128
0.518250 -36.420309
0.482160 -35.703457
0.446742 -35.074009
0.411914 -34.527270
0.377593 -34.057087
0.343709 -33.652330
0.310199 -33.311879
0.277000 -33.028886
0.244059 -32.796253
0.211326 -32.610282
0.178759 -32.466292
0.146317 -32.357033
0.113971 -32.274430
0.081686 -32.244020
0.049412 -32.234454
0.017152 -32.227760
-0.015113 -32.235609
-0.047382 -32.238520
-0.079654 -32.239286
-0.111923 -32.232988
-0.144181 -32.216075
-0.176415 -32.184783
-0.208609 -32.134450
-0.240741 -32.063387
-0.272788 -31.958692
-0.304694 -31.767831
-0.336345 -31.447815
-0.367606 -30.989511
-0.398350 -30.423190
-0.428458 -29.691343
-0.457807 -29.004513
-0.486351 -27.795732
-0.513416 -26.474051
-0.539329 -25.081809
-0.563982 -24.745667
-0.588095 -22.087011
-0.605369 -10.940320
-0.610303 -0.710597
-0.609797 0.511597
-0.609932 -0.223797
-0.609897 0.082553
-0.609906 -0.027947
-0.609904 0.008975
-0.609904 -0.002779
-0.609904 0.000838
-0.609904 -0.000247
-0.609904 0.000072
-0.609904 -0.000020
-0.609904 0.000005
-0.609904 0.000001
-0.609904 -0.000007
-0.609904 0.000023
-0.609904 -0.000075
-0.609904 0.000237
-0.609904 -0.000736
-0.609905 0.002213
-0.609904 -0.006366
-0.609907 0.017031
-0.609896 -0.039716
-0.609919 0.104089
-0.609558 0.637208
-0.609043 -0.027832
-0.607338 6.128786
-0.595901 14.899245
-0.580134 15.804484
-0.564733 15.295086
-0.549335 15.317530
-0.534188 14.976674
-0.519354 14.631436
-0.504938 14.159851
-0.491034 13.602532
-0.477740 12.944349
-0.465150 12.193356
-0.453358 11.353221
-0.442451 10.422793
-0.432518 9.413659
-0.423626 8.343481
-0.415833 7.217013
-0.409193 6.043657
-0.403746 4.832661
-0.399528 3.591007
-0.396564 2.327815
-0.394871 1.054197
-0.394454 -0.221753
-0.395314 -1.494584
-0.397444 -2.757985
-0.400830 -4.003113
-0.405450 -5.224492
-0.411270 -6.388267
-0.418198 -7.428021
-0.426099 -8.341939
-0.434872 -9.177856
-0.444454 -9.956854
-0.454787 -10.679177
-0.465813 -11.340908
-0.477471 -11.940047
-0.489695 -12.472142
-0.502419 -12.941452
-0.515577 -13.329345
-0.529095 -13.688836
-0.542919 -13.860943
-0.556764 -13.790742
-0.570546 -13.773441
-0.584469 -14.147705
-0.598394 -13.097583
-0.608540 -5.603119
-0.610106 0.409253
-0.609846 0.051613
-0.609921 -0.060418
-0.609900 0.029515
-0.609906 -0.011695
-0.609904 0.004203
-0.609904 -0.001426
-0.609904 0.000466
-0.609904 -0.000148
-0.609904 0.000046
-0.609904 -0.000014
-0.609904 0.000004
-0.609904 -0.000001
-0.609904 0.000000
-0.609904 -0.000000
-0.609904 0.000000
-0.609904 -0.000000
-0.609904 0.000000
-0.609904 -0.000000
-0.609904 0.000000
-0.609904 -0.000000
-0.609904 0.000000
-0.609904 -0.000000
-0.609904 0.000000
-0.609904 -0.000000
-0.609904 0.000000
-0.609904 -0.000000
-0.609904 0.000000
-0.609904 -0.000000
-0.609904 0.000000
-0.609904 -0.000000
-0.609904 0.000000
-0.609904 -0.000000
-0.609904 0.000000
-0.609904 -0.000000
-0.609904 0.000000
-0.609904 -0.000000
-0.609904 0.000000
-0.609904 -0.000000
-0.609904 0.000000
-0.609904 -0.000000
-0.609904 0.000000
-0.609904 -0.000000
-0.609904 0.000000
-0.609904 -0.000000
-0.609904 0.000000
-0.609904 -0.000000
-0.609904 0.000000
-0.609904 -0.000000
-0.609904 0.000000
-0.609904 -0.000000
-0.609904 0.000000
-0.609904 -0.000000
-0.609904 0.000000
-0.609904 -0.000000
-0.609904 0.000000
-0.609904 -0.000000
-0.609904 0.000000
-0.609904 -0.000000
-0.609904 0.000000
-0.609904 -0.000000
-0.609904 0.000000
-0.609904 -0.000000
-0.609904 0.000000
-0.609904 -0.000000
-0.609904 0.000000
-0.609904 -0.000000
-0.609904 0.000000
-0.609904 -0.000000
-0.609904 0.000000
-0.609904 -0.000000
-0.609904 0.000000
-0.609904 -0.000000
-0.609904 0.000000
-0.609904 -0.000000
-0.609904 0.000000
-0.609904 -0.000000
-0.609904 0.000000
-0.609904 -0.000000
-0.609904 0.000000
-0.609904 -0.000000
-0.609904 0.000000
-0.609904 -0.000000
-0.609904 0.000000
-0.609904 -0.000000
-0.609904 0.000000
-0.609904 -0.000000
-0.609904 0.000000
-0.609904 -0.000000
-0.609904 0.000000
-0.609904 -0.000000
-0.609904 0.000000
-0.609904 -0.000000
-0.609904 0.000000
-0.609904 -0.000000
-0.609904 0.000000
-0.609904 -0.000000
-0.609904 0.000000
-0.609904 -0.000000
-0.609904 0.000000
-0.609904 -0.000000
-0.609904 0.000000
-0.609904 -0.000000
-0.609904 0.000000
-0.609904 -0.000000
-0.609904 0.000000
-0.609904 -0.000000
-0.609904 0.000000
-0.609904 -0.000000
-0.609904 0.000000
-0.609904 -0.000000
-0.609904 0.000000
-0.609904 -0.000000
-0.609904 0.000000
-0.609904 -0.000000
-0.609904 0.000000
-0.609904 -0.000000
-0.609904 0.000000
-0.609904 -0.000000
-0.609904 0.000000
-0.609904 -0.000000
-0.609904 0.000000
-0.609904 -0.000000
-0.609904 0.000000
-0.609904 -0.000000
-0.609904 -0.000000
-0.609904 0.000000
-0.609904 -0.000000
-0.609904 0.000000
-0.609904 -0.000000
-0.609904 0.000000
-0.609904 -0.000000
-0.609904 0.000000
-0.609904 -0.000000
-0.609904 0.000000
-0.609904 -0.000000
-0.609904 0.000000
-0.609904 -0.000000
-0.609904 0.000000
-0.609904 -0.000000
-0.609904 0.000000
-0.609904 -0.000000
-0.609904 0.000000
-0.609904 -0.000000
-0.609904 0.000000
-0.609904 -0.000000
-0.609904 0.000000
-0.609904 -0.000000
-0.609904 0.000000
-0.609904 -0.000000
-0.609904 0.000000
-0.609904 -0.000000
-0.609904 0.000000
-0.609904 -0.000000
-0.609904 0.000000
-0.609904 -0.000000
-0.609904 0.000000
-0.609904 -0.000000
-0.609904 0.000000
-0.609904 -0.000000
-0.609904 0.000000
-0.609904 -0.000000
-0.609904 0.000000
-0.609904 -0.000000
-0.609904 0.000000
-0.609904 -0.000000
-0.609904 0.000000
-0.609904 -0.000000
-0.609904 0.000000
-0.609904 -0.000000
-0.609904 0.000000
-0.609904 -0.000000
-0.609904 0.000000
-0.609904 -0.000000
-0.609904 0.000000
-0.609904 -0.000000
-0.609904 0.000000
-0.609904 -0.000000
-0.609904 0.000000
-0.609904 -0.000000
-0.609904 0.000000
-0.609904 -0.000000
-0.609904 0.000000
-0.609904 -0.000000
-0.609904 0.000000
-0.609904 -0.000000
-0.609904 0.000000
-0.609904 -0.000000
-0.609904 0.000000
-0.609904 -0.000000
-0.609904 0.000000
-0.609904 -0.000000
-0.609904 0.000000
-0.609904 -0.000000
-0.609904 0.000000
-0.609904 -0.000000
-0.609904 0.000000
-0.609904 -0.000000
-0.609904 0.000000
-0.609904 -0.000000
-0.609904 0.000000
-0.609904 -0.000000
-0.609904 0.000000
-0.609904 -0.000000
-0.609904 0.000000
-0.609904 -0.000000
-0.609904 0.000000
-0.609904 -0.000000
-0.609904 0.000000
-0.609904 -0.000000
-0.609904 0.000000
-0.609904 -0.000000
-0.609904 0.000000
-0.609904 -0.000000
-0.609904 0.000000
-0.609904 -0.000000
-0.609904 0.000000
-0.609904 -0.000000
-0.609904 0.000000
-0.609904 -0.000000
-0.609904 0.000000
-0.609904 -0.000000
-0.609904 0.000000
-0.609904 -0.000000
-0.609904 0.000000
-0.609904 -0.000000
-0.609904 0.000000
-0.609904 -0.000000
-0.609904 0.000000
-0.609904 -0.000000
-0.609904 -0.000000
-0.609904 0.000000
-0.609904 -0.000000
-0.609904 0.000000
-0.609904 -0.000000
-0.609904 0.000000
-0.609904 -0.000000
-0.609904 0.000001
-0.609904 -0.000004
-0.609904 0.000015
-0.609904 -0.000059
-0.609904 0.000223
-0.609904 -0.000829
-0.609904 0.003031
-0.609904 -0.010903
-0.609905 0.038546
-0.609901 -0.133580
-0.609920 0.451970
-0.609837 -1.483558
-0.610140 4.820720
-0.603632 0.799127
-0.591544 47.715763
-0.479940 179.040880
-0.261150 226.312371
-0.047637 211.322736
0.167926 214.337840
0.377542 205.586405
0.580127 198.683336
0.774703 189.972375
0.960110 180.235379
1.135048 169.040606
1.298009 156.284362
1.447417 141.991371
1.581776 126.199546
1.699639 109.121087
1.799950 91.185794
1.882034 72.772032
1.945539 54.054155
1.990320 35.543527
2.016807 17.363921
2.025396 0.124565
2.018634 -12.388671
2.002198 -20.094589
1.978850 -26.465543
1.949400 -32.278045
1.914326 -37.800142
1.873753 -43.234615
1.827852 -48.422685
1.776925 -53.269965
1.721329 -57.748356
1.661451 -61.811652
1.597720 -65.461390
1.530545 -68.668249
1.460419 -71.356279
1.387850 -73.562662
1.313291 -75.334978
1.237168 -76.691028
1.159893 -77.634845
1.081882 -78.162467
1.003550 -78.274451
0.925315 -77.971114
0.847593 -77.246250
0.770809 -76.099596
0.695381 -74.533868
0.621733 -72.543546
0.550288 -70.135868
0.481464 -67.299266
0.415703 -64.018271
0.353435 -60.331951
0.295034 -56.297544
0.240830 -51.954579
0.191115 -47.331012
0.146166 -42.430651
0.106253 -37.276675
0.071603 -31.925454
0.042408 -26.365588
0.018899 -20.566611
0.001299 -14.571571
-0.010272 -8.574578
-0.015815 -2.421737
-0.015058 3.919855
-0.009009 7.141744
-0.001386 8.486828
0.008597 11.674037
0.021851 14.458441
0.036976 15.545080
0.056238 26.418175
0.097214 59.316152
0.172324 84.227215
0.263399 101.829411
0.359270 68.734524
0.462214 219.081198
0.572255 -306.745488
0.000000 -377.353273
0.000000 101.111505
0.000000 -27.092746
0.000000 7.259479
0.000000 -1.945172
0.000000 0.521207
0.000000 -0.139657
0.000000 0.037421
0.000000 -0.010027
0.000000 0.002687
0.000000 -0.000720
0.000000 0.000193
0.000000 -0.000052
0.000000 0.000014
0.000000 -0.000004
0.000000 0.000001
0.000000 -0.000000
0.000000 0.000000
0.000000 -0.000000
0.000000 0.000000
0.000000 -0.000000
0.000000 0.000000
0.000000 -0.000000
0.000000 0.000000
0.000000 -0.000000
0.000000 0.000000
0.000000 -0.000000
0.000000 0.000000
0.000000 -0.000000
0.000000 0.000000
0.000000 -0.000000
0.000000 0.000000
0.000000 -0.000000
0.000000 0.000000
0.000000 -0.000000
0.000000 0.000000
0.000000 -0.000000
0.000000 0.000000
0.000000 -0.000000
0.000000 0.000000
0.000000 -0.000000
0.000000 0.000000
0.000000 -0.000000
0.000000 0.000000
0.000000 -0.000000
0.000000 0.000000
0.000000 -0.000000
0.000000 0.000000
0.000000 -0.000000
0.000000 0.000000
0.000000 -0.000000
0.000000 0.000000
0.000000 -0.000000
0.000000 0.000000
0.000000 -0.000000
0.000000 0.000000
0.000000 -0.000000
0.000000 0.000000
0.000000 -0.000000
0.000000 0.000000
0.000000 -0.000000
0.000000 0.000000
0.000000 -0.000000
0.000000 0.000000
0.000000 -0.000000
0.000000 0.000000
0.000000 -0.000000
0.000000 0.000000
0.000000 -0.000000
0.000000 0.000000
0.000000 -0.000000
0.000000 0.000000
0.000000 -0.000000
0.000000 0.000000
0.000000 -0.000000
0.000000 0.000000
0.000000 -0.000000
0.000000 0.000000
0.000000 -0.000000
0.000000 0.000000
0.000000 -0.000000
0.000000 0.000000
0.000000 -0.000000
0.000000 0.000000
0.000000 -0.000000
0.000000 0.000000
0.000000 -0.000000
0.000000 0.000000
0.000000 -0.000000
0.000000 0.000000
0.000000 -0.000000
0.000000 0.000000
0.000000 -0.000000
0.000000 0.000000
0.000000 -0.000000
0.000000 0.000000
0.000000 -0.000000
0.000000 0.000000
0.000000 -0.000000
0.000000 0.000000
0.000000 -0.000000
0.000000 0.000000
0.000000 -0.000000
0.000000 0.000000
0.000000 -0.000000
0.000000 0.000000
0.000000 -0.000000
0.000000 0.000000
0.000000 -0.000000
0.000000 0.000000
0.000000 -0.000000
0.000000 0.000000
0.000000 -0.000000
0.000000 0.000000
0.000000 -0.000000
0.000000 0.000000
0.000000 -0.000000
0.000000 0.000000
0.000000 -0.000000
0.000000 0.000000
0.000000 -0.000000
0.000000 0.000000
0.000000 -0.000000
0.000000 0.000000
0.000000 -0.000000
0.000000 0.000000
0.000000 -0.000000
0.000000 0.000000
0.000000 -0.000000
0.000000 0.000000
0.000000 -0.000000
0.000000 0.000000
0.000000 -0.000000
0.000000 0.000000
0.000000 -0.000000
0.000000 0.000000
0.000000 -0.000000
0.000000 0.000000
0.000000 -0.000000
0.000000 0.000000
0.000000 -0.000000
0.000000 0.000000
0.000000 -0.000000
0.000000 0.000000
0.000000 -0.000000
0.000000 0.000000
0.000000 -0.000000
0.000000 0.000000
0.000000 -0.000000
0.000000 0.000000
0.000000 -0.000000
0.000000 0.000000
0.000000 -0.000000
0.000000 0.000000
0.000000 -0.000000
0.000000 0.000000
0.000000 -0.000000
0.000000 0.000000
0.000000 -0.000000
0.000000 0.000000
0.000000 -0.000000
0.000000 0.000000
0.000000 -0.000000
0.000000 0.000000
0.000000 -0.000000
0.000000 0.000000
0.000000 -0.000000
0.000000 0.000000
0.000000 -0.000000
0.000000 0.000000
0.000000 -0.000000
0.000000 0.000000
0.000000 -0.000000
0.000000 0.000000
0.000000 -0.000000
0.000000 0.000000
0.000000 -0.000000
0.000000 0.000000
0.000000 -0.000000
0.000000 0.000000
0.000000 -0.000000
0.000000 0.000000
0.000000 -0.000000
0.000000 0.000000
0.000000 -0.000000
0.000000 0.000000
0.000000 -0.000000
0.000000 0.000000
0.000000 -0.000000
0.000000 0.000000
0.000000 -0.000000
0.000000 0.000000
0.000000 -0.000000
0.000000 0.000000
0.000000 -0.000000
0.000000 0.000000
0.000000 -0.000000
0.000000 0.000000
0.000000 -0.000000
0.000000 0.000000
0.000000 -0.000000
0.000000 0.000000
0.000000 -0.000000
0.000000 0.000000
0.000000 -0.000000
0.000000 0.000000
0.000000 -0.000000
0.000000 0.000000
0.000000 -0.000000
0.000000 0.000000
0.000000 -0.000000
0.000000 0.000000
0.000000 -0.000000
0.000000 0.000000
0.000000 -0.000000
0.000000 0.000000
0.000000 -0.000000
0.000000 0.000000
0.000000 -0.000000
0.000000 0.000000
0.000000 -0.000000
0.000000 0.000000
0.000000 -0.000000
0.000000 0.000000
0.000000 -0.000000
0.000000 0.000000
0.000000 -0.000000
0.000000 0.000000
0.000000 -0.000000
0.000000 0.000000
0.000000 -0.000000
0.000000 0.000000
0.000000 -0.000000
0.000000 0.000000
0.000000 -0.000000
0.000000 0.000000
0.000000 -0.000000
0.000000 0.000000
0.000000 -0.000000
0.000000 0.000000
0.000000 -0.000000
0.000000 0.000000
0.000000 -0.000000
0.000000 0.000000
0.000000 -0.000000
0.000000 0.000000
0.000000 -0.000000
0.000000 0.000000
0.000000 -0.000000
0.000000 0.000000
0.000000 -0.000000
0.000000 0.000000
0.000000 -0.000000
0.000000 0.000000
0.000000 -0.000000
0.000000 0.000000
0.000000 -0.000000
0.000000 0.000000
0.000000 -0.000000
0.000000 0.000000
0.000000 -0.000000
0.000000 0.000000
0.000000 -0.000000
0.000000 0.000000
0.000000 -0.000000
0.000000 0.000000
0.000000 -0.000000
0.000000 0.000000
0.000000 -0.000000
0.000000 0.000000
0.000000 -0.000000
0.000000 0.000000
0.000000 -0.000000
0.000000 0.000000
0.000000 -0.000000
0.000000 0.000000
0.000000 -0.000000
0.000000 0.000000
0.000000 -0.000000
0.000000 0.000000
0.000000 -0.000000
0.000000 0.000000
0.000000 -0.000000
0.000000 0.000000
0.000000 -0.000000
0.000000 0.000000
0.000000 -0.000000
0.000000 0.000000
0.000000 -0.000000
0.000000 0.000000
0.000000 -0.000000
0.000000 0.000000
0.000000 -0.000000
0.000000 0.000000
0.000000 -0.000000
0.000000 0.000000
0.000000 -0.000000
0.000000 0.000000
0.000000 -0.000000
0.000000 0.000000
0.000000 -0.000000
0.000000 0.000000
0.000000 -0.000000
0.000000 0.000000
0.000000 -0.000000
0.000000 0.000000
0.000000 -0.000000
0.000000 0.000000
0.000000 -0.000000
0.000000 0.000000
0.000000 -0.000000
0.000000 0.000000
0.000000 -0.000000
0.000000 0.000000
0.000000 -0.000000
0.000000 0.000000
0.000000 -0.000000
0.000000 0.000000
0.000000 -0.000000
0.000000 0.000000
0.000000 -0.000000
0.000000 0.000000
0.000000 -0.000000
0.000000 0.000000
0.000000 -0.000000
0.000000 0.000000
0.000000 -0.000000
0.000000 0.000000
0.000000 -0.000000
0.000000 0.000000
0.000000 -0.000000
0.000000 0.000000
0.000000 -0.000000
0.000000 0.000000
0.000000 -0.000000
0.000000 0.000000
0.000000 -0.000000
0.000000 0.000000
0.000000 -0.000000
0.000000 0.000000
0.000000 -0.000000
0.000000 0.000000
0.000000 -0.000000
0.000000 0.000000
0.000000 -0.000000
0.000000 0.000000
0.000000 -0.000000
0.000000 0.000000
0.000000 -0.000000
0.000000 0.000000
0.000000 -0.000000
0.000000 0.000000
0.000000 -0.000000
0.000000 0.000000
0.000000 -0.000000
0.000000 0.000000
0.000000 -0.000000
0.000000 0.000000
0.000000 -0.000000
0.000000 0.000000
0.000000 -0.000000
0.000000 0.000000
0.000000 -0.000000
0.000000 0.000000
0.000000 -0.000000
0.000000 0.000000
0.000000 -0.000000
0.000000 0.000000
0.000000 -0.000000
0.000000 0.000000
0.000000 -0.000000
0.000000 0.000000
0.000000 -0.000000
0.000000 0.000000
0.000000 -0.000000
0.000000 0.000000
0.000000 -0.000000
0.000000 0.000000
0.000000 -0.000000
0.000000 0.000000
0.000000 -0.000000
0.000000 0.000000
0.000000 -0.000000
0.000000 0.000000
0.000000 -0.000000
0.000000 0.000000
0.000000 -0.000000
0.000000 0.000000
0.000000 -0.000000
0.000000 0.000000
0.000000 -0.000000
0.000000 0.000000
0.000000 -0.000000
0.000000 0.000000
0.000000 -0.000000
0.000000 0.000000
0.000000 -0.000000
0.000000 0.000000
0.000000 -0.000000
0.000000 0.000000
0.000000 -0.000000
0.000000 0.000000
0.000000 -0.000000
0.000000 0.000000
0.000000 -0.000000
0.000000 0.000000
0.000000 -0.000000
0.000000 0.000000
-0.609904 -0.000000
