0.053973 0.087249 0.048125
-0.618609 -0.000000
-0.618609 0.000000
-0.618609 -0.000000
-0.618609 0.000000
-0.618609 -0.000000
-0.618609 0.000000
-0.618609 -0.000001
-0.618609 0.000005
-0.618609 -0.000018
-0.618609 0.000062
-0.618609 -0.000216
-0.618609 0.000738
-0.618609 -0.002496
-0.618609 0.008326
-0.618607 -0.027318
-0.618613 0.087768
-0.618591 -0.274342
-0.618675 0.825345
-0.618363 -2.343695
-0.619516 6.028209
-0.615275 -12.513656
-0.630795 10.224296
-0.552946 158.414745
-0.336782 237.274179
-0.109981 220.055713
0.107506 214.032146
0.317700 205.576909
0.518594 195.691455
0.709035 184.488303
0.887342 171.492663
1.051830 156.897271
1.200889 140.619538
1.332861 122.873940
1.446568 104.184864
1.541250 84.927308
1.616495 65.377206
1.672126 45.798734
1.708302 26.573500
1.725378 7.503190
1.725104 -6.231218
1.714918 -13.925336
1.697589 -20.529847
1.674025 -26.510377
1.644538 -32.421020
1.609132 -38.290404
1.567963 -43.915051
1.521335 -49.178189
1.469632 -54.067662
1.413236 -58.522853
1.352610 -62.555934
1.288146 -66.147756
1.220373 -69.169983
1.149839 -71.679110
1.077020 -73.741686
1.002353 -75.369140
0.926274 -76.567571
0.849209 -77.333471
0.771599 -77.659349
0.693881 -77.547770
0.616496 -76.993772
0.539888 -75.994614
0.464503 -74.548713
0.390792 -72.651742
0.319202 -70.314114
0.250176 -67.517631
0.184194 -64.233822
0.121727 -60.509216
0.063179 -56.411079
0.008902 -51.982811
-0.040789 -47.249320
-0.085593 -42.219300
-0.125219 -36.910920
-0.159416 -31.384189
-0.187983 -25.656164
-0.210686 -19.649156
-0.227227 -13.359789
-0.237454 -7.134689
-0.241430 -0.667671
-0.238743 5.941092
-0.230646 9.223489
-0.221064 10.149827
-0.209960 12.171183
-0.196630 14.393454
-0.180768 17.744370
-0.161395 20.227510
-0.127014 62.446128
-0.037935 99.998656
0.060411 99.271317
0.163720 107.276994
0.275264 115.534564
0.394790 123.101692
0.521421 129.793032
0.654151 135.031510
0.790932 137.803980
0.929467 138.874865
1.068714 139.210350
1.207922 138.812426
1.346396 137.753672
1.483490 136.048826
1.618546 133.683122
1.750897 130.637397
1.879850 126.896435
2.004717 122.475529
2.124832 117.412842
2.239556 111.686346
2.348213 105.312274
2.450221 98.429021
2.545132 91.137795
2.632567 83.510595
2.712223 75.594374
2.783814 67.397712
2.847080 58.978776
2.901845 50.425981
2.948005 41.791220
2.985501 33.125710
3.014336 24.499271
3.034580 15.968872
3.046355 7.585300
3.049838 -0.582834
3.045279 -8.476694
3.032971 -16.059528
3.013247 -23.285318
2.986486 -30.115674
2.953100 -36.514500
2.913539 -42.447456
2.868272 -47.924613
2.817759 -52.907368
2.762533 -57.343843
2.703138 -61.236886
2.640129 -64.555962
2.574089 -67.300168
2.505570 -69.514979
2.435088 -71.224065
2.363139 -72.455765
2.290182 -73.237540
2.216659 -73.592547
2.142981 -73.551995
2.069530 -73.147887
1.996653 -72.401808
1.924655 -71.433621
1.853709 -70.268266
1.784035 -68.932271
1.715754 -67.453983
1.649053 -65.792572
1.584072 -64.025013
1.520900 -62.181143
1.459604 -60.282435
1.400223 -58.358514
1.342771 -56.432372
1.287239 -54.524618
1.233602 -52.648351
1.181821 -50.821343
1.131833 -49.068531
1.083563 -47.382396
1.036941 -45.793485
0.991845 -44.323035
0.948178 -42.934973
0.905857 -41.641527
0.864777 -40.452562
0.824836 -39.368792
0.785924 -38.395438
0.747934 -37.523952
0.710769 -36.748687
0.674331 -36.069867
0.638526 -35.484237
0.603264 -34.982825
0.568464 -34.559747
0.534052 -34.206519
0.499960 -33.919597
0.466125 -33.691784
0.432492 -33.516552
0.399008 -33.389919
0.365630 -33.307267
0.332315 -33.260546
0.299033 -33.241603
0.265747 -33.277174
0.232405 -33.334414
0.199011 -33.394546
0.165544 -33.469845
0.132006 -33.539427
0.098399 -33.606622
0.064728 -33.666120
0.031003 -33.714116
-0.002762 -33.746529
-0.036551 -33.758408
-0.070339 -33.748204
-0.104103 -33.701876
-0.137780 -33.564552
-0.171253 -33.288343
-0.204377 -32.870840
-0.237016 -32.319936
-0.269041 -31.648663
-0.300337 -30.858701
-0.330784 -29.959630
-0.360283 -28.962250
-0.388734 -27.869064
-0.416037 -26.656297
-0.442076 -25.371284
-0.466816 -24.041606
-0.490173 -22.608269
-0.512067 -21.143062
-0.532461 -19.556075
-0.551108 -17.640294
-0.567656 -15.364043
-0.581829 -12.974108
-0.593694 -10.774754
-0.603321 -8.337740
-0.610318 -5.696286
-0.614789 -3.247930
-0.616896 -1.025302
-0.617243 -0.003718
-0.617083 0.479025
-0.615888 2.146628
-0.612542 4.543491
-0.606893 6.638916
-0.599431 8.194809
-0.590574 9.488868
-0.580469 10.680170
-0.569235 11.745230
-0.556994 12.691922
-0.543866 13.518022
-0.529972 14.219863
-0.515439 14.795878
-0.500393 15.247119
-0.484956 15.575661
-0.469250 15.783748
-0.453396 15.872667
-0.437513 15.843094
-0.421717 15.698332
-0.406121 15.444226
-0.390832 15.085669
-0.375953 14.626235
-0.361585 14.064328
-0.347831 13.397887
-0.334796 12.631006
-0.322576 11.768735
-0.311267 10.809242
-0.300964 9.764492
-0.291741 8.653290
-0.283661 7.480242
-0.276783 6.255449
-0.271152 4.988468
-0.266807 3.686405
-0.263780 2.359606
-0.262088 1.018876
-0.261742 -0.326892
-0.262742 -1.671641
-0.265086 -3.009290
-0.268761 -4.329981
-0.273747 -5.627823
-0.280009 -6.867397
-0.287452 -7.978266
-0.295937 -8.958137
-0.305360 -9.857380
-0.315652 -10.698063
-0.326758 -11.480261
-0.338615 -12.200025
-0.351160 -12.854564
-0.364327 -13.440611
-0.378045 -13.956607
-0.392245 -14.401950
-0.406854 -14.776091
-0.421803 -15.079474
-0.437020 -15.312026
-0.452434 -15.474171
-0.467977 -15.570014
-0.483583 -15.598901
-0.499186 -15.568040
-0.514726 -15.466227
-0.530136 -15.323520
-0.545382 -15.114346
-0.560308 -14.646629
-0.574693 -14.143223
-0.588618 -13.624329
-0.602175 -13.723479
-0.614380 -8.689228
-0.618701 -1.048687
-0.618560 0.355288
-0.618622 -0.134407
-0.618605 0.046332
-0.618610 -0.015104
-0.618609 0.004741
-0.618609 -0.001447
-0.618609 0.000432
-0.618609 -0.000126
-0.618609 0.000034
-0.618609 -0.000003
-0.618609 -0.000020
-0.618609 0.000074
-0.618609 -0.000234
-0.618609 0.000701
-0.618609 -0.001982
-0.618610 0.005079
-0.618606 -0.010502
-0.618619 0.008684
-0.618547 0.153354
-0.618352 0.176692
-0.618223 0.109863
-0.618115 0.094184
-0.618052 0.026987
-0.618070 -0.065164
-0.618173 -0.131525
-0.618331 -0.192928
-0.618526 -0.153421
-0.618609 -0.024512
-0.618608 0.006504
-0.618609 -0.002493
-0.618609 0.000878
-0.618609 -0.000293
-0.618609 0.000095
-0.618609 -0.000030
-0.618609 0.000009
-0.618609 -0.000003
-0.618609 0.000001
-0.618609 -0.000000
-0.618609 0.000000
-0.618609 -0.000000
-0.618609 0.000000
-0.618609 -0.000000
-0.618609 0.000000
-0.618609 -0.000000
-0.618609 0.000000
-0.618609 -0.000000
-0.618609 0.000000
-0.618609 -0.000000
-0.618609 0.000000
-0.618609 -0.000000
-0.618609 0.000000
-0.618609 -0.000000
-0.618609 0.000000
-0.618609 -0.000000
-0.618609 0.000000
-0.618609 -0.000000
-0.618609 0.000000
-0.618609 -0.000000
-0.618609 0.000000
-0.618609 -0.000000
-0.618609 0.000000
-0.618609 -0.000000
-0.618609 0.000000
-0.618609 -0.000000
-0.618609 0.000000
-0.618609 -0.000000
-0.618609 0.000000
-0.618609 -0.000000
-0.618609 0.000000
-0.618609 -0.000000
-0.618609 0.000000
-0.618609 -0.000000
-0.618609 0.000000
-0.618609 -0.000000
-0.618609 0.000000
-0.618609 -0.000000
-0.618609 0.000000
-0.618609 -0.000000
-0.618609 0.000000
-0.618609 -0.000000
-0.618609 0.000000
-0.618609 -0.000000
-0.618609 0.000000
-0.618609 -0.000000
-0.618609 0.000000
-0.618609 -0.000000
-0.618609 0.000000
-0.618609 -0.000000
-0.618609 0.000000
-0.618609 -0.000000
-0.618609 0.000000
-0.618609 -0.000000
-0.618609 0.000000
-0.618609 -0.000000
-0.618609 0.000000
-0.618609 -0.000000
-0.618609 0.000000
-0.618609 -0.000000
-0.618609 0.000000
-0.618609 -0.000000
-0.618609 0.000000
-0.618609 -0.000000
-0.618609 0.000000
-0.618609 -0.000000
-0.618609 0.000000
-0.618609 -0.000000
-0.618609 0.000000
-0.618609 -0.000000
-0.618609 0.000000
-0.618609 -0.000000
-0.618609 0.000000
-0.618609 -0.000000
-0.618609 0.000000
-0.618609 -0.000000
-0.618609 0.000000
-0.618609 -0.000000
-0.618609 0.000000
-0.618609 -0.000000
-0.618609 0.000000
-0.618609 -0.000000
-0.618609 0.000000
-0.618609 -0.000000
-0.618609 0.000000
-0.618609 -0.000000
-0.618609 0.000000
-0.618609 -0.000000
-0.618609 0.000000
-0.618609 -0.000000
-0.618609 0.000000
-0.618609 -0.000000
-0.618609 0.000000
-0.618609 -0.000000
-0.618609 0.000000
-0.618609 0.000000
-0.618609 -0.000000
-0.618609 0.000000
-0.618609 -0.000000
-0.618609 0.000000
-0.618609 -0.000000
-0.618609 0.000000
-0.618609 -0.000000
-0.618609 0.000000
-0.618609 -0.000000
-0.618609 0.000000
-0.618609 -0.000000
-0.618609 0.000000
-0.618609 -0.000000
-0.618609 0.000000
-0.618609 -0.000000
-0.618609 0.000000
-0.618609 -0.000000
-0.618609 0.000000
-0.618609 -0.000000
-0.618609 0.000000
-0.618609 -0.000000
-0.618609 0.000000
-0.618609 -0.000000
-0.618609 0.000000
-0.618609 -0.000000
-0.618609 0.000000
-0.618609 -0.000000
-0.618609 0.000000
-0.618609 -0.000000
-0.618609 0.000000
-0.618609 -0.000000
-0.618609 0.000000
-0.618609 -0.000000
-0.618609 0.000000
-0.618609 -0.000000
-0.618609 0.000000
-0.618609 -0.000000
-0.618609 0.000000
-0.618609 -0.000000
-0.618609 0.000000
-0.618609 -0.000000
-0.618609 0.000000
-0.618609 -0.000000
-0.618609 0.000000
-0.618609 -0.000000
-0.618609 0.000000
-0.618609 -0.000000
-0.618609 0.000000
-0.618609 -0.000000
-0.618609 0.000000
-0.618609 -0.000000
-0.618609 0.000000
-0.618609 -0.000000
-0.618609 0.000000
-0.618609 -0.000000
-0.618609 0.000000
-0.618609 -0.000000
-0.618609 0.000000
-0.618609 -0.000000
-0.618609 0.000000
-0.618609 -0.000000
-0.618609 0.000000
-0.618609 -0.000000
-0.618609 0.000000
-0.618609 -0.000000
-0.618609 0.000000
-0.618609 -0.000000
-0.618609 0.000000
-0.618609 -0.000000
-0.618609 0.000000
-0.618609 -0.000000
-0.618609 0.000000
-0.618609 -0.000000
-0.618609 0.000000
-0.618609 -0.000000
-0.618609 0.000000
-0.618609 -0.000000
-0.618609 0.000000
-0.618609 -0.000000
-0.618609 0.000000
-0.618609 -0.000000
-0.618609 0.000000
-0.618609 -0.000000
-0.618609 0.000000
-0.618609 -0.000000
-0.618609 0.000000
-0.618609 -0.000000
-0.618609 0.000000
-0.618609 -0.000000
-0.618609 -0.000000
-0.618609 0.000000
-0.618609 -0.000000
-0.618609 0.000000
-0.618609 -0.000000
-0.618609 0.000000
-0.618609 -0.000000
-0.618609 0.000001
-0.618609 -0.000004
-0.618609 0.000016
-0.618609 -0.000059
-0.618609 0.000222
-0.618609 -0.000817
-0.618609 0.002957
-0.618609 -0.010526
-0.618610 0.036760
-0.618605 -0.125591
-0.618626 0.417628
-0.618537 -1.340412
-0.618910 4.091515
-0.613648 -0.375209
-0.606780 33.763240
-0.515554 159.311670
-0.307514 225.889703
-0.088863 215.921017
0.127514 214.205076
0.337602 205.373654
0.538291 195.398328
0.728293 183.935021
0.905958 170.761297
1.069612 155.954387
1.217638 139.525583
1.348480 121.708024
1.460984 102.948691
1.554403 83.649616
1.628330 63.989910
1.682571 44.510869
1.717545 25.345441
1.733633 7.139668
1.733492 -6.111236
1.723084 -14.310940
1.705309 -21.109506
1.681015 -27.330981
1.650691 -33.257698
1.614460 -39.103453
1.572490 -44.697837
1.525092 -49.941275
1.472634 -54.805463
1.415515 -59.238677
1.354181 -63.242906
1.289056 -66.786982
1.220655 -69.785159
1.149514 -72.281004
1.076099 -74.326312
1.000860 -75.928621
0.924234 -77.097587
0.846656 -77.830716
0.768563 -78.125983
0.690396 -77.977737
0.612600 -77.385422
0.535619 -76.346770
0.459903 -74.858705
0.385902 -72.921167
0.314064 -70.536572
0.244840 -67.693224
0.178701 -64.374691
0.116107 -60.620536
0.057464 -56.490785
0.003124 -52.026476
-0.046591 -47.256266
-0.091382 -42.183967
-0.130951 -36.833610
-0.165050 -31.263908
-0.193464 -25.462936
-0.215939 -19.397957
-0.232226 -13.113928
-0.242188 -6.815852
-0.245812 -0.341033
-0.242800 6.346063
-0.234203 9.748744
-0.223942 11.176959
-0.211176 14.556019
-0.194940 17.518171
-0.176709 18.669579
-0.154088 30.234849
-0.108499 64.816907
-0.026776 92.051730
0.071956 107.800311
0.175933 84.267000
0.287561 201.298335
0.406880 -197.311210
0.000000 -273.873385
0.000000 73.384152
0.000000 -19.663224
0.000000 5.268745
0.000000 -1.411756
0.000000 0.378279
0.000000 -0.101360
0.000000 0.027159
0.000000 -0.007277
0.000000 0.001950
0.000000 -0.000522
0.000000 0.000140
0.000000 -0.000038
0.000000 0.000010
0.000000 -0.000003
0.000000 0.000001
0.000000 -0.000000
0.000000 0.000000
0.000000 -0.000000
0.000000 0.000000
0.000000 -0.000000
0.000000 0.000000
0.000000 -0.000000
0.000000 0.000000
0.000000 -0.000000
0.000000 0.000000
0.000000 -0.000000
0.000000 0.000000
0.000000 -0.000000
0.000000 0.000000
0.000000 -0.000000
0.000000 0.000000
0.000000 -0.000000
0.000000 0.000000
0.000000 -0.000000
0.000000 0.000000
0.000000 -0.000000
0.000000 0.000000
0.000000 -0.000000
0.000000 0.000000
0.000000 -0.000000
0.000000 0.000000
0.000000 -0.000000
0.000000 0.000000
0.000000 -0.000000
0.000000 0.000000
0.000000 -0.000000
0.000000 0.000000
0.000000 -0.000000
0.000000 0.000000
0.000000 -0.000000
0.000000 0.000000
0.000000 -0.000000
0.000000 0.000000
0.000000 -0.000000
0.000000 0.000000
0.000000 -0.000000
0.000000 0.000000
0.000000 -0.000000
0.000000 0.000000
0.000000 -0.000000
0.000000 0.000000
0.000000 -0.000000
0.000000 0.000000
0.000000 -0.000000
0.000000 0.000000
0.000000 -0.000000
0.000000 0.000000
0.000000 -0.000000
0.000000 0.000000
0.000000 -0.000000
0.000000 0.000000
0.000000 -0.000000
0.000000 0.000000
0.000000 -0.000000
0.000000 0.000000
0.000000 -0.000000
0.000000 0.000000
0.000000 -0.000000
0.000000 0.000000
0.000000 -0.000000
0.000000 0.000000
0.000000 -0.000000
0.000000 0.000000
0.000000 -0.000000
0.000000 0.000000
0.000000 -0.000000
0.000000 0.000000
0.000000 -0.000000
0.000000 0.000000
0.000000 -0.000000
0.000000 0.000000
0.000000 -0.000000
0.000000 0.000000
0.000000 -0.000000
0.000000 0.000000
0.000000 -0.000000
0.000000 0.000000
0.000000 -0.000000
0.000000 0.000000
0.000000 -0.000000
0.000000 0.000000
0.000000 -0.000000
0.000000 0.000000
0.000000 -0.000000
0.000000 0.000000
0.000000 -0.000000
0.000000 0.000000
0.000000 -0.000000
0.000000 0.000000
0.000000 -0.000000
0.000000 0.000000
0.000000 -0.000000
0.000000 0.000000
0.000000 -0.000000
0.000000 0.000000
0.000000 -0.000000
0.000000 0.000000
0.000000 -0.000000
0.000000 0.000000
0.000000 -0.000000
0.000000 0.000000
0.000000 -0.000000
0.000000 0.000000
0.000000 -0.000000
0.000000 0.000000
0.000000 -0.000000
0.000000 0.000000
0.000000 -0.000000
0.000000 0.000000
0.000000 -0.000000
0.000000 0.000000
0.000000 -0.000000
0.000000 0.000000
0.000000 -0.000000
0.000000 0.000000
0.000000 -0.000000
0.000000 0.000000
0.000000 -0.000000
0.000000 0.000000
0.000000 -0.000000
0.000000 0.000000
0.000000 -0.000000
0.000000 0.000000
0.000000 -0.000000
0.000000 0.000000
0.000000 -0.000000
0.000000 0.000000
0.000000 -0.000000
0.000000 0.000000
0.000000 -0.000000
0.000000 0.000000
0.000000 -0.000000
0.000000 0.000000
0.000000 -0.000000
0.000000 0.000000
0.000000 -0.000000
0.000000 0.000000
0.000000 -0.000000
0.000000 0.000000
0.000000 -0.000000
0.000000 0.000000
0.000000 -0.000000
0.000000 0.000000
0.000000 -0.000000
0.000000 0.000000
0.000000 -0.000000
0.000000 0.000000
0.000000 -0.000000
0.000000 0.000000
0.000000 -0.000000
0.000000 0.000000
0.000000 -0.000000
0.000000 0.000000
0.000000 -0.000000
0.000000 0.000000
0.000000 -0.000000
0.000000 0.000000
0.000000 -0.000000
0.000000 0.000000
0.000000 -0.000000
0.000000 0.000000
0.000000 -0.000000
0.000000 0.000000
0.000000 -0.000000
0.000000 0.000000
0.000000 -0.000000
0.000000 0.000000
0.000000 -0.000000
0.000000 0.000000
0.000000 -0.000000
0.000000 0.000000
0.000000 -0.000000
0.000000 0.000000
0.000000 -0.000000
0.000000 0.000000
0.000000 -0.000000
0.000000 0.000000
0.000000 -0.000000
0.000000 0.000000
0.000000 -0.000000
0.000000 0.000000
0.000000 -0.000000
0.000000 0.000000
0.000000 -0.000000
0.000000 0.000000
0.000000 -0.000000
0.000000 0.000000
0.000000 -0.000000
0.000000 0.000000
0.000000 -0.000000
0.000000 0.000000
0.000000 -0.000000
0.000000 0.000000
0.000000 -0.000000
0.000000 0.000000
0.000000 -0.000000
0.000000 0.000000
0.000000 -0.000000
0.000000 0.000000
0.000000 -0.000000
0.000000 0.000000
0.000000 -0.000000
0.000000 0.000000
0.000000 -0.000000
0.000000 0.000000
0.000000 -0.000000
0.000000 0.000000
0.000000 -0.000000
0.000000 0.000000
0.000000 -0.000000
0.000000 0.000000
0.000000 -0.000000
0.000000 0.000000
0.000000 -0.000000
0.000000 0.000000
0.000000 -0.000000
0.000000 0.000000
0.000000 -0.000000
0.000000 0.000000
0.000000 -0.000000
0.000000 0.000000
0.000000 -0.000000
0.000000 0.000000
0.000000 -0.000000
0.000000 0.000000
0.000000 -0.000000
0.000000 0.000000
0.000000 -0.000000
0.000000 0.000000
0.000000 -0.000000
0.000000 0.000000
0.000000 -0.000000
0.000000 0.000000
0.000000 -0.000000
0.000000 0.000000
0.000000 -0.000000
0.000000 0.000000
0.000000 -0.000000
0.000000 0.000000
0.000000 -0.000000
0.000000 0.000000
0.000000 -0.000000
0.000000 0.000000
0.000000 -0.000000
0.000000 0.000000
0.000000 -0.000000
0.000000 0.000000
0.000000 -0.000000
0.000000 0.000000
0.000000 -0.000000
0.000000 0.000000
0.000000 -0.000000
0.000000 0.000000
0.000000 -0.000000
0.000000 0.000000
0.000000 -0.000000
0.000000 0.000000
0.000000 -0.000000
0.000000 0.000000
0.000000 -0.000000
0.000000 0.000000
0.000000 -0.000000
0.000000 0.000000
0.000000 -0.000000
0.000000 0.000000
0.000000 -0.000000
0.000000 0.000000
0.000000 -0.000000
0.000000 0.000000
0.000000 -0.000000
0.000000 0.000000
0.000000 -0.000000
0.000000 0.000000
0.000000 -0.000000
0.000000 0.000000
0.000000 -0.000000
0.000000 0.000000
0.000000 -0.000000
0.000000 0.000000
0.000000 -0.000000
0.000000 0.000000
0.000000 -0.000000
0.000000 0.000000
0.000000 -0.000000
0.000000 0.000000
0.000000 -0.000000
0.000000 0.000000
0.000000 -0.000000
0.000000 0.000000
0.000000 -0.000000
0.000000 0.000000
0.000000 -0.000000
0.000000 0.000000
0.000000 -0.000000
0.000000 0.000000
0.000000 -0.000000
0.000000 0.000000
0.000000 -0.000000
0.000000 0.000000
0.000000 -0.000000
0.000000 0.000000
0.000000 -0.000000
0.000000 0.000000
0.000000 -0.000000
0.000000 0.000000
0.000000 -0.000000
0.000000 0.000000
0.000000 -0.000000
0.000000 0.000000
0.000000 -0.000000
0.000000 0.000000
0.000000 -0.000000
0.000000 0.000000
0.000000 -0.000000
0.000000 0.000000
0.000000 -0.000000
0.000000 0.000000
0.000000 -0.000000
0.000000 0.000000
0.000000 -0.000000
0.000000 0.000000
0.000000 -0.000000
0.000000 0.000000
0.000000 -0.000000
0.000000 0.000000
0.000000 -0.000000
0.000000 0.000000
0.000000 -0.000000
0.000000 0.000000
0.000000 -0.000000
0.000000 0.000000
0.000000 -0.000000
0.000000 0.000000
0.000000 -0.000000
0.000000 0.000000
0.000000 -0.000000
0.000000 0.000000
0.000000 -0.000000
0.000000 0.000000
0.000000 -0.000000
0.000000 0.000000
0.000000 -0.000000
0.000000 0.000000
0.000000 -0.000000
0.000000 0.000000
0.000000 -0.000000
0.000000 0.000000
0.000000 -0.000000
0.000000 0.000000
0.000000 -0.000000
0.000000 0.000000
0.000000 -0.000000
0.000000 0.000000
0.000000 -0.000000
0.000000 0.000000
0.000000 -0.000000
0.000000 0.000000
0.000000 -0.000000
0.000000 0.000000
0.000000 -0.000000
0.000000 0.000000
0.000000 -0.000000
0.000000 0.000000
0.000000 -0.000000
0.000000 0.000000
0.000000 -0.000000
0.000000 0.000000
0.000000 -0.000000
0.000000 0.000000
0.000000 -0.000000
0.000000 0.000000
0.000000 -0.000000
0.000000 0.000000
0.000000 -0.000000
0.000000 0.000000
0.000000 -0.000000
0.000000 0.000000
0.000000 -0.000000
0.000000 0.000000
0.000000 -0.000000
0.000000 0.000000
0.000000 -0.000000
0.000000 0.000000
0.000000 -0.000000
0.000000 0.000000
0.000000 -0.000000
0.000000 0.000000
-0.618609 -0.000000
