-0.074998 0.111324 -0.013854
0.672918 -0.000001
0.672918 0.000000
0.672918 -0.000000
0.672918 0.000000
0.672918 0.000001
0.672918 -0.000008
0.672918 0.000035
0.672918 -0.000117
0.672917 0.000320
0.672918 -0.000699
0.672917 0.001048
0.672919 0.000026
0.672915 -0.006906
0.672918 0.025076
0.672937 -0.028914
0.672491 -1.189960
0.670451 -2.661849
0.667598 -2.827439
0.664870 -2.753860
0.662000 -2.932993
0.659010 -3.074948
0.655890 -3.079000
0.652907 -2.900009
0.649808 -3.549607
0.645597 -4.810334
0.640387 -5.443017
0.634892 -5.501174
0.629417 -5.429738
0.624085 -5.167397
0.619125 -4.744091
0.614560 -4.402105
0.610307 -4.075548
0.606361 -3.867931
0.602601 -3.549797
0.599292 -3.121479
0.595758 -4.470570
0.589591 -8.068614
0.579404 -12.268966
0.565322 -15.588720
0.547785 -20.137398
0.522842 -31.173953
0.485763 -41.047835
0.443520 -42.364715
0.402335 -39.526194
0.364782 -35.509159
0.331300 -31.329050
0.301545 -28.693803
0.273329 -27.636606
0.246290 -26.361107
0.220606 -24.929580
0.196437 -23.328079
0.173918 -21.679595
0.153027 -20.053379
0.133792 -18.364841
0.116240 -16.739260
0.100310 -15.023871
0.086104 -13.481977
0.073072 -12.681382
0.060834 -11.526934
0.050108 -10.034595
0.040617 -8.924020
0.032216 -7.891012
0.024776 -6.987124
0.018226 -6.086876
0.012634 -5.056544
0.008159 -3.857994
0.004933 -2.591179
0.002932 -1.442456
0.001957 -0.556448
0.001677 -0.095513
0.001629 -0.046226
0.001456 -0.379404
0.000543 -1.690815
-0.001246 -0.955618
-0.002898 -4.798819
-0.013876 -17.700916
-0.038741 -31.818442
-0.081264 -56.989550
-0.152466 -81.056458
-0.236403 -83.734587
-0.318485 -81.566624
-0.399901 -80.002556
-0.477181 -74.032518
-0.547903 -67.429174
-0.612253 -61.062983
-0.670367 -55.344690
-0.723625 -51.341634
-0.773666 -48.874454
-0.821896 -47.676353
-0.869453 -47.495654
-0.917244 -48.098780
-0.965931 -49.254106
-1.015967 -50.760276
-1.067612 -52.442764
-1.120979 -54.189467
-1.176105 -55.950889
-1.232972 -57.648212
-1.291468 -59.200843
-1.351436 -60.586323
-1.412679 -61.722349
-1.474885 -62.501062
-1.537690 -62.930967
-1.600771 -63.053031
-1.663831 -62.901940
-1.726623 -62.519038
-1.788917 -61.904597
-1.850473 -61.039804
-1.911038 -59.932878
-1.970388 -58.615881
-2.028324 -57.110637
-2.084668 -55.438719
-2.139262 -53.615494
-2.191957 -51.643078
-2.242608 -49.539928
-2.291102 -47.336676
-2.337347 -45.045965
-2.381261 -42.683494
-2.422766 -40.219489
-2.461708 -37.540494
-2.497803 -34.505327
-2.530638 -31.019828
-2.559761 -27.102361
-2.584794 -22.875891
-2.605524 -18.548029
-2.621953 -14.299216
-2.634205 -10.210533
-2.642454 -6.298441
-2.646872 -2.559722
-2.647638 1.001193
-2.644922 4.400630
-2.638879 7.645715
-2.629666 10.738870
-2.617428 13.688443
-2.602311 16.489881
-2.584463 19.147870
-2.564019 21.679778
-2.541098 24.097160
-2.515814 26.401763
-2.488285 28.575172
-2.458656 30.600518
-2.427069 32.488892
-2.393657 34.245834
-2.358553 35.870285
-2.321881 37.386202
-2.283741 38.797184
-2.244246 40.095662
-2.203502 41.294992
-2.161606 42.397023
-2.118657 43.396572
-2.074762 44.286732
-2.030031 45.068497
-1.984569 45.749478
-1.938470 46.342845
-1.891813 46.867036
-1.844666 47.320669
-1.797103 47.696466
-1.749202 47.999142
-1.701030 48.237607
-1.652649 48.418610
-1.604114 48.546571
-1.555473 48.631539
-1.506767 48.676250
-1.458032 48.694415
-1.409287 48.693978
-1.360556 48.664972
-1.311870 48.603112
-1.263265 48.504704
-1.214773 48.377630
-1.166420 48.229348
-1.118225 48.060064
-1.070210 47.870792
-1.022393 47.664421
-0.974790 47.444246
-0.927415 47.210309
-0.880274 46.978910
-0.833364 46.744872
-0.786698 46.490908
-0.740294 46.222423
-0.694164 45.943224
-0.648321 45.647754
-0.602785 45.329054
-0.557578 44.991066
-0.512718 44.636020
-0.468223 44.261866
-0.424112 43.870635
-0.380396 43.473472
-0.337079 43.071021
-0.294174 42.650404
-0.251702 42.204708
-0.209687 41.737326
-0.168150 41.249178
-0.127112 40.744416
-0.086587 40.219664
-0.046604 39.659651
-0.007197 39.073172
0.031617 38.474372
0.069826 37.864952
0.107421 37.250279
0.144395 36.618454
0.180733 35.991713
0.216430 35.304211
0.251407 34.601066
0.285761 34.075308
0.319349 32.721951
0.351205 31.172632
0.381913 30.091782
0.411463 29.055142
0.440213 28.410635
0.468323 27.712060
0.495665 26.933324
0.522213 26.062014
0.547809 25.093284
0.571834 22.277486
0.591226 15.918179
0.604141 10.875674
0.613904 8.544952
0.621071 5.684498
0.625427 3.249839
0.627870 1.690371
0.629110 1.027090
0.630000 0.585289
0.630292 0.174754
0.630440 0.034680
0.630140 -0.768932
0.628815 -1.828624
0.626565 -2.630207
0.623612 -3.243301
0.620129 -3.686854
0.616293 -3.946705
0.612283 -4.041456
0.608244 -4.008727
0.604287 -3.886775
0.600484 -3.700972
0.596898 -3.454526
0.593582 -3.166753
0.590560 -2.873559
0.587836 -2.560414
0.585415 -2.303848
0.583043 -2.588676
0.580132 -3.173019
0.576455 -4.461181
0.570586 -7.591268
0.561300 -10.595179
0.549939 -11.909667
0.537655 -12.629970
0.524830 -12.820946
0.512113 -12.634606
0.499496 -12.566646
0.486969 -12.456024
0.474566 -12.326016
0.462296 -12.183989
0.450196 -11.972395
0.438313 -11.805598
0.426619 -11.465278
0.415145 -11.768061
0.402121 -14.884505
0.384549 -20.388445
0.360761 -27.517766
0.329240 -35.302745
0.290444 -42.012169
0.245554 -47.454895
0.195921 -51.453588
0.143094 -53.804364
0.088727 -54.587604
0.034236 -54.091099
-0.019217 -52.557326
-0.070720 -50.232934
-0.119582 -47.305223
-0.165268 -43.905901
-0.207366 -40.158433
-0.245573 -36.133976
-0.279654 -31.953836
-0.309520 -27.701969
-0.335056 -23.278337
-0.356309 -19.409008
-0.374218 -16.452589
-0.389230 -13.446953
-0.400917 -9.778650
-0.408773 -6.007777
-0.413040 -2.520468
-0.413852 0.868083
-0.411363 4.073290
-0.405760 7.088864
-0.397238 9.902266
-0.386004 12.511346
-0.372259 14.916638
-0.356213 17.105964
-0.338085 19.076814
-0.318095 20.828154
-0.296462 22.355089
-0.273406 23.682447
-0.249107 24.838750
-0.223726 25.854480
-0.197374 26.787472
-0.170206 27.395852
-0.142571 27.873226
-0.114380 28.421421
-0.085700 28.883248
-0.056504 29.499048
-0.026795 29.658788
0.002574 28.921874
0.031216 28.512974
0.059878 28.767341
0.088762 28.883901
0.117649 28.835397
0.146492 28.791597
0.175275 28.705621
0.203942 28.564045
0.232447 28.382993
0.260753 28.164380
0.288820 27.907899
0.316611 27.610925
0.344085 27.276399
0.371208 26.911482
0.397948 26.505197
0.424252 26.039481
0.450056 25.505839
0.475288 24.894189
0.499873 24.217428
0.523741 23.449012
0.546806 22.645999
0.569016 21.656608
0.590066 20.377492
0.609856 19.229988
0.627570 15.103222
0.639632 9.597117
0.647763 7.024946
0.654114 5.702987
0.659241 4.562179
0.663334 3.681268
0.666756 3.237067
0.669741 2.572694
0.671796 1.575984
0.672863 0.481517
0.672933 -0.093600
0.672904 0.014230
0.672923 0.007153
0.672916 -0.006710
0.672918 0.003281
0.672918 -0.001535
0.672917 0.001492
0.672919 -0.001662
0.672915 -0.003123
0.672923 0.027953
0.672918 -0.099402
0.672875 0.226762
0.673028 -0.476737
0.671332 -2.946812
0.667779 -3.465930
0.664833 -2.665903
0.662276 -2.363598
0.660180 -1.824719
0.658605 -1.339965
0.657472 -0.931447
0.656719 -0.586003
0.656275 -0.310306
0.656081 -0.084606
0.656094 0.104979
0.656284 0.270477
0.656630 0.419881
0.657120 0.555658
0.657739 0.680778
0.658480 0.797191
0.659326 0.886552
0.660249 0.959775
0.661250 1.039620
0.662330 1.117271
0.663484 1.188147
0.664711 1.267798
0.666013 1.320149
0.667337 1.320947
0.668658 1.322757
0.669979 1.306370
0.671300 1.368728
0.672555 0.938855
0.673024 0.045080
0.672894 -0.103978
0.672917 0.049717
0.672921 -0.013877
0.672916 0.001135
0.672918 0.001142
0.672917 -0.000790
0.672918 0.000305
0.672918 -0.000069
0.672918 -0.000010
0.672918 0.000036
0.672918 -0.000048
0.672917 -0.000035
0.672918 0.000563
0.672917 -0.002390
0.672917 0.006771
0.672921 -0.013162
0.672905 0.008866
0.672948 0.058178
0.672884 -0.303030
0.672369 -0.582456
0.671877 -0.385528
0.671610 -0.148896
0.671570 0.061499
0.671716 0.221164
0.672030 0.433229
0.672522 0.459394
0.672851 0.189964
0.672930 0.003303
0.672915 -0.011322
0.672917 0.005008
0.672918 -0.001170
0.672917 -0.000028
0.672918 0.000174
0.672918 -0.000101
0.672918 0.000038
0.672918 -0.000010
0.672918 0.000001
0.672918 0.000001
0.672918 -0.000000
0.672918 0.000000
0.672918 -0.000000
0.672918 0.000000
0.672918 0.000000
0.672918 -0.000000
0.672918 0.000000
0.672918 -0.000000
0.672918 0.000000
0.672918 0.000000
0.672918 -0.000000
0.672918 0.000000
0.672918 -0.000000
0.672918 0.000000
0.672918 0.000000
0.672918 -0.000000
0.672918 0.000000
0.672918 -0.000000
0.672918 0.000000
0.672918 -0.000000
0.672918 0.000000
0.672918 -0.000000
0.672918 0.000000
0.672918 -0.000000
0.672918 0.000000
0.672918 -0.000000
0.672918 0.000000
0.672918 -0.000000
0.672918 0.000000
0.672918 -0.000000
0.672918 0.000000
0.672918 -0.000000
0.672918 0.000000
0.672918 -0.000000
0.672918 0.000000
0.672918 -0.000000
0.672918 0.000000
0.672918 -0.000000
0.672918 -0.000000
0.672918 0.000000
0.672918 -0.000000
0.672918 0.000000
0.672918 -0.000000
0.672918 0.000000
0.672918 -0.000000
0.672918 0.000000
0.672918 -0.000000
0.672918 0.000000
0.672918 -0.000000
0.672918 0.000000
0.672918 -0.000000
0.672918 0.000000
0.672918 -0.000000
0.672918 0.000000
0.672918 -0.000000
0.672918 0.000000
0.672918 -0.000000
0.672918 0.000000
0.672918 -0.000000
0.672918 0.000000
0.672918 -0.000000
0.672918 -0.000000
0.672918 0.000000
0.672918 -0.000000
0.672918 0.000000
0.672918 -0.000000
0.672918 0.000000
0.672918 0.000000
0.672918 -0.000000
0.672918 0.000000
0.672918 -0.000000
0.672918 0.000000
0.672918 -0.000000
0.672918 -0.000000
0.672918 0.000000
0.672918 -0.000000
0.672918 0.000001
0.672918 -0.000001
0.672918 0.000003
0.672918 -0.000001
0.672918 -0.000021
0.672918 0.000125
0.672918 -0.000484
0.672917 0.001495
0.672918 -0.003789
0.672915 0.007266
0.672924 -0.006125
0.672901 -0.026715
0.672943 0.167351
0.672941 -0.522540
0.671786 -1.544435
0.670187 -1.553412
0.668768 -1.286596
0.667588 -1.087729
0.666573 -0.939813
0.665699 -0.816132
0.664947 -0.667807
0.664375 -0.478355
0.663965 -0.363934
0.663614 -0.349080
0.663257 -0.359902
0.662894 -0.367397
0.662522 -0.375340
0.662145 -0.375544
0.661772 -0.367820
0.661412 -0.352600
0.661069 -0.330606
0.660755 -0.292462
0.660489 -0.238487
0.660291 -0.145100
0.660174 -0.123919
0.660090 0.038397
0.660201 0.052329
0.659948 -0.673869
0.658940 -1.137486
0.657813 -1.174855
0.656692 -0.900325
0.655565 -1.960115
0.652705 -3.206804
0.649458 -3.515873
0.644863 -6.231933
0.637249 -8.144428
0.628878 -9.098422
0.617467 -14.750735
0.599144 -21.011160
0.576523 -23.914337
0.551303 -26.711257
0.522420 -31.386575
0.489058 -34.290161
0.455218 -32.857913
0.423532 -30.659703
0.393449 -29.622304
0.364126 -28.892320
0.335679 -27.946218
0.308313 -26.593712
0.282539 -24.938771
0.258319 -23.482753
0.235492 -22.131298
0.214027 -20.735417
0.194002 -19.273153
0.175444 -17.805171
0.158351 -16.352327
0.142693 -14.940485
0.128419 -13.591001
0.115456 -12.326110
0.103712 -11.150545
0.093102 -10.064293
0.083550 -9.018341
0.075073 -7.896305
0.067808 -6.574495
0.061972 -5.068301
0.057659 -3.568401
0.054805 -2.139956
0.053300 -0.936537
0.052982 0.424756
0.053904 1.047195
0.054239 -0.846477
0.052204 -2.755652
0.048758 -4.556918
0.041943 -9.769536
0.029739 -13.366495
0.012173 -25.984054
-0.024928 -46.534698
-0.078080 -58.366963
-0.141322 -68.828998
-0.214641 -75.591347
-0.290852 -76.947188
-0.368420 -77.493687
-0.444924 -74.833463
-0.517400 -69.667085
-0.584270 -64.116514
-0.646121 -59.641536
-0.703953 -56.008276
-0.758549 -53.273436
-0.810951 -51.569285
-0.862115 -50.835011
-0.912998 -50.926862
-0.964287 -51.667105
-1.016565 -52.794357
-1.069981 -53.920747
-1.124975 -56.426925
-1.183051 -59.244359
-1.243111 -60.650658
-1.304374 -61.757812
-1.366674 -62.637090
-1.429683 -63.245492
-1.493235 -63.682826
-1.557091 -63.864363
-1.621024 -63.845022
-1.684836 -63.607810
-1.748290 -63.138142
-1.811170 -62.460160
-1.873265 -61.570445
-1.934365 -60.475912
-1.994273 -59.188295
-2.052801 -57.721837
-2.109776 -56.086954
-2.165035 -54.295242
-2.218432 -52.372872
-2.269843 -50.322680
-2.319138 -48.153083
-2.366206 -45.865228
-2.410896 -43.385005
-2.452965 -40.612527
-2.492079 -37.469442
-2.527863 -33.977766
-2.560027 -30.261803
-2.588413 -26.444413
-2.612963 -22.607352
-2.633680 -18.791710
-2.650596 -15.013008
-2.663756 -11.295032
-2.673232 -7.648303
-2.679093 -4.074654
-2.681426 -0.607870
-2.680352 2.733322
-2.675999 5.937878
-2.668513 8.994335
-2.658038 11.913087
-2.644710 14.693612
-2.628669 17.333376
-2.610052 19.841717
-2.588991 22.213818
-2.565624 24.453332
-2.540070 26.587520
-2.512427 28.627733
-2.482788 30.577339
-2.451246 32.423140
-2.417915 34.155386
-2.382904 35.776954
-2.346329 37.278950
-2.308311 38.662715
-2.268963 39.936682
-2.228392 41.105365
-2.186703 42.173752
-2.143993 43.145504
-2.100359 44.016693
-2.055899 44.803351
-2.010688 45.513509
-1.964809 46.139607
-1.918342 46.689229
-1.871361 47.167266
-1.823937 47.576036
-1.776136 47.919152
-1.728021 48.207143
-1.679642 48.445770
-1.631049 48.633228
-1.582292 48.779189
-1.533404 48.891836
-1.484420 48.974580
-1.435369 49.020709
-1.386294 49.024933
-1.337231 49.000442
-1.288205 48.948216
-1.239246 48.866226
-1.190383 48.757796
-1.141641 48.626671
-1.093039 48.475921
-1.044604 48.287776
-0.996372 48.085199
-0.948349 47.847935
-0.900568 47.645329
-0.852979 47.394740
-0.805783 46.847215
-0.759208 46.249968
-0.713095 45.939441
-0.667203 45.730165
-0.621568 45.446093
-0.576223 45.152504
-0.531179 44.840208
-0.486461 44.504144
-0.442087 44.152306
-0.398074 43.782695
-0.354442 43.387633
-0.311220 42.965838
-0.268431 42.523332
-0.226096 42.058830
-0.184237 41.572645
-0.142875 41.064427
-0.102033 40.535825
-0.061727 39.991171
-0.021976 39.429481
0.017204 38.848569
0.055804 38.283300
0.093804 37.587616
0.131129 37.115347
0.168035 36.423272
0.203660 34.565327
0.237457 33.372106
0.270746 33.002300
0.303406 32.266452
0.335379 31.639525
0.366708 30.894041
0.397073 29.680525
0.425912 27.816665
0.452850 26.216134
0.478607 25.245576
0.503223 23.769138
0.526016 21.762405
0.546777 19.712772
0.565349 17.269415
0.581118 14.129460
0.593473 10.497561
0.601576 5.191501
0.604139 0.703346
0.604135 -0.333056
0.603851 -0.233462
0.603684 -0.086741
0.603681 0.070643
0.603818 0.207787
0.604098 0.348740
0.604513 0.480482
0.605058 0.607131
0.605727 0.726760
0.606511 0.839876
0.607405 0.945174
0.608401 1.042143
0.609489 1.131260
0.610662 1.208987
0.611911 1.289706
0.613232 1.334159
0.614594 1.417093
0.616061 1.477919
0.617374 1.002353
0.618109 0.650015
0.618613 0.109121
0.617701 -2.308552
0.613708 -5.573567
0.606792 -8.091957
0.597986 -9.177206
0.588587 -9.759649
0.578299 -10.788337
0.567129 -11.398137
0.555609 -11.620514
0.543891 -11.764212
0.532088 -11.813824
0.520221 -11.916879
0.508184 -12.158809
0.495855 -12.474468
0.483146 -12.982546
0.469715 -13.936556
0.454687 -16.563203
0.436005 -20.840871
0.412464 -26.615775
0.382247 -33.807185
0.344988 -40.380341
0.301661 -46.188637
0.252855 -50.987986
0.200174 -54.016299
0.145213 -55.548811
0.089438 -55.663778
0.034171 -54.589957
-0.019551 -52.614643
-0.070925 -49.925382
-0.119319 -46.689441
-0.164269 -43.069001
-0.205474 -39.240804
-0.242817 -35.374408
-0.276233 -31.326399
-0.305449 -27.029706
-0.330355 -22.759942
-0.351057 -18.615695
-0.367658 -14.574661
-0.380259 -10.605619
-0.388996 -6.952642
-0.394283 -3.614164
-0.396236 -0.288554
-0.394890 2.950322
-0.390398 5.983134
-0.382986 8.793581
-0.372864 11.391982
-0.360251 13.774762
-0.345361 15.935911
-0.328427 17.858523
-0.309687 19.544391
-0.289373 21.008799
-0.267691 22.283128
-0.244815 23.397805
-0.220898 24.366292
-0.196079 25.200066
-0.170488 25.911800
-0.144241 26.511319
-0.117445 27.012862
-0.090190 27.426680
-0.062564 27.756792
-0.034646 28.011129
-0.006509 28.196104
0.021781 28.316792
0.050162 28.379559
0.078579 28.388792
0.106979 28.345631
0.135313 28.259915
0.163544 28.140293
0.191630 27.962338
0.219496 27.699720
0.247048 27.326473
0.274195 26.926250
0.300984 26.614142
0.327478 26.307230
0.353629 25.935351
0.379390 25.532156
0.404735 25.099186
0.429625 24.623106
0.454019 24.113639
0.477880 23.544341
0.501123 22.880590
0.523701 22.257411
0.545539 21.204266
0.565944 19.527840
0.584655 17.915183
0.601830 16.363608
0.617391 14.738636
0.631365 13.196922
0.643844 11.752146
0.654407 8.850534
0.661138 4.678072
0.664157 1.659214
0.665112 0.594469
0.665545 0.123221
0.665371 -0.311366
0.665094 -0.229977
0.664894 -0.198135
0.664685 -0.204623
0.664494 -0.181042
0.664318 -0.169964
0.664156 -0.154766
0.664008 -0.139998
0.663875 -0.124918
0.663758 -0.110074
0.663655 -0.095354
0.663568 -0.077966
0.663498 -0.063248
0.663438 -0.057757
0.663391 -0.025356
0.663389 0.010506
0.663373 -0.072189
0.663217 -0.235235
0.662912 -0.369182
0.662485 -0.481939
0.661950 -0.583827
0.661323 -0.666003
0.660624 -0.727493
0.659873 -0.770661
0.659087 -0.796744
0.658283 -0.807695
0.657474 -0.805614
0.656673 -0.792450
0.655891 -0.769802
0.655135 -0.740390
0.654410 -0.705612
0.653724 -0.664331
0.653082 -0.617592
0.652489 -0.567179
0.651948 -0.513521
0.651462 -0.457099
0.651033 -0.398500
0.650664 -0.338287
0.650356 -0.277022
0.650110 -0.215674
0.649924 -0.155161
0.649799 -0.095974
0.649732 -0.038384
0.649721 0.017559
0.649766 0.071707
0.649864 0.123909
0.650014 0.174043
0.650212 0.222055
0.650457 0.267942
0.650748 0.311664
0.651081 0.353188
0.651454 0.392498
0.651866 0.429459
0.652313 0.463741
0.652793 0.494304
0.653301 0.520725
0.653834 0.543409
0.654389 0.564564
0.654964 0.586098
0.655561 0.604787
0.656174 0.620010
0.656802 0.635756
0.657447 0.650522
0.658104 0.661502
0.658771 0.671834
0.659449 0.682489
0.660136 0.690538
0.660830 0.696795
0.661531 0.703106
0.662238 0.708400
0.662949 0.712148
0.663663 0.714951
0.664380 0.716949
0.665098 0.718110
0.665817 0.718433
0.666536 0.717993
0.667255 0.717125
0.667971 0.714152
0.668683 0.707710
0.669389 0.702511
0.670089 0.697011
0.670779 0.676250
0.671450 0.675202
0.672138 0.697414
0.672760 0.460030
0.672995 0.028666
0.672924 -0.082200
0.672900 0.015277
0.672921 0.013455
0.672920 -0.007108
0.672916 -0.000755
0.672917 0.001638
0.672918 -0.000317
0.672917 -0.000251
0.672917 0.000136
0.672918 0.000014
0.672918 -0.000031
0.672918 0.000006
0.672918 0.000005
0.672918 -0.000003
0.672918 -0.000000
0.672918 0.000001
0.672918 -0.000000
0.672918 -0.000000
0.672918 0.000000
0.672918 0.000000
0.672918 -0.000000
0.672918 0.000000
0.672918 0.000000
0.672918 -0.000000
0.672918 -0.000000
0.672918 0.000000
0.672918 -0.000000
0.672918 -0.000000
0.672918 0.000000
0.672918 0.000000
0.672918 -0.000000
0.672918 0.000000
0.672918 0.000000
0.672918 -0.000000
0.672918 -0.000000
0.672918 0.000000
0.672918 -0.000000
0.672918 -0.000000
0.672918 0.000000
0.672918 -0.000000
0.672918 0.000000
0.672918 -0.000000
0.672918 0.000000
0.672918 -0.000000
0.672918 0.000000
0.672918 -0.000000
0.672918 0.000000
0.672918 -0.000000
0.672918 0.000000
0.672918 -0.000000
0.672918 0.000000
0.672918 -0.000000
0.672918 0.000000
0.672918 -0.000000
0.672918 0.000000
0.672918 -0.000000
0.672918 0.000000
0.672918 -0.000000
0.672918 0.000000
0.672918 -0.000000
0.672918 0.000000
0.672918 -0.000000
0.672918 0.000000
0.672918 -0.000000
0.672918 0.000000
0.672918 -0.000000
0.672918 0.000000
0.672918 -0.000000
0.672918 0.000000
0.672918 -0.000000
0.672918 0.000000
0.672918 -0.000000
0.672918 0.000000
0.672918 -0.000000
0.672918 0.000000
0.672918 -0.000000
0.672918 0.000000
0.672918 -0.000000
0.672918 0.000000
0.672918 -0.000000
0.672918 -0.000001
