0.222800 0.263029 0.599107
-0.790863 10.120823
-0.780147 11.288424
-0.768269 12.442003
-0.755997 11.319639
-0.746019 8.960441
-0.737269 8.967145
-0.727879 9.537388
-0.718445 9.300327
-0.709352 8.786622
-0.700977 7.904000
-0.693588 6.841107
-0.687285 5.766767
-0.682004 4.811469
-0.677601 4.009974
-0.673931 3.343131
-0.670880 2.760830
-0.668381 2.246383
-0.666296 1.990005
-0.664302 2.017970
-0.662241 2.090643
-0.660142 2.086402
-0.658104 1.963329
-0.656257 1.703343
-0.654732 1.329853
-0.653618 0.886489
-0.652969 0.407341
-0.652814 -0.105231
-0.653137 -0.488423
-0.653704 -0.608150
-0.654322 -0.633075
-0.654969 -0.652135
-0.655619 -0.643567
-0.656253 -0.619890
-0.656854 -0.580031
-0.657409 -0.525652
-0.657902 -0.456543
-0.658318 -0.371008
-0.658638 -0.266436
-0.658844 -0.141061
-0.658914 0.005504
-0.658826 0.172409
-0.658562 0.357998
-0.658104 0.559872
-0.657437 0.774571
-0.656551 0.996522
-0.655446 1.205233
-0.654157 1.356635
-0.652752 1.444755
-0.651274 1.504780
-0.649740 1.560347
-0.648147 1.626002
-0.646479 1.708752
-0.644720 1.810817
-0.642848 1.931528
-0.640847 2.068656
-0.638702 2.219545
-0.636400 2.381828
-0.633930 2.553468
-0.631285 2.733024
-0.628457 2.919779
-0.625437 3.113630
-0.622221 3.314872
-0.618798 3.524238
-0.615162 3.742819
-0.611302 3.971453
-0.607208 4.210653
-0.602868 4.460706
-0.598274 4.721561
-0.593412 4.993390
-0.588273 5.276729
-0.582844 5.572588
-0.577112 5.882276
-0.571063 6.207272
-0.564679 6.550165
-0.557943 6.910361
-0.550837 7.293875
-0.543338 7.685135
-0.535407 8.207619
-0.526860 8.870979
-0.517646 9.539224
-0.507763 10.205481
-0.497219 10.857577
-0.486035 11.483784
-0.474239 12.078776
-0.461876 12.604279
-0.449007 13.125199
-0.435720 13.285073
-0.422634 12.773519
-0.410187 12.143212
-0.398281 11.639269
-0.386893 11.110088
-0.376041 10.575175
-0.365714 10.065304
-0.355872 9.609799
-0.346450 9.227369
-0.337372 8.924537
-0.328557 8.701152
-0.319929 8.548358
-0.311425 8.450783
-0.302998 8.391211
-0.294619 8.351516
-0.286277 8.313244
-0.277979 8.264696
-0.269739 8.194171
-0.261585 8.092837
-0.253550 7.951072
-0.245683 7.760576
-0.238030 7.520208
-0.230643 7.233176
-0.223563 6.906186
-0.216828 6.544830
-0.210469 6.156910
-0.204509 5.747055
-0.198968 5.324049
-0.193853 4.893357
-0.189171 4.464029
-0.184913 4.045319
-0.181068 3.639045
-0.177621 3.251148
-0.174553 2.883106
-0.171842 2.536862
-0.169465 2.215824
-0.167397 1.920065
-0.165612 1.652246
-0.164079 1.415055
-0.162769 1.206699
-0.161648 1.043775
-0.160640 1.000849
-0.159605 1.075819
-0.158473 1.189997
-0.157215 1.327113
-0.155808 1.488363
-0.154228 1.671167
-0.152456 1.873376
-0.150472 2.092879
-0.148260 2.329300
-0.145804 2.579744
-0.143091 2.844168
-0.140106 3.121296
-0.136839 3.408643
-0.133279 3.705186
-0.129418 4.009230
-0.125250 4.318723
-0.120771 4.632632
-0.115975 4.949781
-0.110861 5.267242
-0.105430 5.584246
-0.099682 5.901067
-0.093615 6.219976
-0.087229 6.540399
-0.080522 6.859234
-0.073498 7.174171
-0.066162 7.479579
-0.058529 7.767620
-0.050618 8.035164
-0.042451 8.279578
-0.034051 8.497861
-0.025451 8.678590
-0.016682 8.845116
-0.007735 9.033562
0.001399 9.208275
0.010682 9.331020
0.020063 9.403442
0.029492 9.427642
0.038923 9.408268
0.048316 9.353514
0.057639 9.270882
0.066869 9.168583
0.075991 9.056852
0.085002 8.948714
0.093909 8.847424
0.102718 8.755836
0.111443 8.677574
0.120095 8.612090
0.128690 8.563445
0.137245 8.532327
0.145777 8.519155
0.154306 8.523524
0.162847 8.545562
0.171420 8.583949
0.180037 8.636503
0.188714 8.701529
0.197461 8.775882
0.206286 8.857433
0.215195 8.943201
0.224190 9.029478
0.233272 9.114903
0.242437 9.196722
0.251682 9.272941
0.261000 9.343654
0.270385 9.405831
0.279827 9.459250
0.289319 9.502892
0.298849 9.536127
0.308407 9.559078
0.317982 9.571032
0.327565 9.572567
0.337143 9.563762
0.346708 9.544561
0.356248 9.515493
0.365755 9.477364
0.375219 9.430330
0.384632 9.375004
0.393985 9.312498
0.403273 9.242723
0.412487 9.166781
0.421623 9.085345
0.430674 8.999147
0.439638 8.909219
0.448510 8.816127
0.457287 8.720956
0.465968 8.623988
0.474552 8.526329
0.483038 8.427867
0.491425 8.329123
0.499713 8.231110
0.507903 8.133412
0.515996 8.035953
0.523992 7.939590
0.531892 7.844822
0.539697 7.750403
0.547409 7.657939
0.555029 7.566889
0.562558 7.477683
0.570000 7.391045
0.577356 7.306666
0.584630 7.226816
0.591825 7.150844
0.598947 7.079175
0.606000 7.014386
0.612992 6.956272
0.619929 6.905762
0.626821 6.864827
0.633676 6.833919
0.640506 6.813362
0.647320 6.804148
0.654131 6.806297
0.660950 6.819079
0.667787 6.842640
0.674653 6.877445
0.681559 6.922409
0.688515 6.977195
0.695531 7.042447
0.702617 7.116733
0.709782 7.200832
0.717036 7.295015
0.724388 7.394921
0.731842 7.499550
0.739404 7.608400
0.747076 7.721677
0.754864 7.839305
0.762770 7.955777
0.770790 8.067940
0.778921 8.176549
0.787159 8.284306
0.795506 8.394038
0.803965 8.506489
0.812537 8.621219
0.821225 8.737555
0.830030 8.854887
0.838953 8.972223
0.847992 9.089041
0.857149 9.205173
0.866421 9.321239
0.875810 9.436553
0.885312 9.549905
0.894928 9.662598
0.904656 9.773498
0.914494 9.882977
0.924442 9.991356
0.934497 10.098235
0.944658 10.203057
0.954923 10.306681
0.965291 10.408761
0.975760 10.508726
0.986330 10.608103
0.996997 10.705223
1.007761 10.800492
1.018619 10.894141
1.029570 10.986281
1.040613 11.077377
1.051747 11.166246
1.062968 11.253833
1.074276 11.340007
1.085670 11.424208
1.097147 11.507062
1.108706 11.588186
1.120346 11.667127
1.132064 11.745052
1.143859 11.821670
1.155730 11.895304
1.167673 11.966999
1.179687 12.037229
1.191770 12.104510
1.203920 12.170110
1.216134 12.233876
1.228411 12.294072
1.240747 12.352306
1.253139 12.408005
1.265587 12.461469
1.278086 12.512233
1.290635 12.559039
1.303229 12.604045
1.315867 12.645300
1.328544 12.683619
1.341258 12.718737
1.354006 12.750097
1.366783 12.778164
1.379586 12.802658
1.392413 12.823079
1.405257 12.839460
1.418116 12.850643
1.430984 12.862603
1.443855 12.840711
1.456623 12.615195
1.469008 12.082277
1.480763 11.401445
1.491876 10.846430
1.502583 10.608746
1.513234 10.728686
1.524155 11.128415
1.535564 11.680835
1.547551 12.265487
1.560101 12.792941
1.573126 13.211450
1.586506 13.497932
1.600104 13.648810
1.613790 13.676368
1.627449 13.599686
1.640989 13.440770
1.654337 13.220370
1.667442 12.957821
1.680270 12.670099
1.692803 12.368863
1.705032 12.064159
1.716957 11.764365
1.728586 11.471639
1.739926 11.187228
1.750987 10.914766
1.761781 10.651899
1.772316 10.398535
1.782601 10.152890
1.792643 9.911990
1.802447 9.675911
1.812015 9.441409
1.821349 9.207539
1.830448 8.972972
1.839312 8.735722
1.847936 8.495732
1.856319 8.251523
1.864454 8.002685
1.872338 7.747500
1.879963 7.485777
1.887323 7.218350
1.894412 6.944410
1.901227 6.674296
1.907784 6.435893
1.914121 6.228210
1.920255 6.026330
1.926185 5.822000
1.931910 5.616176
1.937428 5.408874
1.942738 5.200978
1.947841 4.992485
1.952733 4.781998
1.957414 4.570832
1.961883 4.358639
1.966139 4.144376
1.970180 3.928548
1.974003 3.710383
1.977607 3.489960
1.980990 3.267751
1.984148 3.041913
1.987078 2.812000
1.989777 2.579125
1.992241 2.342616
1.994465 2.102546
1.996449 1.860938
1.998190 1.617406
1.999687 1.371578
2.000936 1.125585
2.001940 0.879248
2.002696 0.632601
2.003207 0.386876
2.003471 0.141824
2.003491 -0.101388
2.003269 -0.343565
2.002804 -0.584262
2.002100 -0.822420
2.001158 -1.059036
1.999980 -1.293182
1.998570 -1.525125
1.996928 -1.755495
1.995056 -1.983659
1.992957 -2.209452
1.990633 -2.433889
1.988085 -2.656618
1.985315 -2.877309
1.982325 -3.096443
1.979117 -3.314121
1.975691 -3.530419
1.972049 -3.745193
1.968193 -3.958148
1.964126 -4.169548
1.959846 -4.379680
1.955358 -4.587844
1.950662 -4.794027
1.945761 -4.998800
1.940655 -5.200934
1.935349 -5.401270
1.929843 -5.599023
1.924141 -5.794443
1.918243 -5.987441
1.912155 -6.176879
1.905878 -6.364675
1.899414 -6.548440
1.892769 -6.729676
1.885943 -6.907737
1.878940 -7.082516
1.871764 -7.254518
1.864418 -7.422830
1.856905 -7.588608
1.849227 -7.750778
1.841389 -7.909572
1.833393 -8.065200
1.825243 -8.217683
1.816942 -8.366846
1.808494 -8.512821
1.799901 -8.655384
1.791167 -8.794797
1.782294 -8.931111
1.773288 -9.064273
1.764149 -9.193860
1.754883 -9.320249
1.745491 -9.443877
1.735977 -9.563241
1.726346 -9.679906
1.716599 -9.793411
1.706741 -9.902635
1.696775 -10.008702
1.686705 -10.111891
1.676532 -10.211251
1.666263 -10.306223
1.655900 -10.398454
1.645447 -10.487029
1.634906 -10.571877
1.624283 -10.652901
1.613581 -10.730250
1.602802 -10.804397
1.591952 -10.874340
1.581033 -10.940986
1.570049 -11.004494
1.559003 -11.063452
1.547901 -11.119344
1.536743 -11.172432
1.525535 -11.221193
1.514279 -11.266586
1.502980 -11.308927
1.491640 -11.348152
1.480263 -11.383328
1.468851 -11.415794
1.457409 -11.444905
1.445940 -11.470122
1.434447 -11.493230
1.422932 -11.512008
1.411401 -11.527634
1.399854 -11.540618
1.388298 -11.549685
1.376733 -11.556334
1.365163 -11.559260
1.353592 -11.559250
1.342022 -11.556173
1.330458 -11.550050
1.318900 -11.540728
1.307354 -11.528816
1.295821 -11.513874
1.284304 -11.496249
1.272806 -11.475162
1.261332 -11.451762
1.249879 -11.429617
1.238449 -11.408780
1.227040 -11.385940
1.215657 -11.354554
1.204311 -11.313198
1.193011 -11.263247
1.181765 -11.205746
1.170579 -11.142131
1.159459 -11.075034
1.148408 -11.004833
1.137428 -10.933376
1.126519 -10.861368
1.115684 -10.788675
1.104920 -10.716785
1.094228 -10.645540
1.083608 -10.572528
1.073062 -10.499537
1.062586 -10.433772
1.052166 -10.389925
1.041772 -10.386641
1.031364 -10.407447
1.020931 -10.443218
1.010433 -10.551440
0.999754 -10.819854
0.988694 -11.321636
0.977008 -12.060659
0.964483 -12.996010
0.950928 -14.117428
0.936162 -15.411736
0.920029 -16.840507
0.902416 -18.362679
0.883247 -19.945474
0.862473 -21.562912
0.840072 -23.197846
0.816031 -24.834598
0.790358 -26.457524
0.763072 -28.053938
0.734208 -29.608281
0.703814 -31.107918
0.671953 -32.537970
0.638701 -33.883967
0.604149 -35.133266
0.568399 -36.276911
0.531561 -37.306618
0.493752 -38.215525
0.455094 -39.001679
0.415712 -39.663767
0.375729 -40.201297
0.335269 -40.616393
0.294455 -40.911153
0.253405 -41.088214
0.212235 -41.150356
0.171059 -41.099837
0.129989 -40.938972
0.089134 -40.672764
0.048596 -40.306722
0.008472 -39.843847
-0.031142 -39.290803
-0.070160 -38.652825
-0.108498 -37.935593
-0.146083 -37.147252
-0.182845 -36.293484
-0.218723 -35.381314
-0.253662 -34.419740
-0.287618 -33.416726
-0.320552 -32.381380
-0.352438 -31.323780
-0.383258 -30.252702
-0.413001 -29.173670
-0.441662 -28.089509
-0.469236 -27.003528
-0.495722 -25.916666
-0.521121 -24.828743
-0.545429 -23.740180
-0.568648 -22.650557
-0.590776 -21.559866
-0.611811 -20.469102
-0.631755 -19.379580
-0.650610 -18.293317
-0.668380 -17.212974
-0.685074 -16.141754
-0.700700 -15.083229
-0.715276 -14.041774
-0.728819 -13.020838
-0.741352 -12.025500
-0.752910 -11.077973
-0.763550 -10.190421
-0.773351 -9.420950
-0.782450 -8.769598
-0.790919 -8.152968
-0.798772 -7.533465
-0.805994 -6.894163
-0.812549 -6.179385
-0.818331 -5.362393
-0.823273 -4.510747
-0.827372 -3.688003
-0.830680 -2.937565
-0.833287 -2.290603
-0.835306 -1.762380
-0.836854 -1.349624
-0.838043 -1.042265
-0.838971 -0.826157
-0.839724 -0.692411
-0.840379 -0.623704
-0.840981 -0.580462
-0.841542 -0.539797
-0.842062 -0.500284
-0.842543 -0.460713
-0.842983 -0.416679
-0.843384 -0.391428
-0.843791 -0.437293
-0.844316 -0.652190
-0.845101 -0.881579
-0.845952 -0.724165
-0.846484 -0.366559
-0.846755 -0.216190
-0.846947 -0.155809
-0.847051 -0.047759
-0.847061 0.004495
-0.847061 -0.000856
-0.847061 0.000253
-0.847061 -0.000092
-0.847061 0.000033
-0.847061 -0.000011
-0.847061 0.000003
-0.847061 -0.000001
-0.847061 0.000000
-0.847061 -0.000000
-0.847061 0.000000
-0.847061 -0.000000
-0.847061 0.000000
-0.847061 -0.000000
-0.847061 0.000000
-0.847061 -0.000000
-0.847061 0.000000
-0.847061 -0.000000
-0.847061 0.000000
-0.847061 -0.000000
-0.847061 0.000000
-0.847061 -0.000000
-0.847061 0.000000
-0.847061 -0.000000
-0.847061 0.000000
-0.847061 -0.000000
-0.847061 0.000000
-0.847061 -0.000000
-0.847061 0.000000
-0.847061 -0.000000
-0.847061 0.000000
-0.847061 -0.000000
-0.847061 0.000000
-0.847061 -0.000000
-0.847061 0.000000
-0.847061 -0.000000
-0.847061 0.000000
-0.847061 -0.000000
-0.847061 0.000000
-0.847061 -0.000000
-0.847061 0.000000
-0.847061 -0.000000
-0.847061 0.000000
-0.847061 -0.000000
-0.847061 0.000000
-0.847061 -0.000000
-0.847061 0.000000
-0.847061 -0.000000
-0.847061 0.000000
-0.847061 -0.000000
-0.847061 0.000000
-0.847061 -0.000000
-0.847061 0.000000
-0.847061 -0.000000
-0.847061 0.000000
-0.847061 -0.000000
-0.847061 0.000000
-0.847061 -0.000000
-0.847061 0.000000
-0.847061 -0.000000
-0.847061 0.000000
-0.847061 -0.000000
-0.847061 0.000000
-0.847061 -0.000000
-0.847061 0.000000
-0.847061 -0.000000
-0.847061 0.000000
-0.847061 -0.000000
-0.847061 0.000000
-0.847061 -0.000000
-0.847061 -0.000000
-0.847061 0.000000
-0.847061 -0.000000
-0.847061 0.000000
-0.847061 -0.000000
-0.847061 0.000000
-0.847061 -0.000000
-0.847061 0.000000
-0.847061 -0.000000
-0.847061 0.000000
-0.847061 -0.000000
-0.847061 0.000000
-0.847061 -0.000000
-0.847061 0.000000
-0.847061 -0.000000
-0.847061 0.000000
-0.847061 -0.000000
-0.847061 0.000000
-0.847061 -0.000000
-0.847061 0.000000
-0.847061 -0.000000
-0.847061 0.000000
-0.847061 -0.000000
-0.847061 0.000000
-0.847061 -0.000000
-0.847061 0.000000
-0.847061 -0.000000
-0.847061 0.000000
-0.847061 -0.000000
-0.847061 0.000000
-0.847061 -0.000000
-0.847061 0.000000
-0.847061 -0.000000
-0.847061 0.000000
-0.847061 -0.000000
-0.847061 0.000000
-0.847061 -0.000000
-0.847061 0.000000
-0.847061 -0.000000
-0.847061 0.000000
-0.847061 -0.000000
-0.847061 0.000000
-0.847061 -0.000000
-0.847061 0.000000
-0.847061 -0.000000
-0.847061 0.000000
-0.847061 -0.000000
-0.847061 0.000000
-0.847061 -0.000000
-0.847061 0.000000
-0.847061 -0.000000
-0.847061 0.000000
-0.847061 -0.000000
-0.847061 0.000000
-0.847061 -0.000000
-0.847061 0.000000
-0.847061 -0.000000
-0.847061 0.000000
-0.847061 -0.000000
-0.847061 0.000000
-0.847061 -0.000000
-0.847061 -0.000000
-0.847061 0.000006
-0.847061 -0.000036
-0.847061 0.000164
-0.847061 -0.000531
-0.847061 0.000674
-0.847057 0.009189
-0.847036 0.039461
-0.846951 0.151500
-0.846677 0.427549
-0.846108 0.663785
-0.845435 0.642174
-0.844875 0.462620
-0.844486 0.351312
-0.844144 0.324359
-0.843843 0.277190
-0.843584 0.242898
-0.843346 0.239954
-0.843098 0.256090
-0.842835 0.269248
-0.842558 0.282619
-0.842268 0.298138
-0.841960 0.319219
-0.841628 0.342520
-0.841275 0.364027
-0.840900 0.384207
-0.840505 0.404772
-0.840089 0.425969
-0.839653 0.446392
-0.839196 0.466380
-0.838719 0.487222
-0.838219 0.512962
-0.837691 0.542645
-0.837133 0.571054
-0.836548 0.597482
-0.835937 0.623113
-0.835300 0.649146
-0.834637 0.675088
-0.833949 0.699916
-0.833236 0.724523
-0.832499 0.748800
-0.831737 0.772614
-0.830952 0.795831
-0.830144 0.818868
-0.829313 0.842606
-0.828457 0.868056
-0.827575 0.894012
-0.826667 0.917885
-0.825738 0.939425
-0.824787 0.959132
-0.823818 0.977519
-0.822831 0.994351
-0.821828 1.009151
-0.820811 1.022296
-0.819782 1.033781
-0.818742 1.043519
-0.817693 1.051429
-0.816638 1.057425
-0.815577 1.061443
-0.814513 1.063429
-0.813449 1.063336
-0.812385 1.061124
-0.811325 1.056795
-0.810270 1.050284
-0.809223 1.041665
-0.808186 1.030872
-0.807160 1.017915
-0.806148 1.002904
-0.805153 0.985799
-0.804176 0.966688
-0.803218 0.945616
-0.802283 0.922687
-0.801372 0.897976
-0.800486 0.871692
-0.799627 0.843867
-0.798797 0.814607
-0.797997 0.784207
-0.797227 0.752449
-0.796490 0.720239
-0.795786 0.687329
-0.795114 0.655692
-0.794472 0.628085
-0.793856 0.601296
-0.793269 0.570516
-0.792718 0.529253
-0.792210 0.486195
-0.791745 0.440494
-0.791327 0.398730
-0.790949 0.349158
-0.790631 0.290670
-0.790364 0.243730
-0.790144 0.192931
-0.789976 0.147113
-0.789850 0.101703
-0.789772 0.057812
-0.789737 0.005070
-0.789784 -0.115505
-0.790006 -0.350970
-0.790528 -0.711167
-0.791464 -1.173056
-0.792897 -1.695791
-0.794866 -2.238345
-0.797361 -2.729441
-0.800281 -3.073806
-0.803436 -3.181821
-0.806566 -3.035091
-0.809450 -2.701331
-0.811936 -2.252571
-0.813936 -1.734283
-0.815398 -1.186646
-0.816318 -0.656463
-0.816725 -0.164386
-0.816662 0.281262
-0.816179 0.676107
-0.815326 1.018796
-0.814157 1.307271
-0.812728 1.539604
-0.811095 1.713148
-0.809317 1.828924
-0.807449 1.898721
-0.805530 1.927405
-0.803613 1.886712
-0.801787 1.744416
-0.800155 1.498467
-0.798814 1.169925
-0.797833 0.783117
-0.797257 0.365817
-0.797100 -0.050274
-0.797349 -0.443228
-0.797974 -0.797122
-0.798929 -1.101088
-0.800158 -1.343390
-0.801594 -1.514419
-0.803159 -1.591879
-0.804744 -1.557451
-0.806244 -1.426706
-0.807578 -1.230322
-0.808696 -0.998746
-0.809570 -0.745150
-0.810185 -0.485390
-0.810547 -0.238743
-0.810670 -0.012089
-0.810579 0.188556
-0.810303 0.359295
-0.809871 0.497287
-0.809319 0.600912
-0.808680 0.668994
-0.807991 0.702174
-0.807285 0.701960
-0.806595 0.673973
-0.805942 0.626469
-0.805346 0.562067
-0.804824 0.477089
-0.804399 0.369806
-0.804089 0.245900
-0.803910 0.111875
-0.803867 -0.026842
-0.803963 -0.163299
-0.804190 -0.289069
-0.804535 -0.395667
-0.804972 -0.471586
-0.805466 -0.509149
-0.805980 -0.512238
-0.806483 -0.487707
-0.806949 -0.442029
-0.807362 -0.378812
-0.807704 -0.303298
-0.807967 -0.222272
-0.808148 -0.139095
-0.808246 -0.057390
-0.808264 0.019656
-0.808209 0.089305
-0.808089 0.149485
-0.807913 0.198558
-0.807695 0.235412
-0.807446 0.259374
-0.807180 0.270462
-0.806909 0.269022
-0.806646 0.255948
-0.806400 0.232590
-0.806183 0.200581
-0.806001 0.161955
-0.805860 0.118832
-0.805764 0.073547
-0.805713 0.028412
-0.805706 -0.014489
-0.805740 -0.053284
-0.805811 -0.086307
-0.805911 -0.112465
-0.806033 -0.131005
-0.806170 -0.141521
-0.806314 -0.144182
-0.806457 -0.139452
-0.806591 -0.128091
-0.806711 -0.111209
-0.806812 -0.089891
-0.806890 -0.065523
-0.806943 -0.039533
-0.806969 -0.013095
-0.806969 0.012535
-0.806945 0.036256
-0.806898 0.057128
-0.806832 0.074460
-0.806750 0.087630
-0.806658 0.096428
-0.806559 0.100733
-0.806457 0.100599
-0.806359 0.096281
-0.806266 0.088346
-0.806183 0.077282
-0.806112 0.063793
-0.806056 0.048719
-0.806015 0.032744
-0.805990 0.016707
-0.805981 0.001326
-0.805987 -0.012690
-0.806006 -0.024856
-0.806036 -0.034763
-0.806075 -0.041999
-0.806119 -0.046574
-0.806167 -0.048372
-0.806215 -0.047494
-0.806261 -0.044322
-0.806303 -0.039009
-0.806339 -0.032024
-0.806367 -0.023816
-0.806386 -0.014828
-0.806396 -0.005600
-0.806397 0.003363
-0.806390 0.011882
-0.806374 0.019428
-0.806351 0.025676
-0.806323 0.030548
-0.806291 0.033786
-0.806256 0.035477
-0.806220 0.035531
-0.806185 0.034072
-0.806152 0.031310
-0.806123 0.027361
-0.806098 0.022583
-0.806078 0.017199
-0.806064 0.011401
-0.806055 0.005624
-0.806052 0.000112
-0.806055 -0.005073
-0.806062 -0.009563
-0.806074 -0.013234
-0.806088 -0.015967
-0.806105 -0.017761
-0.806124 -0.018564
-0.806142 -0.018360
-0.806160 -0.017251
-0.806176 -0.015246
-0.806190 -0.012628
-0.806202 -0.009501
-0.806209 -0.006143
-0.806214 -0.002720
-0.806215 0.000653
-0.806213 0.003672
-0.806208 0.006343
-0.806200 0.008530
-0.806191 0.010078
-0.806180 0.011222
-0.806169 0.010860
-0.806157 0.013412
-0.806146 0.002395
-0.806137 0.036651
-0.806123 -0.079923
-0.806146 0.257154
-0.806027 -0.659553
-0.806356 1.750785
-0.790863 10.120823
