0.011857 0.016221 0.127347
-0.491582 84.681447
-0.394995 105.614616
-0.285514 110.443563
-0.176021 108.877132
-0.067364 107.843810
0.039197 104.753629
0.142037 100.715927
0.240756 96.457288
0.335038 91.881042
0.425029 88.283010
0.513013 88.377190
0.602871 91.201470
0.695468 93.633527
0.789997 95.081833
0.885490 95.536502
0.980906 94.926070
1.075174 93.241886
1.167250 90.579487
1.256258 87.149337
1.341578 83.283553
1.423017 79.491985
1.500910 76.267197
1.575982 73.875431
1.649092 72.331689
1.721025 71.491650
1.792387 71.155692
1.863582 71.129971
1.934840 71.257506
2.006253 71.423393
2.077817 71.550527
2.149470 71.598261
2.221129 71.562116
2.292716 71.460914
2.364180 71.317875
2.435485 71.144782
2.506602 70.941964
2.577498 70.702015
2.648129 70.406205
2.718425 70.029247
2.788292 69.546751
2.857611 68.924853
2.926225 68.136932
2.993957 67.155836
3.060596 65.950499
3.125906 64.494520
3.189609 62.725076
3.251355 60.576447
3.310822 58.243080
3.367983 55.985787
3.422954 53.873652
3.475893 51.923497
3.526953 50.116323
3.576260 48.413020
3.623890 46.753787
3.669855 45.074600
3.714104 43.317262
3.756533 41.431389
3.796993 39.376121
3.835301 37.130179
3.871258 34.675487
3.904645 31.993201
3.935227 29.067923
3.962754 25.887203
3.986966 22.445075
4.007601 18.738730
4.024392 14.764749
4.037068 10.516995
4.045352 5.985092
4.048943 1.130233
4.047490 -4.098486
4.040607 -9.719607
4.027887 -15.773444
4.008909 -22.185143
3.983256 -29.246595
3.950399 -36.182834
3.910219 -44.913962
3.857713 -61.939974
3.784481 -84.161057
3.690367 -102.951752
3.580022 -116.795489
3.457856 -126.704124
3.327375 -133.571030
3.191172 -138.261483
3.050962 -141.794542
2.907546 -144.588435
2.761437 -147.557717
2.613159 -147.458268
2.469273 -138.224180
2.338020 -124.236319
2.220149 -111.456054
2.114405 -100.113461
2.019157 -90.463767
1.932755 -82.438593
1.853592 -75.979518
1.780164 -70.957444
1.711104 -67.226895
1.645209 -64.595912
1.581499 -62.814820
1.519259 -61.615008
1.458023 -60.782578
1.397500 -60.167309
1.337531 -59.663722
1.278037 -59.209422
1.218989 -58.768770
1.160382 -58.327535
1.102217 -57.886366
1.044489 -57.457521
0.987183 -57.041373
0.930332 -56.504660
0.874194 -55.566925
0.819283 -54.041995
0.766169 -52.016911
0.715161 -49.945131
0.666018 -48.353170
0.618129 -47.445786
0.570811 -47.199897
0.523443 -47.529786
0.475490 -48.358016
0.426503 -49.565086
0.376204 -50.943231
0.324554 -52.204539
0.271817 -53.086191
0.218427 -53.512245
0.164839 -53.477261
0.111534 -52.937594
0.059007 -51.950731
0.007804 -50.137164
-0.041227 -47.902877
-0.087998 -45.372000
-0.131784 -42.006325
-0.171913 -38.095246
-0.208041 -34.154775
-0.240324 -30.314721
-0.268816 -26.731683
-0.294106 -23.941652
-0.316942 -21.734442
-0.337713 -19.810220
-0.356676 -18.106902
-0.373965 -16.409260
-0.389489 -14.597538
-0.403255 -12.984431
-0.415460 -11.298028
-0.425797 -9.380310
-0.434458 -8.117563
-0.442224 -7.382456
-0.449235 -6.641269
-0.455609 -6.167906
-0.461685 -5.998468
-0.467647 -5.916389
-0.473550 -5.894447
-0.479389 -5.695948
-0.484865 -5.233705
-0.489836 -4.679224
-0.494250 -4.176087
-0.498267 -3.884561
-0.502059 -3.691058
-0.505648 -3.471748
-0.508992 -3.199342
-0.512052 -2.921232
-0.514797 -2.512821
-0.517052 -2.014205
-0.518891 -1.699565
-0.520496 -1.509757
-0.521921 -1.343769
-0.523195 -1.202798
-0.524334 -1.075175
-0.525351 -0.959599
-0.526260 -0.859571
-0.527075 -0.767967
-0.527793 -0.662538
-0.528403 -0.562133
-0.528922 -0.472942
-0.529343 -0.363079
-0.529645 -0.241445
-0.529831 -0.132875
-0.529918 -0.044421
-0.529927 0.022338
-0.529879 0.070800
-0.529792 0.099621
-0.529681 0.124760
-0.529555 0.110044
-0.529434 0.175497
-0.529166 0.353711
-0.528760 0.430459
-0.528336 0.412908
-0.527938 0.379279
-0.527580 0.336832
-0.527264 0.293461
-0.526992 0.250678
-0.526762 0.209508
-0.526572 0.169825
-0.526421 0.131586
-0.526308 0.094767
-0.526231 0.059483
-0.526188 0.025876
-0.526179 -0.006078
-0.526200 -0.036277
-0.526251 -0.064742
-0.526329 -0.091311
-0.526433 -0.116290
-0.526561 -0.139459
-0.526712 -0.160943
-0.526883 -0.180810
-0.527073 -0.199081
-0.527281 -0.215846
-0.527505 -0.231510
-0.527744 -0.246260
-0.527998 -0.260198
-0.528265 -0.273553
-0.528545 -0.286167
-0.528837 -0.297843
-0.529141 -0.308667
-0.529455 -0.318535
-0.529778 -0.327006
-0.530109 -0.333743
-0.530446 -0.338495
-0.530786 -0.341247
-0.531128 -0.342127
-0.531471 -0.341133
-0.531811 -0.338407
-0.532147 -0.333571
-0.532478 -0.326004
-0.532799 -0.316642
-0.533111 -0.306340
-0.533412 -0.295310
-0.533702 -0.283702
-0.533980 -0.271728
-0.534246 -0.259442
-0.534500 -0.247441
-0.534742 -0.236666
-0.534974 -0.227454
-0.535198 -0.220064
-0.535415 -0.214085
-0.535627 -0.209381
-0.535835 -0.205893
-0.536039 -0.203340
-0.536242 -0.201502
-0.536443 -0.200456
-0.536644 -0.199974
-0.536844 -0.199685
-0.537043 -0.199794
-0.537244 -0.200058
-0.537444 -0.200644
-0.537645 -0.201388
-0.537848 -0.203406
-0.538053 -0.208082
-0.538265 -0.214210
-0.538482 -0.219150
-0.538703 -0.221760
-0.538925 -0.222559
-0.539148 -0.222667
-0.539371 -0.222096
-0.539592 -0.220112
-0.539811 -0.216722
-0.540026 -0.213016
-0.540238 -0.210437
-0.540448 -0.209403
-0.540658 -0.209849
-0.540868 -0.211249
-0.541081 -0.213508
-0.541296 -0.216260
-0.541514 -0.219172
-0.541735 -0.222297
-0.541959 -0.225478
-0.542186 -0.228703
-0.542417 -0.231866
-0.542650 -0.234973
-0.542887 -0.237895
-0.543126 -0.240650
-0.543369 -0.243432
-0.543614 -0.245989
-0.543861 -0.248446
-0.544111 -0.250838
-0.544363 -0.253057
-0.544618 -0.254918
-0.544874 -0.256595
-0.545131 -0.258116
-0.545390 -0.259589
-0.545651 -0.261073
-0.545913 -0.262313
-0.546176 -0.263614
-0.546441 -0.264966
-0.546707 -0.266073
-0.546973 -0.267207
-0.547241 -0.268235
-0.547510 -0.269282
-0.547781 -0.270396
-0.548052 -0.271408
-0.548324 -0.272499
-0.548597 -0.273394
-0.548871 -0.274075
-0.549146 -0.274641
-0.549421 -0.275210
-0.549697 -0.275668
-0.549973 -0.276206
-0.550250 -0.276701
-0.550527 -0.277112
-0.550805 -0.277594
-0.551083 -0.277972
-0.551361 -0.278360
-0.551640 -0.278733
-0.551919 -0.279007
-0.552198 -0.279349
-0.552478 -0.279631
-0.552758 -0.279852
-0.553039 -0.280123
-0.553319 -0.280451
-0.553600 -0.280518
-0.553881 -0.281071
-0.554162 -0.280373
-0.554443 -0.283117
-0.554725 -0.274314
-0.555005 -0.304080
-0.555269 -0.139554
-0.555080 0.638906
-0.553977 1.454905
-0.552390 1.603323
-0.550966 1.155747
-0.550141 0.512384
-0.549972 -0.224608
-0.550300 -0.088506
-0.549875 0.869956
-0.549004 0.490779
-0.549139 -0.629181
-0.550024 -1.029307
-0.551103 -1.139200
-0.552301 -1.239164
-0.553554 -1.248974
-0.554781 -1.196085
-0.555936 -1.106796
-0.556963 -0.916417
-0.557772 -0.728263
-0.558438 -0.590966
-0.558958 -0.463141
-0.559386 -0.398829
-0.559766 -0.362189
-0.560116 -0.338243
-0.560445 -0.321291
-0.560760 -0.309006
-0.561065 -0.300057
-0.561362 -0.293201
-0.561652 -0.287537
-0.561938 -0.283170
-0.562220 -0.280382
-0.562500 -0.278628
-0.562778 -0.277558
-0.563055 -0.276897
-0.563332 -0.276323
-0.563608 -0.275654
-0.563884 -0.275155
-0.564159 -0.273933
-0.564432 -0.270352
-0.564700 -0.266227
-0.564965 -0.263111
-0.565227 -0.260702
-0.565487 -0.258810
-0.565745 -0.257105
-0.566002 -0.255716
-0.566257 -0.254551
-0.566512 -0.253571
-0.566765 -0.252601
-0.567017 -0.251565
-0.567269 -0.250495
-0.567519 -0.249273
-0.567768 -0.247790
-0.568015 -0.246089
-0.568260 -0.244299
-0.568504 -0.242310
-0.568745 -0.240180
-0.568985 -0.237876
-0.569221 -0.235266
-0.569456 -0.232600
-0.569687 -0.230001
-0.569916 -0.227488
-0.570142 -0.224769
-0.570366 -0.221859
-0.570587 -0.218922
-0.570804 -0.215923
-0.571019 -0.212916
-0.571231 -0.209998
-0.571439 -0.207211
-0.571645 -0.204512
-0.571849 -0.201968
-0.572050 -0.199652
-0.572249 -0.197285
-0.572445 -0.195160
-0.572639 -0.193088
-0.572831 -0.191045
-0.573022 -0.189136
-0.573210 -0.187238
-0.573397 -0.185338
-0.573581 -0.183362
-0.573764 -0.181439
-0.573944 -0.179303
-0.574123 -0.177263
-0.574299 -0.175097
-0.574473 -0.172742
-0.574645 -0.170386
-0.574814 -0.167952
-0.574981 -0.165413
-0.575145 -0.162806
-0.575307 -0.160130
-0.575466 -0.157328
-0.575622 -0.154623
-0.575776 -0.151872
-0.575926 -0.148976
-0.576074 -0.146163
-0.576219 -0.143296
-0.576361 -0.140448
-0.576500 -0.137709
-0.576636 -0.134931
-0.576770 -0.132107
-0.576901 -0.129473
-0.577029 -0.126770
-0.577155 -0.124096
-0.577278 -0.121420
-0.577398 -0.118784
-0.577515 -0.116090
-0.577630 -0.113259
-0.577742 -0.110591
-0.577852 -0.107843
-0.577958 -0.105089
-0.578062 -0.102350
-0.578163 -0.099570
-0.578261 -0.096765
-0.578357 -0.093929
-0.578449 -0.091127
-0.578539 -0.088178
-0.578626 -0.085176
-0.578710 -0.082313
-0.578791 -0.079341
-0.578869 -0.076299
-0.578943 -0.073295
-0.579015 -0.070261
-0.579084 -0.067208
-0.579150 -0.064110
-0.579212 -0.061030
-0.579272 -0.058000
-0.579328 -0.054877
-0.579382 -0.051817
-0.579432 -0.048787
-0.579479 -0.045655
-0.579524 -0.042553
-0.579565 -0.039564
-0.579603 -0.036430
-0.579638 -0.033325
-0.579670 -0.030347
-0.579698 -0.027246
-0.579724 -0.024149
-0.579747 -0.021076
-0.579766 -0.017977
-0.579783 -0.014898
-0.579796 -0.011740
-0.579806 -0.008601
-0.579813 -0.005481
-0.579817 -0.002259
-0.579818 0.000988
-0.579815 0.004270
-0.579809 0.007540
-0.579800 0.010846
-0.579788 0.014163
-0.579772 0.017470
-0.579753 0.020679
-0.579730 0.024048
-0.579704 0.027478
-0.579675 0.030721
-0.579643 0.034023
-0.579607 0.037662
-0.579568 0.040029
-0.579525 0.047049
-0.579479 0.037505
-0.579432 0.081855
-0.579366 -0.025369
-0.579372 0.200815
-0.578790 0.947583
-0.577362 2.031885
-0.574763 2.994838
-0.571362 3.971494
-0.560996 22.377845
-0.520966 57.554133
-0.450232 79.364616
-0.368056 83.257179
-0.285822 80.346156
-0.208015 75.002126
-0.135816 69.212932
-0.069455 63.410827
-0.008782 57.863905
0.046508 52.673699
0.096848 48.014466
0.142869 44.063094
0.185296 40.811706
0.224756 38.105322
0.261710 35.779943
0.296475 33.717353
0.329274 31.839649
0.360284 30.159850
0.389727 28.699115
0.417828 27.503304
0.444896 26.629057
0.471204 25.947339
0.497000 25.736915
0.522750 25.587978
0.548122 25.123913
0.573146 24.953870
0.597322 22.512471
0.618634 21.323284
0.641776 25.423641
0.666837 21.445871
0.676743 -6.411093
0.648794 -49.874795
0.580915 -81.287486
0.493157 -91.421493
0.400110 -94.898210
0.303788 -96.524533
0.209044 -91.629374
0.121533 -83.175584
0.042550 -74.650885
-0.028238 -67.082484
-0.092108 -60.588498
-0.149656 -54.455831
-0.201461 -49.317635
-0.248524 -44.580445
-0.290827 -40.192512
-0.329227 -36.517021
-0.363625 -31.915202
-0.393122 -27.315615
-0.417914 -21.523882
-0.434818 -11.550116
-0.441388 -2.627949
-0.441383 2.385042
-0.437205 5.623591
-0.430475 7.813736
-0.421974 8.767620
-0.413082 9.242808
-0.403209 10.501675
-0.392217 11.281665
-0.380866 11.332148
-0.369559 11.294907
-0.358310 11.089469
-0.347114 11.615907
-0.334818 12.851643
-0.321590 13.474494
-0.307972 13.709196
-0.294123 14.005519
-0.280013 14.061829
-0.266080 13.791528
-0.252406 13.508948
-0.238771 14.019685
-0.224133 15.148400
-0.208627 15.728282
-0.192742 16.014831
-0.176556 16.328556
-0.160100 16.500481
-0.143569 16.531517
-0.127003 16.564699
-0.110409 16.591166
-0.093788 16.616634
-0.077144 16.635063
-0.060488 16.642013
-0.043832 16.633719
-0.027194 16.604924
-0.010598 16.549663
0.005927 16.461041
0.022345 16.336066
0.038620 16.177015
0.054722 15.989749
0.070633 15.806728
0.086376 15.649126
0.101967 15.505059
0.117419 15.367775
0.132734 15.232634
0.147909 15.080761
0.162915 14.896673
0.177724 14.687272
0.192312 14.456750
0.206659 14.205318
0.220745 13.933472
0.234552 13.654073
0.248067 13.334784
0.261280 13.111673
0.274368 13.043999
0.287578 13.525923
0.301790 15.036556
0.317510 16.034427
0.333630 16.249286
0.350044 16.474245
0.366617 16.715453
0.383283 16.281030
0.399019 15.268572
0.413876 14.331661
0.427675 13.286304
0.440510 12.344138
0.452388 11.401697
0.463336 10.460482
0.473330 9.521784
0.482480 8.827087
0.491272 8.940460
0.500516 9.463839
0.509802 8.740254
0.517890 7.645839
0.525214 6.865158
0.531578 5.915620
0.537184 5.346521
0.542717 6.083115
0.549155 6.199189
0.554663 4.921427
0.559221 4.280769
0.563186 3.497831
0.566578 3.778344
0.570886 4.465359
0.575008 3.625177
0.578132 2.750830
0.580640 2.248693
0.582828 2.328848
0.585499 3.000430
0.588508 2.692923
0.590667 1.715514
0.592122 1.276990
0.593374 1.288309
0.594921 1.956661
0.597084 2.005009
0.598599 1.047165
0.599366 0.646062
0.599982 0.512693
0.600623 1.069938
0.602100 1.557065
0.603320 0.784442
0.603755 0.264544
0.603967 0.095267
0.603991 0.061216
0.604418 1.011540
0.605711 1.047758
0.606211 0.173644
0.606275 -0.051834
0.606102 -0.294709
0.605797 -0.202993
0.605980 0.741042
0.606985 0.800349
0.607324 0.085400
0.607346 -0.061801
0.607135 -0.404809
0.606574 -0.631664
0.606143 -0.041571
0.606526 0.655334
0.607161 0.473114
0.607403 0.078878
0.607401 -0.070709
0.607208 -0.381325
0.606606 -0.786343
0.605669 -1.085250
0.604437 -1.372188
0.602925 -1.649313
0.601136 -1.924527
0.599072 -2.198812
0.596734 -2.474260
0.594118 -2.752948
0.591222 -3.031917
0.588047 -3.312723
0.584588 -3.600303
0.580837 -3.894905
0.576787 -4.200261
0.572423 -4.521442
0.567729 -4.859558
0.562687 -5.219062
0.557272 -5.605186
0.551454 -6.024297
0.545198 -6.480948
0.538465 -6.980209
0.531207 -7.530003
0.523372 -8.133853
0.514903 -8.798014
0.505736 -9.529800
0.495799 -10.336638
0.485014 -11.225624
0.473296 -12.203290
0.460552 -13.275094
0.446685 -14.449193
0.431590 -15.728534
0.415159 -17.118864
0.397278 -18.627934
0.377869 -20.128190
0.356998 -21.579606
0.334867 -22.431682
0.312621 -21.691175
0.291790 -19.905627
0.272790 -18.057555
0.255564 -16.431800
0.239841 -14.963960
0.225561 -13.632817
0.212423 -12.677316
0.200083 -12.014118
0.188309 -11.536027
0.176946 -11.184640
0.165890 -10.916340
0.155073 -10.701571
0.144454 -10.521197
0.134003 -10.361745
0.123705 -10.215892
0.113548 -10.077516
0.103529 -9.941902
0.093644 -9.809382
0.083890 -9.677252
0.074270 -9.544795
0.064781 -9.413506
0.055424 -9.281918
0.046198 -9.151738
0.037101 -9.024663
0.028129 -8.901591
0.019279 -8.781564
0.010547 -8.667033
0.001926 -8.557266
-0.006586 -8.449896
-0.014991 -8.344435
-0.023291 -8.239636
-0.031486 -8.131884
-0.039571 -8.021298
-0.047543 -7.907012
-0.055399 -7.788390
-0.063135 -7.666928
-0.070746 -7.538472
-0.078225 -7.405028
-0.085569 -7.267314
-0.092774 -7.128682
-0.099841 -6.989592
-0.106768 -6.851642
-0.113559 -6.716942
-0.120216 -6.584986
-0.126744 -6.457840
-0.133146 -6.334582
-0.139427 -6.216282
-0.145592 -6.102633
-0.151646 -5.993859
-0.157594 -5.889932
-0.163439 -5.790742
-0.169188 -5.696401
-0.174845 -5.606661
-0.180414 -5.521425
-0.185901 -5.440508
-0.191308 -5.363488
-0.196639 -5.290305
-0.201900 -5.221150
-0.207094 -5.156527
-0.212225 -5.096544
-0.217298 -5.040806
-0.222318 -4.989381
-0.227289 -4.942164
-0.232214 -4.899265
-0.237098 -4.860152
-0.241945 -4.824646
-0.246759 -4.793094
-0.251542 -4.765963
-0.256302 -4.745223
-0.261045 -4.732677
-0.265780 -4.728192
-0.270513 -4.730475
-0.275252 -4.737991
-0.280000 -4.749397
-0.284761 -4.764098
-0.289539 -4.781752
-0.294335 -4.802078
-0.299153 -4.824849
-0.303995 -4.850136
-0.308864 -4.877708
-0.313761 -4.907342
-0.318689 -4.939009
-0.323650 -4.972558
-0.328645 -5.007934
-0.333676 -5.044903
-0.338745 -5.083534
-0.343854 -5.123701
-0.349003 -5.165164
-0.354195 -5.207990
-0.359430 -5.251749
-0.364709 -5.295829
-0.370033 -5.340310
-0.375401 -5.385200
-0.380814 -5.430104
-0.386272 -5.475120
-0.391775 -5.520000
-0.397323 -5.564519
-0.402915 -5.608617
-0.408551 -5.652000
-0.414230 -5.694362
-0.419951 -5.735457
-0.425712 -5.775271
-0.431512 -5.813413
-0.437350 -5.849743
-0.443223 -5.883933
-0.449128 -5.915535
-0.455065 -5.944254
-0.461028 -5.969836
-0.467015 -5.991958
-0.473023 -6.010649
-0.479047 -6.025683
-0.485085 -6.036697
-0.491131 -6.043795
-0.497183 -6.046484
-0.503235 -6.044725
-0.509283 -6.038406
-0.515322 -6.027190
-0.521348 -6.011125
-0.527355 -5.990064
-0.533338 -5.963889
-0.539293 -5.932381
-0.545213 -5.895725
-0.551094 -5.853824
-0.556931 -5.806698
-0.562717 -5.752675
-0.568448 -5.699969
-0.574118 -5.615951
-0.579688 -5.521922
-0.585105 -5.224086
-0.590023 -4.557242
-0.594026 -3.283959
-0.596307 -1.139368
-0.595985 1.969875
-0.592408 4.944542
-0.586394 6.997187
-0.578726 8.072379
-0.570570 8.138613
-0.562684 7.451777
-0.555841 6.195165
-0.550314 4.840641
-0.546128 3.551620
-0.543132 2.475401
-0.541089 1.650471
-0.539749 1.063779
-0.538894 0.671979
-0.538355 0.425823
-0.538008 0.281228
-0.537769 0.204606
-0.537584 0.168671
-0.537422 0.162326
-0.537252 0.178110
-0.537056 0.220736
-0.536787 0.333426
-0.536349 0.563958
-0.535653 0.810015
-0.534762 0.952617
-0.533773 1.012461
-0.532741 1.053274
-0.531663 1.099470
-0.530553 1.107019
-0.529462 1.066851
-0.528430 0.989570
-0.527494 0.875206
-0.526690 0.722929
-0.526058 0.534962
-0.525630 0.315960
-0.525421 0.111809
-0.525443 -0.203289
-0.525869 -0.641261
-0.526836 -1.407453
-0.528603 -1.923392
-0.530468 -1.782737
-0.532145 -1.561114
-0.533607 -1.381758
-0.534882 -1.114937
-0.535798 -0.725810
-0.536367 -0.431557
-0.536697 -0.241581
-0.536873 -0.120468
-0.536951 -0.036657
-0.536958 0.013360
-0.536934 0.033644
-0.536894 0.045111
-0.536846 0.048225
-0.536799 0.045855
-0.536756 0.038807
-0.536722 0.028357
-0.536700 0.015679
-0.536691 0.001794
-0.536697 -0.012687
-0.536717 -0.027008
-0.536751 -0.040743
-0.536798 -0.053319
-0.536857 -0.064587
-0.536927 -0.073990
-0.537004 -0.081307
-0.537088 -0.086150
-0.537176 -0.088490
-0.537265 -0.088744
-0.537353 -0.087088
-0.537439 -0.083606
-0.537520 -0.078906
-0.537596 -0.073183
-0.537666 -0.066671
-0.537730 -0.060064
-0.537786 -0.053223
-0.537836 -0.046826
-0.537880 -0.041181
-0.537919 -0.036156
-0.537953 -0.032293
-0.537984 -0.029506
-0.538013 -0.027939
-0.538040 -0.027519
-0.538068 -0.028086
-0.538097 -0.029791
-0.538128 -0.032214
-0.538162 -0.035327
-0.538199 -0.038896
-0.538240 -0.042652
-0.538284 -0.046542
-0.538333 -0.050358
-0.538385 -0.053791
-0.538440 -0.056827
-0.538499 -0.059324
-0.538559 -0.061270
-0.538621 -0.062567
-0.538684 -0.063137
-0.538747 -0.063188
-0.538810 -0.062560
-0.538872 -0.061486
-0.538933 -0.060074
-0.538992 -0.058194
-0.539050 -0.056036
-0.539105 -0.053732
-0.539157 -0.050902
-0.539206 -0.047823
-0.539253 -0.044866
-0.539296 -0.042318
-0.539338 -0.040140
-0.539377 -0.038455
-0.539415 -0.037318
-0.539452 -0.036499
-0.539488 -0.036235
-0.539524 -0.036240
-0.539561 -0.036551
-0.539598 -0.037189
-0.539635 -0.037918
-0.539674 -0.038727
-0.539713 -0.039675
-0.539753 -0.040567
-0.539794 -0.041395
-0.539836 -0.042043
-0.539878 -0.042518
-0.539921 -0.042876
-0.539964 -0.042967
-0.540007 -0.042757
-0.540049 -0.042427
-0.540092 -0.041840
-0.540133 -0.040998
-0.540174 -0.040126
-0.540213 -0.039067
-0.540252 -0.037925
-0.540289 -0.036732
-0.540325 -0.035502
-0.540360 -0.034355
-0.540394 -0.033318
-0.540427 -0.032419
-0.540459 -0.031703
-0.540491 -0.031124
-0.540522 -0.030515
-0.540552 -0.030194
-0.540582 -0.029874
-0.540612 -0.029386
-0.540641 -0.028677
-0.540669 -0.027842
-0.540697 -0.027287
-0.540724 -0.026892
-0.540750 -0.026595
-0.540777 -0.026418
-0.540803 -0.026283
-0.540830 -0.026085
-0.540856 -0.025912
-0.540881 -0.025676
-0.540907 -0.025355
-0.540932 -0.024991
-0.540957 -0.024496
-0.540981 -0.023925
-0.541005 -0.023371
-0.541028 -0.022650
-0.541050 -0.022018
-0.541072 -0.021232
-0.541093 -0.020383
-0.541113 -0.019742
-0.541132 -0.018948
-0.541151 -0.018312
-0.541169 -0.018087
-0.541187 -0.018445
-0.541206 -0.019038
-0.541225 -0.019350
-0.541245 -0.019060
-0.541263 -0.018297
-0.541281 -0.017303
-0.541298 -0.016169
-0.541313 -0.015217
-0.541328 -0.014291
-0.541342 -0.013437
-0.541355 -0.012739
-0.541368 -0.011865
-0.541379 -0.012026
-0.541390 -0.008603
-0.541401 -0.019025
-0.541412 0.019580
-0.541415 -0.101983
-0.541454 0.262349
-0.541337 -0.712667
-0.541695 1.867889
-0.491582 84.681447
