0.193686 0.209158 0.587509
-0.858203 -10.349750
-0.861480 2.840453
-0.854445 10.251305
-0.841792 15.159653
-0.824113 20.016122
-0.801891 24.359242
-0.776118 26.386869
-0.751767 20.313297
-0.736491 11.124073
-0.727662 7.434939
-0.720685 6.505740
-0.714575 5.762700
-0.709075 5.238029
-0.704068 4.773527
-0.699504 4.353246
-0.695334 3.990038
-0.691502 3.667878
-0.687990 3.348350
-0.684774 3.103839
-0.681819 2.729524
-0.679502 1.777116
-0.678354 0.549258
-0.678182 -0.017821
-0.677980 0.642096
-0.676602 2.183668
-0.673556 3.881800
-0.668921 5.308900
-0.663082 6.273913
-0.656543 6.693933
-0.649842 6.628731
-0.643366 6.282729
-0.637304 5.816419
-0.631731 5.321379
-0.626652 4.823918
-0.622035 4.440374
-0.617774 4.022580
-0.614034 3.450251
-0.610865 2.882019
-0.608254 2.342144
-0.606160 1.850800
-0.604527 1.426363
-0.603273 1.093587
-0.602310 0.843551
-0.601565 0.652577
-0.600989 0.505505
-0.600540 0.395999
-0.600183 0.326099
-0.599873 0.300509
-0.599566 0.319566
-0.599218 0.382771
-0.598786 0.488124
-0.598229 0.629783
-0.597515 0.802452
-0.596613 1.002519
-0.595499 1.227354
-0.594148 1.475537
-0.592538 1.746480
-0.590644 2.040422
-0.588445 2.358511
-0.585914 2.700864
-0.583030 3.066778
-0.579767 3.456224
-0.576102 3.869808
-0.572011 4.309255
-0.567466 4.775130
-0.562441 5.271824
-0.556903 5.794434
-0.550826 6.359527
-0.544155 6.974606
-0.536854 7.615578
-0.528900 8.281724
-0.520259 8.993384
-0.510888 9.728319
-0.500743 10.582741
-0.489752 11.283871
-0.477917 12.691590
-0.464871 12.518001
-0.453474 10.491140
-0.442348 13.019044
-0.426760 17.496881
-0.408066 19.737011
-0.387577 20.984860
-0.366407 21.174203
-0.345440 20.602732
-0.325357 19.442732
-0.306650 17.880869
-0.289639 16.081687
-0.274481 14.202134
-0.261185 12.386661
-0.249620 10.759011
-0.239557 9.396412
-0.230710 8.328972
-0.222789 7.538983
-0.215541 6.978113
-0.208761 6.593123
-0.202301 6.330129
-0.196060 6.149392
-0.189974 6.015059
-0.184018 5.881975
-0.178202 5.737791
-0.172528 5.601466
-0.166984 5.475710
-0.161565 5.350240
-0.156277 5.212808
-0.151137 5.053113
-0.146169 4.867047
-0.141402 4.655185
-0.136857 4.422006
-0.132555 4.171414
-0.128511 3.905884
-0.124738 3.630968
-0.121243 3.352219
-0.118027 3.073091
-0.115088 2.801820
-0.112416 2.536629
-0.109999 2.303916
-0.107777 2.151515
-0.105673 2.052852
-0.103664 1.961327
-0.101746 1.870869
-0.099917 1.785665
-0.098170 1.706584
-0.096498 1.634254
-0.094895 1.570420
-0.093351 1.515608
-0.091857 1.470327
-0.090405 1.431679
-0.088990 1.397571
-0.087607 1.363487
-0.086260 1.328046
-0.084950 1.289340
-0.083681 1.244620
-0.082460 1.193761
-0.081294 1.136080
-0.080188 1.071901
-0.079149 1.003107
-0.078181 0.930262
-0.077289 0.851978
-0.076476 0.770861
-0.075747 0.686029
-0.075104 0.596492
-0.074553 0.503952
-0.074097 0.408136
-0.073737 0.308869
-0.073479 0.206567
-0.073325 0.102001
-0.073275 -0.003611
-0.073333 -0.113211
-0.073502 -0.222679
-0.073772 -0.311812
-0.074120 -0.382482
-0.074536 -0.447555
-0.075015 -0.509859
-0.075558 -0.574997
-0.076167 -0.641852
-0.076844 -0.711496
-0.077592 -0.781831
-0.078408 -0.849364
-0.079291 -0.912981
-0.080233 -0.967333
-0.081223 -1.009077
-0.082248 -1.035673
-0.083290 -1.044301
-0.084332 -1.032249
-0.085351 -1.002283
-0.086331 -0.952132
-0.087246 -0.868828
-0.088060 -0.751928
-0.088744 -0.613861
-0.089285 -0.464835
-0.089673 -0.310659
-0.089906 -0.154640
-0.089983 0.000449
-0.089906 0.152311
-0.089668 0.335010
-0.089218 0.572070
-0.088507 0.857319
-0.087473 1.227784
-0.086003 1.735075
-0.083964 2.346527
-0.081293 2.994859
-0.077960 3.668337
-0.073937 4.376998
-0.069196 5.091304
-0.063763 5.749173
-0.057716 6.316395
-0.051156 6.769692
-0.044202 7.107441
-0.036958 7.350566
-0.029512 7.515415
-0.021932 7.622166
-0.014263 7.696358
-0.006527 7.759052
0.001272 7.826545
0.009148 7.914253
0.017127 8.032982
0.025242 8.188265
0.033533 8.383582
0.042038 8.613894
0.050791 8.883482
0.059838 9.197738
0.069215 9.543293
0.078949 9.906267
0.089051 10.280084
0.099532 10.659958
0.110390 11.033027
0.121615 11.391314
0.133191 11.733660
0.145103 12.067304
0.157345 12.388613
0.169903 12.703305
0.182782 13.032774
0.196000 13.379100
0.209571 13.737581
0.223504 14.099543
0.237798 14.461138
0.252453 14.817488
0.267459 15.161760
0.282803 15.492307
0.298469 15.805296
0.314435 16.087770
0.330651 16.293787
0.347026 16.414416
0.363492 16.472173
0.379989 16.485974
0.396499 16.506793
0.413039 16.537097
0.429603 16.557144
0.446184 16.571186
0.462776 16.578333
0.479372 16.578341
0.495963 16.570484
0.512543 16.554559
0.529103 16.531251
0.545636 16.499800
0.562133 16.460442
0.578587 16.413288
0.594990 16.356843
0.611332 16.294022
0.627608 16.224919
0.643812 16.148952
0.659936 16.066537
0.675975 15.978435
0.691923 15.884593
0.707774 15.783511
0.723520 15.676832
0.739156 15.562942
0.754674 15.441699
0.770069 15.315004
0.785333 15.181817
0.800461 15.043099
0.815448 14.899442
0.830287 14.747024
0.844965 14.576135
0.859460 14.380030
0.873745 14.155862
0.887792 13.908180
0.901586 13.652768
0.915127 13.403381
0.928426 13.172428
0.941508 12.970609
0.954403 12.799415
0.967142 12.658315
0.979755 12.545485
0.992266 12.454555
1.004694 12.379983
1.017053 12.312578
1.029345 12.247208
1.041572 12.181314
1.053730 12.110549
1.065814 12.032554
1.077817 11.949041
1.089735 11.862368
1.101565 11.773090
1.113306 11.687591
1.124965 11.607568
1.136548 11.535652
1.148062 11.471398
1.159515 11.413492
1.170914 11.362121
1.182264 11.314722
1.193568 11.271293
1.204830 11.231391
1.216054 11.194003
1.227242 11.162633
1.238406 11.143625
1.249556 11.137476
1.260707 11.143203
1.271868 11.158702
1.283048 11.178798
1.294248 11.199096
1.305468 11.217494
1.316705 11.233046
1.327956 11.245793
1.339218 11.254569
1.350486 11.258520
1.361756 11.258891
1.373025 11.255593
1.384288 11.247790
1.395542 11.236441
1.406782 11.221115
1.418005 11.201514
1.429207 11.178477
1.440383 11.152398
1.451532 11.122237
1.462649 11.088836
1.473731 11.052419
1.484775 11.013265
1.495779 10.970864
1.506738 10.925553
1.517651 10.877537
1.528514 10.827237
1.539326 10.774045
1.550083 10.718152
1.560783 10.660514
1.571424 10.599938
1.582003 10.536761
1.592518 10.471209
1.602966 10.403684
1.613345 10.333497
1.623653 10.260073
1.633885 10.184548
1.644041 10.106378
1.654117 10.025424
1.664111 9.942407
1.674021 9.855820
1.683842 9.766509
1.693572 9.674146
1.703209 9.578662
1.712748 9.481686
1.722189 9.379773
1.731526 9.274766
1.740757 9.167732
1.749878 9.056330
1.758887 8.942313
1.767779 8.824518
1.776552 8.703376
1.785203 8.579336
1.793726 8.448273
1.802124 8.342500
1.810448 8.299351
1.818764 8.328481
1.827147 8.431500
1.835653 8.560988
1.844268 8.635973
1.852910 8.616249
1.861495 8.529141
1.869977 8.416852
1.878346 8.307078
1.886616 8.222833
1.894817 8.164985
1.902967 8.121231
1.911075 8.075671
1.919128 8.009210
1.927098 7.907991
1.934945 7.763045
1.942624 7.571250
1.950088 7.334236
1.957294 7.056632
1.964203 6.743692
1.970786 6.404206
1.977019 6.047778
1.982890 5.680818
1.988391 5.310981
1.993524 4.944487
1.998292 4.585036
2.002706 4.235149
2.006775 3.896696
2.010512 3.571409
2.013929 3.258006
2.017038 2.956576
2.019852 2.666437
2.022380 2.385909
2.024632 2.115482
2.026617 1.852433
2.028342 1.595886
2.029814 1.345242
2.031037 1.099311
2.032016 0.856483
2.032752 0.615185
2.033248 0.376338
2.033506 0.138264
2.033525 -0.100103
2.033305 -0.339261
2.032846 -0.579208
2.032146 -0.819181
2.031205 -1.061376
2.030020 -1.304803
2.028593 -1.548015
2.026921 -1.792951
2.025003 -2.038694
2.022839 -2.284071
2.020430 -2.529664
2.017775 -2.775122
2.014875 -3.020256
2.011729 -3.264506
2.008340 -3.507222
2.004708 -3.749030
2.000835 -3.989174
1.996722 -4.227316
1.992372 -4.464020
1.987785 -4.699412
1.982965 -4.931676
1.977913 -5.162596
1.972630 -5.391500
1.967120 -5.618310
1.961383 -5.843521
1.955422 -6.065872
1.949239 -6.287567
1.942835 -6.507516
1.936212 -6.724583
1.929372 -6.940408
1.922318 -7.154748
1.915049 -7.366895
1.907570 -7.577264
1.899880 -7.785813
1.891983 -7.992267
1.883880 -8.197316
1.875573 -8.400090
1.867064 -8.600167
1.858356 -8.798855
1.849450 -8.994369
1.840350 -9.187356
1.831057 -9.378152
1.821576 -9.566391
1.811907 -9.751373
1.802055 -9.932610
1.792022 -10.111645
1.781812 -10.287863
1.771427 -10.459871
1.760872 -10.629101
1.750149 -10.794575
1.739263 -10.956092
1.728216 -11.114829
1.717012 -11.268916
1.705656 -11.419937
1.694151 -11.567575
1.682500 -11.711126
1.670706 -11.851135
1.658775 -11.987935
1.646707 -12.121805
1.634508 -12.251876
1.622180 -12.378896
1.609726 -12.503037
1.597150 -12.623548
1.584455 -12.740105
1.571645 -12.853863
1.558723 -12.963473
1.545694 -13.069110
1.532560 -13.170429
1.519328 -13.267736
1.506000 -13.361336
1.492580 -13.450100
1.479074 -13.534868
1.465485 -13.615700
1.451817 -13.691247
1.438076 -13.762052
1.424266 -13.829783
1.410391 -13.891775
1.396456 -13.950122
1.382464 -14.004334
1.368421 -14.053523
1.354330 -14.099601
1.340195 -14.141362
1.326020 -14.179621
1.311809 -14.214435
1.297564 -14.245263
1.283290 -14.273249
1.268990 -14.297992
1.254667 -14.319338
1.240324 -14.337581
1.225964 -14.352098
1.211592 -14.364088
1.197208 -14.373450
1.182817 -14.379949
1.168421 -14.382813
1.154024 -14.382693
1.139628 -14.379069
1.125234 -14.382260
1.110833 -14.390868
1.096426 -14.392729
1.082021 -14.386644
1.067625 -14.376539
1.053239 -14.366421
1.038866 -14.350689
1.024511 -14.330239
1.010178 -14.305196
0.995874 -14.273821
0.981603 -14.239451
0.967369 -14.198478
0.953177 -14.157534
0.939022 -14.126638
0.924898 -14.089369
0.910817 -14.044405
0.896780 -14.003847
0.882783 -13.959666
0.868833 -13.912368
0.854926 -13.878469
0.841027 -13.909473
0.827055 -14.013924
0.812961 -14.149693
0.798721 -14.303824
0.784317 -14.478965
0.769720 -14.694527
0.754890 -14.937338
0.739822 -15.161919
0.724552 -15.336826
0.709140 -15.444087
0.693661 -15.467705
0.678203 -15.404455
0.662847 -15.263435
0.647666 -15.060984
0.632707 -14.821729
0.617997 -14.567975
0.603541 -14.319089
0.589324 -14.088409
0.575326 -13.886285
0.561512 -13.720213
0.547846 -13.591562
0.534288 -13.502790
0.520800 -13.452157
0.507345 -13.438240
0.493885 -13.460131
0.480387 -13.513203
0.466821 -13.597074
0.453156 -13.710078
0.439365 -13.849951
0.425421 -14.013064
0.411304 -14.196591
0.396994 -14.397245
0.382476 -14.611087
0.367738 -14.837945
0.352766 -15.077211
0.337548 -15.330689
0.322069 -15.600026
0.306310 -15.889902
0.290247 -16.209458
0.273846 -16.567811
0.257063 -16.971493
0.239852 -17.427020
0.222157 -17.936331
0.203926 -18.497779
0.185108 -19.108326
0.165656 -19.763764
0.145528 -20.456832
0.124691 -21.179756
0.103119 -21.924608
0.080795 -22.680328
0.057712 -23.439197
0.033871 -24.191922
0.009285 -24.928288
-0.016027 -25.640921
-0.042038 -26.321768
-0.068710 -26.961364
-0.095999 -27.554097
-0.123855 -28.092150
-0.152219 -28.569553
-0.181028 -28.977020
-0.210215 -29.335190
-0.239741 -29.644551
-0.269535 -29.870734
-0.299514 -30.014071
-0.329600 -30.085836
-0.359713 -30.057591
-0.389731 -29.897795
-0.419529 -29.619553
-0.448996 -29.241293
-0.478041 -28.777020
-0.506582 -28.234686
-0.534551 -27.642987
-0.561914 -27.022847
-0.588747 -26.692208
-0.615496 -26.795867
-0.642476 -27.148913
-0.669910 -27.684687
-0.697900 -28.218920
-0.726301 -28.445455
-0.754617 -27.979296
-0.782021 -26.628149
-0.807627 -24.380440
-0.830590 -21.412609
-0.850392 -18.134478
-0.866906 -14.889084
-0.880283 -11.894711
-0.890844 -9.274978
-0.898991 -7.073137
-0.905141 -5.279789
-0.909683 -3.852072
-0.912955 -2.729974
-0.915229 -1.848394
-0.916716 -1.147471
-0.917570 -0.577368
-0.917900 -0.092449
-0.917771 0.343612
-0.917222 0.749102
-0.916281 1.127366
-0.914978 1.466895
-0.913362 1.753039
-0.911493 1.966342
-0.909434 2.154183
-0.907230 2.193168
-0.905090 2.091761
-0.902999 2.120270
-0.900812 2.247946
-0.898487 2.410303
-0.895963 2.644287
-0.893169 2.951397
-0.890027 3.339076
-0.886457 3.808732
-0.882376 4.356295
-0.877709 4.982211
-0.872372 5.696778
-0.866299 6.425985
-0.859980 5.738724
-0.855371 3.370153
-0.853087 1.438121
-0.852364 -0.108629
-0.853111 -1.074379
-0.854148 -0.942252
-0.854964 -0.710043
-0.855586 -0.526622
-0.856017 -0.341023
-0.856275 -0.174873
-0.856370 -0.017579
-0.856317 0.121229
-0.856130 0.254023
-0.855812 0.375990
-0.855381 0.486582
-0.854840 0.588825
-0.854205 0.681929
-0.853478 0.766944
-0.852672 0.843552
-0.851790 0.917937
-0.850839 0.977938
-0.849835 1.028377
-0.848781 1.077631
-0.847679 1.123568
-0.846534 1.161499
-0.845356 1.191891
-0.844150 1.217581
-0.842920 1.237741
-0.841674 1.251696
-0.840416 1.260640
-0.839151 1.265731
-0.837883 1.267778
-0.836614 1.268039
-0.835346 1.263412
-0.834087 1.251505
-0.832840 1.239634
-0.831606 1.225769
-0.830388 1.207253
-0.829189 1.187703
-0.828011 1.166719
-0.826854 1.142966
-0.825723 1.116321
-0.824619 1.089696
-0.823542 1.061618
-0.822494 1.032292
-0.821476 1.002745
-0.820488 0.971442
-0.819531 0.940296
-0.818605 0.908566
-0.817712 0.877099
-0.816850 0.844883
-0.816020 0.813254
-0.815221 0.781615
-0.814456 0.749394
-0.813721 0.718809
-0.813017 0.686733
-0.812345 0.656658
-0.811703 0.626148
-0.811091 0.597177
-0.810507 0.567074
-0.809956 0.537336
-0.809431 0.509946
-0.808935 0.480426
-0.808468 0.453852
-0.808027 0.425849
-0.807615 0.399298
-0.807228 0.372685
-0.806869 0.347099
-0.806533 0.321392
-0.806225 0.296848
-0.805939 0.271426
-0.805685 0.233711
-0.805474 0.188022
-0.805312 0.134692
-0.805206 0.076024
-0.805160 0.015573
-0.805176 -0.047016
-0.805255 -0.111910
-0.805400 -0.178894
-0.805614 -0.247534
-0.805896 -0.317360
-0.806249 -0.387741
-0.806672 -0.457641
-0.807165 -0.526272
-0.807725 -0.592415
-0.808350 -0.654742
-0.809034 -0.712235
-0.809774 -0.763786
-0.810561 -0.808272
-0.811389 -0.844727
-0.812249 -0.872614
-0.813133 -0.891460
-0.814031 -0.901273
-0.814934 -0.901863
-0.815833 -0.892828
-0.816718 -0.874108
-0.817580 -0.845880
-0.818409 -0.808487
-0.819196 -0.762880
-0.819934 -0.710367
-0.820616 -0.652518
-0.821239 -0.591068
-0.821799 -0.527668
-0.822295 -0.464245
-0.822729 -0.402734
-0.823103 -0.344758
-0.823421 -0.292055
-0.823690 -0.246655
-0.823918 -0.211806
-0.824118 -0.189153
-0.824301 -0.178453
-0.824479 -0.180206
-0.824666 -0.194139
-0.824872 -0.219370
-0.825108 -0.252829
-0.825380 -0.292627
-0.825696 -0.338264
-0.826059 -0.387700
-0.826472 -0.439261
-0.826938 -0.491146
-0.827455 -0.541625
-0.828022 -0.589251
-0.828634 -0.632828
-0.829287 -0.672114
-0.829978 -0.706987
-0.830701 -0.737091
-0.831452 -0.762763
-0.832226 -0.783891
-0.833019 -0.799618
-0.833825 -0.809283
-0.834637 -0.811710
-0.835447 -0.805371
-0.836246 -0.788142
-0.837020 -0.755706
-0.837753 -0.706191
-0.838430 -0.643882
-0.839040 -0.574566
-0.839579 -0.503144
-0.840048 -0.433056
-0.840447 -0.365900
-0.840782 -0.302966
-0.841056 -0.245453
-0.841275 -0.194162
-0.841447 -0.149846
-0.841578 -0.113185
-0.841676 -0.084574
-0.841750 -0.064201
-0.841807 -0.052082
-0.841857 -0.047924
-0.841906 -0.051290
-0.841961 -0.061362
-0.842030 -0.077451
-0.842118 -0.098519
-0.842229 -0.123586
-0.842367 -0.151705
-0.842533 -0.181560
-0.842730 -0.212208
-0.842958 -0.242546
-0.843216 -0.271645
-0.843501 -0.298673
-0.843812 -0.322700
-0.844146 -0.343295
-0.844498 -0.360096
-0.844866 -0.372624
-0.845243 -0.380885
-0.845627 -0.384925
-0.846012 -0.384903
-0.846396 -0.381088
-0.846774 -0.374229
-0.847144 -0.365052
-0.847505 -0.354490
-0.847854 -0.343687
-0.848193 -0.333023
-0.848521 -0.322896
-0.848839 -0.313466
-0.849149 -0.304823
-0.849450 -0.297255
-0.849744 -0.290718
-0.850032 -0.285295
-0.850316 -0.281111
-0.850596 -0.278032
-0.850873 -0.275966
-0.851148 -0.274907
-0.851423 -0.274693
-0.851699 -0.275165
-0.851974 -0.276001
-0.852251 -0.277139
-0.852529 -0.278368
-0.852808 -0.279355
-0.853088 -0.280014
-0.853369 -0.280040
-0.853649 -0.279304
-0.853928 -0.277758
-0.854205 -0.275120
-0.854478 -0.271251
-0.854747 -0.266256
-0.855011 -0.259954
-0.855267 -0.252311
-0.855515 -0.243505
-0.855754 -0.233398
-0.855982 -0.222100
-0.856199 -0.209727
-0.856402 -0.196295
-0.856591 -0.181912
-0.856766 -0.166681
-0.856925 -0.150729
-0.857067 -0.134075
-0.857193 -0.117347
-0.857302 -0.099228
-0.857392 -0.083078
-0.857467 -0.062736
-0.857510 -0.019551
-0.857497 0.049318
-0.857408 0.128303
-0.857238 0.213521
-0.856984 0.289548
-0.856660 0.360441
-0.856298 0.323729
-0.856051 0.169630
-0.855931 0.096590
-0.855830 0.106361
-0.855718 0.117559
-0.855595 0.128223
-0.855461 0.139683
-0.855319 0.140162
-0.855183 0.133476
-0.855012 0.247583
-0.854596 0.633549
-0.853648 1.304939
-0.851857 2.356752
-0.848771 3.883751
-0.843980 5.716156
-0.837445 7.196598
-0.829992 7.419890
-0.822795 7.029359
-0.816017 6.345251
-0.810522 4.371446
-0.807368 2.090995
-0.805951 0.965954
-0.805232 0.445894
-0.805027 0.019682
-0.805140 -0.248044
-0.805553 -0.604043
-0.806401 -1.114964
-0.807821 -1.734220
-0.809893 -2.416244
-0.812666 -3.122098
-0.816132 -3.792209
-0.820230 -4.378211
-0.824846 -4.812007
-0.829795 -5.040933
-0.834872 -5.071589
-0.839881 -4.898157
-0.844606 -4.509318
-0.848858 -3.968416
-0.852522 -3.341314
-0.855530 -2.663876
-0.857852 -1.975368
-0.859489 -1.299448
-0.860463 -0.652655
-0.860809 -0.046422
-0.860572 0.511255
-0.859804 1.014903
-0.858560 1.460088
-0.856901 1.842547
-0.854893 2.158085
-0.852605 2.402263
-0.850110 2.569715
-0.847485 2.663182
-0.844799 2.692606
-0.842119 2.646688
-0.839526 2.523340
-0.837088 2.338045
-0.834867 2.087637
-0.832932 1.768573
-0.831347 1.388796
-0.830167 0.963020
-0.829428 0.509671
-0.829149 0.048835
-0.829326 -0.399762
-0.829939 -0.819043
-0.830952 -1.194685
-0.832313 -1.516194
-0.833963 -1.764886
-0.835818 -1.928707
-0.837798 -2.014529
-0.839824 -2.018034
-0.841809 -1.935209
-0.843676 -1.786252
-0.845370 -1.591052
-0.846850 -1.361627
-0.848089 -1.111764
-0.849072 -0.851791
-0.849794 -0.590405
-0.850256 -0.335494
-0.850470 -0.093610
-0.850450 0.129677
-0.850218 0.329855
-0.849799 0.503323
-0.849220 0.647174
-0.848513 0.759499
-0.847711 0.839081
-0.846845 0.885468
-0.845949 0.899137
-0.845055 0.881207
-0.844194 0.833922
-0.843394 0.760143
-0.842680 0.663355
-0.842073 0.548114
-0.841588 0.418984
-0.841237 0.281112
-0.841026 0.139867
-0.840956 0.000237
-0.841023 -0.132891
-0.841219 -0.255094
-0.841529 -0.362820
-0.841939 -0.453083
-0.842430 -0.523747
-0.842981 -0.573733
-0.843571 -0.602606
-0.844180 -0.610842
-0.844788 -0.599632
-0.845375 -0.570635
-0.845925 -0.526320
-0.846424 -0.469160
-0.846861 -0.401949
-0.847227 -0.327750
-0.847516 -0.249163
-0.847725 -0.169101
-0.847855 -0.090179
-0.847907 -0.014587
-0.847886 0.055527
-0.847798 0.118785
-0.847650 0.174174
-0.847452 0.221047
-0.847211 0.259383
-0.846935 0.289014
-0.846635 0.310227
-0.846317 0.323134
-0.845991 0.327655
-0.845664 0.324233
-0.845344 0.313059
-0.845040 0.294671
-0.844756 0.270071
-0.844501 0.239929
-0.844278 0.205218
-0.844091 0.167232
-0.843944 0.126846
-0.843837 0.085465
-0.843772 0.044380
-0.843748 0.004631
-0.843762 -0.032204
-0.843811 -0.065218
-0.843891 -0.093551
-0.843997 -0.116428
-0.844122 -0.133554
-0.844262 -0.144565
-0.844410 -0.149520
-0.844559 -0.148714
-0.844706 -0.142486
-0.844843 -0.131487
-0.844967 -0.116451
-0.845075 -0.098328
-0.845164 -0.078200
-0.845231 -0.056996
-0.845278 -0.035869
-0.845304 -0.015920
-0.845310 0.002208
-0.845300 0.017921
-0.845275 0.030790
-0.845239 0.040601
-0.845195 0.047218
-0.845146 0.050869
-0.845094 0.051909
-0.845043 0.050785
-0.844993 0.047938
-0.844947 0.044063
-0.844905 0.039646
-0.844867 0.035775
-0.844833 0.031802
-0.844802 0.033471
-0.844772 0.019767
-0.844741 0.071223
-0.844708 -0.114924
-0.844671 0.596997
-0.844633 -2.047895
-0.858203 -10.349750
