-0.054330 0.001364 0.318339
0.429255 0.000000
0.429255 -0.000000
0.429255 0.000000
0.429255 -0.000000
0.429255 0.000000
0.429255 -0.000000
0.429255 0.000000
0.429255 -0.000000
0.429255 0.000000
0.429255 -0.000000
0.429255 0.000000
0.429255 -0.000000
0.429255 0.000000
0.429255 -0.000000
0.429255 0.000000
0.429255 -0.000000
0.429255 0.000000
0.429255 -0.000000
0.429255 0.000000
0.429255 -0.000000
0.429255 0.000000
0.429255 -0.000000
0.429255 0.000000
0.429255 -0.000000
0.429255 0.000000
0.429255 -0.000000
0.429255 0.000000
0.429255 -0.000000
0.429255 0.000000
0.429255 -0.000000
0.429255 0.000000
0.429255 -0.000000
0.429255 0.000000
0.429255 -0.000000
0.429255 0.000000
0.429255 -0.000000
0.429255 0.000000
0.429255 -0.000000
0.429255 0.000000
0.429255 -0.000000
0.429255 0.000000
0.429255 -0.000000
0.429255 0.000000
0.429255 -0.000000
0.429255 0.000000
0.429255 -0.000000
0.429255 0.000000
0.429255 -0.000000
0.429255 0.000000
0.429255 -0.000000
0.429255 0.000000
0.429255 -0.000000
0.429255 0.000000
0.429255 -0.000000
0.429255 0.000000
0.429255 -0.000000
0.429255 0.000000
0.429255 -0.000000
0.429255 0.000000
0.429255 -0.000000
0.429255 0.000000
0.429255 -0.000000
0.429255 0.000000
0.429255 -0.000000
0.429255 0.000000
0.429255 -0.000000
0.429255 0.000000
0.429255 -0.000000
0.429255 0.000000
0.429255 -0.000000
0.429255 0.000000
0.429255 -0.000000
0.429255 0.000000
0.429255 -0.000000
0.429255 0.000000
0.429255 -0.000000
0.429255 0.000000
0.429255 -0.000000
0.429255 0.000000
0.429255 -0.000000
0.429255 0.000001
0.429255 -0.000004
0.429255 0.000014
0.429255 -0.000051
0.429255 0.000177
0.429255 -0.000611
0.429255 0.002089
0.429255 -0.007052
0.429254 0.023411
0.429259 -0.076072
0.429240 0.240116
0.429311 -0.726941
0.429038 2.061148
0.430089 -5.187807
0.426044 9.717464
0.430890 -31.278946
0.365313 -66.612961
0.329143 -7.206619
0.336311 8.520055
0.338286 0.528074
0.320774 -57.195805
0.285518 70.110287
0.250295 -434.471691
-0.489299 -654.351384
-0.677670 270.767190
-0.280079 198.316133
-0.356548 -101.631020
-0.336148 40.169296
-0.341590 -14.214425
-0.340138 4.729213
-0.340525 -1.512661
-0.340422 0.470771
-0.340450 -0.143593
-0.340442 0.043128
-0.340444 -0.012796
-0.340444 0.003759
-0.340444 -0.001095
-0.340444 0.000317
-0.340444 -0.000091
-0.340444 0.000026
-0.340444 -0.000007
-0.340444 0.000002
-0.340444 -0.000001
-0.340444 0.000000
-0.340444 -0.000000
-0.340444 0.000000
-0.340444 -0.000000
-0.340444 0.000000
-0.340444 -0.000000
-0.340444 0.000000
-0.340444 -0.000000
-0.340444 0.000000
-0.340444 -0.000000
-0.340444 0.000000
-0.340444 -0.000000
-0.340444 0.000000
-0.340444 -0.000000
-0.340444 0.000000
-0.340444 -0.000000
-0.340444 0.000000
-0.340444 -0.000000
-0.340444 0.000000
-0.340444 -0.000000
-0.340444 0.000000
-0.340444 -0.000000
-0.340444 0.000000
-0.340444 -0.000000
-0.340444 0.000000
-0.340444 -0.000000
-0.340444 0.000000
-0.340444 -0.000000
-0.340444 0.000000
-0.340444 -0.000000
-0.340444 0.000000
-0.340444 -0.000000
-0.340444 0.000000
-0.340444 -0.000000
-0.340444 0.000000
-0.340444 -0.000000
-0.340444 0.000000
-0.340444 -0.000000
-0.340444 0.000000
-0.340444 -0.000000
-0.340444 0.000000
-0.340444 -0.000000
-0.340444 0.000000
-0.340444 -0.000000
-0.340444 0.000000
-0.340444 -0.000000
-0.340444 0.000000
-0.340444 -0.000000
-0.340444 0.000000
-0.340444 -0.000000
-0.340444 0.000000
-0.340444 -0.000000
-0.340444 0.000000
-0.340444 -0.000000
-0.340444 0.000000
-0.340444 -0.000000
-0.340444 0.000000
-0.340444 -0.000000
-0.340444 0.000000
-0.340444 -0.000000
-0.340444 0.000000
-0.340444 -0.000000
-0.340444 0.000000
-0.340444 -0.000000
-0.340444 0.000000
-0.340444 -0.000000
-0.340444 0.000000
-0.340444 -0.000000
-0.340444 0.000000
-0.340444 -0.000000
-0.340444 0.000000
-0.340444 -0.000000
-0.340444 0.000000
-0.340444 -0.000000
-0.340444 0.000000
-0.340444 -0.000000
-0.340444 0.000000
-0.340444 -0.000000
-0.340444 0.000000
-0.340444 -0.000000
-0.340444 0.000000
-0.340444 -0.000000
-0.340444 0.000000
-0.340444 -0.000000
-0.340444 0.000000
-0.340444 -0.000000
-0.340444 0.000000
-0.340444 -0.000000
-0.340444 0.000000
-0.340444 -0.000000
-0.340444 0.000000
-0.340444 -0.000000
-0.340444 0.000000
-0.340444 -0.000000
-0.340444 0.000000
-0.340444 -0.000000
-0.340444 0.000000
-0.340444 -0.000000
-0.340444 0.000000
-0.340444 -0.000000
-0.340444 0.000000
-0.340444 -0.000000
-0.340444 0.000000
-0.340444 -0.000000
-0.340444 0.000000
-0.340444 -0.000000
-0.340444 0.000000
-0.340444 -0.000000
-0.340444 0.000000
-0.340444 -0.000000
-0.340444 0.000000
-0.340444 -0.000000
-0.340444 0.000000
-0.340444 -0.000000
-0.340444 0.000000
-0.340444 -0.000000
-0.340444 0.000000
-0.340444 -0.000000
-0.340444 0.000000
-0.340444 -0.000000
-0.340444 0.000000
-0.340444 -0.000000
-0.340444 0.000000
-0.340444 -0.000000
-0.340444 0.000000
-0.340444 -0.000000
-0.340444 0.000000
-0.340444 -0.000000
-0.340444 0.000000
-0.340444 -0.000000
-0.340444 0.000000
-0.340444 -0.000000
-0.340444 0.000000
-0.340444 -0.000000
-0.340444 0.000000
-0.340444 -0.000000
-0.340444 0.000000
-0.340444 -0.000000
-0.340444 0.000000
-0.340444 -0.000000
-0.340444 0.000000
-0.340444 -0.000000
-0.340444 0.000000
-0.340444 -0.000000
-0.340444 0.000000
-0.340444 -0.000000
-0.340444 0.000000
-0.340444 -0.000000
-0.340444 0.000000
-0.340444 -0.000000
-0.340444 0.000000
-0.340444 -0.000000
-0.340444 0.000000
-0.340444 -0.000000
-0.340444 0.000000
-0.340444 -0.000000
-0.340444 0.000000
-0.340444 -0.000000
-0.340444 0.000000
-0.340444 -0.000000
-0.340444 0.000000
-0.340444 -0.000000
-0.340444 0.000000
-0.340444 -0.000000
-0.340444 0.000000
-0.340444 -0.000000
-0.340444 0.000000
-0.340444 -0.000000
-0.340444 0.000000
-0.340444 -0.000000
-0.340444 0.000000
-0.340444 -0.000000
-0.340444 0.000000
-0.340444 -0.000000
-0.340444 0.000000
-0.340444 -0.000000
-0.340444 0.000000
-0.340444 -0.000000
-0.340444 0.000000
-0.340444 -0.000000
-0.340444 0.000000
-0.340444 -0.000000
-0.340444 0.000000
-0.340444 -0.000000
-0.340444 0.000000
-0.340444 -0.000000
-0.340444 0.000000
-0.340444 -0.000000
-0.340444 0.000000
-0.340444 -0.000000
-0.340444 0.000000
-0.340444 -0.000000
-0.340444 0.000000
-0.340444 -0.000000
-0.340444 0.000000
-0.340444 -0.000000
-0.340444 0.000000
-0.340444 -0.000000
-0.340444 0.000000
-0.340444 -0.000000
-0.340444 0.000000
-0.340444 -0.000000
-0.340444 0.000000
-0.340444 -0.000000
-0.340444 0.000000
-0.340444 -0.000000
-0.340444 0.000000
-0.340444 -0.000000
-0.340444 0.000000
-0.340444 -0.000000
-0.340444 0.000000
-0.340444 -0.000000
-0.340444 0.000000
-0.340444 -0.000000
-0.340444 0.000000
-0.340444 -0.000000
-0.340444 0.000000
-0.340444 -0.000000
-0.340444 0.000000
-0.340444 -0.000000
-0.340444 0.000000
-0.340444 -0.000000
-0.340444 0.000000
-0.340444 -0.000000
-0.340444 0.000000
-0.340444 -0.000000
-0.340444 0.000000
-0.340444 -0.000000
-0.340444 0.000000
-0.340444 -0.000000
-0.340444 0.000000
-0.340444 -0.000000
-0.340444 0.000000
-0.340444 -0.000000
-0.340444 0.000000
-0.340444 -0.000000
-0.340444 0.000000
-0.340444 -0.000000
-0.340444 0.000000
-0.340444 -0.000000
-0.340444 0.000000
-0.340444 -0.000000
-0.340444 0.000000
-0.340444 -0.000000
-0.340444 0.000000
-0.340444 -0.000000
-0.340444 0.000000
-0.340444 -0.000000
-0.340444 0.000000
-0.340444 -0.000000
-0.340444 0.000000
-0.340444 -0.000000
-0.340444 0.000000
-0.340444 -0.000000
-0.340444 0.000000
-0.340444 -0.000000
-0.340444 0.000000
-0.340444 -0.000000
-0.340444 0.000000
-0.340444 -0.000000
-0.340444 0.000000
-0.340444 -0.000000
-0.340444 0.000000
-0.340444 -0.000000
-0.340444 0.000000
-0.340444 -0.000000
-0.340444 0.000000
-0.340444 -0.000000
-0.340444 0.000000
-0.340444 -0.000000
-0.340444 0.000000
-0.340444 -0.000000
-0.340444 0.000000
-0.340444 -0.000000
-0.340444 0.000000
-0.340444 -0.000000
-0.340444 0.000000
-0.340444 -0.000000
-0.340444 0.000000
-0.340444 -0.000000
-0.340444 0.000000
-0.340444 -0.000000
-0.340444 0.000000
-0.340444 -0.000000
-0.340444 0.000000
-0.340444 -0.000000
-0.340444 0.000000
-0.340444 -0.000000
-0.340444 0.000000
-0.340444 -0.000000
-0.340444 0.000000
-0.340444 -0.000000
-0.340444 0.000000
-0.340444 -0.000000
-0.340444 0.000000
-0.340444 -0.000000
-0.340444 0.000000
-0.340444 -0.000000
-0.340444 0.000000
-0.340444 -0.000000
-0.340444 0.000000
-0.340444 -0.000000
-0.340444 0.000000
-0.340444 -0.000000
-0.340444 0.000000
-0.340444 -0.000000
-0.340444 0.000000
-0.340444 -0.000000
-0.340444 0.000000
-0.340444 -0.000000
-0.340444 0.000000
-0.340444 -0.000000
-0.340444 0.000000
-0.340444 -0.000000
-0.340444 0.000000
-0.340444 -0.000000
-0.340444 0.000000
-0.340444 -0.000000
-0.340444 0.000000
-0.340444 -0.000000
-0.340444 0.000000
-0.340444 -0.000000
-0.340444 0.000000
-0.340444 -0.000000
-0.340444 0.000000
-0.340444 -0.000000
-0.340444 0.000000
-0.340444 -0.000000
-0.340444 0.000000
-0.340444 -0.000000
-0.340444 0.000000
-0.340444 -0.000000
-0.340444 0.000000
-0.340444 -0.000000
-0.340444 0.000000
-0.340444 -0.000000
-0.340444 0.000000
-0.340444 -0.000000
-0.340444 0.000000
-0.340444 -0.000000
-0.340444 0.000000
-0.340444 -0.000000
-0.340444 0.000000
-0.340444 -0.000000
-0.340444 0.000000
-0.340444 -0.000000
-0.340444 0.000000
-0.340444 -0.000000
-0.340444 0.000000
-0.340444 -0.000000
-0.340444 0.000000
-0.340444 -0.000000
-0.340444 0.000000
-0.340444 -0.000000
-0.340444 0.000000
-0.340444 -0.000000
-0.340444 0.000000
-0.340444 -0.000000
-0.340444 0.000000
-0.340444 -0.000000
-0.340444 0.000000
-0.340444 -0.000000
-0.340444 0.000000
-0.340444 -0.000000
-0.340444 0.000000
-0.340444 -0.000000
-0.340444 0.000000
-0.340444 -0.000000
-0.340444 0.000000
-0.340444 -0.000000
-0.340444 0.000000
-0.340444 -0.000000
-0.340444 0.000000
-0.340444 -0.000000
-0.340444 0.000000
-0.340444 -0.000000
-0.340444 0.000000
-0.340444 -0.000000
-0.340444 0.000000
-0.340444 -0.000000
-0.340444 0.000000
-0.340444 -0.000000
-0.340444 0.000000
-0.340444 -0.000000
-0.340444 0.000000
-0.340444 -0.000000
-0.340444 0.000000
-0.340444 -0.000000
-0.340444 0.000000
-0.340444 -0.000000
-0.340444 0.000000
-0.340444 -0.000000
-0.340444 0.000000
-0.340444 -0.000000
-0.340444 0.000000
-0.340444 -0.000000
-0.340444 0.000000
-0.340444 -0.000000
-0.340444 0.000000
-0.340444 -0.000000
-0.340444 0.000000
-0.340444 -0.000000
-0.340444 0.000000
-0.340444 -0.000000
-0.340444 0.000000
-0.340444 -0.000000
-0.340444 0.000000
-0.340444 -0.000000
-0.340444 0.000000
-0.340444 -0.000000
-0.340444 0.000000
-0.340444 -0.000000
-0.340444 0.000000
-0.340444 -0.000000
-0.340444 0.000000
-0.340444 -0.000000
-0.340444 0.000000
-0.340444 -0.000000
-0.340444 0.000000
-0.340444 -0.000000
-0.340444 0.000000
-0.340444 -0.000000
-0.340444 0.000000
-0.340444 -0.000000
-0.340444 0.000000
-0.340444 -0.000000
-0.340444 0.000000
-0.340444 -0.000000
-0.340444 0.000000
-0.340444 -0.000000
-0.340444 0.000000
-0.340444 -0.000000
-0.340444 0.000000
-0.340444 -0.000000
-0.340444 0.000000
-0.340444 -0.000000
-0.340444 0.000000
-0.340444 -0.000000
-0.340444 0.000000
-0.340444 -0.000000
-0.340444 0.000000
-0.340444 -0.000000
-0.340444 0.000000
-0.340444 -0.000000
-0.340444 0.000000
-0.340444 -0.000000
-0.340444 0.000000
-0.340444 -0.000000
-0.340444 0.000000
-0.340444 -0.000000
-0.340444 0.000000
-0.340444 0.000000
-0.340444 -0.000000
-0.340444 0.000000
-0.340444 -0.000000
-0.340444 0.000000
-0.340444 -0.000000
-0.340444 0.000002
-0.340444 -0.000006
-0.340444 0.000024
-0.340444 -0.000089
-0.340444 0.000321
-0.340444 -0.001110
-0.340444 0.003668
-0.340443 -0.011350
-0.340447 0.031443
-0.340428 -0.068254
-0.340515 0.039630
-0.340138 0.776197
-0.341737 -6.806324
-0.334927 42.068791
-0.277322 31.582010
-0.282496 -11.262458
-0.280625 3.568471
-0.282840 -4.041492
-0.274947 29.614341
-0.234630 30.069673
-0.236882 -35.811604
-0.254275 54.301100
-0.234765 -175.049010
-0.424918 134.477006
0.047537 483.198781
0.291196 78.921291
0.315103 3.012320
0.322957 4.215717
0.320924 -2.429979
0.321449 0.987508
0.321314 -0.351554
0.321349 0.116655
0.321340 -0.037052
0.321342 0.011422
0.321341 -0.003445
0.321342 0.001022
0.321341 -0.000299
0.321341 0.000087
0.321341 -0.000025
0.321341 0.000007
0.321341 -0.000002
0.321341 0.000001
0.321341 -0.000000
0.321341 0.000000
0.321341 -0.000000
0.321341 0.000000
0.321341 -0.000000
0.321341 0.000000
0.321341 -0.000000
0.321341 0.000000
0.321341 -0.000000
0.321341 0.000000
0.321341 -0.000000
0.321341 0.000000
0.321341 -0.000000
0.321341 0.000000
0.321341 -0.000000
0.321341 0.000000
0.321341 -0.000000
0.321341 0.000000
0.321341 -0.000000
0.321341 0.000000
0.321341 -0.000000
0.321341 0.000000
0.321341 -0.000000
0.321341 0.000000
0.321341 -0.000000
0.321341 0.000000
0.321341 -0.000000
0.321341 0.000000
0.321341 -0.000000
0.321341 0.000000
0.321341 -0.000000
0.321341 0.000000
0.321341 -0.000000
0.321341 0.000000
0.321341 -0.000000
0.321341 0.000000
0.321341 -0.000000
0.321341 0.000000
0.321341 -0.000000
0.321341 0.000000
0.321341 -0.000000
0.321341 0.000000
0.321341 -0.000000
0.321341 0.000000
0.321341 -0.000000
0.321341 0.000000
0.321341 -0.000000
0.321341 0.000000
0.321341 -0.000000
0.321341 0.000000
0.321341 -0.000000
0.321341 0.000000
0.321341 -0.000000
0.321341 0.000000
0.321341 -0.000000
0.321341 0.000000
0.321341 -0.000000
0.321341 0.000000
0.321341 -0.000000
0.321341 0.000000
0.321341 -0.000000
0.321341 0.000000
0.321341 -0.000000
0.321341 0.000000
0.321341 -0.000000
0.321341 0.000000
0.321341 -0.000000
0.321341 0.000000
0.321341 -0.000000
0.321341 0.000000
0.321341 -0.000000
0.321341 0.000000
0.321341 -0.000000
0.321341 0.000000
0.321341 -0.000000
0.321341 0.000000
0.321341 -0.000000
0.321341 0.000000
0.321341 -0.000000
0.321341 0.000000
0.321341 -0.000000
0.321341 0.000000
0.321341 -0.000000
0.321341 0.000000
0.321341 -0.000000
0.321341 0.000000
0.321341 -0.000000
0.321341 0.000000
0.321341 -0.000000
0.321341 0.000000
0.321341 -0.000000
0.321341 0.000000
0.321341 -0.000000
0.321341 0.000000
0.321341 -0.000000
0.321341 0.000000
0.321341 -0.000000
0.321341 0.000000
0.321341 -0.000000
0.321341 0.000000
0.321341 -0.000000
0.321341 0.000000
0.321341 -0.000000
0.321341 0.000000
0.321341 -0.000000
0.321341 0.000000
0.321341 -0.000000
0.321341 0.000000
0.321341 -0.000000
0.321341 0.000000
0.321341 -0.000000
0.321341 0.000000
0.321341 -0.000000
0.321341 0.000000
0.321341 -0.000000
0.321341 0.000000
0.321341 -0.000000
0.321341 0.000000
0.321341 -0.000000
0.321341 0.000000
0.321341 -0.000000
0.321341 0.000000
0.321341 -0.000000
0.321341 0.000000
0.321341 -0.000000
0.321341 0.000000
0.321341 -0.000000
0.321341 0.000000
0.321341 -0.000000
0.321341 0.000000
0.321341 -0.000000
0.321341 0.000000
0.321341 -0.000000
0.321341 0.000000
0.321341 -0.000000
0.321341 0.000000
0.321341 -0.000000
0.321341 0.000000
0.321341 -0.000000
0.321341 0.000000
0.321341 -0.000000
0.321341 0.000000
0.321341 -0.000000
0.321341 0.000000
0.321341 -0.000000
0.321341 0.000000
0.321341 -0.000000
0.321341 0.000000
0.321341 -0.000000
0.321341 0.000000
0.321341 -0.000000
0.321341 0.000000
0.321341 -0.000000
0.321341 0.000000
0.321341 -0.000000
0.321341 0.000000
0.321341 -0.000000
0.321341 0.000000
0.321341 -0.000000
0.321341 0.000000
0.321341 -0.000000
0.321341 0.000000
0.321341 -0.000000
0.321341 0.000000
0.321341 -0.000000
0.321341 0.000000
0.321341 -0.000000
0.321341 0.000000
0.321341 -0.000000
0.321341 0.000000
0.321341 -0.000000
0.321341 0.000000
0.321341 -0.000000
0.321341 0.000000
0.321341 -0.000000
0.321341 0.000000
0.321341 -0.000000
0.321341 0.000000
0.321341 -0.000000
0.321341 0.000000
0.321341 -0.000000
0.321341 0.000000
0.321341 -0.000000
0.321341 0.000000
0.321341 -0.000000
0.321341 0.000000
0.321341 -0.000000
0.321341 0.000000
0.321341 -0.000000
0.321341 0.000000
0.321341 -0.000000
0.321341 0.000000
0.321341 -0.000000
0.321341 0.000000
0.321341 -0.000000
0.321341 0.000000
0.321341 -0.000000
0.321341 0.000000
0.321341 -0.000000
0.321341 0.000000
0.321341 -0.000000
0.321341 0.000000
0.321341 -0.000000
0.321341 0.000000
0.321341 -0.000000
0.321341 0.000000
0.321341 -0.000000
0.321341 0.000000
0.321341 -0.000000
0.321341 0.000000
0.321341 -0.000000
0.321341 0.000000
0.321341 -0.000000
0.321341 0.000000
0.321341 -0.000000
0.321341 0.000000
0.321341 -0.000000
0.321341 0.000000
0.321341 -0.000000
0.321341 0.000000
0.321341 -0.000000
0.321341 0.000000
0.321341 -0.000000
0.321341 0.000000
0.321341 -0.000000
0.321341 0.000000
0.321341 -0.000000
0.321341 0.000000
0.321341 -0.000000
0.321341 0.000000
0.321341 -0.000000
0.321341 0.000000
0.321341 -0.000000
0.321341 0.000000
0.321341 -0.000000
0.321341 0.000000
0.321341 -0.000000
0.321341 0.000000
0.321341 -0.000000
0.321341 0.000000
0.321341 -0.000000
0.321341 0.000000
0.321341 -0.000000
0.321341 0.000000
0.321341 -0.000000
0.321341 0.000000
0.321341 -0.000000
0.321341 0.000000
0.321341 -0.000000
0.321341 0.000000
0.321341 -0.000000
0.321341 0.000000
0.321341 -0.000000
0.321341 0.000000
0.321341 -0.000000
0.321341 0.000000
0.321341 -0.000000
0.321341 0.000000
0.321341 -0.000000
0.321341 0.000000
0.321341 -0.000000
0.321341 0.000000
0.321341 -0.000000
0.321341 0.000000
0.321341 -0.000000
0.321341 0.000000
0.321341 -0.000000
0.321341 0.000000
0.321341 -0.000000
0.321341 0.000000
0.321341 -0.000000
0.321341 0.000000
0.321341 -0.000000
0.321341 0.000000
0.321341 -0.000000
0.321341 0.000000
0.321341 -0.000000
0.321341 0.000000
0.321341 -0.000000
0.321341 0.000000
0.321341 -0.000000
0.321341 0.000000
0.321341 -0.000000
0.321341 0.000000
0.321341 -0.000000
0.321341 0.000000
0.321341 -0.000000
0.321341 0.000000
0.321341 -0.000000
0.321341 0.000000
0.321341 -0.000000
0.321341 0.000000
0.321341 -0.000000
0.321341 0.000000
0.321341 -0.000000
0.321341 0.000000
0.321341 -0.000000
0.321341 0.000000
0.321341 -0.000000
0.321341 0.000000
0.321341 -0.000000
0.321341 0.000000
0.321341 -0.000000
0.321341 0.000000
0.321341 -0.000000
0.321341 0.000000
0.321341 -0.000000
0.321341 0.000000
0.321341 -0.000000
0.321341 0.000000
0.321341 -0.000000
0.321341 0.000000
0.321341 -0.000000
0.321341 0.000000
0.321341 -0.000000
0.321341 0.000000
0.321341 -0.000000
0.321341 0.000000
0.321341 -0.000000
0.321341 0.000000
0.321341 -0.000000
0.321341 0.000000
0.321341 -0.000000
0.321341 0.000000
0.321341 -0.000000
0.321341 0.000000
0.321341 -0.000000
0.321341 0.000000
0.321341 -0.000000
0.321341 0.000000
0.321341 -0.000000
0.321341 0.000000
0.321341 -0.000000
0.321341 0.000000
0.321341 -0.000000
0.321341 0.000000
0.321341 -0.000000
0.321341 0.000000
0.321341 -0.000000
0.321341 0.000000
0.321341 -0.000000
0.321341 0.000000
0.321341 -0.000000
0.321341 0.000000
0.321341 -0.000000
0.321341 0.000000
0.321341 -0.000000
0.321341 0.000000
0.321341 -0.000000
0.321341 0.000000
0.321341 -0.000000
0.321341 0.000000
0.321341 -0.000000
0.321341 0.000000
0.321341 -0.000000
0.321341 0.000000
0.321341 -0.000000
0.321341 0.000000
0.321341 -0.000000
0.321341 0.000000
0.321341 -0.000000
0.321341 0.000000
0.321341 -0.000000
0.321341 0.000000
0.321341 -0.000000
0.321341 0.000000
0.321341 -0.000000
0.321341 0.000000
0.321341 -0.000000
0.321341 0.000000
0.321341 -0.000000
0.321341 0.000000
0.321341 -0.000000
0.321341 0.000000
0.321341 -0.000000
0.321341 0.000000
0.321341 -0.000000
0.429255 0.000000
