0.073621 0.095987 0.107714
-0.766972 0.000000
-0.766972 -0.000000
-0.766972 0.000000
-0.766972 -0.000000
-0.766972 0.000000
-0.766972 -0.000002
-0.766972 0.000006
-0.766972 -0.000021
-0.766972 0.000075
-0.766972 -0.000265
-0.766972 0.000922
-0.766972 -0.003162
-0.766972 0.010647
-0.766970 -0.035001
-0.766978 0.111331
-0.766946 -0.337208
-0.767077 0.942237
-0.766549 -2.243912
-0.767485 6.810620
-0.720089 114.241539
-0.540872 215.380188
-0.323676 212.287535
-0.118725 200.644746
0.080135 195.357020
0.271494 187.414634
0.455500 179.951489
0.631335 171.222582
0.797901 161.335824
0.953859 150.039169
1.097835 137.409032
1.228576 123.650209
1.345074 108.965885
1.446456 93.471699
1.532005 77.378234
1.601227 60.864092
1.653819 44.241650
1.689743 27.453421
1.708928 11.106591
1.713288 -1.316015
1.707810 -9.192098
1.695365 -15.630079
1.676666 -21.625001
1.652253 -27.078358
1.622590 -32.130135
1.588001 -36.963241
1.548646 -41.625726
1.504763 -45.998042
1.456684 -49.992106
1.404817 -53.570419
1.349573 -56.738698
1.291375 -59.461485
1.230634 -61.875974
1.167507 -64.267966
1.102007 -66.545739
1.034420 -68.409371
0.965208 -69.804762
0.894823 -70.744689
0.823729 -71.227262
0.752372 -71.271844
0.681185 -70.889878
0.610589 -70.092506
0.540997 -68.883776
0.472815 -67.281382
0.406424 -65.307583
0.342169 -63.034395
0.280337 -60.436312
0.221314 -57.420941
0.165553 -53.886635
0.113714 -49.510092
0.066708 -44.311197
0.025114 -38.780652
-0.010899 -33.156467
-0.041236 -27.442861
-0.065826 -21.687425
-0.084649 -15.918687
-0.097695 -10.149231
-0.104986 -4.433055
-0.106623 1.122972
-0.102825 6.416826
-0.093875 11.418184
-0.080135 15.913937
-0.062061 20.271745
-0.040132 22.887658
-0.016499 24.725661
0.009437 26.767329
0.037428 29.825057
0.069808 34.864124
0.107878 41.857502
0.154413 51.266061
0.213613 69.966965
0.293669 86.218967
0.382120 90.169925
0.474189 94.119121
0.570829 98.914947
0.672040 103.179635
0.777143 106.690445
0.885382 109.445204
0.995999 111.438859
1.108221 112.646250
1.221261 113.087437
1.334385 112.818831
1.446869 111.784772
1.557915 109.962423
1.666773 107.416510
1.772728 104.164360
1.875087 100.243081
1.973214 95.720366
2.066535 90.647767
2.154529 85.088680
2.236743 79.109944
2.312782 72.757414
2.382295 66.079869
2.444967 59.082061
2.500482 51.797702
2.548618 44.368086
2.589276 36.846916
2.622346 29.208283
2.647758 21.590431
2.665646 14.199146
2.676292 7.128209
2.680035 0.412559
2.677248 -5.912841
2.668336 -11.822517
2.653723 -17.301771
2.633847 -22.336163
2.609157 -26.918932
2.580107 -31.046486
2.547156 -34.710267
2.510771 -37.912131
2.471407 -40.662997
2.429515 -42.960050
2.385547 -44.818170
2.339927 -46.263019
2.293059 -47.317488
2.245318 -48.009782
2.197057 -48.361306
2.148603 -48.398687
2.100255 -48.159227
2.052269 -47.679222
2.004869 -46.996442
1.958240 -46.139845
1.912544 -45.140036
1.867910 -44.019561
1.824450 -42.800262
1.782245 -41.515586
1.741348 -40.194123
1.701779 -38.865381
1.663535 -37.550442
1.626593 -36.266221
1.590915 -35.026744
1.556449 -33.845888
1.523133 -32.733205
1.490892 -31.697074
1.459646 -30.746176
1.429307 -29.888815
1.399778 -29.122940
1.370974 -28.442681
1.342807 -27.851326
1.315185 -27.350824
1.288022 -26.935882
1.261232 -26.603222
1.234736 -26.347925
1.208460 -26.164228
1.182333 -26.048324
1.156291 -25.993476
1.130275 -25.993581
1.104237 -26.038083
1.078134 -26.122594
1.051928 -26.240598
1.025591 -26.384347
0.999098 -26.553486
0.972423 -26.747812
0.945544 -26.957520
0.918453 -27.168362
0.891154 -27.375768
0.863650 -27.575384
0.835952 -27.762724
0.808074 -27.933654
0.780036 -28.082024
0.751861 -28.208282
0.723572 -28.307218
0.695200 -28.376047
0.666772 -28.417318
0.638320 -28.423435
0.609881 -28.393790
0.581488 -28.328776
0.553178 -28.227233
0.524989 -28.089812
0.496954 -27.917294
0.469109 -27.712483
0.441483 -27.480593
0.414104 -27.215518
0.387009 -26.914570
0.360231 -26.583135
0.333800 -26.221382
0.307744 -25.835686
0.282083 -25.430294
0.256839 -25.005891
0.232027 -24.565768
0.207662 -24.112806
0.183757 -23.649167
0.160319 -23.177279
0.137358 -22.699247
0.114876 -22.218133
0.092877 -21.735626
0.071361 -21.253982
0.050326 -20.775846
0.029766 -20.303410
0.009675 -19.839003
-0.009955 -19.385209
-0.029137 -18.941041
-0.047881 -18.513153
-0.066206 -18.101212
-0.084123 -17.699008
-0.101643 -17.308890
-0.118778 -16.927881
-0.135536 -16.556312
-0.151927 -16.194601
-0.167961 -15.842903
-0.183649 -15.503540
-0.199004 -15.179694
-0.214045 -14.873901
-0.228788 -14.586572
-0.243253 -14.317044
-0.257456 -14.063396
-0.271413 -13.825840
-0.285141 -13.604145
-0.298654 -13.397629
-0.311967 -13.204802
-0.325094 -13.023941
-0.338045 -12.853782
-0.350830 -12.692997
-0.363459 -12.540786
-0.375939 -12.393680
-0.388270 -12.244295
-0.400447 -12.081450
-0.412451 -11.898333
-0.424260 -11.693162
-0.435854 -11.468250
-0.447214 -11.225991
-0.458323 -10.967041
-0.469166 -10.695043
-0.479727 -10.402509
-0.489983 -10.085088
-0.499911 -9.746729
-0.509492 -9.396424
-0.518713 -9.017921
-0.527540 -8.620943
-0.535971 -8.219405
-0.543991 -7.806516
-0.551592 -7.371036
-0.558742 -6.915839
-0.565438 -6.464004
-0.571689 -6.030116
-0.577519 -5.621524
-0.582949 -5.232826
-0.588004 -4.868999
-0.592703 -4.523377
-0.597067 -4.200892
-0.601120 -3.897198
-0.604876 -3.614366
-0.608363 -3.352199
-0.611594 -3.108347
-0.614593 -2.887807
-0.617381 -2.684428
-0.619976 -2.505488
-0.622403 -2.345313
-0.624681 -2.213640
-0.626846 -2.115374
-0.628930 -2.059033
-0.630983 -2.047949
-0.633046 -2.085125
-0.635171 -2.163650
-0.637403 -2.318880
-0.639785 -2.387411
-0.642163 -2.397552
-0.644620 -2.513176
-0.647166 -2.544645
-0.649583 -2.181685
-0.651448 -1.562339
-0.652709 -0.938794
-0.653305 -0.247014
-0.653155 0.590180
-0.651998 1.804400
-0.649432 3.351463
-0.645326 4.785196
-0.639940 5.952733
-0.633309 7.419805
-0.625046 9.006116
-0.615295 10.542419
-0.603732 12.702934
-0.589777 15.122828
-0.573601 17.109484
-0.555745 18.434504
-0.536932 19.048513
-0.517818 19.038478
-0.499005 18.464794
-0.481003 17.437480
-0.464217 16.044879
-0.448981 14.351768
-0.435562 12.426447
-0.424158 10.337933
-0.414900 8.145241
-0.407869 5.897837
-0.403096 3.639917
-0.400573 1.410225
-0.400253 -0.758970
-0.402063 -2.841109
-0.405905 -4.815730
-0.411662 -6.663749
-0.419201 -8.376598
-0.428384 -9.946450
-0.439064 -11.367133
-0.451090 -12.634505
-0.464308 -13.751016
-0.478570 -14.718230
-0.493725 -15.539103
-0.509634 -16.223853
-0.526160 -16.775120
-0.543179 -17.211460
-0.560568 -17.499031
-0.578108 -17.475024
-0.595552 -17.448806
-0.613086 -17.557803
-0.630633 -17.455965
-0.647758 -16.530863
-0.663686 -15.479782
-0.678945 -15.018361
-0.693757 -14.571870
-0.708006 -13.788786
-0.720999 -11.914744
-0.731962 -10.348274
-0.742092 -9.907899
-0.751485 -8.530911
-0.758868 -6.246660
-0.763930 -3.780618
-0.766440 -1.323496
-0.766982 -0.071323
-0.766967 0.027437
-0.766973 -0.010866
-0.766971 0.003876
-0.766972 -0.001303
-0.766972 0.000421
-0.766972 -0.000133
-0.766972 0.000041
-0.766972 -0.000012
-0.766972 0.000004
-0.766972 -0.000001
-0.766972 0.000000
-0.766972 -0.000000
-0.766972 0.000000
-0.766972 -0.000000
-0.766972 0.000000
-0.766972 -0.000000
-0.766972 0.000000
-0.766972 -0.000000
-0.766972 0.000000
-0.766972 -0.000000
-0.766972 0.000000
-0.766972 -0.000000
-0.766972 0.000000
-0.766972 -0.000000
-0.766972 0.000000
-0.766972 -0.000000
-0.766972 0.000000
-0.766972 -0.000000
-0.766972 0.000000
-0.766972 -0.000000
-0.766972 0.000000
-0.766972 -0.000000
-0.766972 0.000000
-0.766972 -0.000000
-0.766972 0.000000
-0.766972 -0.000000
-0.766972 0.000000
-0.766972 -0.000000
-0.766972 0.000000
-0.766972 -0.000000
-0.766972 0.000000
-0.766972 -0.000000
-0.766972 0.000000
-0.766972 -0.000000
-0.766972 0.000000
-0.766972 -0.000000
-0.766972 0.000000
-0.766972 -0.000000
-0.766972 0.000000
-0.766972 -0.000000
-0.766972 0.000000
-0.766972 -0.000000
-0.766972 0.000000
-0.766972 -0.000000
-0.766972 0.000000
-0.766972 -0.000000
-0.766972 0.000000
-0.766972 -0.000000
-0.766972 0.000000
-0.766972 -0.000000
-0.766972 0.000000
-0.766972 -0.000000
-0.766972 0.000000
-0.766972 -0.000000
-0.766972 0.000000
-0.766972 -0.000000
-0.766972 0.000000
-0.766972 -0.000000
-0.766972 0.000000
-0.766972 -0.000000
-0.766972 0.000000
-0.766972 -0.000000
-0.766972 0.000000
-0.766972 -0.000000
-0.766972 0.000000
-0.766972 -0.000000
-0.766972 0.000000
-0.766972 -0.000000
-0.766972 0.000000
-0.766972 -0.000000
-0.766972 0.000000
-0.766972 -0.000000
-0.766972 0.000000
-0.766972 -0.000000
-0.766972 0.000000
-0.766972 -0.000000
-0.766972 0.000000
-0.766972 -0.000000
-0.766972 0.000000
-0.766972 -0.000000
-0.766972 0.000000
-0.766972 -0.000000
-0.766972 0.000000
-0.766972 -0.000000
-0.766972 0.000000
-0.766972 -0.000000
-0.766972 0.000000
-0.766972 -0.000000
-0.766972 0.000000
-0.766972 -0.000000
-0.766972 0.000000
-0.766972 -0.000000
-0.766972 0.000000
-0.766972 -0.000000
-0.766972 0.000000
-0.766972 -0.000000
-0.766972 0.000000
-0.766972 -0.000000
-0.766972 0.000000
-0.766972 -0.000000
-0.766972 0.000000
-0.766972 -0.000000
-0.766972 0.000000
-0.766972 -0.000000
-0.766972 0.000000
-0.766972 -0.000000
-0.766972 0.000000
-0.766972 -0.000000
-0.766972 0.000000
-0.766972 -0.000000
-0.766972 0.000000
-0.766972 -0.000000
-0.766972 0.000000
-0.766972 -0.000000
-0.766972 0.000000
-0.766972 -0.000000
-0.766972 0.000000
-0.766972 -0.000000
-0.766972 0.000000
-0.766972 -0.000000
-0.766972 0.000000
-0.766972 -0.000000
-0.766972 0.000000
-0.766972 -0.000000
-0.766972 0.000000
-0.766972 -0.000000
-0.766972 0.000000
-0.766972 -0.000000
-0.766972 0.000000
-0.766972 -0.000000
-0.766972 0.000000
-0.766972 -0.000000
-0.766972 0.000000
-0.766972 -0.000000
-0.766972 0.000000
-0.766972 -0.000000
-0.766972 0.000000
-0.766972 -0.000000
-0.766972 0.000000
-0.766972 -0.000000
-0.766972 0.000000
-0.766972 -0.000000
-0.766972 0.000000
-0.766972 -0.000000
-0.766972 0.000000
-0.766972 -0.000000
-0.766972 0.000000
-0.766972 -0.000001
-0.766972 0.000003
-0.766972 -0.000011
-0.766972 0.000039
-0.766972 -0.000130
-0.766972 0.000425
-0.766972 -0.001359
-0.766972 0.004211
-0.766971 -0.012464
-0.766976 0.034323
-0.766956 -0.082733
-0.767027 0.141414
-0.766308 1.461054
-0.762611 7.249911
-0.750269 17.607199
-0.728461 24.670008
-0.701659 29.398494
-0.668616 37.090014
-0.623770 55.672878
-0.556407 76.509054
-0.473180 89.608643
-0.378390 98.573446
-0.279147 97.614329
-0.180272 104.729180
-0.062914 131.521092
0.084651 163.161382
0.254481 167.066471
0.413062 152.821043
0.562380 144.422296
0.701349 133.483753
0.829676 122.727102
0.946842 111.350431
1.052502 99.683429
1.146284 87.644907
1.227837 75.214911
1.296813 62.630328
1.353345 50.409668
1.397946 38.828213
1.431300 27.908555
1.454000 17.528921
1.466549 7.618294
1.469397 -1.855808
1.463127 -10.450447
1.449004 -17.462030
1.428679 -22.943357
1.403311 -27.705673
1.373318 -32.149254
1.339078 -36.203808
1.300953 -39.912746
1.259269 -43.333043
1.214284 -46.503213
1.166259 -49.404352
1.115484 -51.984146
1.062308 -54.198585
1.007107 -56.027755
0.950265 -57.483036
0.892131 -58.620574
0.832992 -59.503585
0.773107 -60.080936
0.712849 -60.241632
0.652648 -59.968621
0.592930 -59.279695
0.534101 -58.198366
0.476545 -56.734782
0.420639 -54.906322
0.366750 -52.695155
0.315266 -50.117758
0.266526 -47.205484
0.220880 -43.935322
0.178675 -40.340841
0.140181 -36.555927
0.105542 -32.615682
0.074973 -28.410541
0.048772 -23.881736
0.027256 -19.068040
0.010617 -14.196462
-0.001203 -9.439239
-0.008323 -4.811294
-0.010876 -0.306252
-0.009018 3.955604
-0.003036 7.981132
0.006761 11.408989
0.019835 14.926965
0.036711 18.642243
0.057167 22.388486
0.081619 26.394860
0.109720 29.532692
0.140938 33.252135
0.175698 35.194481
0.212055 39.107526
0.255645 47.977038
0.307604 55.345799
0.365475 59.801455
0.427492 64.751050
0.496564 74.066862
0.576351 85.112100
0.665309 91.213461
0.757695 93.524104
0.852705 96.316882
0.950422 98.811109
1.050305 100.644787
1.151693 101.816770
1.253929 102.349969
1.356396 102.280089
1.458497 101.620696
1.559655 100.404054
1.659311 98.601522
1.756847 96.172770
1.851651 93.152013
1.943150 89.569252
2.030789 85.445672
2.114051 80.838166
2.192491 75.823397
2.265733 70.460733
2.333445 64.774494
2.395310 58.783980
2.451054 52.561122
2.500483 46.174740
2.543447 39.641942
2.579796 32.956837
2.609370 26.104357
2.632008 19.107051
2.647626 12.119486
2.656345 5.351399
2.658448 -1.092696
2.654277 -7.178021
2.644205 -12.879438
2.628625 -18.183676
2.607937 -23.082776
2.582549 -27.574575
2.552870 -31.653180
2.519319 -35.312347
2.482315 -38.552984
2.442274 -41.378623
2.399608 -43.804670
2.354711 -45.831440
2.307985 -47.462502
2.259814 -48.722783
2.210557 -49.638290
2.160545 -50.234382
2.110086 -50.535065
2.059466 -50.559730
2.008949 -50.334875
1.958768 -49.890556
1.909133 -49.250854
1.860223 -48.447462
1.812186 -47.509308
1.765147 -46.456894
1.719211 -45.310527
1.674458 -44.096928
1.630944 -42.837229
1.588705 -41.555206
1.547751 -40.272613
1.508074 -39.006392
1.469651 -37.767161
1.432451 -36.567345
1.396426 -35.418672
1.361524 -34.325202
1.327685 -33.296545
1.294841 -32.336591
1.262922 -31.451346
1.231851 -30.640594
1.201556 -29.901577
1.171962 -29.238664
1.142995 -28.648937
1.114583 -28.131644
1.086652 -27.684719
1.059136 -27.302828
1.031971 -26.983034
1.005097 -26.722391
0.978454 -26.517512
0.951992 -26.361399
0.925664 -26.249034
0.899428 -26.176543
0.873247 -26.138034
0.847091 -26.126781
0.820933 -26.141328
0.794748 -26.179457
0.768517 -26.230292
0.742233 -26.287607
0.715888 -26.348196
0.689484 -26.406616
0.663024 -26.459270
0.636516 -26.503079
0.609970 -26.533351
0.583401 -26.547596
0.556828 -26.542916
0.530270 -26.515280
0.503752 -26.463336
0.477299 -26.384886
0.450939 -26.278418
0.424699 -26.145160
0.398605 -25.984113
0.372687 -25.796010
0.346970 -25.582591
0.321479 -25.346274
0.296235 -25.085698
0.271268 -24.792578
0.246611 -24.466865
0.222295 -24.110301
0.198351 -23.726916
0.174801 -23.321656
0.151667 -22.897410
0.128966 -22.456997
0.106713 -22.001753
0.084923 -21.534434
0.063605 -21.056770
0.042769 -20.571902
0.022422 -20.082261
0.002565 -19.590077
-0.016798 -19.097736
-0.035669 -18.607617
-0.054052 -18.122740
-0.071953 -17.644862
-0.089380 -17.176639
-0.106345 -16.720292
-0.122859 -16.277953
-0.138939 -15.852243
-0.154600 -15.441215
-0.169856 -15.043261
-0.184721 -14.657778
-0.199205 -14.282885
-0.213319 -13.918225
-0.227073 -13.563882
-0.240478 -13.221366
-0.253546 -12.892496
-0.266293 -12.578769
-0.278734 -12.279705
-0.290882 -11.993995
-0.302751 -11.721845
-0.314354 -11.464155
-0.325706 -11.219370
-0.336819 -10.987792
-0.347706 -10.763011
-0.358370 -10.545872
-0.368820 -10.331889
-0.379054 -10.118880
-0.389080 -9.910908
-0.398894 -9.697227
-0.408493 -9.482222
-0.417874 -9.257865
-0.427024 -9.024577
-0.435941 -8.788527
-0.444617 -8.545477
-0.453048 -8.301315
-0.461236 -8.057679
-0.469180 -7.813375
-0.476877 -7.565376
-0.484326 -7.319075
-0.491530 -7.072731
-0.498488 -6.833025
-0.505210 -6.595023
-0.511692 -6.358650
-0.517942 -6.127503
-0.523953 -5.879410
-0.529706 -5.611399
-0.535179 -5.319080
-0.540351 -5.014234
-0.545224 -4.726687
-0.549823 -4.467072
-0.554176 -4.233914
-0.558308 -4.026462
-0.562245 -3.845001
-0.566014 -3.689816
-0.569642 -3.562503
-0.573156 -3.463804
-0.576586 -3.394522
-0.579962 -3.355039
-0.583313 -3.345463
-0.586669 -3.365687
-0.590061 -3.415804
-0.593518 -3.497211
-0.597073 -3.611820
-0.600760 -3.760902
-0.604614 -3.944133
-0.608667 -4.159681
-0.612951 -4.403851
-0.617492 -4.673636
-0.622316 -4.968227
-0.627446 -5.284529
-0.632904 -5.624857
-0.638711 -5.976980
-0.644878 -6.353569
-0.651431 -6.730764
-0.658307 -6.970231
-0.665359 -7.129454
-0.672634 -7.450183
-0.680237 -7.660100
-0.687919 -7.719275
-0.695708 -7.828052
-0.703616 -8.013063
-0.711765 -8.242518
-0.720127 -8.499901
-0.728630 -8.304969
-0.736411 -7.081574
-0.742565 -5.132089
-0.746424 -2.398505
-0.747039 1.317523
-0.743892 4.714009
-0.737875 7.291229
-0.729196 10.165377
-0.717574 12.890084
-0.703679 14.749942
-0.687974 16.820329
-0.670157 18.434388
-0.651518 18.701558
-0.632769 18.811368
-0.613960 18.615790
-0.595796 17.532699
-0.578973 16.108599
-0.563570 14.614353
-0.549788 12.900310
-0.537829 10.931371
-0.527961 8.792274
-0.520224 6.659633
-0.514627 4.530143
-0.511140 2.444403
-0.509711 0.426578
-0.510256 -1.499068
-0.512675 -3.314858
-0.516850 -5.005510
-0.522651 -6.561710
-0.529939 -7.976069
-0.538572 -9.248337
-0.548407 -10.378139
-0.559303 -11.370713
-0.571126 -12.228592
-0.583743 -12.961784
-0.597032 -13.564058
-0.610870 -14.079679
-0.625172 -14.453660
-0.639734 -14.613488
-0.654370 -14.596542
-0.668981 -14.652587
-0.683623 -14.465048
-0.697876 -14.086560
-0.711833 -13.732847
-0.725398 -13.465131
-0.738760 -13.108091
-0.750972 -10.747324
-0.759906 -7.277484
-0.765400 -3.384387
-0.766964 -0.337230
-0.766952 0.084290
-0.766977 -0.038677
-0.766970 0.014542
-0.766972 -0.004980
-0.766972 0.001615
-0.766972 -0.000505
-0.766972 0.000154
-0.766972 -0.000046
-0.766972 0.000014
-0.766972 -0.000004
-0.766972 0.000001
-0.766972 -0.000000
-0.766972 0.000000
-0.766972 -0.000000
-0.766972 0.000000
-0.766972 -0.000000
-0.766972 0.000000
-0.766972 -0.000000
-0.766972 0.000000
-0.766972 -0.000000
-0.766972 0.000000
-0.766972 -0.000000
-0.766972 0.000000
-0.766972 -0.000000
-0.766972 0.000000
-0.766972 -0.000000
-0.766972 0.000000
-0.766972 -0.000000
-0.766972 0.000000
-0.766972 -0.000000
-0.766972 0.000000
-0.766972 -0.000000
-0.766972 0.000000
-0.766972 -0.000000
-0.766972 0.000000
-0.766972 -0.000000
-0.766972 0.000000
-0.766972 -0.000000
-0.766972 0.000000
-0.766972 -0.000000
-0.766972 0.000000
-0.766972 -0.000000
-0.766972 0.000000
-0.766972 -0.000000
-0.766972 0.000000
-0.766972 -0.000000
-0.766972 0.000000
-0.766972 -0.000000
-0.766972 0.000000
-0.766972 -0.000000
-0.766972 0.000000
-0.766972 -0.000000
-0.766972 0.000000
-0.766972 -0.000000
-0.766972 0.000000
-0.766972 -0.000000
-0.766972 0.000000
-0.766972 -0.000000
-0.766972 0.000000
-0.766972 -0.000000
-0.766972 0.000000
-0.766972 -0.000000
-0.766972 0.000000
-0.766972 -0.000000
-0.766972 0.000000
-0.766972 -0.000000
-0.766972 0.000000
-0.766972 -0.000000
-0.766972 0.000000
-0.766972 -0.000000
-0.766972 0.000000
-0.766972 -0.000000
-0.766972 0.000000
-0.766972 -0.000000
-0.766972 0.000000
-0.766972 -0.000000
-0.766972 0.000000
-0.766972 -0.000000
-0.766972 0.000000
-0.766972 -0.000000
-0.766972 0.000000
-0.766972 -0.000000
-0.766972 0.000000
-0.766972 -0.000000
-0.766972 0.000000
-0.766972 -0.000000
-0.766972 0.000000
-0.766972 -0.000000
-0.766972 0.000000
-0.766972 -0.000000
-0.766972 0.000000
-0.766972 -0.000000
-0.766972 0.000000
-0.766972 -0.000000
-0.766972 0.000000
-0.766972 -0.000000
-0.766972 0.000000
-0.766972 -0.000000
-0.766972 0.000000
-0.766972 -0.000000
-0.766972 0.000000
-0.766972 -0.000000
-0.766972 0.000000
-0.766972 -0.000000
-0.766972 0.000000
-0.766972 -0.000000
-0.766972 0.000000
-0.766972 -0.000000
-0.766972 0.000000
-0.766972 -0.000000
-0.766972 0.000000
-0.766972 -0.000000
-0.766972 0.000000
-0.766972 -0.000000
-0.766972 0.000000
-0.766972 -0.000000
-0.766972 0.000000
-0.766972 -0.000000
-0.766972 0.000000
-0.766972 -0.000000
-0.766972 0.000000
-0.766972 -0.000000
-0.766972 0.000000
-0.766972 -0.000000
-0.766972 0.000000
-0.766972 -0.000000
-0.766972 0.000000
-0.766972 -0.000000
-0.766972 0.000000
-0.766972 -0.000000
-0.766972 0.000000
-0.766972 -0.000000
-0.766972 0.000000
-0.766972 -0.000000
-0.766972 0.000000
-0.766972 -0.000000
-0.766972 0.000000
-0.766972 -0.000000
-0.766972 0.000000
-0.766972 -0.000000
-0.766972 0.000000
-0.766972 -0.000000
-0.766972 0.000000
-0.766972 -0.000000
-0.766972 0.000000
-0.766972 -0.000000
-0.766972 0.000000
-0.766972 -0.000000
-0.766972 0.000000
-0.766972 -0.000000
-0.766972 0.000000
-0.766972 -0.000000
-0.766972 0.000000
-0.766972 -0.000000
-0.766972 0.000000
-0.766972 -0.000000
-0.766972 0.000000
-0.766972 -0.000000
-0.766972 0.000000
-0.766972 -0.000000
-0.766972 0.000000
-0.766972 0.000000
