0.187700 0.217943 0.579068
-0.795568 0.797105
-0.794600 1.074311
-0.793546 0.966084
-0.792768 0.550707
-0.792506 -0.049953
-0.792900 -0.747517
-0.794008 -1.461711
-0.795811 -2.128950
-0.798238 -2.701612
-0.801178 -3.149870
-0.804499 -3.462361
-0.808066 -3.643141
-0.811752 -3.700956
-0.815437 -3.643561
-0.819022 -3.514877
-0.822413 -3.204582
-0.825556 -3.248345
-0.828204 -1.158754
-0.826677 4.523340
-0.819727 8.472830
-0.810492 10.090957
-0.799609 11.454804
-0.787879 11.860849
-0.776126 11.483074
-0.765142 10.351587
-0.755591 8.653541
-0.747932 6.610964
-0.742392 4.459754
-0.738972 2.402559
-0.737502 0.585595
-0.737691 -0.905628
-0.739195 -2.037107
-0.741652 -2.814957
-0.744726 -3.279242
-0.748135 -3.497502
-0.751662 -3.518599
-0.755117 -3.352816
-0.758318 -3.019016
-0.761116 -2.552843
-0.763394 -1.983140
-0.765066 -1.352371
-0.766083 -0.666020
-0.766361 0.136877
-0.765853 0.808567
-0.764817 1.256712
-0.763347 1.676058
-0.761465 2.083630
-0.759176 2.488217
-0.756487 2.882583
-0.753410 3.262122
-0.749962 3.624448
-0.746160 3.970568
-0.742017 4.304296
-0.737545 4.631384
-0.732745 4.959202
-0.727614 5.293440
-0.722144 5.636399
-0.716326 5.990168
-0.710148 6.357435
-0.703594 6.739900
-0.696649 7.139511
-0.689295 7.554140
-0.681519 7.986367
-0.673308 8.415133
-0.664624 8.987932
-0.655248 9.759271
-0.645068 10.584497
-0.634156 11.114354
-0.622848 11.553119
-0.611263 11.282932
-0.600561 10.107203
-0.590817 9.565497
-0.581323 9.289320
-0.572407 8.453437
-0.564463 7.426360
-0.557478 6.581840
-0.551173 6.075612
-0.545216 5.865192
-0.539371 5.832957
-0.533510 5.885950
-0.527578 5.968644
-0.521561 6.050599
-0.515469 6.117496
-0.509321 6.162577
-0.503142 6.177380
-0.496968 6.150630
-0.490846 6.071577
-0.484834 5.927005
-0.479004 5.709671
-0.473424 5.429711
-0.468150 5.101560
-0.463224 4.735598
-0.458679 4.341867
-0.454537 3.931673
-0.450809 3.517300
-0.447492 3.111127
-0.444574 2.724319
-0.442029 2.366541
-0.439823 2.049122
-0.437910 1.779488
-0.436243 1.559656
-0.434769 1.395208
-0.433430 1.291006
-0.432163 1.253637
-0.430897 1.287101
-0.429560 1.397227
-0.428068 1.600164
-0.426328 1.888563
-0.424269 2.233611
-0.421845 2.611836
-0.419034 3.008209
-0.415819 3.416059
-0.412193 3.828519
-0.408155 4.239117
-0.403709 4.642315
-0.398866 5.032053
-0.393641 5.403558
-0.388056 5.751573
-0.382135 6.074433
-0.375904 6.367549
-0.369397 6.631201
-0.362638 6.867263
-0.355657 7.077770
-0.348462 7.306659
-0.341012 7.585542
-0.333271 7.878121
-0.325247 8.149274
-0.316965 8.395489
-0.308448 8.616813
-0.299723 8.809711
-0.290821 8.972182
-0.281772 9.102090
-0.272610 9.197111
-0.263371 9.257130
-0.254089 9.281979
-0.244799 9.276142
-0.235526 9.247392
-0.226290 9.203099
-0.217103 9.152845
-0.207966 9.103250
-0.198876 9.060533
-0.189824 9.026241
-0.180803 9.000101
-0.171803 8.982185
-0.162818 8.971308
-0.153841 8.966654
-0.144865 8.967005
-0.135885 8.977142
-0.126889 8.998316
-0.117868 9.026426
-0.108815 9.064477
-0.099718 9.112473
-0.090571 9.163625
-0.081373 9.212040
-0.072133 9.245268
-0.062874 9.249368
-0.053627 9.221410
-0.044421 9.167544
-0.035281 9.089936
-0.026230 8.992144
-0.017284 8.879940
-0.008457 8.752451
0.000232 8.606266
0.008766 8.441808
0.017129 8.267105
0.025317 8.093426
0.033335 7.926931
0.041191 7.773588
0.048906 7.644082
0.056505 7.544581
0.064020 7.474274
0.071479 7.436291
0.078918 7.431039
0.086366 7.454122
0.093850 7.504488
0.101397 7.576203
0.109023 7.665077
0.116747 7.768041
0.124579 7.881221
0.132527 8.000292
0.140597 8.124385
0.148795 8.257661
0.157132 8.400252
0.165616 8.553990
0.174260 8.717247
0.183070 8.886554
0.192051 9.056430
0.201200 9.221522
0.210510 9.378825
0.219972 9.524251
0.229573 9.655180
0.239296 9.767809
0.249122 9.861453
0.259032 9.936421
0.269007 9.990460
0.279027 10.025892
0.289074 10.044805
0.299129 10.042567
0.309171 10.017258
0.319176 9.967211
0.329118 9.893513
0.338976 9.798681
0.348729 9.686467
0.358364 9.562818
0.367872 9.433912
0.377250 9.303320
0.386498 9.175203
0.395621 9.052517
0.404623 8.935661
0.413513 8.826596
0.422296 8.724100
0.430981 8.629620
0.439575 8.540956
0.448082 8.458676
0.456511 8.382152
0.464864 8.309581
0.473148 8.242056
0.481366 8.177488
0.489521 8.116602
0.497617 8.059166
0.505656 8.003802
0.513642 7.952601
0.521579 7.905283
0.529469 7.861465
0.537319 7.824481
0.545136 7.793275
0.552923 7.767203
0.560688 7.749201
0.568440 7.738206
0.576183 7.734209
0.583926 7.738751
0.591678 7.750670
0.599446 7.770758
0.607238 7.799770
0.615064 7.838054
0.622933 7.885358
0.630854 7.941709
0.638835 8.007396
0.646887 8.081933
0.655018 8.165248
0.663237 8.256923
0.671552 8.357115
0.679971 8.465278
0.688501 8.579966
0.697150 8.702069
0.705925 8.831552
0.714833 8.966164
0.723878 9.106809
0.733066 9.251749
0.742401 9.402046
0.751890 9.556545
0.761535 9.714053
0.771339 9.875655
0.781306 10.039119
0.791439 10.205344
0.801738 10.373483
0.812206 10.541651
0.822843 10.712149
0.833652 10.881922
0.844629 11.050765
0.855776 11.220382
0.867091 11.388369
0.878575 11.555238
0.890224 11.720681
0.902039 11.884118
0.914016 12.044996
0.926152 12.202881
0.938445 12.357477
0.950891 12.508274
0.963485 12.654095
0.976223 12.796336
0.989101 12.933356
1.002113 13.064106
1.015254 13.189549
1.028517 13.307915
1.041894 13.419560
1.055381 13.525294
1.068968 13.620788
1.082648 13.712757
1.096416 13.790200
1.110232 13.794822
1.123996 13.685148
1.137589 13.452608
1.150884 13.088657
1.163738 12.563007
1.175992 11.908500
1.187580 11.257162
1.198576 10.745924
1.209161 10.435940
1.219532 10.317956
1.229872 10.362918
1.240318 10.525595
1.250972 10.772152
1.261909 11.094210
1.273207 11.489204
1.284923 11.919758
1.297065 12.334966
1.309599 12.694909
1.322452 12.971576
1.335536 13.152155
1.348750 13.233225
1.361998 13.221228
1.375191 13.125395
1.388251 12.956669
1.401111 12.730306
1.413722 12.459269
1.426044 12.156932
1.438054 11.837109
1.449739 11.508630
1.461095 11.180981
1.472126 10.860603
1.482842 10.552117
1.493257 10.260434
1.503389 9.986900
1.513257 9.733246
1.522883 9.503582
1.532292 9.299025
1.541506 9.114558
1.550545 8.948947
1.559427 8.799021
1.568164 8.659415
1.576767 8.531258
1.585248 8.415167
1.593618 8.309016
1.601885 8.209548
1.610055 8.113800
1.618129 8.019859
1.626111 7.927902
1.634001 7.834924
1.641796 7.740061
1.649496 7.643885
1.657098 7.544377
1.664598 7.440461
1.671993 7.333105
1.679277 7.219911
1.686445 7.101440
1.693492 6.976734
1.700411 6.846035
1.707196 6.709048
1.713840 6.565162
1.720338 6.415879
1.726682 6.260587
1.732870 6.100638
1.738894 5.935627
1.744752 5.767339
1.750439 5.595869
1.755953 5.420528
1.761291 5.244952
1.766453 5.068099
1.771437 4.889796
1.776243 4.711932
1.780870 4.533465
1.785320 4.357892
1.789598 4.190776
1.793713 4.032510
1.797673 3.880008
1.801481 3.729024
1.805138 3.576968
1.808642 3.425013
1.811996 3.277514
1.815205 3.133427
1.818269 2.988885
1.821188 2.843216
1.823961 2.696991
1.826588 2.550949
1.829067 2.402939
1.831398 2.254285
1.833580 2.105328
1.835613 1.955666
1.837495 1.803083
1.839222 1.649216
1.840796 1.495688
1.842216 1.340852
1.843481 1.187609
1.844594 1.035470
1.845554 0.883403
1.846364 0.733968
1.847024 0.584284
1.847534 0.436682
1.847899 0.291454
1.848117 0.145741
1.848191 0.002864
1.848123 -0.139208
1.847913 -0.281552
1.847560 -0.422100
1.847068 -0.562230
1.846435 -0.702199
1.845662 -0.841820
1.844749 -0.981720
1.843697 -1.120955
1.842505 -1.260204
1.841174 -1.399263
1.839704 -1.537844
1.838095 -1.675944
1.836349 -1.813173
1.834466 -1.949530
1.832447 -2.083910
1.830294 -2.217804
1.828007 -2.349581
1.825591 -2.479357
1.823044 -2.607841
1.820371 -2.733933
1.817572 -2.857495
1.814651 -2.978905
1.811609 -3.098192
1.808449 -3.215354
1.805172 -3.330782
1.801781 -3.443708
1.798278 -3.554907
1.794665 -3.664854
1.790942 -3.772953
1.787112 -3.878905
1.783177 -3.984080
1.779136 -4.088138
1.774993 -4.189967
1.770749 -4.290248
1.766404 -4.390229
1.761960 -4.487515
1.757420 -4.583507
1.752784 -4.678360
1.748055 -4.770775
1.743234 -4.861314
1.738323 -4.949595
1.733325 -5.036575
1.728241 -5.120604
1.723075 -5.202116
1.717827 -5.281929
1.712501 -5.358518
1.707100 -5.433648
1.701624 -5.505522
1.696079 -5.575111
1.690463 -5.643455
1.684782 -5.707881
1.679036 -5.771063
1.673229 -5.831980
1.667361 -5.891212
1.661435 -5.948704
1.655453 -6.003119
1.649417 -6.056828
1.643328 -6.108380
1.637189 -6.157501
1.631001 -6.205571
1.624766 -6.251713
1.618486 -6.295340
1.612163 -6.337363
1.605799 -6.378168
1.599395 -6.415589
1.592955 -6.452230
1.586479 -6.486738
1.579970 -6.517970
1.573430 -6.547672
1.566862 -6.575515
1.560267 -6.601165
1.553647 -6.623703
1.547006 -6.645066
1.540345 -6.664578
1.533665 -6.681591
1.526969 -6.696510
1.520259 -6.709068
1.513538 -6.720422
1.506805 -6.730065
1.500065 -6.737516
1.493317 -6.743132
1.486565 -6.747758
1.479809 -6.749976
1.473052 -6.751111
1.466294 -6.750915
1.459538 -6.748276
1.452784 -6.745144
1.446035 -6.739932
1.439291 -6.733203
1.432555 -6.725204
1.425828 -6.715198
1.419112 -6.703668
1.412407 -6.691361
1.405716 -6.676874
1.399041 -6.660446
1.392382 -6.643148
1.385742 -6.624637
1.379121 -6.604054
1.372521 -6.582414
1.365943 -6.558871
1.359390 -6.533692
1.352863 -6.508741
1.346361 -6.480723
1.339888 -6.452170
1.333444 -6.422719
1.327031 -6.391107
1.320649 -6.358905
1.314301 -6.326018
1.307985 -6.291473
1.301706 -6.254904
1.295463 -6.217003
1.289260 -6.176796
1.283098 -6.134887
1.276978 -6.092029
1.270902 -6.048680
1.264870 -6.001967
1.258882 -5.965694
1.252904 -5.995633
1.246849 -6.115870
1.240630 -6.327590
1.234145 -6.647408
1.227289 -7.066662
1.219963 -7.590670
1.212061 -8.209248
1.203492 -8.935701
1.194118 -9.821634
1.183779 -10.856469
1.172351 -11.986932
1.159758 -13.186978
1.145930 -14.449513
1.130810 -15.772651
1.114335 -17.151116
1.096462 -18.562334
1.077167 -19.992314
1.056439 -21.416598
1.034291 -22.841148
1.010683 -24.351722
0.985505 -25.963637
0.958690 -27.615380
0.930199 -29.326618
0.899978 -31.039605
0.868074 -32.702005
0.834527 -34.308589
0.799425 -35.805256
0.762864 -37.243919
0.724868 -38.666150
0.685480 -40.012501
0.644813 -41.207912
0.603039 -42.231303
0.560325 -43.078187
0.516850 -43.764871
0.472757 -44.304455
0.428205 -44.684486
0.383349 -44.913470
0.338336 -44.998744
0.293306 -44.949662
0.248389 -44.773729
0.203708 -44.479558
0.159379 -44.072974
0.115509 -43.562276
0.072199 -42.954728
0.029543 -42.258972
-0.012378 -41.487534
-0.053493 -40.649442
-0.093740 -39.754896
-0.133066 -38.811409
-0.171426 -37.826507
-0.208783 -36.806347
-0.245103 -35.756441
-0.280359 -34.682127
-0.314530 -33.588817
-0.347600 -32.482023
-0.379555 -31.361990
-0.410382 -30.230270
-0.440072 -29.088060
-0.468614 -27.936266
-0.495998 -26.776898
-0.522219 -25.611561
-0.547272 -24.443391
-0.571154 -23.274230
-0.593867 -22.107197
-0.615415 -20.945760
-0.635804 -19.793344
-0.655045 -18.653626
-0.673154 -17.529929
-0.690147 -16.426688
-0.706048 -15.347790
-0.720884 -14.301421
-0.734693 -13.296209
-0.747515 -12.325822
-0.759381 -11.388891
-0.770340 -10.523717
-0.780471 -9.721731
-0.789818 -8.965284
-0.798436 -8.258691
-0.806356 -7.564855
-0.813574 -6.851944
-0.820063 -6.107029
-0.825802 -5.365904
-0.830813 -4.647097
-0.835123 -3.982725
-0.838826 -3.436036
-0.842032 -2.978034
-0.844809 -2.585328
-0.847220 -2.229067
-0.849272 -1.873198
-0.850976 -1.535203
-0.852356 -1.227650
-0.853450 -0.969041
-0.854317 -0.773604
-0.855016 -0.630325
-0.855588 -0.516363
-0.856067 -0.452623
-0.856518 -0.458160
-0.856997 -0.501205
-0.857531 -0.573091
-0.858127 -0.594671
-0.858686 -0.511841
-0.859135 -0.380192
-0.859469 -0.313748
-0.859798 -0.349216
-0.860179 -0.417553
-0.860598 -0.380252
-0.860906 -0.239507
-0.861088 -0.128865
-0.861175 -0.050186
-0.861201 -0.010418
-0.861209 -0.010922
-0.861233 -0.040341
-0.861281 -0.043057
-0.861307 -0.010509
-0.861309 0.001542
-0.861309 -0.000339
-0.861309 0.000083
-0.861309 -0.000023
-0.861309 0.000007
-0.861309 -0.000002
-0.861309 0.000001
-0.861309 -0.000000
-0.861309 0.000000
-0.861309 -0.000000
-0.861309 0.000000
-0.861309 -0.000000
-0.861309 0.000000
-0.861309 -0.000000
-0.861309 0.000000
-0.861309 -0.000000
-0.861309 0.000000
-0.861309 -0.000000
-0.861309 0.000000
-0.861309 -0.000000
-0.861309 0.000000
-0.861309 -0.000000
-0.861309 0.000000
-0.861309 -0.000000
-0.861309 0.000000
-0.861309 -0.000000
-0.861309 0.000000
-0.861309 -0.000000
-0.861309 0.000000
-0.861309 -0.000000
-0.861309 0.000000
-0.861309 -0.000000
-0.861309 0.000000
-0.861309 -0.000000
-0.861309 0.000000
-0.861309 -0.000000
-0.861309 0.000000
-0.861309 -0.000000
-0.861309 0.000000
-0.861309 -0.000000
-0.861309 -0.000000
-0.861309 0.000000
-0.861309 -0.000000
-0.861309 0.000000
-0.861309 -0.000000
-0.861309 0.000000
-0.861309 -0.000000
-0.861309 0.000000
-0.861309 -0.000000
-0.861309 0.000000
-0.861309 -0.000000
-0.861309 0.000000
-0.861309 -0.000000
-0.861309 0.000000
-0.861309 -0.000000
-0.861309 0.000000
-0.861309 -0.000000
-0.861309 0.000000
-0.861309 -0.000000
-0.861309 0.000000
-0.861309 -0.000000
-0.861309 0.000000
-0.861309 -0.000000
-0.861309 0.000000
-0.861309 -0.000000
-0.861309 0.000000
-0.861309 -0.000000
-0.861309 0.000000
-0.861309 -0.000000
-0.861309 0.000000
-0.861309 -0.000000
-0.861309 0.000000
-0.861309 -0.000000
-0.861309 0.000001
-0.861309 -0.000005
-0.861309 0.000018
-0.861309 -0.000051
-0.861309 0.000135
-0.861309 -0.000421
-0.861308 0.003218
-0.861299 0.017975
-0.861265 0.053600
-0.861184 0.111028
-0.861044 0.165684
-0.860850 0.228192
-0.860585 0.296518
-0.860264 0.341880
-0.859916 0.341666
-0.859587 0.320673
-0.859277 0.291919
-0.859001 0.265687
-0.858735 0.269619
-0.858453 0.299356
-0.858129 0.348684
-0.857759 0.384514
-0.857370 0.388273
-0.856992 0.362248
-0.856648 0.324193
-0.856340 0.295267
-0.856051 0.285710
-0.855764 0.287612
-0.855474 0.292365
-0.855174 0.311332
-0.854848 0.339911
-0.854496 0.362823
-0.854121 0.385300
-0.853724 0.406946
-0.853310 0.419538
-0.852883 0.435851
-0.852434 0.462918
-0.851956 0.491688
-0.851449 0.521588
-0.850912 0.550412
-0.850347 0.579254
-0.849751 0.612272
-0.849120 0.649105
-0.848452 0.685043
-0.847749 0.719520
-0.847012 0.752960
-0.846239 0.792634
-0.845424 0.834757
-0.844568 0.876569
-0.843670 0.917111
-0.842733 0.955294
-0.841755 0.998755
-0.840733 1.042880
-0.839667 1.088469
-0.838554 1.134099
-0.837398 1.175698
-0.836200 1.217145
-0.834960 1.262772
-0.833673 1.306412
-0.832344 1.349622
-0.830971 1.392715
-0.829558 1.429062
-0.828110 1.464552
-0.826625 1.503847
-0.825101 1.539550
-0.823544 1.572535
-0.821953 1.603747
-0.820336 1.626204
-0.818699 1.645385
-0.817042 1.665453
-0.815365 1.682822
-0.813673 1.698156
-0.811967 1.709373
-0.810254 1.712263
-0.808541 1.709597
-0.806833 1.703239
-0.805133 1.691987
-0.803447 1.676078
-0.801777 1.659507
-0.800125 1.640665
-0.798495 1.615315
-0.796893 1.584161
-0.795325 1.549540
-0.793793 1.509737
-0.792304 1.464212
-0.790862 1.416609
-0.789469 1.366511
-0.788127 1.313954
-0.786838 1.261881
-0.785602 1.206416
-0.784424 1.146610
-0.783307 1.085453
-0.782252 1.023251
-0.781259 0.959971
-0.780330 0.895723
-0.779466 0.831413
-0.778665 0.768553
-0.777927 0.705421
-0.777252 0.643334
-0.776640 0.577219
-0.776098 0.506598
-0.775625 0.440277
-0.775217 0.375058
-0.774873 0.311670
-0.774591 0.252872
-0.774364 0.202542
-0.774185 0.155342
-0.774056 0.098564
-0.773990 0.033235
-0.774002 -0.067364
-0.774148 -0.236879
-0.774502 -0.485452
-0.775144 -0.805379
-0.776135 -1.187606
-0.777531 -1.598305
-0.779325 -1.979231
-0.781464 -2.273416
-0.783846 -2.474208
-0.786391 -2.594759
-0.789023 -2.664456
-0.791711 -2.690660
-0.794391 -2.659556
-0.797018 -2.578088
-0.799534 -2.440718
-0.801867 -2.191671
-0.803872 -1.793991
-0.805420 -1.278666
-0.806404 -0.679422
-0.806773 -0.059688
-0.806530 0.540154
-0.805707 1.093878
-0.804370 1.556860
-0.802636 1.881238
-0.800652 2.061509
-0.798554 2.108089
-0.796472 2.033873
-0.794512 1.869330
-0.792746 1.655681
-0.791209 1.407679
-0.789943 1.113783
-0.788998 0.763190
-0.788435 0.353775
-0.788301 -0.089866
-0.788610 -0.518736
-0.789317 -0.880632
-0.790341 -1.146659
-0.791582 -1.320554
-0.792956 -1.408037
-0.794373 -1.410220
-0.795753 -1.334287
-0.797025 -1.201653
-0.798143 -1.023855
-0.799056 -0.790856
-0.799712 -0.512741
-0.800075 -0.209911
-0.800131 0.096628
-0.799886 0.386983
-0.799370 0.633909
-0.798637 0.823444
-0.797744 0.947577
-0.796764 0.998883
-0.795768 0.979132
-0.794824 0.899605
-0.793978 0.787337
-0.793255 0.651091
-0.792684 0.485143
-0.792293 0.291591
-0.792106 0.081793
-0.792130 -0.131001
-0.792364 -0.332288
-0.792786 -0.503820
-0.793358 -0.632677
-0.794038 -0.718613
-0.794783 -0.761913
-0.795548 -0.758667
-0.796287 -0.712478
-0.796964 -0.634420
-0.797549 -0.530275
-0.798017 -0.400870
-0.798342 -0.242577
-0.798497 -0.067620
-0.798478 0.103505
-0.798296 0.256961
-0.797973 0.382450
-0.797541 0.475965
-0.797033 0.531404
-0.796490 0.545690
-0.795953 0.522660
-0.795453 0.473113
-0.795012 0.404615
-0.794649 0.319103
-0.794379 0.217629
-0.794217 0.104852
-0.794171 -0.013319
-0.794242 -0.128407
-0.794424 -0.233645
-0.794704 -0.321955
-0.795060 -0.384755
-0.795466 -0.422950
-0.795899 -0.437424
-0.796334 -0.426267
-0.796745 -0.392895
-0.797114 -0.341980
-0.797425 -0.276792
-0.797664 -0.198299
-0.797818 -0.106632
-0.797875 -0.007592
-0.797835 0.086332
-0.797706 0.168070
-0.797504 0.233424
-0.797246 0.277926
-0.796955 0.300431
-0.796652 0.300751
-0.796358 0.283200
-0.796089 0.252524
-0.795857 0.208738
-0.795675 0.154659
-0.795550 0.093957
-0.795488 0.028165
-0.795494 -0.038144
-0.795564 -0.100963
-0.795694 -0.157149
-0.795875 -0.202901
-0.796095 -0.234761
-0.796340 -0.250981
-0.796593 -0.253119
-0.796842 -0.242112
-0.797074 -0.219174
-0.797277 -0.186038
-0.797443 -0.144009
-0.797563 -0.094843
-0.797632 -0.042489
-0.797648 0.010292
-0.797612 0.061037
-0.797528 0.104501
-0.797406 0.137538
-0.797257 0.158013
-0.797094 0.166284
-0.796928 0.164033
-0.796769 0.152532
-0.796625 0.132266
-0.796506 0.104501
-0.796418 0.070972
-0.796365 0.034437
-0.796349 -0.002991
-0.796371 -0.040008
-0.796429 -0.074209
-0.796518 -0.103752
-0.796634 -0.126982
-0.796770 -0.142759
-0.796917 -0.149598
-0.797066 -0.147625
-0.797210 -0.138519
-0.797341 -0.122431
-0.797453 -0.100221
-0.797541 -0.073824
-0.797600 -0.045027
-0.797631 -0.015442
-0.797632 0.013063
-0.797605 0.039033
-0.797555 0.060461
-0.797486 0.076216
-0.797404 0.085871
-0.797316 0.089114
-0.797228 0.086391
-0.797145 0.077836
-0.797074 0.064412
-0.797018 0.046895
-0.796981 0.026693
-0.796965 0.005190
-0.796970 -0.016207
-0.796997 -0.036383
-0.797042 -0.054566
-0.797105 -0.069583
-0.797180 -0.080658
-0.797265 -0.087147
-0.797353 -0.088826
-0.797441 -0.085915
-0.797524 -0.078887
-0.797598 -0.068134
-0.797659 -0.054537
-0.797706 -0.039125
-0.797737 -0.022749
-0.797752 -0.006627
-0.797751 0.008467
-0.797736 0.021501
-0.797709 0.031839
-0.797673 0.039082
-0.797632 0.042932
-0.797588 0.043230
-0.797546 0.040049
-0.797509 0.033977
-0.797479 0.025334
-0.797459 0.014803
-0.797450 0.003085
-0.797453 -0.009041
-0.797468 -0.020811
-0.797494 -0.031638
-0.797531 -0.040978
-0.797576 -0.048374
-0.797627 -0.053460
-0.797682 -0.055957
-0.797738 -0.055924
-0.797793 -0.053454
-0.797844 -0.048787
-0.797890 -0.042553
-0.797929 -0.034350
-0.797959 -0.027705
-0.797981 -0.011712
-0.797994 -0.027994
-0.798003 0.058685
-0.797975 -0.149591
-0.798050 0.398038
-0.795568 0.797105
