0.006514 0.009175 -0.182591
-0.381375 4.636473
-0.376600 4.921460
-0.371486 5.313174
-0.365937 5.783494
-0.359893 6.297067
-0.353321 6.837682
-0.346200 7.391840
-0.338521 7.950789
-0.330282 8.509722
-0.321485 9.066091
-0.312133 9.620502
-0.302224 10.176577
-0.291762 10.722537
-0.280771 11.228609
-0.269284 11.730406
-0.257408 11.868200
-0.245204 12.964485
-0.233506 7.909552
-0.232781 -7.371338
-0.246240 -16.589214
-0.263012 -16.873221
-0.279445 -15.431220
-0.293255 -12.041270
-0.303394 -8.180918
-0.309658 -4.393023
-0.312343 -1.065161
-0.311991 1.660602
-0.309229 3.755418
-0.304669 5.261031
-0.298868 6.250942
-0.292298 6.813173
-0.285345 7.025918
-0.278330 6.944121
-0.271159 7.711996
-0.261789 11.780418
-0.246015 20.524099
-0.219221 33.699988
-0.177602 49.710110
-0.119550 66.173360
-0.045502 81.497404
0.042981 94.942932
0.143852 106.227017
0.255020 115.629040
0.374758 123.280914
0.501176 128.976672
0.632327 132.748439
0.766313 134.647288
0.901290 134.743330
1.035516 133.179733
1.167438 130.183950
1.295737 125.966406
1.419268 120.685037
1.537036 114.468476
1.648154 107.410586
1.751812 99.571444
1.847258 91.020264
1.933831 81.859720
2.010969 72.181005
2.078187 62.049301
2.135055 51.508697
2.181181 40.588881
2.216208 29.351541
2.239870 17.896446
2.252005 6.346017
2.252584 -5.177666
2.242009 -15.593315
2.222202 -23.501421
2.195317 -30.338308
2.161254 -37.808223
2.119616 -45.304082
2.070589 -52.697884
2.014415 -59.191179
1.952688 -63.887809
1.887038 -67.005681
1.819122 -68.385506
1.750872 -67.543206
1.684764 -64.113831
1.623257 -58.464661
1.568210 -51.337370
1.520736 -43.438833
1.481314 -35.334886
1.449945 -27.382045
1.426317 -19.962988
1.410451 -11.130637
1.405492 2.070496
1.415341 17.504264
1.440403 32.540945
1.480374 47.236367
1.534779 61.360538
1.602990 74.800180
1.684269 87.459351
1.777797 99.259136
1.882671 110.113936
1.997899 119.930266
2.122392 128.611184
2.254978 136.092084
2.394437 142.338758
2.539522 147.330177
2.688972 151.062300
2.841530 153.539963
2.995946 154.776513
3.150985 154.790561
3.305436 153.605464
3.458112 151.246319
3.607851 147.746106
3.753532 143.144538
3.894072 137.479806
4.028431 130.807281
4.155628 123.175362
4.274725 114.635168
4.384848 105.253736
4.485182 95.087572
4.574977 84.212929
4.653565 72.705409
4.720347 60.639704
4.774806 48.095373
4.816502 35.157306
4.845086 21.905798
4.860283 8.430179
4.861913 -5.197020
4.849912 -18.725810
4.825037 -30.418873
4.790034 -39.052484
4.747171 -46.733859
4.696179 -55.294519
4.636116 -64.919864
4.565719 -76.014270
4.483264 -89.119630
4.386371 -105.015003
4.271742 -124.751726
4.134941 -149.511531
3.970546 -179.886658
3.773457 -214.310280
3.541759 -247.948098
3.279423 -274.518153
2.995940 -289.799104
2.703471 -292.413394
2.414902 -281.917780
2.142696 -260.557606
1.894698 -234.904288
1.672070 -210.289841
1.472915 -188.020025
1.294876 -168.082852
1.135687 -150.319077
0.993281 -134.520430
0.865787 -120.489231
0.751534 -108.038838
0.649019 -97.010278
0.556896 -87.249943
0.473968 -78.617712
0.399166 -70.995216
0.331536 -64.271310
0.270230 -58.342399
0.214499 -53.116894
0.163685 -48.503214
0.117220 -44.416812
0.074608 -40.793579
0.035414 -37.581986
-0.000753 -34.735026
-0.034228 -32.193053
-0.065315 -29.985566
-0.094260 -27.780898
-0.120649 -24.728424
-0.143591 -21.151344
-0.163115 -17.936988
-0.179665 -15.213395
-0.193725 -12.946221
-0.205708 -11.053709
-0.215959 -9.475442
-0.224762 -8.149401
-0.232338 -7.013253
-0.238848 -6.014095
-0.244394 -5.063909
-0.248968 -4.058794
-0.252493 -2.971215
-0.254888 -1.797373
-0.256060 -0.530485
-0.255932 0.789118
-0.254492 2.074426
-0.251817 3.246303
-0.248048 4.251197
-0.243375 5.049288
-0.238013 5.628134
-0.232172 6.013144
-0.226026 6.244854
-0.219718 6.333025
-0.213400 6.262228
-0.207240 6.013711
-0.201422 5.578992
-0.196131 4.963177
-0.191537 4.195945
-0.187768 3.318919
-0.184923 2.349479
-0.183092 1.296933
-0.182347 0.182133
-0.182741 -0.973602
-0.184304 -2.152655
-0.187051 -3.333566
-0.190971 -4.492254
-0.196013 -5.557644
-0.202021 -6.393666
-0.208709 -6.916582
-0.215770 -7.145941
-0.222932 -7.124641
-0.229967 -6.906279
-0.236715 -6.558325
-0.243069 -6.126783
-0.248965 -5.649243
-0.254376 -5.163252
-0.259308 -4.694862
-0.263787 -4.261138
-0.267854 -3.873956
-0.271556 -3.527824
-0.274927 -3.212035
-0.277999 -2.931442
-0.280810 -2.693032
-0.283405 -2.498579
-0.285827 -2.348157
-0.288120 -2.241035
-0.290327 -2.174610
-0.292487 -2.147584
-0.294635 -2.145675
-0.296783 -2.144642
-0.298927 -2.138732
-0.301065 -2.134046
-0.303201 -2.134758
-0.305341 -2.142723
-0.307494 -2.159317
-0.309667 -2.185444
-0.311865 -2.198909
-0.314058 -2.178019
-0.316216 -2.130389
-0.318318 -2.066765
-0.320351 -1.993683
-0.322308 -1.916408
-0.324187 -1.838839
-0.325990 -1.763406
-0.327719 -1.691886
-0.329379 -1.625665
-0.330975 -1.564815
-0.332513 -1.509820
-0.334000 -1.460766
-0.335440 -1.417292
-0.336839 -1.379079
-0.338202 -1.345730
-0.339535 -1.316692
-0.340840 -1.291312
-0.342121 -1.269573
-0.343382 -1.250807
-0.344626 -1.234722
-0.345855 -1.221104
-0.347071 -1.209542
-0.348277 -1.199769
-0.349474 -1.191564
-0.350663 -1.184872
-0.351846 -1.179445
-0.353025 -1.174935
-0.354199 -1.171213
-0.355370 -1.167856
-0.356537 -1.164975
-0.357702 -1.162676
-0.358865 -1.160670
-0.360026 -1.158651
-0.361185 -1.157065
-0.362342 -1.155473
-0.363498 -1.154033
-0.364653 -1.152491
-0.365805 -1.150566
-0.366956 -1.148832
-0.368105 -1.146609
-0.369252 -1.144507
-0.370396 -1.142118
-0.371538 -1.139076
-0.372677 -1.135962
-0.373812 -1.132345
-0.374943 -1.127673
-0.376070 -1.123905
-0.377192 -1.115576
-0.378307 -1.117942
-0.379421 -1.094545
-0.380449 -0.923911
-0.381219 -0.596661
-0.381599 -0.135281
-0.381444 0.460773
-0.380632 1.188865
-0.379060 1.930151
-0.376839 2.457368
-0.374250 2.655316
-0.371632 2.527771
-0.369256 2.201991
-0.367192 1.971844
-0.365139 2.247792
-0.362508 3.073157
-0.358948 4.016010
-0.354533 4.765831
-0.349489 5.267185
-0.344090 5.463199
-0.338663 5.325557
-0.333500 4.971953
-0.328757 4.475092
-0.324608 3.775625
-0.321267 2.871503
-0.318904 1.835773
-0.317603 0.764535
-0.317355 -0.253093
-0.318071 -1.154501
-0.319620 -1.916383
-0.321860 -2.534142
-0.324647 -3.012718
-0.327850 -3.368921
-0.331354 -3.613831
-0.335053 -3.760626
-0.338857 -3.829372
-0.342694 -3.823736
-0.346486 -3.740702
-0.350163 -3.597861
-0.353677 -3.417756
-0.356998 -3.216749
-0.360114 -3.009068
-0.363024 -2.805337
-0.365735 -2.612965
-0.368260 -2.436028
-0.370617 -2.274692
-0.372819 -2.128244
-0.374882 -1.996794
-0.376821 -1.879563
-0.378650 -1.775537
-0.380380 -1.684206
-0.382025 -1.604441
-0.383596 -1.534951
-0.385101 -1.474874
-0.386551 -1.423008
-0.387953 -1.377922
-0.389312 -1.338790
-0.390634 -1.304472
-0.391925 -1.274464
-0.393187 -1.247763
-0.394424 -1.223687
-0.395638 -1.202482
-0.396832 -1.183065
-0.398007 -1.165440
-0.399166 -1.149819
-0.400309 -1.135808
-0.401440 -1.123526
-0.402559 -1.112750
-0.403668 -1.103830
-0.404770 -1.096819
-0.405865 -1.091363
-0.406955 -1.087681
-0.408043 -1.085849
-0.409130 -1.085499
-0.410217 -1.086551
-0.411305 -1.088794
-0.412397 -1.091976
-0.413492 -1.096057
-0.414591 -1.100593
-0.415695 -1.105523
-0.416804 -1.110230
-0.417918 -1.114853
-0.419036 -1.119127
-0.420158 -1.122699
-0.421284 -1.125965
-0.422412 -1.128601
-0.423543 -1.130445
-0.424675 -1.131882
-0.425809 -1.132693
-0.426943 -1.133036
-0.428077 -1.133246
-0.429211 -1.132999
-0.430345 -1.132701
-0.431479 -1.132286
-0.432612 -1.132065
-0.433745 -1.132246
-0.434879 -1.132575
-0.436013 -1.133424
-0.437148 -1.134901
-0.438285 -1.136786
-0.439424 -1.139191
-0.440566 -1.142062
-0.441711 -1.145334
-0.442859 -1.149050
-0.444011 -1.152842
-0.445167 -1.156653
-0.446327 -1.160601
-0.447491 -1.164449
-0.448658 -1.168121
-0.449829 -1.171496
-0.451003 -1.174764
-0.452181 -1.177743
-0.453361 -1.180499
-0.454544 -1.183183
-0.455730 -1.185437
-0.456918 -1.187804
-0.458108 -1.190242
-0.459300 -1.192509
-0.460495 -1.194913
-0.461693 -1.197473
-0.462893 -1.200397
-0.464096 -1.203254
-0.465302 -1.206535
-0.466511 -1.210134
-0.467724 -1.213681
-0.468941 -1.217708
-0.470162 -1.221918
-0.471388 -1.226145
-0.472617 -1.230500
-0.473851 -1.234920
-0.475089 -1.239426
-0.476332 -1.243732
-0.477579 -1.248025
-0.478831 -1.252121
-0.480086 -1.256030
-0.481345 -1.259983
-0.482608 -1.263465
-0.483875 -1.266699
-0.485144 -1.270139
-0.486418 -1.273459
-0.487694 -1.276340
-0.488973 -1.279435
-0.490255 -1.282305
-0.491540 -1.285116
-0.492828 -1.288233
-0.494119 -1.291169
-0.495413 -1.294235
-0.496710 -1.297370
-0.498010 -1.300503
-0.499314 -1.303814
-0.500621 -1.307220
-0.501931 -1.310573
-0.503244 -1.313953
-0.504561 -1.317257
-0.505882 -1.320705
-0.507205 -1.323990
-0.508532 -1.327102
-0.509862 -1.330174
-0.511195 -1.333073
-0.512531 -1.335859
-0.513869 -1.338513
-0.515211 -1.340916
-0.516554 -1.343211
-0.517900 -1.345383
-0.519247 -1.347465
-0.520597 -1.349441
-0.521949 -1.351204
-0.523302 -1.352907
-0.524657 -1.354635
-0.526014 -1.356160
-0.527372 -1.357692
-0.528732 -1.359241
-0.530094 -1.360675
-0.531456 -1.362200
-0.532821 -1.363381
-0.534186 -1.364774
-0.535553 -1.366149
-0.536921 -1.367361
-0.538290 -1.368504
-0.539661 -1.369441
-0.541032 -1.370485
-0.542404 -1.371401
-0.543777 -1.372034
-0.545151 -1.372645
-0.546525 -1.373121
-0.547900 -1.373429
-0.549275 -1.373638
-0.550650 -1.373782
-0.552025 -1.373733
-0.553400 -1.373369
-0.554775 -1.373115
-0.556149 -1.372624
-0.557523 -1.372020
-0.558896 -1.371379
-0.560268 -1.370423
-0.561640 -1.369624
-0.563010 -1.368602
-0.564379 -1.367322
-0.565747 -1.366184
-0.567114 -1.364814
-0.568480 -1.363267
-0.569844 -1.361710
-0.571206 -1.359964
-0.572566 -1.358177
-0.573925 -1.356244
-0.575281 -1.354034
-0.576636 -1.351945
-0.577988 -1.349676
-0.579338 -1.347135
-0.580685 -1.344530
-0.582029 -1.341818
-0.583371 -1.338883
-0.584710 -1.335869
-0.586045 -1.332632
-0.587378 -1.329288
-0.588707 -1.326043
-0.590032 -1.322617
-0.591355 -1.319107
-0.592673 -1.315550
-0.593988 -1.311323
-0.595299 -1.307719
-0.596605 -1.300794
-0.597897 -1.275567
-0.599153 -1.233848
-0.600364 -1.184430
-0.601521 -1.126019
-0.602618 -1.064089
-0.603651 -0.998987
-0.604618 -0.934668
-0.605521 -0.866050
-0.606345 -0.776465
-0.607072 -0.679229
-0.607709 -0.595467
-0.608269 -0.524825
-0.608762 -0.460766
-0.609192 -0.399262
-0.609561 -0.337887
-0.609870 -0.281779
-0.610127 -0.231702
-0.610337 -0.190833
-0.610508 -0.146104
-0.610617 -0.064088
-0.610632 0.032125
-0.610558 0.112755
-0.610402 0.205285
-0.610153 0.281458
-0.609845 0.338881
-0.609475 0.395478
-0.609059 0.433253
-0.608600 0.493563
-0.608063 0.579020
-0.607447 0.645394
-0.606782 0.677941
-0.606095 0.694930
-0.605393 0.704546
-0.604683 0.717667
-0.603955 0.733437
-0.603218 0.738877
-0.602477 0.741044
-0.601736 0.739481
-0.600998 0.733575
-0.600269 0.721819
-0.599552 0.712632
-0.598835 0.725667
-0.598099 0.741552
-0.597353 0.749685
-0.596600 0.751198
-0.595853 0.741106
-0.595117 0.727580
-0.594400 0.704988
-0.593711 0.668001
-0.593063 0.628696
-0.592448 0.602374
-0.591856 0.577776
-0.591291 0.554543
-0.590745 0.534308
-0.590222 0.511806
-0.589720 0.491714
-0.589236 0.476021
-0.588765 0.465881
-0.588301 0.463120
-0.587835 0.468371
-0.587360 0.483975
-0.586863 0.510293
-0.586335 0.545491
-0.585768 0.589363
-0.585152 0.641839
-0.584480 0.702545
-0.583743 0.770318
-0.582936 0.844008
-0.582052 0.921979
-0.581087 1.009247
-0.580029 1.106166
-0.578872 1.205085
-0.577618 1.299084
-0.576272 1.388577
-0.574840 1.470374
-0.573336 1.530393
-0.571785 1.565711
-0.570206 1.586908
-0.568607 1.609145
-0.566983 1.635341
-0.565334 1.658297
-0.563667 1.669539
-0.561996 1.669602
-0.560328 1.660992
-0.558673 1.645558
-0.557050 1.579390
-0.555503 1.537772
-0.553978 1.477022
-0.552603 1.244205
-0.551479 1.036373
-0.550501 0.910823
-0.549667 0.751567
-0.548976 0.653298
-0.548286 0.772128
-0.547418 0.925340
-0.546495 0.894323
-0.545601 0.945454
-0.544628 0.919519
-0.543812 0.737544
-0.543085 0.753381
-0.542262 0.892228
-0.541277 1.096784
-0.540063 1.312498
-0.538666 1.480138
-0.537110 1.618125
-0.535439 1.719164
-0.533678 1.790615
-0.531848 1.878165
-0.529889 2.051369
-0.527754 2.187330
-0.525520 2.294718
-0.523156 2.414222
-0.520700 2.493084
-0.518166 2.567153
-0.515563 2.634825
-0.512895 2.692456
-0.510171 2.754756
-0.507379 2.819890
-0.504530 2.870055
-0.501635 2.913802
-0.498698 2.952555
-0.495726 2.986535
-0.492721 3.016490
-0.489688 3.042481
-0.486631 3.064922
-0.483553 3.084070
-0.480458 3.099936
-0.477347 3.114263
-0.474225 3.123784
-0.471092 3.137853
-0.467940 3.158827
-0.464761 3.199940
-0.461537 3.232048
-0.458293 3.256407
-0.455013 3.293310
-0.451704 3.318149
-0.448380 3.313274
-0.445060 3.341228
-0.441694 3.361809
-0.438328 3.388402
-0.434910 3.416123
-0.431502 3.403631
-0.428089 3.412117
-0.424671 3.420490
-0.421237 3.440169
-0.417785 3.455378
-0.414319 3.470611
-0.410836 3.489983
-0.407332 3.510697
-0.403807 3.533201
-0.400258 3.557140
-0.396685 3.581576
-0.393087 3.606682
-0.389464 3.632869
-0.385814 3.660067
-0.382137 3.686730
-0.378431 3.719014
-0.374688 3.762888
-0.370897 3.811232
-0.367060 3.852137
-0.363183 3.897359
-0.359258 3.941470
-0.355295 3.978642
-0.351293 4.014884
-0.347258 4.049100
-0.343186 4.085211
-0.339081 4.115151
-0.334947 4.146023
-0.330779 4.182636
-0.326574 4.217937
-0.322336 4.248439
-0.318070 4.274609
-0.313779 4.298665
-0.309464 4.321727
-0.305127 4.343823
-0.300768 4.364754
-0.296389 4.384262
-0.291991 4.402977
-0.287575 4.420321
-0.283143 4.435342
-0.278696 4.448482
-0.274238 4.459403
-0.269769 4.468365
-0.265293 4.475310
-0.260810 4.481770
-0.256321 4.486781
-0.251827 4.491940
-0.247328 4.494636
-0.242827 4.503972
-0.238310 4.518337
-0.233775 4.549188
-0.229206 4.569126
-0.224636 4.564168
-0.220068 4.561434
-0.215505 4.556761
-0.210944 4.555037
-0.206387 4.548502
-0.201839 4.540410
-0.197298 4.530094
-0.192767 4.525543
-0.188238 4.519578
-0.183721 4.508106
-0.179213 4.498860
-0.174715 4.487542
-0.170228 4.476786
-0.165753 4.465190
-0.161289 4.453199
-0.156838 4.440512
-0.152399 4.427228
-0.147974 4.413534
-0.143564 4.398843
-0.139168 4.383723
-0.134788 4.367939
-0.130424 4.351370
-0.126076 4.334409
-0.121747 4.316666
-0.117435 4.298403
-0.113141 4.279822
-0.108867 4.260633
-0.104612 4.241205
-0.100376 4.221401
-0.096160 4.201381
-0.091965 4.181194
-0.087790 4.160589
-0.083635 4.140098
-0.079501 4.119421
-0.075388 4.098365
-0.071296 4.077177
-0.067226 4.055585
-0.063177 4.033353
-0.059151 4.010617
-0.055148 3.986762
-0.051168 3.967015
-0.047208 3.943373
-0.043274 3.919066
-0.039357 3.909891
-0.035444 3.907546
-0.031538 3.893599
-0.027648 3.882888
-0.023764 3.873965
-0.019894 3.859258
-0.016035 3.850663
-0.012187 3.837005
-0.008355 3.817800
-0.004540 3.808925
-0.000732 3.794369
0.003051 3.765180
0.006813 3.755771
0.010569 3.742525
0.014303 3.723339
0.018026 3.712957
0.021734 3.694715
0.025421 3.670880
0.029082 3.642646
0.032710 3.605006
0.036297 3.561211
0.039844 3.529064
0.043357 3.481941
0.046818 3.444716
0.050262 3.432890
0.053685 3.402550
0.057076 3.378758
0.060444 3.341298
0.063766 3.306663
0.067069 3.285404
0.070333 3.233885
0.073541 3.177290
0.076698 3.131521
0.079810 3.084697
0.082876 3.046107
0.085905 2.997896
0.088881 2.957840
0.091828 2.920368
0.094722 2.866344
0.097566 2.811319
0.100348 2.749921
0.103069 2.681643
0.105717 2.615118
0.108306 2.553373
0.110826 2.481501
0.113274 2.410035
0.115651 2.339447
0.117956 2.265182
0.120189 2.200189
0.122355 2.115362
0.124419 2.016051
0.126384 1.896530
0.128172 1.646756
0.129682 1.400858
0.130996 1.213180
0.132081 0.934681
0.132831 0.546254
0.133256 0.404118
0.133643 0.271244
0.133764 0.031631
0.133712 -0.190055
0.133416 -0.313759
0.133101 -0.388233
0.132576 -0.651572
0.131800 -0.903854
0.130806 -1.036815
0.129768 -1.038767
0.128760 -0.940202
0.127882 -0.851784
0.127042 -0.800842
0.126283 -0.738423
0.125548 -0.724554
0.124842 -0.682227
0.124165 -0.689797
0.123435 -0.775819
0.122619 -0.841266
0.121763 -0.868797
0.120881 -0.892583
0.119977 -0.914289
0.119049 -0.939533
0.118094 -0.968879
0.117108 -1.001205
0.116090 -1.034424
0.115038 -1.067212
0.113954 -1.098633
0.112839 -1.128766
0.111694 -1.157806
0.110521 -1.186428
0.109319 -1.215888
0.108086 -1.247064
0.106821 -1.281001
0.105521 -1.318026
0.104181 -1.358617
0.102799 -1.403597
0.101369 -1.454337
0.099885 -1.511251
0.098342 -1.574441
0.096731 -1.644109
0.095048 -1.719408
0.093287 -1.799948
0.091443 -1.884915
0.089512 -1.973619
0.087491 -2.065316
0.085377 -2.159674
0.083167 -2.256092
0.080860 -2.353882
0.078454 -2.452836
0.075949 -2.552205
0.073344 -2.652000
0.070639 -2.752092
0.067834 -2.852487
0.064929 -2.953425
0.061921 -3.055350
0.058811 -3.158932
0.055596 -3.264816
0.052274 -3.373897
0.048841 -3.486720
0.045292 -3.604148
0.041623 -3.726786
0.037829 -3.855393
0.033903 -3.990249
0.029838 -4.131798
0.025629 -4.280412
0.021267 -4.436082
0.016745 -4.598588
0.012058 -4.767742
0.007198 -4.943201
0.002160 -5.124049
-0.003062 -5.310321
-0.008473 -5.500850
-0.014076 -5.694961
-0.019875 -5.892028
-0.025873 -6.091179
-0.032070 -6.291953
-0.038469 -6.493535
-0.045070 -6.695307
-0.051873 -6.896786
-0.058878 -7.098292
-0.066084 -7.298356
-0.073490 -7.500989
-0.081096 -7.690723
-0.088843 -7.749283
-0.096546 -7.615418
-0.104019 -7.270261
-0.111048 -6.766891
-0.117571 -6.280021
-0.123631 -5.824140
-0.129247 -5.414079
-0.134501 -5.094675
-0.139467 -4.838373
-0.144203 -4.631199
-0.148751 -4.459467
-0.153140 -4.313699
-0.157393 -4.186576
-0.161526 -4.073284
-0.165551 -3.970153
-0.169477 -3.874532
-0.173310 -3.784587
-0.177055 -3.699485
-0.180717 -3.617950
-0.184299 -3.539521
-0.187804 -3.463794
-0.191235 -3.390718
-0.194593 -3.319987
-0.197882 -3.251748
-0.201104 -3.186099
-0.204262 -3.122786
-0.207357 -3.062375
-0.210393 -3.004376
-0.213373 -2.949136
-0.216298 -2.896443
-0.219172 -2.846425
-0.221998 -2.798857
-0.224776 -2.753593
-0.227511 -2.710625
-0.230204 -2.669523
-0.232856 -2.630335
-0.235470 -2.592728
-0.238047 -2.556566
-0.240589 -2.521353
-0.243096 -2.487301
-0.245569 -2.454227
-0.248009 -2.421715
-0.250417 -2.389727
-0.252793 -2.358228
-0.255139 -2.327338
-0.257453 -2.296779
-0.259737 -2.266823
-0.261991 -2.237185
-0.264216 -2.208225
-0.266412 -2.180114
-0.268581 -2.152574
-0.270722 -2.125938
-0.272837 -2.100334
-0.274927 -2.075514
-0.276993 -2.051505
-0.279035 -2.028518
-0.281054 -2.006145
-0.283051 -1.984671
-0.285028 -1.963795
-0.286983 -1.943675
-0.288919 -1.924321
-0.290836 -1.905145
-0.292733 -1.886775
-0.294613 -1.868769
-0.296475 -1.851084
-0.298319 -1.833696
-0.300146 -1.816702
-0.301956 -1.799845
-0.303749 -1.783062
-0.305526 -1.766558
-0.307286 -1.750090
-0.309030 -1.734008
-0.310757 -1.717954
-0.312469 -1.702207
-0.314165 -1.686815
-0.315846 -1.671637
-0.317512 -1.657076
-0.319164 -1.642572
-0.320801 -1.628648
-0.322425 -1.615284
-0.324035 -1.602376
-0.325633 -1.589934
-0.327218 -1.577791
-0.328792 -1.566391
-0.330354 -1.555074
-0.331905 -1.544452
-0.333446 -1.534183
-0.334977 -1.524091
-0.336497 -1.514310
-0.338008 -1.505019
-0.339510 -1.495935
-0.341003 -1.487041
-0.342488 -1.478471
-0.343963 -1.469901
-0.345431 -1.461836
-0.346890 -1.453650
-0.348341 -1.445573
-0.349784 -1.437654
-0.351219 -1.429832
-0.352647 -1.422304
-0.354066 -1.414771
-0.355479 -1.407627
-0.356885 -1.400847
-0.358284 -1.394168
-0.359676 -1.387806
-0.361062 -1.382076
-0.362443 -1.376377
-0.363818 -1.370928
-0.365188 -1.366119
-0.366553 -1.361473
-0.367913 -1.357283
-0.369270 -1.353352
-0.370623 -1.349665
-0.371972 -1.346313
-0.373318 -1.342957
-0.374661 -1.340049
-0.376001 -1.337558
-0.377339 -1.334423
-0.378674 -1.335145
-0.380007 -1.322808
-0.381338 -1.357956
-0.382676 -1.243581
-0.383970 -1.555486
-0.385424 -0.769534
-0.381375 4.636473
