-0.165588 0.180572 -0.635148
-0.754857 17.445137
-0.737659 16.905083
-0.721035 16.298343
-0.705052 15.625775
-0.689774 14.889736
-0.675262 14.095296
-0.661572 13.249565
-0.648751 12.361990
-0.636835 11.440298
-0.625857 10.490102
-0.615840 9.520361
-0.606801 8.538351
-0.598749 7.548842
-0.591688 6.560097
-0.585613 5.577938
-0.580512 4.623397
-0.576360 3.660310
-0.573076 3.020631
-0.569953 3.459815
-0.565881 4.702536
-0.560490 6.088880
-0.553697 7.456125
-0.545638 8.599943
-0.536588 9.419669
-0.526902 9.873277
-0.516938 9.979960
-0.507018 9.798041
-0.497395 9.398391
-0.488252 8.849978
-0.479705 8.216759
-0.471814 7.549201
-0.464592 6.882048
-0.458029 6.236439
-0.452009 5.883517
-0.445979 6.343433
-0.438969 7.824313
-0.430038 10.134105
-0.418564 12.792160
-0.404505 15.219000
-0.388279 17.095599
-0.370484 18.360736
-0.351703 19.079001
-0.332439 19.343792
-0.313098 19.246092
-0.294001 18.869746
-0.275391 18.282581
-0.257451 17.539233
-0.240317 16.677209
-0.224092 15.729816
-0.208842 14.734673
-0.194600 13.718494
-0.181380 12.695662
-0.169182 11.676809
-0.157999 10.668627
-0.147819 9.673564
-0.138627 8.696485
-0.130402 7.737892
-0.123128 6.799697
-0.116782 5.882541
-0.111344 4.986949
-0.106793 4.109246
-0.103111 3.250668
-0.100276 2.418123
-0.098260 1.614733
-0.097031 0.847466
-0.096521 0.208632
-0.096534 -0.191326
-0.096862 -0.464573
-0.097470 -0.756795
-0.098387 -1.079731
-0.099640 -1.426757
-0.101248 -1.788077
-0.103222 -2.154915
-0.105558 -2.509748
-0.108229 -2.813153
-0.111146 -2.982853
-0.114134 -2.951466
-0.116989 -2.724595
-0.119539 -2.351429
-0.121668 -1.891975
-0.123315 -1.395085
-0.124460 -0.896245
-0.125122 -0.438212
-0.125283 0.184032
-0.124600 1.267533
-0.122670 2.576479
-0.119461 3.828130
-0.115026 5.018983
-0.109443 6.120098
-0.102809 7.115227
-0.095237 7.995779
-0.086843 8.752794
-0.077755 9.386832
-0.068092 9.896961
-0.057983 10.281887
-0.047546 10.551179
-0.036896 10.710509
-0.026136 10.771410
-0.015361 10.742912
-0.004655 10.636199
0.005910 10.461476
0.016268 10.225303
0.026364 9.938414
0.036149 9.604923
0.045580 9.232441
0.054622 8.827027
0.063242 8.391039
0.071412 7.929364
0.079109 7.445337
0.086311 6.941550
0.093000 6.420235
0.099159 5.883004
0.104773 5.332586
0.109830 4.769071
0.114317 4.194099
0.118224 3.609836
0.121540 3.014830
0.124257 2.410788
0.126365 1.800236
0.127858 1.180529
0.128729 0.564092
0.129025 0.061225
0.128913 -0.257618
0.128525 -0.529228
0.127831 -0.869292
0.126757 -1.293306
0.125203 -1.833099
0.123035 -2.528763
0.120066 -3.445792
0.116034 -4.668862
0.110582 -6.303232
0.103249 -8.433573
0.093552 -11.002022
0.081173 -13.722734
0.066171 -16.169065
0.049006 -18.005610
0.030391 -19.038725
0.011216 -19.095345
-0.007524 -18.212603
-0.025082 -16.839880
-0.041216 -15.400969
-0.055933 -14.016848
-0.069302 -12.707496
-0.081400 -11.477898
-0.092307 -10.327102
-0.102101 -9.254122
-0.110859 -8.256284
-0.118655 -7.331072
-0.125559 -6.475594
-0.131640 -5.684671
-0.136962 -4.958390
-0.141587 -4.291424
-0.145571 -3.678772
-0.148970 -3.119478
-0.151832 -2.607716
-0.154205 -2.141864
-0.156135 -1.719397
-0.157661 -1.335308
-0.158820 -0.986574
-0.159646 -0.668657
-0.160171 -0.389800
-0.160419 -0.090003
-0.160288 0.400136
-0.159574 1.023984
-0.158252 1.604622
-0.156386 2.111562
-0.154050 2.544201
-0.151313 2.914331
-0.148233 3.232105
-0.144857 3.505849
-0.141225 3.747312
-0.137362 3.967129
-0.133284 4.182879
-0.128982 4.416636
-0.124434 4.674346
-0.119617 4.954308
-0.114508 5.255809
-0.109090 5.570301
-0.103360 5.874333
-0.097339 6.149504
-0.091062 6.384685
-0.084574 6.570050
-0.077925 6.705853
-0.071162 6.801239
-0.064320 6.865445
-0.057426 6.903108
-0.050509 6.911721
-0.043600 6.886529
-0.036734 6.826410
-0.029946 6.730330
-0.023269 6.607740
-0.016724 6.463666
-0.010335 6.301380
-0.004114 6.122986
0.001919 5.929415
0.007753 5.727180
0.013382 5.517404
0.018798 5.303988
0.024001 5.090807
0.028995 4.892523
0.033809 4.735720
0.038496 4.640798
0.043120 4.605016
0.047732 4.619530
0.052382 4.674941
0.057102 4.760372
0.061919 4.866780
0.066849 4.985184
0.071901 5.109462
0.077078 5.233968
0.082378 5.353588
0.087794 5.467703
0.093322 5.575661
0.098955 5.678292
0.104689 5.777190
0.110518 5.868458
0.116436 5.953384
0.122435 6.031808
0.128508 6.101295
0.134647 6.163708
0.140846 6.219959
0.147098 6.271056
0.153400 6.321175
0.159754 6.372943
0.166159 6.424574
0.172615 6.473185
0.179118 6.521539
0.185670 6.567645
0.192266 6.610933
0.198905 6.655091
0.205591 6.703586
0.212328 6.757463
0.219120 6.813417
0.225969 6.870510
0.232875 6.928482
0.239840 6.987095
0.246863 7.045799
0.253945 7.102794
0.261083 7.159834
0.268279 7.217208
0.275531 7.272273
0.282838 7.326918
0.290200 7.382364
0.297616 7.435128
0.305085 7.487695
0.312607 7.540926
0.320181 7.591453
0.327805 7.642884
0.335482 7.693392
0.343208 7.743740
0.350985 7.793477
0.358810 7.842684
0.366686 7.892650
0.374611 7.941180
0.382584 7.989888
0.390606 8.038258
0.398677 8.086536
0.406795 8.134412
0.414962 8.182207
0.423176 8.229847
0.431438 8.276909
0.439747 8.323909
0.448102 8.370569
0.456504 8.416791
0.464953 8.462777
0.473447 8.508334
0.481986 8.553441
0.490570 8.598077
0.499199 8.642134
0.507872 8.685668
0.516588 8.728677
0.525346 8.770940
0.534147 8.812477
0.542989 8.853282
0.551871 8.893259
0.560793 8.932207
0.569753 8.970244
0.578751 9.007000
0.587785 9.043354
0.596855 9.076987
0.605951 9.091817
0.615044 9.069119
0.624089 8.993420
0.633026 8.849143
0.641777 8.619329
0.650252 8.300667
0.658374 7.918104
0.666097 7.513891
0.673422 7.125878
0.680379 6.786796
0.687045 6.555114
0.693564 6.508209
0.700131 6.630372
0.706854 6.798578
0.713730 6.933434
0.720719 7.020618
0.727764 7.044358
0.734798 6.998192
0.741762 6.912988
0.748630 6.804234
0.755370 6.654070
0.761937 6.460497
0.768295 6.240310
0.774429 6.015354
0.780343 5.805269
0.786060 5.623483
0.791612 5.474563
0.797031 5.358331
0.802350 5.273354
0.807598 5.215890
0.812800 5.183154
0.817982 5.172171
0.823161 5.178475
0.828354 5.200940
0.833578 5.239445
0.838848 5.289964
0.844171 5.347681
0.849555 5.409110
0.855001 5.472901
0.860509 5.529749
0.866082 5.618185
0.871683 5.484750
0.876932 4.958300
0.881619 4.460213
0.885914 4.121971
0.889767 3.471591
0.892853 2.785428
0.895507 2.587894
0.898075 2.515411
0.900558 2.489809
0.903051 2.437013
0.905351 2.127763
0.907366 1.986153
0.909410 2.090150
0.911464 1.934230
0.913184 1.483405
0.914411 0.963182
0.915150 0.556756
0.915562 0.258738
0.915730 0.146259
0.915903 0.179780
0.916076 0.171897
0.916252 0.177240
0.916430 0.179732
0.916610 0.176642
0.916791 0.196903
0.916973 0.124678
0.917025 0.004716
0.917019 -0.005805
0.917019 0.001849
0.917019 -0.000403
0.917019 0.000066
0.917019 -0.000007
0.917019 0.000000
0.917019 0.000000
0.917019 -0.000000
0.917019 -0.000000
0.917019 0.000000
0.917019 -0.000000
0.917019 0.000000
0.917019 -0.000000
0.917019 0.000000
0.917019 -0.000000
0.917019 0.000000
0.917019 -0.000000
0.917019 0.000000
0.917019 -0.000000
0.917019 0.000000
0.917019 -0.000000
0.917019 0.000000
0.917019 -0.000000
0.917019 0.000000
0.917019 -0.000000
0.917019 0.000000
0.917019 -0.000000
0.917019 0.000000
0.917019 -0.000000
0.917019 0.000000
0.917019 -0.000000
0.917019 0.000000
0.917019 -0.000000
0.917019 0.000000
0.917019 -0.000000
0.917019 0.000000
0.917019 -0.000000
0.917019 0.000000
0.917019 -0.000000
0.917019 0.000000
0.917019 -0.000000
0.917019 0.000000
0.917019 -0.000000
0.917019 0.000000
0.917019 -0.000000
0.917019 0.000000
0.917019 -0.000000
0.917019 0.000000
0.917019 -0.000000
0.917019 0.000000
0.917019 -0.000000
0.917019 0.000000
0.917019 -0.000000
0.917019 0.000000
0.917019 -0.000000
0.917019 0.000000
0.917019 -0.000000
0.917019 0.000000
0.917019 -0.000000
0.917019 0.000000
0.917019 -0.000000
0.917019 0.000000
0.917019 -0.000000
0.917019 0.000000
0.917019 -0.000000
0.917019 0.000000
0.917019 -0.000000
0.917019 0.000000
0.917019 -0.000000
0.917019 0.000000
0.917019 -0.000000
0.917019 0.000000
0.917019 -0.000000
0.917019 0.000000
0.917019 -0.000000
0.917019 0.000000
0.917019 -0.000000
0.917019 0.000000
0.917019 -0.000000
0.917019 0.000000
0.917019 -0.000000
0.917019 0.000000
0.917019 -0.000000
0.917019 0.000000
0.917019 -0.000000
0.917019 0.000000
0.917019 -0.000000
0.917019 0.000000
0.917019 -0.000000
0.917019 0.000000
0.917019 -0.000000
0.917019 0.000000
0.917019 -0.000000
0.917019 0.000000
0.917019 -0.000000
0.917019 0.000000
0.917019 -0.000000
0.917019 0.000000
0.917019 -0.000000
0.917019 0.000000
0.917019 -0.000000
0.917019 0.000000
0.917019 -0.000000
0.917019 0.000000
0.917019 -0.000000
0.917019 0.000000
0.917019 -0.000000
0.917019 0.000000
0.917019 -0.000000
0.917019 0.000000
0.917019 -0.000000
0.917019 0.000000
0.917019 -0.000000
0.917019 0.000000
0.917019 -0.000000
0.917019 0.000000
0.917019 -0.000000
0.917019 0.000000
0.917019 -0.000000
0.917019 0.000000
0.917019 -0.000000
0.917019 0.000000
0.917019 -0.000000
0.917019 0.000000
0.917019 -0.000000
0.917019 0.000000
0.917019 -0.000000
0.917019 0.000000
0.917019 -0.000000
0.917019 0.000000
0.917019 -0.000000
0.917019 0.000000
0.917019 -0.000000
0.917019 0.000000
0.917019 -0.000000
0.917019 0.000000
0.917019 -0.000000
0.917019 0.000000
0.917019 -0.000000
0.917019 0.000000
0.917019 -0.000000
0.917019 0.000000
0.917019 -0.000000
0.917019 0.000000
0.917019 -0.000000
0.917019 0.000000
0.917019 -0.000000
0.917019 0.000000
0.917019 -0.000000
0.917019 0.000000
0.917019 -0.000000
0.917019 0.000000
0.917019 -0.000000
0.917019 0.000000
0.917019 -0.000000
0.917019 0.000000
0.917019 -0.000000
0.917019 0.000000
0.917019 -0.000000
0.917019 0.000000
0.917019 -0.000000
0.917019 0.000000
0.917019 -0.000000
0.917019 0.000000
0.917019 -0.000000
0.917019 0.000000
0.917019 -0.000000
0.917019 0.000000
0.917019 -0.000000
0.917019 0.000000
0.917019 -0.000000
0.917019 0.000000
0.917019 -0.000000
0.917019 0.000000
0.917019 -0.000000
0.917019 0.000000
0.917019 -0.000000
0.917019 0.000000
0.917019 -0.000000
0.917019 0.000000
0.917019 -0.000000
0.917019 0.000000
0.917019 -0.000000
0.917019 0.000000
0.917019 -0.000000
0.917019 0.000000
0.917019 -0.000000
0.917019 0.000000
0.917019 -0.000000
0.917019 0.000000
0.917019 -0.000000
0.917019 0.000000
0.917019 -0.000000
0.917019 0.000000
0.917019 -0.000000
0.917019 0.000000
0.917019 -0.000000
0.917019 0.000000
0.917019 -0.000000
0.917019 0.000000
0.917019 -0.000000
0.917019 0.000000
0.917019 -0.000000
0.917019 0.000000
0.917019 -0.000000
0.917019 0.000000
0.917019 -0.000000
0.917019 0.000000
0.917019 -0.000000
0.917019 0.000000
0.917019 -0.000000
0.917019 0.000000
0.917019 -0.000000
0.917019 0.000000
0.917019 -0.000000
0.917019 0.000000
0.917019 -0.000000
0.917019 0.000000
0.917019 -0.000000
0.917019 0.000000
0.917019 -0.000000
0.917019 0.000000
0.917019 -0.000000
0.917019 0.000000
0.917019 -0.000000
0.917019 0.000000
0.917019 -0.000000
0.917019 0.000000
0.917019 -0.000000
0.917019 0.000000
0.917019 -0.000000
0.917019 0.000000
0.917019 -0.000000
0.917019 0.000000
0.917019 -0.000000
0.917019 0.000000
0.917019 -0.000000
0.917019 0.000000
0.917019 -0.000000
0.917019 0.000000
0.917019 -0.000000
0.917019 0.000000
0.917019 -0.000000
0.917019 0.000000
0.917019 -0.000000
0.917019 0.000000
0.917019 -0.000000
0.917019 0.000000
0.917019 -0.000000
0.917019 0.000000
0.917019 -0.000000
0.917019 0.000000
0.917019 -0.000000
0.917019 0.000000
0.917019 -0.000000
0.917019 0.000000
0.917019 -0.000000
0.917019 0.000000
0.917019 -0.000000
0.917019 0.000000
0.917019 -0.000000
0.917019 0.000000
0.917019 -0.000000
0.917019 0.000000
0.917019 -0.000000
0.917019 0.000000
0.917019 -0.000000
0.917019 0.000000
0.917019 -0.000000
0.917019 0.000000
0.917019 -0.000000
0.917019 0.000000
0.917019 -0.000000
0.917019 0.000000
0.917019 -0.000000
0.917019 0.000000
0.917019 -0.000000
0.917019 0.000000
0.917019 -0.000000
0.917019 0.000000
0.917019 -0.000000
0.917019 0.000000
0.917019 -0.000000
0.917019 0.000000
0.917019 -0.000000
0.917019 0.000000
0.917019 -0.000000
0.917019 0.000000
0.917019 -0.000000
0.917019 0.000000
0.917019 -0.000000
0.917019 0.000000
0.917019 -0.000000
0.917019 0.000000
0.917019 -0.000000
0.917019 0.000000
0.917019 -0.000000
0.917019 0.000000
0.917019 -0.000000
0.917019 0.000000
0.917019 -0.000000
0.917019 0.000000
0.917019 -0.000000
0.917019 0.000000
0.917019 -0.000000
0.917019 0.000000
0.917019 -0.000000
0.917019 0.000000
0.917019 -0.000000
0.917019 0.000000
0.917019 -0.000000
0.917019 0.000000
0.917019 -0.000000
0.917019 0.000000
0.917019 -0.000000
0.917019 0.000000
0.917019 -0.000000
0.917019 0.000000
0.917019 -0.000000
0.917019 0.000000
0.917019 -0.000000
0.917019 0.000000
0.917019 -0.000000
0.917019 0.000000
0.917019 -0.000000
0.917019 0.000000
0.917019 -0.000000
0.917019 0.000000
0.917019 -0.000000
0.917019 0.000000
0.917019 -0.000001
0.917019 0.000005
0.917019 -0.000018
0.917019 0.000070
0.917019 -0.000271
0.917019 0.001007
0.917019 -0.003489
0.917019 0.011005
0.917022 -0.031818
0.917011 0.094359
0.917007 -0.392474
0.915933 -1.757271
0.912952 -4.729599
0.906519 -7.538178
0.898507 -8.409362
0.889181 -10.784497
0.876509 -14.381198
0.860613 -17.309142
0.842186 -19.247865
0.822482 -19.979472
0.802422 -20.006613
0.782379 -20.183443
0.761945 -20.571457
0.741309 -20.615115
0.720697 -20.586776
0.700081 -20.598784
0.679462 -20.599122
0.658841 -20.602692
0.638216 -20.606074
0.617587 -20.609841
0.596955 -20.613663
0.576318 -20.617825
0.555678 -20.622180
0.535033 -20.626799
0.514383 -20.631838
0.493727 -20.637324
0.473066 -20.643801
0.452398 -20.651513
0.431722 -20.660315
0.411035 -20.671157
0.390337 -20.684302
0.369625 -20.700211
0.348894 -20.719390
0.328143 -20.740966
0.307369 -20.767990
0.286564 -20.799715
0.265726 -20.836154
0.244849 -20.877789
0.223927 -20.924884
0.202955 -20.978893
0.181925 -21.038686
0.160832 -21.106505
0.139668 -21.180254
0.118427 -21.260210
0.097102 -21.349303
0.075684 -21.444102
0.054169 -21.544387
0.032550 -21.650652
0.010822 -21.765149
-0.011026 -21.886914
-0.032998 -22.014771
-0.055102 -22.149912
-0.077344 -22.291186
-0.099731 -22.439632
-0.122271 -22.595208
-0.144969 -22.755068
-0.167829 -22.921390
-0.190860 -23.095417
-0.214066 -23.271617
-0.237451 -23.453287
-0.261022 -23.640996
-0.284782 -23.832418
-0.308736 -24.027975
-0.332888 -24.228874
-0.357244 -24.435721
-0.381809 -24.645821
-0.406586 -24.859978
-0.431579 -25.075403
-0.456789 -25.294807
-0.482220 -25.515325
-0.507869 -25.732115
-0.533737 -25.953564
-0.559828 -26.174598
-0.586139 -26.396587
-0.612674 -26.619000
-0.639429 -26.837906
-0.666405 -27.059748
-0.693603 -27.280383
-0.721019 -27.497043
-0.748651 -27.710923
-0.776494 -27.918814
-0.804544 -28.124581
-0.832798 -28.324839
-0.861248 -28.517650
-0.889889 -28.707671
-0.918718 -28.891546
-0.947728 -29.067807
-0.976910 -29.238676
-1.006260 -29.399549
-1.035765 -29.551180
-1.065419 -29.694188
-1.095210 -29.826951
-1.125129 -29.948904
-1.155164 -30.060093
-1.185304 -30.156675
-1.215522 -30.206890
-1.245742 -30.145799
-1.275788 -29.826710
-1.305327 -29.125695
-1.333981 -28.075181
-1.361469 -26.828923
-1.387669 -25.512155
-1.412551 -24.217903
-1.436193 -23.043690
-1.458718 -21.968048
-1.480140 -20.792381
-1.500259 -19.361856
-1.518824 -17.694917
-1.535682 -16.021870
-1.550973 -14.569315
-1.564936 -13.374816
-1.577824 -12.404298
-1.589838 -11.637440
-1.601186 -11.062323
-1.612037 -10.646105
-1.622541 -10.353328
-1.632775 -10.091903
-1.642736 -9.804626
-1.652399 -9.503002
-1.661773 -9.234831
-1.670905 -9.018529
-1.679838 -8.831655
-1.688592 -8.662089
-1.697183 -8.505190
-1.705622 -8.355667
-1.713913 -8.211987
-1.722063 -8.071084
-1.730072 -7.931864
-1.737944 -7.796048
-1.745680 -7.661474
-1.753282 -7.528316
-1.760753 -7.397387
-1.768092 -7.267929
-1.775304 -7.140815
-1.782389 -7.014706
-1.789348 -6.890810
-1.796185 -6.768083
-1.802898 -6.645116
-1.809488 -6.523466
-1.815958 -6.402051
-1.822305 -6.280062
-1.828530 -6.155992
-1.834629 -6.031801
-1.840605 -5.906517
-1.846453 -5.777912
-1.852172 -5.648221
-1.857760 -5.517019
-1.863216 -5.382952
-1.868537 -5.247200
-1.873721 -5.109824
-1.878766 -4.971212
-1.883673 -4.831399
-1.888438 -4.690339
-1.893063 -4.549944
-1.897546 -4.407659
-1.901888 -4.266770
-1.906088 -4.125492
-1.910147 -3.984617
-1.914066 -3.844729
-1.917844 -3.704709
-1.921483 -3.566719
-1.924985 -3.428844
-1.928348 -3.292284
-1.931576 -3.156039
-1.934667 -3.020209
-1.937623 -2.886364
-1.940445 -2.752363
-1.943133 -2.618929
-1.945689 -2.486134
-1.948111 -2.353731
-1.950401 -2.222468
-1.952560 -2.091055
-1.954588 -1.959619
-1.956484 -1.830004
-1.958251 -1.700785
-1.959889 -1.572131
-1.961399 -1.444898
-1.962782 -1.318625
-1.964039 -1.193018
-1.965171 -1.068987
-1.966180 -0.946732
-1.967067 -0.826451
-1.967835 -0.707396
-1.968484 -0.590069
-1.969017 -0.475076
-1.969436 -0.362661
-1.969743 -0.249526
-1.969927 -0.112170
-1.969956 0.061068
-1.969792 0.274676
-1.969396 0.518631
-1.968754 0.759896
-1.967876 0.995043
-1.966765 1.222097
-1.965435 1.433000
-1.963900 1.632823
-1.962170 1.822257
-1.960254 2.005323
-1.958156 2.184571
-1.955881 2.360340
-1.953432 2.532826
-1.950811 2.703647
-1.948019 2.873640
-1.945059 3.041716
-1.941930 3.208887
-1.938635 3.374363
-1.935175 3.539635
-1.931549 3.703741
-1.927760 3.866237
-1.923809 4.029248
-1.919695 4.189457
-1.915421 4.349634
-1.910987 4.508817
-1.906395 4.666663
-1.901644 4.824820
-1.896737 4.980493
-1.891674 5.135884
-1.886454 5.292031
-1.881080 5.446383
-1.875551 5.600185
-1.869868 5.754176
-1.864031 5.907216
-1.858042 6.059968
-1.851899 6.212414
-1.845604 6.364786
-1.839157 6.516635
-1.832558 6.668460
-1.825807 6.820165
-1.818904 6.970919
-1.811851 7.121164
-1.804648 7.272089
-1.797293 7.421581
-1.789790 7.571029
-1.782136 7.719978
-1.774335 7.867774
-1.766385 8.015742
-1.758287 8.163085
-1.750042 8.309800
-1.741651 8.455826
-1.733114 8.601825
-1.724431 8.746637
-1.715603 8.891199
-1.706631 9.036095
-1.697513 9.179445
-1.688253 9.322402
-1.678850 9.466113
-1.669302 9.609233
-1.659612 9.751193
-1.649780 9.893190
-1.639806 10.034876
-1.629691 10.176462
-1.619433 10.317188
-1.609036 10.457192
-1.598497 10.599313
-1.587817 10.738399
-1.576999 10.876736
-1.566041 11.016323
-1.554945 11.155090
-1.543709 11.292755
-1.532337 11.430000
-1.520826 11.566945
-1.509180 11.703047
-1.497397 11.838906
-1.485479 11.973229
-1.473426 12.107980
-1.461239 12.241807
-1.448919 12.374751
-1.436465 12.508192
-1.423878 12.639759
-1.411160 12.771509
-1.398309 12.903342
-1.385328 13.032875
-1.372217 13.162858
-1.358976 13.292986
-1.345605 13.421443
-1.332106 13.550514
-1.318477 13.678478
-1.304722 13.805065
-1.290839 13.932523
-1.276830 14.058931
-1.262694 14.184584
-1.248432 14.309399
-1.234046 14.434359
-1.219535 14.558522
-1.204900 14.680904
-1.190143 14.804060
-1.175263 14.925606
-1.160262 15.046819
-1.145140 15.166814
-1.129899 15.285868
-1.114537 15.405633
-1.099057 15.523285
-1.083460 15.640135
-1.067746 15.756943
-1.051915 15.872085
-1.035970 15.986973
-1.019909 16.101757
-1.003735 16.214494
-0.987448 16.327725
-0.971047 16.438967
-0.954537 16.549956
-0.937914 16.660605
-0.921183 16.769897
-0.904341 16.878865
-0.887391 16.986965
-0.870334 17.093911
-0.853170 17.198735
-0.835900 17.309414
-0.818523 17.400060
-0.801048 17.542458
-0.783449 17.549313
-0.754857 17.445137
