-0.098058 0.095490 -0.604470
0.866088 0.304155
0.867084 1.722574
0.869613 3.370068
0.873879 5.163101
0.879948 6.950175
0.887747 8.599893
0.897080 9.995686
0.907644 11.046634
0.919061 11.692991
0.930912 11.915232
0.942782 11.739031
0.954300 11.224376
0.965164 10.442620
0.975141 9.465451
0.984091 8.420136
0.991937 7.192181
0.998705 6.609704
1.004155 2.986333
1.002759 -6.404646
0.991785 -14.440799
0.974650 -20.076038
0.951534 -25.887736
0.923246 -30.430513
0.891118 -33.457994
0.856885 -34.622878
0.822399 -34.002431
0.789329 -31.831872
0.759097 -28.384130
0.732759 -24.170463
0.711072 -18.866774
0.695663 -11.541376
0.688643 -2.187715
0.690725 5.494288
0.697990 8.225356
0.706345 8.418390
0.714609 7.908051
0.721814 6.308638
0.727008 4.017989
0.729795 1.537510
0.730115 -0.856134
0.728206 -2.874226
0.724506 -4.458443
0.719373 -5.764211
0.713207 -6.349029
0.706910 -6.191743
0.700867 -5.864483
0.695179 -5.508481
0.689821 -5.208446
0.684717 -5.012017
0.679726 -4.997100
0.674667 -5.118478
0.669473 -5.258739
0.664142 -5.389816
0.658683 -5.519335
0.653088 -5.661529
0.647339 -5.831665
0.641400 -6.042337
0.635224 -6.306845
0.628752 -6.635495
0.621917 -7.031757
0.614647 -7.509426
0.606848 -8.094035
0.598402 -8.800579
0.589194 -9.611850
0.579125 -10.526399
0.568104 -11.489409
0.556064 -12.629823
0.542888 -13.563438
0.528820 -14.767487
0.513556 -15.274028
0.498534 -14.902504
0.483125 -16.318791
0.465603 -18.515477
0.446412 -19.647394
0.426593 -19.808842
0.407006 -19.216882
0.388297 -18.096836
0.370876 -16.676938
0.354944 -15.153849
0.340517 -13.694489
0.327466 -12.420045
0.315568 -11.397933
0.304558 -10.642645
0.294181 -10.126954
0.284220 -9.803403
0.274509 -9.618929
0.264933 -9.524533
0.255427 -9.469294
0.245976 -9.411162
0.236589 -9.344352
0.227270 -9.274443
0.218025 -9.193296
0.208874 -9.084683
0.199853 -8.931748
0.191012 -8.722769
0.182410 -8.453381
0.174107 -8.126189
0.166158 -7.748214
0.158609 -7.328844
0.151496 -6.878971
0.144844 -6.409619
0.138667 -5.931604
0.132968 -5.454616
0.127743 -4.987252
0.122978 -4.536675
0.118654 -4.106835
0.114748 -3.700604
0.111237 -3.319331
0.108095 -2.963849
0.105294 -2.636429
0.102807 -2.337542
0.100605 -2.066501
0.098661 -1.822619
0.096949 -1.601040
0.095447 -1.404749
0.094120 -1.258682
0.092912 -1.157014
0.091794 -1.082883
0.090738 -1.028017
0.089737 -0.970056
0.088800 -0.901082
0.087937 -0.820114
0.087161 -0.729595
0.086478 -0.635264
0.085890 -0.538598
0.085400 -0.440842
0.085007 -0.343654
0.084712 -0.245895
0.084515 -0.147738
0.084417 -0.047270
0.084423 0.059842
0.084541 0.178709
0.084786 0.313746
0.085175 0.467824
0.085729 0.640721
0.086461 0.823638
0.087376 1.001795
0.088459 1.156228
0.089677 1.268533
0.090980 1.326417
0.092313 1.326212
0.093618 1.272277
0.094845 1.173194
0.095955 1.039776
0.096918 0.882242
0.097716 0.708377
0.098334 0.526525
0.098763 0.325182
0.098977 0.099845
0.098957 -0.143257
0.098679 -0.419863
0.098101 -0.742248
0.097178 -1.108224
0.095867 -1.519694
0.094129 -1.951380
0.091967 -2.365277
0.089402 -2.756144
0.086452 -3.137670
0.083124 -3.507929
0.079430 -3.874886
0.075362 -4.254233
0.070914 -4.630322
0.066099 -4.985745
0.060945 -5.305975
0.055487 -5.595556
0.049749 -5.864505
0.043752 -6.115901
0.037509 -6.355462
0.031027 -6.599089
0.024292 -6.859106
0.017289 -7.135440
0.009999 -7.435059
0.002395 -7.762565
-0.005548 -8.109821
-0.013843 -8.465146
-0.022496 -8.822048
-0.031507 -9.183163
-0.040880 -9.542530
-0.050606 -9.888537
-0.060666 -10.203707
-0.071023 -10.484119
-0.081645 -10.733190
-0.092503 -10.959276
-0.103584 -11.181031
-0.114885 -11.397256
-0.126399 -11.606767
-0.138119 -11.807458
-0.150032 -11.991948
-0.162123 -12.163025
-0.174377 -12.317463
-0.186775 -12.449214
-0.199293 -12.559074
-0.211910 -12.644858
-0.224602 -12.711290
-0.237352 -12.759132
-0.250142 -12.796333
-0.262969 -12.831849
-0.275831 -12.864799
-0.288720 -12.883346
-0.301616 -12.879687
-0.314497 -12.850537
-0.327333 -12.793155
-0.340101 -12.712660
-0.352778 -12.614224
-0.365350 -12.502243
-0.377805 -12.383467
-0.390142 -12.265700
-0.402361 -12.148294
-0.414464 -12.034681
-0.426456 -11.924458
-0.438338 -11.817170
-0.450114 -11.711459
-0.461785 -11.607809
-0.473353 -11.504815
-0.484818 -11.402367
-0.496182 -11.302071
-0.507445 -11.201156
-0.518607 -11.101960
-0.529671 -11.003393
-0.540636 -10.906243
-0.551505 -10.808932
-0.562277 -10.713928
-0.572956 -10.622446
-0.583544 -10.534765
-0.594048 -10.452121
-0.604471 -10.374729
-0.614821 -10.305017
-0.625104 -10.243818
-0.635332 -10.191699
-0.645511 -10.148521
-0.655653 -10.115492
-0.665766 -10.092507
-0.675861 -10.080129
-0.685950 -10.078104
-0.696041 -10.085568
-0.706145 -10.105562
-0.716276 -10.137763
-0.726445 -10.180619
-0.736662 -10.234083
-0.746937 -10.299432
-0.757285 -10.376807
-0.767715 -10.463433
-0.778236 -10.560795
-0.788861 -10.669919
-0.799600 -10.786933
-0.810460 -10.914654
-0.821455 -11.052068
-0.832589 -11.197130
-0.843874 -11.351611
-0.855317 -11.511799
-0.866924 -11.681664
-0.878706 -11.857626
-0.890665 -12.038807
-0.902810 -12.227188
-0.915145 -12.419545
-0.927676 -12.616772
-0.940405 -12.816244
-0.953335 -13.020047
-0.966472 -13.227356
-0.979816 -13.434194
-0.993368 -13.643197
-1.007131 -13.854237
-1.021104 -14.064563
-1.035288 -14.275234
-1.049683 -14.486752
-1.064289 -14.694882
-1.079102 -14.900922
-1.094121 -15.105929
-1.109342 -15.305814
-1.124761 -15.501202
-1.140373 -15.689730
-1.156170 -15.872730
-1.172149 -16.050778
-1.188301 -16.219395
-1.204618 -16.379783
-1.221090 -16.529128
-1.237706 -16.668924
-1.254459 -16.803976
-1.271339 -16.913853
-1.288326 -17.038071
-1.305482 -17.262131
-1.322901 -17.536870
-1.340611 -17.871657
-1.358717 -18.316148
-1.377301 -18.823959
-1.396378 -19.257678
-1.415784 -19.477419
-1.435308 -19.507521
-1.454776 -19.352956
-1.473990 -19.009902
-1.492786 -18.522559
-1.511031 -17.910195
-1.528614 -17.212319
-1.545499 -16.541330
-1.561778 -16.015051
-1.577615 -15.649614
-1.593139 -15.375121
-1.608405 -15.128613
-1.623423 -14.872867
-1.638164 -14.567844
-1.652569 -14.204314
-1.666585 -13.793713
-1.680169 -13.337702
-1.693276 -12.847410
-1.705882 -12.337161
-1.717972 -11.818538
-1.729545 -11.306592
-1.740615 -10.813986
-1.751203 -10.345032
-1.761336 -9.907070
-1.771048 -9.502266
-1.780370 -9.129625
-1.789337 -8.792405
-1.797982 -8.483781
-1.806332 -8.204550
-1.814416 -7.950114
-1.822256 -7.721117
-1.829879 -7.508050
-1.837292 -7.307467
-1.844515 -7.128179
-1.851566 -6.959930
-1.858455 -6.809257
-1.865205 -6.678100
-1.871827 -6.555283
-1.878329 -6.433725
-1.884708 -6.312348
-1.890964 -6.185130
-1.897089 -6.053350
-1.903081 -5.916014
-1.908930 -5.768710
-1.914629 -5.618095
-1.920174 -5.457883
-1.925553 -5.290220
-1.930763 -5.118492
-1.935796 -4.935243
-1.940642 -4.746224
-1.945297 -4.552032
-1.949752 -4.347653
-1.953999 -4.137173
-1.958032 -3.918966
-1.961842 -3.694093
-1.965426 -3.465191
-1.968777 -3.228326
-1.971887 -2.985587
-1.974754 -2.741429
-1.977374 -2.493367
-1.979744 -2.241741
-1.981862 -1.989693
-1.983730 -1.745004
-1.985359 -1.511139
-1.986757 -1.283688
-1.987929 -1.055566
-1.988873 -0.833590
-1.989600 -0.619087
-1.990112 -0.404751
-1.990412 -0.195395
-1.990504 0.011853
-1.990389 0.217325
-1.990070 0.420159
-1.989547 0.626500
-1.988815 0.833538
-1.987877 1.042442
-1.986727 1.254095
-1.985367 1.465002
-1.983794 1.678594
-1.982006 1.893797
-1.980002 2.109323
-1.977783 2.325647
-1.975345 2.544828
-1.972688 2.762356
-1.969815 2.979754
-1.966723 3.197496
-1.963414 3.414314
-1.959888 3.628862
-1.956150 3.840278
-1.952200 4.050927
-1.948041 4.259185
-1.943674 4.465402
-1.939103 4.666823
-1.934332 4.866330
-1.929361 5.064404
-1.924194 5.257948
-1.918835 5.450429
-1.913283 5.639667
-1.907544 5.827661
-1.901617 6.013406
-1.895506 6.196796
-1.889211 6.381164
-1.882733 6.561611
-1.876075 6.741464
-1.869237 6.918890
-1.862224 7.094657
-1.855033 7.270383
-1.847669 7.443966
-1.840132 7.612977
-1.832427 7.783460
-1.824551 7.948464
-1.816516 8.110036
-1.808315 8.272317
-1.799957 8.425651
-1.791446 8.579812
-1.782781 8.731656
-1.773968 8.875608
-1.765013 9.017197
-1.755916 9.157263
-1.746682 9.292203
-1.737315 9.422835
-1.727819 9.549804
-1.718197 9.675274
-1.708450 9.796528
-1.698585 9.913270
-1.688604 10.029026
-1.678509 10.140492
-1.668304 10.249018
-1.657991 10.353765
-1.647576 10.457621
-1.637057 10.557402
-1.626441 10.653324
-1.615729 10.747633
-1.604926 10.838100
-1.594033 10.924834
-1.583055 11.008095
-1.571995 11.088427
-1.560857 11.165977
-1.549642 11.239648
-1.538357 11.307288
-1.527006 11.372481
-1.515591 11.435190
-1.504114 11.493004
-1.492583 11.546954
-1.480998 11.598822
-1.469364 11.643708
-1.457687 11.687558
-1.445967 11.727742
-1.434210 11.764298
-1.422416 11.796963
-1.410594 11.825506
-1.398742 11.853739
-1.386864 11.876653
-1.374965 11.897672
-1.363046 11.915807
-1.351111 11.929433
-1.339164 11.940690
-1.327207 11.949703
-1.315242 11.955389
-1.303273 11.958271
-1.291303 11.957023
-1.279336 11.953702
-1.267372 11.947869
-1.255417 11.937949
-1.243473 11.926171
-1.231543 11.909810
-1.219631 11.890500
-1.207738 11.869676
-1.195869 11.845477
-1.184025 11.818320
-1.172210 11.787213
-1.160427 11.754956
-1.148677 11.718814
-1.136967 11.679292
-1.125295 11.640272
-1.113664 11.597290
-1.102079 11.551080
-1.090540 11.502628
-1.079051 11.453307
-1.067611 11.402066
-1.056225 11.347863
-1.044893 11.291365
-1.033620 11.232859
-1.022406 11.172537
-1.011253 11.111255
-1.000162 11.046820
-0.989137 10.981676
-0.978178 10.912828
-0.967290 10.843881
-0.956469 10.772593
-0.945724 10.698855
-0.935051 10.623710
-0.924456 10.545950
-0.913937 10.468635
-0.903499 10.387369
-0.893142 10.305395
-0.882868 10.222091
-0.872678 10.137503
-0.862573 10.051434
-0.852555 9.963938
-0.842626 9.873527
-0.832788 9.783995
-0.823040 9.692470
-0.813385 9.599235
-0.803821 9.507908
-0.794351 9.412771
-0.784977 9.315768
-0.775701 9.216952
-0.766526 9.114532
-0.757455 9.009324
-0.748489 8.905259
-0.739626 8.802615
-0.730864 8.707923
-0.722177 8.661089
-0.713503 8.677421
-0.704787 8.746203
-0.695980 8.855830
-0.687054 8.976056
-0.678012 9.089092
-0.668868 9.172153
-0.659663 9.213402
-0.650426 9.245361
-0.641156 9.272605
-0.631882 9.238346
-0.622692 9.107900
-0.613681 8.879578
-0.604945 8.564425
-0.596556 8.186426
-0.588572 7.758779
-0.581038 7.287105
-0.573994 6.782539
-0.567468 6.252140
-0.561475 5.728270
-0.555968 5.298063
-0.550822 5.005442
-0.545900 4.854369
-0.541049 4.867028
-0.536109 5.020737
-0.530961 5.283976
-0.525500 5.640785
-0.519645 6.068905
-0.513316 6.596620
-0.506395 7.253856
-0.498763 8.005292
-0.490356 8.794856
-0.481155 9.586595
-0.471168 10.362948
-0.460412 11.127886
-0.448894 11.881518
-0.436631 12.615852
-0.423642 13.336417
-0.409937 14.042206
-0.395532 14.738419
-0.380433 15.428198
-0.364647 16.113378
-0.348173 16.800826
-0.331013 17.484587
-0.313169 18.167304
-0.294639 18.857704
-0.275414 19.554645
-0.255488 20.259321
-0.234851 20.975945
-0.213489 21.708479
-0.191386 22.452927
-0.168534 23.208803
-0.144919 23.973933
-0.120536 24.746066
-0.095375 25.523785
-0.069438 26.299075
-0.042728 27.065711
-0.015258 27.814496
0.012948 28.535978
0.041859 29.223131
0.071438 29.866466
0.101634 30.455227
0.132390 30.985120
0.163644 31.447978
0.195324 31.836957
0.227355 32.148153
0.259658 32.378043
0.292147 32.521350
0.324737 32.578881
0.357341 32.548973
0.389877 32.449592
0.422293 32.312438
0.454546 32.114479
0.486562 31.844725
0.518326 31.655301
0.549961 31.542139
0.581482 31.455548
0.612949 31.409800
0.644313 31.208989
0.675305 30.635997
0.705471 29.538308
0.734282 27.964602
0.761310 25.951401
0.786146 23.664892
0.808720 21.476585
0.829171 19.374054
0.847529 17.337529
0.863865 15.256160
0.877980 12.900833
0.889616 10.316452
0.898585 7.584667
0.904800 4.851376
0.908362 2.312837
0.909514 0.023735
0.908480 -2.054910
0.905472 -3.918950
0.900701 -5.581902
0.894356 -7.067064
0.886640 -8.291995
0.877871 -9.171826
0.868392 -9.709483
0.858576 -9.817083
0.848907 -9.417217
0.839959 -8.308557
0.832416 -6.774591
0.826392 -5.253092
0.821948 -3.584774
0.819111 -2.228831
0.817266 -1.530791
0.815921 -1.207385
0.814890 -0.762137
0.814461 -0.119790
0.814732 0.769180
0.816223 2.321319
0.819287 3.596316
0.823168 4.108578
0.827324 4.056393
0.831127 3.519873
0.834355 2.935212
0.837018 2.394942
0.839174 1.929569
0.840938 1.635319
0.842491 1.469307
0.843842 1.189197
0.844844 0.824766
0.845506 0.498756
0.845851 0.199411
0.845916 -0.068633
0.845723 -0.307425
0.845312 -0.509422
0.844715 -0.678401
0.843964 -0.816749
0.843089 -0.927412
0.842117 -1.009783
0.841072 -1.076947
0.839967 -1.125767
0.838827 -1.149069
0.837670 -1.161961
0.836505 -1.160947
0.835350 -1.148270
0.834210 -1.123680
0.833102 -1.095452
0.832020 -1.060709
0.830980 -1.019644
0.829978 -0.979993
0.829020 -0.934778
0.828107 -0.888146
0.827242 -0.842875
0.826419 -0.797360
0.825646 -0.748015
0.824922 -0.699167
0.824247 -0.650074
0.823620 -0.600569
0.823043 -0.554380
0.822510 -0.510836
0.822018 -0.474261
0.821559 -0.442673
0.821131 -0.413578
0.820729 -0.390141
0.820351 -0.363890
0.819999 -0.341214
0.819667 -0.320404
0.819357 -0.301088
0.819063 -0.286120
0.818784 -0.272885
0.818516 -0.261064
0.818261 -0.249957
0.818016 -0.238457
0.817784 -0.224737
0.817567 -0.209249
0.817366 -0.191472
0.817184 -0.170910
0.817025 -0.147507
0.816890 -0.120679
0.816784 -0.090463
0.816710 -0.056738
0.816672 -0.019710
0.816672 0.020307
0.816713 0.062999
0.816799 0.107876
0.816930 0.154431
0.817108 0.202085
0.817335 0.250050
0.817609 0.297634
0.817930 0.344198
0.818297 0.388752
0.818708 0.430852
0.819159 0.469616
0.819646 0.504344
0.820167 0.534494
0.820715 0.559690
0.821285 0.579684
0.821873 0.594230
0.822473 0.603408
0.823080 0.607436
0.823688 0.607041
0.824294 0.603332
0.824895 0.597796
0.825491 0.591629
0.826080 0.586384
0.826665 0.583183
0.827248 0.582708
0.827832 0.584225
0.828418 0.587071
0.829008 0.590172
0.829600 0.592318
0.830193 0.593566
0.830788 0.594116
0.831383 0.594810
0.831979 0.595940
0.832576 0.597432
0.833175 0.598117
0.833773 0.597438
0.834370 0.594622
0.834963 0.589673
0.835550 0.583323
0.836130 0.575849
0.836703 0.568271
0.837268 0.561640
0.837828 0.556710
0.838383 0.554177
0.838938 0.554732
0.839495 0.558616
0.840058 0.565871
0.840629 0.576804
0.841214 0.591464
0.841815 0.609598
0.842435 0.630777
0.843078 0.654411
0.843746 0.680155
0.844440 0.707495
0.845163 0.735647
0.845913 0.763762
0.846691 0.791199
0.847497 0.817165
0.848327 0.841092
0.849180 0.862465
0.850053 0.881088
0.850943 0.896752
0.851847 0.909307
0.852762 0.919023
0.853686 0.926224
0.854616 0.931139
0.855549 0.934355
0.856486 0.936513
0.857424 0.937934
0.858364 0.939328
0.859305 0.941516
0.860249 0.944912
0.861197 0.949918
0.862151 0.956943
0.863114 0.965775
0.864085 0.975401
0.865066 0.984278
0.866055 0.991084
0.867049 0.995362
0.868047 0.998453
0.869048 0.999743
0.870048 0.999391
0.871048 0.998894
0.872047 0.996487
0.873042 0.991428
0.874031 0.981789
0.875006 0.966789
0.875965 0.949345
0.876906 0.930468
0.877827 0.909428
0.878726 0.886728
0.879602 0.863077
0.880454 0.838323
0.881280 0.811937
0.882079 0.783849
0.882848 0.753177
0.883586 0.719626
0.884288 0.683989
0.884954 0.645812
0.885581 0.605594
0.886166 0.563428
0.886708 0.519089
0.887205 0.473077
0.887655 0.425751
0.888056 0.376535
0.888409 0.328069
0.888711 0.274028
0.888937 0.157642
0.888962 -0.152029
0.888486 -0.899966
0.886895 -2.444554
0.883489 -4.296751
0.878288 -6.163797
0.871476 -7.050429
0.864645 -6.521716
0.858591 -5.479490
0.853488 -4.997095
0.848552 -4.619450
0.844128 -4.578868
0.838855 -6.127185
0.831854 -7.698187
0.824279 -6.764346
0.818843 -4.237798
0.815854 -1.534566
0.815673 0.877729
0.817349 2.504492
0.820630 3.958455
0.825222 5.257172
0.831013 6.129773
0.837285 6.375501
0.843731 6.485922
0.850204 6.400386
0.856581 6.424244
0.863146 6.689213
0.869823 6.505981
0.875983 5.758860
0.881259 4.732047
0.885371 3.447744
0.888112 2.015707
0.889400 0.564787
0.889270 -0.806300
0.887830 -2.043520
0.885244 -3.084055
0.881744 -3.860901
0.877609 -4.355743
0.873115 -4.575398
0.868536 -4.532669
0.864119 -4.256051
0.860079 -3.788858
0.856582 -3.178013
0.853756 -2.451226
0.851708 -1.622880
0.850531 -0.722948
0.850267 0.195291
0.850905 1.063360
0.852355 1.809540
0.854477 2.402945
0.857108 2.822294
0.860062 3.046930
0.863144 3.080183
0.866169 2.936051
0.868969 2.633801
0.871394 2.188354
0.873310 1.621984
0.874618 0.985047
0.875276 0.330195
0.875285 -0.307062
0.874679 -0.890955
0.873532 -1.382393
0.871952 -1.752924
0.870068 -1.986540
0.868022 -2.078743
0.865954 -2.029739
0.864001 -1.853689
0.862274 -1.583911
0.860852 -1.246155
0.859799 -0.848711
0.859167 -0.410734
0.858982 0.043671
0.859250 0.483778
0.859935 0.875319
0.860980 1.201993
0.862315 1.451719
0.863856 1.610917
0.865508 1.673015
0.867174 1.640947
0.868764 1.520061
0.870190 1.317642
0.871376 1.039476
0.872253 0.706816
0.872784 0.351570
0.872957 -0.003170
0.872784 -0.338460
0.872292 -0.636038
0.871530 -0.874048
0.870566 -1.040515
0.869473 -1.130773
0.868329 -1.142594
0.867211 -1.078313
0.866191 -0.949340
0.865327 -0.770418
0.864660 -0.558396
0.864216 -0.323758
0.864017 -0.074242
0.864066 0.169889
0.864350 0.392828
0.864842 0.584448
0.865507 0.737520
0.866303 0.844374
0.867180 0.900114
0.868088 0.904444
0.868975 0.859873
0.869793 0.767243
0.870495 0.628199
0.871039 0.453758
0.871397 0.259660
0.871558 0.061124
0.871522 -0.130350
0.871302 -0.306218
0.870918 -0.455739
0.870402 -0.567447
0.869796 -0.637008
0.869141 -0.663038
0.868483 -0.645778
0.867862 -0.588445
0.867316 -0.497692
0.866874 -0.380884
0.866558 -0.249688
0.866377 -0.111432
0.866336 0.028752
0.866430 0.157992
0.866647 0.273134
0.866971 0.369301
0.867378 0.440671
0.867844 0.485107
0.868340 0.500619
0.868837 0.488310
0.869308 0.448659
0.869726 0.382170
0.870066 0.292070
0.870306 0.187019
0.870438 0.075955
0.870459 -0.033911
0.870372 -0.136811
0.870188 -0.228556
0.869921 -0.302169
0.869591 -0.352505
0.869223 -0.378444
0.868842 -0.379577
0.868471 -0.357177
0.868134 -0.313549
0.867849 -0.252376
0.867633 -0.179104
0.867493 -0.099646
0.867433 -0.020175
0.867451 0.055285
0.867542 0.123915
0.867696 0.183511
0.867905 0.230492
0.868153 0.262333
0.868425 0.278796
0.868705 0.278791
0.868978 0.262995
0.869227 0.232262
0.869438 0.187505
0.869599 0.131791
0.869700 0.070188
0.869739 0.007580
0.869716 -0.052256
0.869636 -0.106736
0.869505 -0.153001
0.869333 -0.187717
0.869134 -0.208803
0.868920 -0.215734
0.868706 -0.209036
0.868506 -0.189885
0.868330 -0.159447
0.868190 -0.120100
0.868091 -0.075311
0.868039 -0.029365
0.868032 0.013925
0.868066 0.054306
0.868139 0.090497
0.868245 0.120163
0.868377 0.142061
0.868527 0.155320
0.868685 0.159279
0.868842 0.154134
0.868991 0.140273
0.869121 0.118633
0.869226 0.090292
0.869300 0.057007
0.869339 0.021985
0.869344 -0.011979
0.869316 -0.043650
0.869258 -0.070948
0.869176 -0.092739
0.869075 -0.107922
0.868963 -0.115164
0.868847 -0.114941
0.868735 -0.107338
0.868634 -0.093326
0.868550 -0.073752
0.868488 -0.050388
0.868450 -0.025502
0.868437 -0.000288
0.868448 0.023426
0.868483 0.044526
0.868537 0.062835
0.868607 0.076553
0.868688 0.085776
0.868777 0.089945
0.868867 0.088961
0.868953 0.083293
0.869032 0.072962
0.869098 0.059100
0.869149 0.041466
0.869182 0.026142
0.869197 -0.003585
0.869192 0.017646
0.869179 -0.120615
0.869104 0.201836
0.869190 -0.653173
0.866088 0.304155
