0.041780 0.034691 0.339911
-0.925947 41.365259
-0.875373 58.006810
-0.813169 64.600856
-0.748198 64.731799
-0.684374 62.471623
-0.623496 59.114127
-0.566140 55.418661
-0.512619 51.510876
-0.463018 47.595620
-0.417296 43.788946
-0.375258 40.263865
-0.336542 37.174971
-0.300673 34.567166
-0.267197 32.382109
-0.235727 30.547584
-0.205944 29.003557
-0.177578 27.711959
-0.150386 26.654877
-0.124140 25.821784
-0.098614 25.219338
-0.073582 24.824012
-0.048843 24.650100
-0.024222 24.506447
0.000379 24.840406
0.025332 24.645316
0.052321 32.247780
0.086539 29.802157
0.123146 60.807587
0.217458 119.330814
0.351774 147.067678
0.507573 161.874664
0.659786 128.545483
0.757457 72.843533
0.821291 64.109299
0.892699 76.041017
0.971263 81.192896
1.054449 83.952318
1.139618 87.558532
1.229354 90.004408
1.320218 93.682686
1.418023 100.705170
1.519813 101.683475
1.622208 104.503008
1.727609 103.068208
1.828598 101.775801
1.932069 102.595471
2.032249 98.182481
2.130783 100.221173
2.231885 99.243335
2.328893 96.540956
2.426780 98.691357
2.525065 96.619560
2.619833 93.411226
2.712323 90.947889
2.801499 87.249673
2.886876 83.190401
2.967799 78.390041
3.043594 72.931057
3.113586 66.809377
3.177138 60.063377
3.233647 52.759633
3.282609 44.996788
3.323603 36.851554
3.356290 28.416686
3.380433 19.800677
3.395919 11.150233
3.402793 2.613761
3.401226 -5.700598
3.391497 -13.667871
3.374018 -21.171223
3.349296 -28.121937
3.317933 -34.426668
3.280610 -40.022869
3.238069 -44.835515
3.191101 -48.896027
3.140511 -51.959599
3.087130 -54.866685
3.031980 -53.841066
2.980810 -48.409532
2.935030 -43.080767
2.894454 -38.074456
2.858637 -33.571334
2.827074 -29.578751
2.799249 -26.100717
2.774658 -23.108500
2.752832 -20.575354
2.733321 -18.476708
2.715708 -16.780074
2.699610 -15.435408
2.684707 -14.386531
2.670726 -13.584523
2.657442 -12.990161
2.644648 -12.609523
2.632110 -12.490047
2.619551 -12.647695
2.606706 -13.056644
2.593339 -13.682167
2.579252 -14.494016
2.564267 -15.471593
2.548233 -16.583303
2.531029 -17.808108
2.512546 -19.137574
2.492689 -20.546913
2.471395 -22.006030
2.448619 -23.506334
2.424329 -25.024852
2.398521 -26.538413
2.371205 -28.034018
2.342413 -29.480851
2.312210 -30.849917
2.280680 -32.132750
2.247910 -33.327948
2.213989 -34.431051
2.179010 -35.440233
2.143067 -36.360381
2.106249 -37.182422
2.068663 -37.899658
2.030405 -38.524382
1.991570 -39.049338
1.952257 -39.485628
1.912548 -39.837737
1.872530 -40.105416
1.832282 -40.297426
1.791879 -40.416436
1.751389 -40.474095
1.710871 -40.469096
1.670388 -40.409570
1.629987 -40.300481
1.589722 -40.143762
1.549632 -39.950302
1.509753 -39.721803
1.470119 -39.463400
1.430755 -39.180936
1.391686 -38.874756
1.352936 -38.544182
1.314526 -38.197080
1.276469 -37.837903
1.238778 -37.467550
1.201461 -37.090849
1.164524 -36.709912
1.127968 -36.327895
1.091795 -35.945896
1.056004 -35.566119
1.020591 -35.190130
0.985552 -34.818665
0.950881 -34.454915
0.916571 -34.097492
0.882616 -33.746132
0.849008 -33.403448
0.815739 -33.068340
0.782805 -32.734353
0.750210 -32.386368
0.717976 -32.011275
0.686131 -31.613711
0.654700 -31.172010
0.623729 -30.716976
0.593205 -30.260120
0.563456 -28.879806
0.535852 -26.108569
0.511417 -22.646114
0.490588 -18.964337
0.473421 -15.370118
0.459719 -12.067738
0.449131 -9.156125
0.441250 -6.658716
0.435672 -4.547287
0.432041 -2.751771
0.430069 -1.237227
0.429478 0.018471
0.430030 1.045272
0.431509 1.887886
0.433765 2.599409
0.436670 3.181266
0.440090 3.629909
0.443894 3.948310
0.447951 4.137498
0.452141 4.220406
0.456373 4.221763
0.460565 4.137235
0.464627 3.965578
0.468474 3.704874
0.472027 3.391693
0.475256 3.054494
0.478129 2.679755
0.480616 2.288669
0.482714 1.906164
0.484433 1.526203
0.485769 1.145271
0.486725 0.762829
0.487301 0.393399
0.487527 0.065409
0.487443 -0.228445
0.487078 -0.495565
0.486459 -0.737474
0.485609 -0.958648
0.484547 -1.158231
0.483297 -1.336903
0.481878 -1.493373
0.480314 -1.629425
0.478622 -1.746847
0.476823 -1.845734
0.474932 -1.929707
0.472964 -2.000014
0.470932 -2.057588
0.468848 -2.107009
0.466716 -2.150899
0.464544 -2.188093
0.462336 -2.224216
0.460091 -2.258599
0.457815 -2.291552
0.455503 -2.326655
0.453157 -2.361803
0.450774 -2.397542
0.448355 -2.437068
0.445895 -2.478718
0.443393 -2.520810
0.440847 -2.566755
0.438253 -2.615264
0.435611 -2.663600
0.432920 -2.713193
0.430178 -2.766512
0.427382 -2.819808
0.424532 -2.875623
0.421625 -2.930913
0.418664 -2.986815
0.415645 -3.044752
0.412569 -3.100884
0.409436 -3.158814
0.406245 -3.217138
0.402996 -3.273418
0.399692 -3.329224
0.396331 -3.386201
0.392913 -3.442087
0.389441 -3.494980
0.385916 -3.547562
0.382339 -3.598680
0.378712 -3.647761
0.375037 -3.695290
0.371316 -3.738257
0.367553 -3.779358
0.363749 -3.820193
0.359907 -3.855927
0.356031 -3.888735
0.352122 -3.918912
0.348186 -3.947890
0.344219 -3.975418
0.340227 -4.000985
0.336210 -4.025510
0.332169 -4.049033
0.328104 -4.072038
0.324018 -4.092009
0.319912 -4.111328
0.315787 -4.128959
0.311646 -4.144114
0.307492 -4.156424
0.303326 -4.166398
0.299151 -4.173412
0.294972 -4.176692
0.290790 -4.177993
0.286609 -4.175285
0.282433 -4.169010
0.278259 -4.173678
0.274076 -4.180068
0.269895 -4.173827
0.265724 -4.156570
0.261577 -4.128448
0.257462 -4.089981
0.253389 -4.049646
0.249357 -4.002665
0.245381 -3.939991
0.241471 -3.873204
0.237626 -3.809978
0.233841 -3.753124
0.230109 -3.703808
0.226423 -3.661950
0.222776 -3.626244
0.219162 -3.596845
0.215574 -3.571555
0.212011 -3.547736
0.208472 -3.523458
0.204957 -3.499804
0.201465 -3.474982
0.198000 -3.448470
0.194563 -3.418758
0.191156 -3.387746
0.187781 -3.355813
0.184439 -3.320639
0.181134 -3.282626
0.177866 -3.247701
0.174629 -3.219983
0.171417 -3.200667
0.168218 -3.191505
0.165025 -3.189250
0.161831 -3.193026
0.158631 -3.202239
0.155419 -3.216172
0.152191 -3.233738
0.148944 -3.253224
0.145678 -3.273752
0.142389 -3.296664
0.139078 -3.319535
0.135744 -3.340058
0.132391 -3.361578
0.129014 -3.383173
0.125618 -3.403702
0.122201 -3.420799
0.118770 -3.436898
0.115320 -3.454327
0.111856 -3.466933
0.108379 -3.479586
0.104890 -3.492298
0.101389 -3.501829
0.097879 -3.510947
0.094361 -3.518140
0.090836 -3.524198
0.087305 -3.530680
0.083768 -3.535047
0.080228 -3.539501
0.076682 -3.543934
0.073133 -3.547652
0.069581 -3.549762
0.066026 -3.552031
0.062469 -3.554316
0.058911 -3.554391
0.055354 -3.553365
0.051798 -3.550874
0.048246 -3.546713
0.044702 -3.528016
0.041178 -3.522260
0.037665 -3.475039
0.034182 -3.546173
0.030661 -3.331782
0.028185 -1.097725
0.028814 2.189843
0.032069 3.978742
0.036144 3.862536
0.039343 2.371616
0.040708 0.329491
0.040033 -1.622029
0.037596 -3.168434
0.033834 -4.281973
0.029139 -5.050540
0.023807 -5.568190
0.018045 -5.925860
0.011987 -6.153951
0.005776 -6.227908
-0.000444 -6.187823
-0.006595 -6.095567
-0.012635 -5.967439
-0.018537 -5.825388
-0.024289 -5.658380
-0.029849 -5.444252
-0.035182 -5.209427
-0.040287 -4.999062
-0.045200 -4.820775
-0.049937 -4.639867
-0.054488 -4.455534
-0.058866 -4.298244
-0.063105 -4.174374
-0.067231 -4.072899
-0.071262 -3.982787
-0.075205 -3.895761
-0.079060 -3.803093
-0.082818 -3.705692
-0.086477 -3.604348
-0.090032 -3.499963
-0.093484 -3.396647
-0.096833 -3.294402
-0.100081 -3.196387
-0.103234 -3.104494
-0.106301 -3.025615
-0.109296 -2.961884
-0.112235 -2.910522
-0.115127 -2.870956
-0.117986 -2.841124
-0.120818 -2.818870
-0.123631 -2.801525
-0.126428 -2.789770
-0.129217 -2.781802
-0.131997 -2.773817
-0.134771 -2.768566
-0.137540 -2.763842
-0.140304 -2.757192
-0.143060 -2.749654
-0.145808 -2.741040
-0.148547 -2.730401
-0.151274 -2.717683
-0.153987 -2.703862
-0.156686 -2.687276
-0.159367 -2.669190
-0.162029 -2.648489
-0.164669 -2.626888
-0.167288 -2.605960
-0.169885 -2.581732
-0.172457 -2.557321
-0.175004 -2.532496
-0.177527 -2.507573
-0.180025 -2.482856
-0.182497 -2.457262
-0.184944 -2.433066
-0.187368 -2.408737
-0.189767 -2.385501
-0.192144 -2.362681
-0.194497 -2.339340
-0.196828 -2.317487
-0.199137 -2.296155
-0.201424 -2.273572
-0.203689 -2.252899
-0.205934 -2.230874
-0.208156 -2.209480
-0.210358 -2.188773
-0.212537 -2.166689
-0.214696 -2.145875
-0.216833 -2.123993
-0.218948 -2.101739
-0.221040 -2.079483
-0.223111 -2.056360
-0.225157 -2.031344
-0.227178 -2.007718
-0.229176 -1.983157
-0.231148 -1.956764
-0.233093 -1.931112
-0.235014 -1.905569
-0.236909 -1.880491
-0.238778 -1.853830
-0.240620 -1.828390
-0.242439 -1.804918
-0.244233 -1.779716
-0.246002 -1.755235
-0.247748 -1.732745
-0.249471 -1.710240
-0.251171 -1.686581
-0.252848 -1.664722
-0.254504 -1.642987
-0.256138 -1.621670
-0.257751 -1.600008
-0.259341 -1.579493
-0.260913 -1.559595
-0.262463 -1.538346
-0.263993 -1.516900
-0.265500 -1.495785
-0.266988 -1.475458
-0.268454 -1.453278
-0.269897 -1.430449
-0.271318 -1.408334
-0.272716 -1.385881
-0.274091 -1.361554
-0.275442 -1.338529
-0.276771 -1.314449
-0.278074 -1.290140
-0.279354 -1.266822
-0.280610 -1.242719
-0.281842 -1.219059
-0.283050 -1.195601
-0.284236 -1.171843
-0.285396 -1.148037
-0.286534 -1.125788
-0.287650 -1.103440
-0.288744 -1.081253
-0.289815 -1.058804
-0.290864 -1.037025
-0.291891 -1.016772
-0.292899 -0.994619
-0.293883 -0.973634
-0.294848 -0.954239
-0.295793 -0.932895
-0.296716 -0.912735
-0.297620 -0.892237
-0.298502 -0.871474
-0.299364 -0.849687
-0.300203 -0.826332
-0.301018 -0.802040
-0.301808 -0.776888
-0.302574 -0.753013
-0.303316 -0.729177
-0.304034 -0.705336
-0.304728 -0.682193
-0.305400 -0.659835
-0.306049 -0.637131
-0.306676 -0.615307
-0.307281 -0.593244
-0.307863 -0.570146
-0.308423 -0.547928
-0.308960 -0.525804
-0.309475 -0.503499
-0.309968 -0.480365
-0.310437 -0.457695
-0.310885 -0.436670
-0.311311 -0.414289
-0.311714 -0.393048
-0.312097 -0.369775
-0.312458 -0.357426
-0.312800 -0.307441
-0.313080 -0.276706
-0.313358 -0.256940
-0.313611 -0.284525
-0.313844 -0.061585
-0.313908 -0.359941
-0.314046 0.895650
-0.312282 1.649201
-0.311280 0.797394
-0.310309 1.075457
-0.309183 1.185933
-0.307915 1.354725
-0.307672 -2.077967
-0.314117 -11.630522
-0.333131 -27.699994
-0.371411 -49.279622
-0.429716 -64.648103
-0.496253 -66.278640
-0.560171 -61.210873
-0.618649 -55.699491
-0.671773 -50.461750
-0.720015 -46.245438
-0.764191 -41.533234
-0.803197 -36.920555
-0.838761 -34.269371
-0.871444 -30.536928
-0.900054 -27.279978
-0.926601 -25.649615
-0.950902 -22.512195
-0.972041 -20.483198
-0.992232 -19.421951
-1.010428 -16.875996
-1.026261 -15.059011
-1.041014 -14.555521
-1.055191 -13.419490
-1.067521 -11.207212
-1.078260 -10.889566
-1.089182 -10.152973
-1.098036 -7.767695
-1.103403 -1.396073
-1.101327 3.488380
-1.098091 3.361452
-1.094568 3.322100
-1.091727 2.425145
-1.089093 3.385335
-1.084939 4.376821
-1.080737 4.152244
-1.076541 4.181719
-1.072411 4.072705
-1.068307 4.205021
-1.064219 3.658723
-1.060823 3.591463
-1.056665 4.615331
-1.051779 5.050559
-1.046662 5.160583
-1.041465 5.219740
-1.036213 5.276947
-1.030897 5.342896
-1.025516 5.409160
-1.020068 5.477147
-1.014552 5.541935
-1.008977 5.594185
-1.003361 5.621405
-0.997743 5.586564
-0.992189 5.513731
-0.986718 5.400888
-0.981189 5.849041
-0.974950 6.471001
-0.968391 6.622549
-0.961711 6.717524
-0.954953 6.783288
-0.948133 6.841123
-0.941256 6.899876
-0.934321 6.954449
-0.927333 7.010044
-0.920286 7.068152
-0.913186 7.116209
-0.906043 7.153955
-0.898866 7.186051
-0.891658 7.212585
-0.884428 7.233665
-0.877178 7.250902
-0.869913 7.265234
-0.862634 7.275027
-0.855347 7.288843
-0.848051 7.275658
-0.840797 7.215212
-0.833729 6.788251
-0.827161 6.496661
-0.820257 7.599390
-0.812047 8.402779
-0.803744 8.278579
-0.795510 8.044503
-0.787572 8.011335
-0.779883 6.745027
-0.773671 6.669961
-0.765852 8.624811
-0.757131 8.402285
-0.748718 9.116973
-0.739736 7.260831
-0.725530 31.333964
-0.669875 76.778697
-0.584291 84.846082
-0.506050 74.820212
-0.431536 73.677434
-0.359570 69.468121
-0.292848 64.100357
-0.230961 59.573965
-0.173482 55.341282
-0.120049 51.464237
-0.070399 47.743016
-0.024365 44.329035
0.018232 40.567345
0.057492 38.727064
0.095940 37.416789
0.131730 34.096426
0.164318 31.124051
0.194137 28.440415
0.221261 25.774801
0.246323 24.861590
0.271224 24.517567
0.294671 21.966751
0.315294 19.693853
0.334089 17.395061
0.350670 16.746740
0.367991 17.221904
0.384365 15.349969
0.398719 13.469550
0.411469 12.002239
0.422770 10.602732
0.433584 11.865077
0.445936 11.365220
0.455724 9.027627
0.464428 7.943200
0.471683 7.027503
0.479200 8.220366
0.487610 7.825515
0.494444 6.162044
0.500206 5.276965
0.504956 4.234893
0.509424 5.408236
0.515541 5.857783
0.520446 4.195048
0.524256 3.479581
0.527297 2.419033
0.529794 3.442731
0.534124 4.271692
0.537626 2.941597
0.540271 2.383434
0.542272 1.448712
0.543469 1.405106
0.545612 2.941513
0.548766 2.704690
0.550719 1.545066
0.552157 1.279058
0.553096 0.461426
0.553465 0.794010
0.555007 2.092023
0.557117 1.783547
0.558410 0.972615
0.559220 0.626995
0.559634 0.186304
0.559617 -0.180952
0.559812 1.070192
0.561534 1.643916
0.562613 0.749594
0.563236 0.458489
0.563523 0.144845
0.563551 -0.091121
0.563344 -0.318355
0.562922 -0.523068
0.562292 -0.742277
0.561432 -0.971028
0.560350 -1.193338
0.559041 -1.421477
0.557501 -1.660084
0.555715 -1.908034
0.553676 -2.169993
0.551365 -2.448825
0.548767 -2.747617
0.545856 -3.069318
0.542614 -3.414236
0.539012 -3.786969
0.535024 -4.187520
0.530617 -4.621790
0.525759 -5.090330
0.520414 -5.597133
0.514541 -6.142782
0.508101 -6.731901
0.501047 -7.370231
0.493329 -8.058207
0.484896 -8.801641
0.475689 -9.604218
0.465647 -10.470592
0.454704 -11.405444
0.442790 -12.410865
0.429832 -13.491447
0.415754 -14.649868
0.400476 -15.889179
0.383916 -17.211132
0.365991 -18.616747
0.346618 -20.106099
0.325712 -21.677286
0.303193 -23.329457
0.278982 -25.052381
0.253009 -26.861909
0.225201 -28.681944
0.195532 -30.667840
0.163773 -32.747770
0.131033 -31.644076
0.101103 -28.497121
0.073681 -26.252577
0.048491 -24.170950
0.025154 -22.499310
0.003365 -21.074215
-0.017100 -19.837370
-0.036412 -18.787160
-0.054770 -17.912594
-0.072304 -17.132769
-0.089098 -16.437738
-0.105251 -15.859028
-0.120863 -15.326118
-0.135940 -14.809205
-0.150534 -14.360249
-0.164706 -13.962250
-0.178500 -13.605644
-0.191956 -13.284176
-0.205105 -12.990443
-0.217971 -12.720087
-0.230577 -12.469116
-0.242939 -12.233908
-0.255074 -12.012298
-0.266992 -11.801782
-0.278704 -11.600595
-0.290219 -11.407547
-0.301544 -11.221509
-0.312686 -11.041197
-0.323650 -10.866184
-0.334442 -10.695401
-0.345064 -10.529308
-0.355523 -10.366827
-0.365820 -10.207442
-0.375959 -10.051620
-0.385944 -9.898387
-0.395777 -9.748152
-0.405461 -9.600875
-0.414998 -9.455717
-0.424392 -9.312718
-0.433644 -9.172868
-0.442757 -9.035253
-0.451733 -8.900230
-0.460576 -8.768526
-0.469289 -8.641129
-0.477877 -8.519502
-0.486347 -8.403708
-0.494704 -8.294276
-0.502954 -8.191365
-0.511105 -8.094430
-0.519161 -8.003306
-0.527130 -7.918237
-0.535015 -7.838238
-0.542823 -7.762962
-0.550558 -7.692581
-0.558225 -7.626093
-0.565827 -7.563611
-0.573369 -7.505088
-0.580854 -7.449777
-0.588284 -7.397304
-0.595664 -7.348814
-0.602997 -7.302677
-0.610285 -7.259289
-0.617531 -7.217397
-0.624735 -7.176061
-0.631898 -7.134954
-0.639018 -7.092116
-0.646097 -7.053396
-0.653142 -7.022856
-0.660160 -7.000000
-0.667159 -6.985001
-0.674146 -6.976130
-0.681126 -6.972329
-0.688107 -6.974921
-0.695092 -6.982164
-0.702086 -6.992609
-0.709092 -7.004746
-0.716109 -7.016383
-0.723138 -7.026503
-0.730176 -7.034454
-0.737220 -7.040004
-0.744269 -7.043007
-0.751319 -7.043422
-0.758369 -7.041505
-0.765415 -7.036643
-0.772456 -7.030878
-0.779491 -7.023513
-0.786514 -7.007395
-0.793517 -6.985050
-0.800498 -6.961113
-0.807454 -6.937688
-0.814388 -6.916562
-0.821301 -6.896426
-0.828195 -6.877212
-0.835069 -6.858530
-0.841926 -6.839846
-0.848763 -6.822070
-0.855583 -6.804090
-0.862385 -6.786106
-0.869169 -6.767793
-0.875934 -6.748029
-0.882679 -6.729239
-0.889405 -6.709240
-0.896110 -6.687192
-0.902793 -6.664366
-0.909452 -6.640150
-0.916086 -6.614225
-0.922693 -6.586560
-0.929271 -6.556934
-0.935819 -6.525426
-0.942334 -6.491590
-0.948814 -6.454812
-0.955256 -6.415152
-0.961657 -6.372534
-0.968013 -6.327029
-0.974322 -6.278620
-0.980582 -6.227154
-0.986788 -6.172693
-0.992938 -6.115056
-0.999029 -6.054196
-1.005058 -5.990260
-1.011021 -5.923136
-1.016915 -5.852818
-1.022737 -5.779294
-1.028484 -5.702919
-1.034153 -5.622758
-1.039741 -5.542199
-1.045245 -5.450785
-1.050660 -5.380194
-1.055993 -5.239516
-1.061211 -5.283243
-1.066386 -4.774613
-1.069853 -1.516412
-1.068930 3.213239
-1.063593 7.423832
-1.054241 11.114124
-1.041749 13.584983
-1.027584 14.439099
-1.013349 13.774749
-1.000351 12.078372
-0.989315 9.942128
-0.980458 7.773103
-0.973670 5.852593
-0.968614 4.312493
-0.964920 3.120984
-0.962265 2.230508
-0.960371 1.591597
-0.959019 1.133432
-0.958041 0.855965
-0.957263 0.705649
-0.956612 0.605910
-0.956037 0.544829
-0.955514 0.505446
-0.955000 0.541121
-0.954415 0.623314
-0.953761 0.677485
-0.953067 0.706111
-0.952356 0.709159
-0.951658 0.679525
-0.951006 0.617668
-0.950430 0.531015
-0.949950 0.425725
-0.949581 0.310275
-0.949329 0.194323
-0.949190 0.082718
-0.949160 -0.020517
-0.949228 -0.113980
-0.949384 -0.195920
-0.949617 -0.266126
-0.949912 -0.319217
-0.950253 -0.365672
-0.950634 -0.382736
-0.950994 -0.321315
-0.951268 -0.233632
-0.951471 -0.174220
-0.951622 -0.130502
-0.951735 -0.095781
-0.951816 -0.066727
-0.951870 -0.040783
-0.951899 -0.018942
-0.951909 -0.001651
-0.951904 0.012074
-0.951886 0.022037
-0.951861 0.028371
-0.951830 0.032612
-0.951796 0.033726
-0.951764 0.030064
-0.951738 0.022011
-0.951721 0.010022
-0.951719 -0.005238
-0.951732 -0.020987
-0.951761 -0.036207
-0.951805 -0.052208
-0.951865 -0.067851
-0.951940 -0.082655
-0.952030 -0.095431
-0.952130 -0.105518
-0.952240 -0.111472
-0.952352 -0.112682
-0.952464 -0.111048
-0.952573 -0.106501
-0.952677 -0.099238
-0.952771 -0.089632
-0.952855 -0.077777
-0.952926 -0.064330
-0.952984 -0.049929
-0.953026 -0.035412
-0.953055 -0.021302
-0.953069 -0.008363
-0.953072 0.002730
-0.953065 0.011270
-0.953051 0.016277
-0.953033 0.018103
-0.953015 0.017382
-0.952999 0.014369
-0.952987 0.009183
-0.952981 0.002329
-0.952983 -0.005978
-0.952994 -0.015652
-0.953015 -0.026103
-0.953046 -0.037062
-0.953089 -0.047988
-0.953142 -0.058418
-0.953205 -0.067434
-0.953277 -0.074607
-0.953354 -0.079586
-0.953435 -0.082270
-0.953518 -0.082872
-0.953600 -0.081278
-0.953680 -0.077972
-0.953756 -0.073062
-0.953826 -0.066774
-0.953889 -0.059536
-0.953945 -0.051816
-0.953993 -0.043732
-0.954033 -0.035857
-0.954065 -0.028454
-0.954090 -0.021465
-0.954108 -0.015762
-0.954122 -0.011031
-0.954131 -0.007439
-0.954137 -0.005354
-0.954142 -0.004408
-0.954146 -0.004838
-0.954152 -0.006621
-0.954160 -0.009479
-0.954171 -0.013280
-0.954187 -0.017853
-0.954207 -0.022923
-0.954233 -0.028139
-0.954263 -0.033183
-0.954299 -0.038023
-0.954339 -0.042056
-0.954383 -0.045250
-0.954429 -0.047317
-0.954477 -0.047985
-0.954525 -0.047697
-0.954572 -0.046219
-0.954617 -0.043640
-0.954659 -0.040173
-0.954698 -0.035989
-0.954731 -0.031420
-0.954760 -0.026315
-0.954784 -0.021228
-0.954803 -0.016304
-0.954817 -0.011693
-0.954826 -0.007588
-0.954832 -0.003973
-0.954835 -0.001349
-0.954835 0.000535
-0.954834 0.001835
-0.954832 0.002078
-0.954830 0.001586
-0.954829 0.000532
-0.954829 -0.001435
-0.954832 -0.003745
-0.954837 -0.006319
-0.954844 -0.009220
-0.954855 -0.012152
-0.954869 -0.014853
-0.954885 -0.017027
-0.954903 -0.018947
-0.954922 -0.020316
-0.954943 -0.020561
-0.954963 -0.020144
-0.954983 -0.019022
-0.955001 -0.017220
-0.955017 -0.014980
-0.955031 -0.012321
-0.955042 -0.009350
-0.955050 -0.005795
-0.955054 -0.003380
-0.955055 0.003080
-0.955052 -0.003375
-0.955049 0.029001
-0.955033 -0.056667
-0.955046 0.204775
-0.954965 -0.556049
-0.955110 1.830553
-0.925947 41.365259
