-0.119952 0.134540 -0.593103
0.845339 8.071751
0.852472 6.242218
0.857961 4.786861
0.862176 3.693984
0.865464 2.924915
0.868120 2.418343
0.870371 2.107040
0.872383 1.931731
0.874268 1.845230
0.876095 1.811397
0.877903 1.803977
0.879709 1.804707
0.881515 1.801557
0.883312 1.787188
0.885086 1.753049
0.886813 1.690673
0.888451 1.566661
0.889917 1.347362
0.891034 0.786871
0.891475 0.172426
0.891531 0.012339
0.891557 0.026117
0.891571 0.004356
0.891571 -0.001032
0.891572 0.000456
0.891572 -0.000410
0.891572 0.000946
0.891572 -0.002766
0.891571 0.007711
0.891575 -0.018864
0.891560 0.035505
0.891608 -0.024771
0.890199 -4.015059
0.883468 -8.311163
0.874789 -8.924007
0.865721 -9.179049
0.856423 -9.401863
0.846576 -10.591173
0.835071 -12.226459
0.821447 -15.815844
0.805984 -11.684156
0.800084 -1.472372
0.800454 1.000618
0.801196 0.802581
0.802204 1.032772
0.803133 0.874023
0.803988 0.818858
0.804762 0.730545
0.805454 0.651282
0.806065 0.571423
0.806604 0.510268
0.807021 0.250418
0.806911 -0.593063
0.805683 -1.886298
0.803126 -3.205305
0.799283 -4.473999
0.794217 -5.597685
0.788128 -6.567185
0.781072 -7.530112
0.773076 -8.422016
0.764296 -9.059373
0.755053 -9.355272
0.745653 -9.391021
0.736325 -9.208200
0.727295 -8.796461
0.718793 -8.150345
0.711049 -7.292134
0.704236 -6.309340
0.698412 -5.343137
0.693494 -4.512070
0.689321 -3.853903
0.685719 -3.374078
0.682496 -3.103747
0.679428 -3.064360
0.676292 -3.231022
0.672908 -3.553285
0.669146 -3.974395
0.664934 -4.445507
0.660241 -4.932403
0.655064 -5.404754
0.649435 -5.834082
0.643405 -6.200607
0.637044 -6.497428
0.630420 -6.726394
0.623598 -6.893886
0.616636 -7.008944
0.609580 -7.082199
0.602468 -7.125141
0.595323 -7.147917
0.588161 -7.159288
0.580991 -7.165858
0.573815 -7.172406
0.566631 -7.182050
0.559435 -7.197216
0.552220 -7.219867
0.544978 -7.251087
0.537700 -7.292193
0.530375 -7.343746
0.522994 -7.405900
0.515545 -7.478908
0.508018 -7.562263
0.500402 -7.656026
0.492687 -7.760089
0.484863 -7.873248
0.476922 -7.993653
0.468858 -8.119192
0.460667 -8.248112
0.452345 -8.378232
0.443894 -8.507702
0.435313 -8.634890
0.426608 -8.758178
0.417781 -8.876019
0.408840 -8.987059
0.399792 -9.090419
0.390644 -9.184629
0.381408 -9.268594
0.372092 -9.342004
0.362709 -9.404177
0.353269 -9.454892
0.343784 -9.494444
0.334265 -9.522745
0.324723 -9.540031
0.315169 -9.547092
0.305613 -9.544309
0.296064 -9.532498
0.286531 -9.512593
0.277022 -9.485192
0.267544 -9.451350
0.258103 -9.411674
0.248704 -9.367165
0.239351 -9.318539
0.230049 -9.266748
0.220799 -9.213779
0.211603 -9.161343
0.202458 -9.110116
0.193364 -9.060153
0.184319 -9.011376
0.175323 -8.963949
0.166373 -8.917939
0.157468 -8.874038
0.148607 -8.830907
0.139787 -8.792116
0.131004 -8.755939
0.122257 -8.722393
0.113540 -8.694146
0.104849 -8.671651
0.096177 -8.655421
0.087519 -8.646418
0.078865 -8.644165
0.070210 -8.649753
0.061545 -8.664650
0.052861 -8.689409
0.044145 -8.723909
0.035393 -8.765381
0.026593 -8.819342
0.017734 -8.882496
0.008808 -8.953483
-0.000196 -9.037669
-0.009292 -9.140041
-0.018500 -9.259598
-0.027834 -9.392735
-0.037308 -9.536695
-0.046928 -9.684325
-0.056697 -9.834536
-0.066618 -9.987961
-0.076692 -10.140733
-0.086920 -10.295253
-0.097303 -10.449691
-0.107840 -10.601894
-0.118528 -10.753559
-0.129368 -10.903233
-0.140355 -11.049348
-0.151487 -11.192466
-0.162762 -11.331909
-0.174172 -11.465625
-0.185714 -11.594025
-0.197380 -11.713261
-0.209161 -11.824443
-0.221051 -11.928775
-0.233039 -12.023018
-0.245119 -12.111273
-0.257284 -12.192861
-0.269526 -12.266666
-0.281840 -12.336553
-0.294222 -12.400364
-0.306664 -12.459055
-0.319164 -12.513208
-0.331714 -12.561301
-0.344310 -12.605472
-0.356949 -12.646334
-0.369627 -12.682921
-0.382338 -12.712390
-0.395076 -12.739005
-0.407840 -12.763205
-0.420626 -12.781174
-0.433427 -12.795693
-0.446242 -12.807449
-0.459067 -12.815614
-0.471898 -12.821117
-0.484733 -12.823790
-0.497570 -12.823987
-0.510407 -12.822818
-0.523241 -12.819328
-0.536071 -12.815347
-0.548896 -12.808574
-0.561714 -12.801836
-0.574525 -12.793505
-0.587325 -12.782469
-0.600116 -12.772197
-0.612895 -12.759525
-0.625660 -12.745896
-0.638412 -12.731840
-0.651148 -12.715910
-0.663868 -12.696759
-0.676567 -12.677349
-0.689248 -12.658767
-0.701910 -12.640340
-0.714556 -12.627847
-0.727194 -12.623226
-0.739829 -12.622337
-0.752465 -12.625091
-0.765105 -12.629648
-0.777750 -12.633960
-0.790398 -12.637149
-0.803049 -12.638704
-0.815700 -12.638540
-0.828350 -12.634787
-0.840994 -12.628740
-0.853632 -12.620158
-0.866259 -12.609107
-0.878875 -12.597097
-0.891477 -12.581771
-0.904063 -12.565523
-0.916634 -12.550142
-0.929188 -12.532964
-0.941725 -12.515626
-0.954244 -12.497506
-0.966745 -12.480800
-0.979231 -12.463919
-0.991698 -12.446147
-1.004149 -12.430728
-1.016584 -12.414022
-1.029002 -12.398468
-1.041406 -12.385058
-1.053796 -12.370454
-1.066172 -12.357208
-1.078536 -12.345551
-1.090888 -12.333520
-1.103228 -12.322548
-1.115558 -12.311735
-1.127875 -12.297787
-1.140177 -12.281708
-1.152463 -12.264594
-1.164731 -12.247366
-1.176983 -12.233516
-1.189223 -12.220657
-1.201449 -12.207548
-1.213664 -12.198027
-1.225869 -12.188425
-1.238065 -12.178445
-1.250252 -12.171084
-1.262432 -12.165893
-1.274608 -12.162311
-1.286780 -12.155478
-1.298941 -12.142439
-1.311088 -12.125261
-1.323214 -12.102687
-1.335315 -12.072933
-1.347382 -12.035574
-1.359407 -11.988300
-1.371380 -11.934709
-1.383298 -11.873854
-1.395149 -11.804609
-1.406929 -11.729814
-1.418630 -11.648544
-1.430247 -11.561262
-1.441774 -11.468844
-1.453205 -11.369206
-1.464534 -11.265774
-1.475758 -11.157737
-1.486869 -11.042041
-1.497863 -10.923180
-1.508735 -10.798084
-1.519479 -10.668821
-1.530093 -10.535349
-1.540570 -10.397363
-1.550907 -10.255892
-1.561100 -10.108029
-1.571143 -9.958223
-1.581035 -9.803190
-1.590767 -9.642650
-1.600338 -9.479344
-1.609743 -9.309889
-1.618974 -9.133482
-1.628027 -8.952719
-1.636896 -8.766482
-1.645575 -8.574452
-1.654060 -8.377195
-1.662345 -8.175062
-1.670425 -7.968620
-1.678296 -7.755650
-1.685951 -7.538093
-1.693385 -7.314277
-1.700592 -7.084261
-1.707565 -6.846651
-1.714296 -6.601833
-1.720779 -6.349396
-1.727005 -6.089058
-1.732967 -5.820799
-1.738655 -5.543153
-1.744062 -5.257282
-1.749177 -4.961455
-1.753991 -4.655145
-1.758494 -4.340539
-1.762677 -4.015187
-1.766528 -3.677959
-1.770037 -3.331501
-1.773194 -2.972592
-1.775985 -2.602053
-1.778400 -2.220868
-1.780426 -1.824983
-1.782049 -1.416110
-1.783257 -0.995014
-1.784036 -0.559770
-1.784372 -0.107679
-1.784282 0.253039
-1.783955 0.344901
-1.783679 0.175562
-1.783632 -0.078649
-1.783816 -0.270289
-1.784137 -0.353488
-1.784531 -0.460620
-1.785124 -0.762009
-1.786127 -1.272704
-1.787723 -1.935556
-1.790019 -2.650172
-1.793006 -3.299105
-1.796576 -3.806126
-1.800567 -4.135258
-1.804794 -4.282104
-1.809086 -4.268534
-1.813297 -4.125281
-1.817314 -3.890009
-1.821065 -3.596368
-1.824505 -3.274075
-1.827618 -2.948236
-1.830412 -2.637015
-1.832907 -2.354718
-1.835137 -2.106420
-1.837137 -1.896473
-1.838947 -1.724219
-1.840600 -1.583717
-1.842128 -1.474982
-1.843560 -1.389161
-1.844915 -1.320252
-1.846209 -1.267215
-1.847453 -1.219684
-1.848651 -1.173548
-1.849802 -1.126231
-1.850903 -1.071834
-1.851945 -1.007278
-1.852916 -0.931235
-1.853804 -0.840151
-1.854593 -0.734340
-1.855269 -0.613351
-1.855816 -0.476440
-1.856218 -0.325548
-1.856463 -0.161353
-1.856538 0.014360
-1.856430 0.201781
-1.856131 0.398763
-1.855630 0.602747
-1.854921 0.814241
-1.853998 1.030835
-1.852857 1.249331
-1.851497 1.468551
-1.849918 1.684914
-1.848125 1.897340
-1.846121 2.105856
-1.843911 2.308844
-1.841500 2.508165
-1.838891 2.702719
-1.836090 2.893259
-1.833099 3.082355
-1.829920 3.269106
-1.826555 3.454060
-1.823005 3.639926
-1.819268 3.825764
-1.815346 4.011455
-1.811236 4.198145
-1.806940 4.386959
-1.802454 4.576402
-1.797778 4.766620
-1.792910 4.959011
-1.787850 5.152431
-1.782595 5.346599
-1.777146 5.540871
-1.771501 5.736433
-1.765661 5.931530
-1.759627 6.125623
-1.753398 6.320594
-1.746973 6.514231
-1.740357 6.705097
-1.733550 6.895985
-1.726552 7.085474
-1.719366 7.271534
-1.711995 7.455699
-1.704440 7.637988
-1.696704 7.817356
-1.688791 7.993556
-1.680702 8.167512
-1.672441 8.337177
-1.664012 8.503839
-1.655417 8.667692
-1.646661 8.827831
-1.637745 8.985411
-1.628673 9.138722
-1.619450 9.288126
-1.610079 9.435680
-1.600561 9.579291
-1.590902 9.719030
-1.581104 9.857060
-1.571170 9.990590
-1.561104 10.121518
-1.550908 10.249217
-1.540586 10.372587
-1.530143 10.493253
-1.519580 10.610929
-1.508901 10.724283
-1.498111 10.835105
-1.487210 10.943279
-1.476204 11.046737
-1.465096 11.146454
-1.453889 11.244295
-1.442586 11.338582
-1.431190 11.429912
-1.419704 11.518045
-1.408132 11.602575
-1.396477 11.684927
-1.384740 11.763365
-1.372927 11.839166
-1.361040 11.911140
-1.349082 11.980487
-1.337056 12.046016
-1.324967 12.106895
-1.312818 12.167062
-1.300611 12.221520
-1.288352 12.273229
-1.276041 12.321102
-1.263686 12.365079
-1.251287 12.407931
-1.238847 12.445025
-1.226373 12.478202
-1.213867 12.509468
-1.201330 12.537502
-1.188768 12.560915
-1.176184 12.581357
-1.163581 12.598968
-1.150962 12.613065
-1.138330 12.624634
-1.125689 12.631948
-1.113042 12.636247
-1.100392 12.638545
-1.087741 12.637406
-1.075093 12.633029
-1.062450 12.626210
-1.049816 12.615243
-1.037195 12.602273
-1.024587 12.587338
-1.011997 12.568495
-0.999426 12.547001
-0.986879 12.522744
-0.974356 12.497665
-0.961860 12.467390
-0.949397 12.434814
-0.936966 12.400453
-0.924572 12.363391
-0.912215 12.323827
-0.899901 12.281138
-0.887629 12.237090
-0.875403 12.190644
-0.863225 12.139829
-0.851099 12.088005
-0.839025 12.034786
-0.827007 11.977409
-0.815046 11.919253
-0.803145 11.859064
-0.791306 11.796105
-0.779530 11.731119
-0.767820 11.664124
-0.756179 11.594759
-0.744608 11.525444
-0.733106 11.452715
-0.721680 11.378323
-0.710328 11.300964
-0.699055 11.226097
-0.687849 11.163208
-0.676704 11.104876
-0.665627 11.017522
-0.654544 11.238116
-0.642995 11.859452
-0.630793 12.506377
-0.617981 13.080234
-0.604673 13.454463
-0.591162 13.478927
-0.577799 13.173244
-0.564875 12.609690
-0.552622 11.840999
-0.541225 10.907169
-0.530823 9.861960
-0.521498 8.765165
-0.513276 7.667547
-0.506135 6.609257
-0.500022 5.616390
-0.494863 4.706671
-0.490570 3.884953
-0.487055 3.153049
-0.484229 2.506713
-0.482011 1.937597
-0.480325 1.442014
-0.479102 1.011833
-0.478279 0.642998
-0.477795 0.335270
-0.477588 0.087267
-0.477599 -0.099030
-0.477762 -0.213346
-0.478009 -0.276632
-0.478284 -0.244644
-0.478410 0.055542
-0.478079 0.637862
-0.477068 1.414935
-0.475187 2.368751
-0.472277 3.468259
-0.468202 4.692074
-0.462847 6.023517
-0.456111 7.450468
-0.447902 8.964352
-0.438136 10.563961
-0.426731 12.230973
-0.413640 13.927824
-0.398847 15.625572
-0.382365 17.300452
-0.364225 18.934384
-0.344476 20.516298
-0.323171 22.040120
-0.300372 23.500882
-0.276144 24.897126
-0.250550 26.227012
-0.223658 27.493356
-0.195530 28.695607
-0.166231 29.833683
-0.135824 30.908700
-0.104374 31.916709
-0.071951 32.852059
-0.038631 33.705755
-0.004501 34.471671
0.030350 35.144703
0.065825 35.718473
0.101824 36.189616
0.138242 36.555236
0.174971 36.811431
0.211901 36.956313
0.248920 36.987939
0.285912 36.903327
0.322761 36.700394
0.359347 36.377137
0.395546 35.928133
0.431232 35.352388
0.466304 34.723734
0.500830 34.336362
0.535343 34.841384
0.570866 36.197416
0.607815 37.567703
0.645877 38.338437
0.684131 37.796741
0.720870 35.227338
0.754092 30.965001
0.782608 25.942811
0.805998 20.826606
0.824432 16.097569
0.838433 11.991865
0.848669 8.571679
0.855803 5.780524
0.860420 3.523846
0.863000 1.692376
0.863910 0.166180
0.863397 -1.168448
0.861605 -2.398692
0.858619 -3.556418
0.854505 -4.653956
0.849314 -5.713744
0.843067 -6.770051
0.835746 -7.868061
0.827288 -9.048574
0.817600 -10.321870
0.806594 -11.685022
0.794215 -13.023334
0.780470 -14.514136
0.765519 -14.921870
0.751612 -12.286092
0.742623 -4.554526
0.742861 4.276694
0.749282 7.406955
0.756486 6.931757
0.763111 6.310563
0.769132 5.724616
0.774583 5.171427
0.779496 4.651937
0.783907 4.165806
0.787846 3.709680
0.791345 3.287231
0.794438 2.898002
0.797155 2.533599
0.799521 2.199617
0.801568 1.894614
0.803323 1.616219
0.804811 1.359530
0.806051 1.121907
0.807068 0.917045
0.807891 0.725276
0.808527 0.553804
0.809008 0.405583
0.809343 0.267817
0.809550 0.147998
0.809644 0.043037
0.809644 -0.038587
0.809567 -0.118533
0.809408 -0.194420
0.809187 -0.244184
0.808923 -0.281136
0.808625 -0.313780
0.808297 -0.342048
0.807942 -0.364450
0.807570 -0.379143
0.807187 -0.382781
0.806804 -0.383647
0.806417 -0.389101
0.806029 -0.381757
0.805656 -0.366786
0.805291 -0.365118
0.804929 -0.351597
0.804592 -0.323733
0.804273 -0.319036
0.803958 -0.297923
0.803677 -0.276090
0.803402 -0.263971
0.803151 -0.242107
0.802915 -0.228626
0.802696 -0.207766
0.802498 -0.190341
0.802316 -0.171767
0.802153 -0.154818
0.802005 -0.139224
0.801875 -0.122566
0.801759 -0.109468
0.801657 -0.093830
0.801569 -0.082032
0.801493 -0.067893
0.801432 -0.057215
0.801379 -0.045226
0.801341 -0.034738
0.801309 -0.024834
0.801292 -0.015027
0.801279 -0.006781
0.801278 0.001892
0.801282 0.008643
0.801296 0.016529
0.801314 0.021411
0.801339 0.025730
0.801366 0.030103
0.801399 0.035690
0.801436 0.037716
0.801476 0.043717
0.801522 0.045573
0.801568 0.048666
0.801618 0.048954
0.801666 0.050168
0.801720 0.054182
0.801773 0.054497
0.801829 0.056384
0.801885 0.053590
0.801939 0.056613
0.801997 0.056541
0.802052 0.056271
0.802110 0.058037
0.802167 0.055520
0.802223 0.057200
0.802279 0.053988
0.802333 0.057075
0.802397 0.071275
0.802480 0.097338
0.802600 0.145825
0.802776 0.206563
0.803016 0.275173
0.803330 0.353532
0.803727 0.441954
0.804218 0.540996
0.804813 0.650182
0.805523 0.768667
0.806355 0.894957
0.807316 1.026123
0.808410 1.159270
0.809637 1.290876
0.810992 1.416807
0.812470 1.533044
0.814057 1.635271
0.815737 1.719270
0.817492 1.781412
0.819296 1.818780
0.821124 1.830109
0.822950 1.814224
0.824746 1.769189
0.826481 1.689811
0.828115 1.567658
0.829606 1.405670
0.830923 1.225755
0.832061 1.049225
0.833027 0.883160
0.833834 0.730365
0.834495 0.593719
0.835028 0.474668
0.835451 0.373989
0.835783 0.291777
0.836042 0.227603
0.836244 0.180531
0.836408 0.149324
0.836548 0.132445
0.836678 0.128259
0.836809 0.135053
0.836951 0.150992
0.837113 0.174272
0.837302 0.203007
0.837521 0.235381
0.837774 0.269693
0.838061 0.304314
0.838382 0.337805
0.838736 0.368921
0.839120 0.396590
0.839529 0.419958
0.839959 0.438434
0.840405 0.451628
0.840861 0.459324
0.841323 0.461485
0.841783 0.458263
0.842238 0.449918
0.842683 0.436880
0.843112 0.419649
0.843522 0.398769
0.843909 0.374895
0.844271 0.348643
0.844606 0.320661
0.844913 0.291643
0.845190 0.262175
0.845438 0.232821
0.845656 0.204025
0.845847 0.176170
0.846010 0.149576
0.846147 0.124477
0.846259 0.101098
0.846350 0.079631
0.846419 0.060351
0.846471 0.043511
0.846507 0.029187
0.846530 0.017269
0.846543 0.007578
0.846546 -0.000115
0.846543 -0.006016
0.846535 -0.010345
0.846523 -0.013346
0.846508 -0.015192
0.846493 -0.016056
0.846477 -0.016103
0.846461 -0.015461
0.846446 -0.014302
0.846432 -0.012814
0.846420 -0.011144
0.846410 -0.009444
0.846401 -0.007832
0.846394 -0.006406
0.846388 -0.005265
0.846384 -0.004482
0.846379 -0.004074
0.846375 -0.004029
0.846371 -0.004429
0.846366 -0.005346
0.846360 -0.006832
0.846352 -0.008959
0.846342 -0.011794
0.846328 -0.015371
0.846311 -0.019694
0.846289 -0.024803
0.846261 -0.030680
0.846227 -0.037304
0.846186 -0.044626
0.846138 -0.052571
0.846081 -0.061074
0.846015 -0.070058
0.845940 -0.079507
0.845856 -0.089340
0.845761 -0.099494
0.845657 -0.109920
0.845541 -0.120529
0.845415 -0.131260
0.845278 -0.142053
0.845131 -0.152846
0.844972 -0.163560
0.844803 -0.174119
0.844624 -0.184474
0.844434 -0.194588
0.844234 -0.204406
0.844025 -0.213853
0.843806 -0.222907
0.843579 -0.231533
0.843343 -0.239579
0.843100 -0.246752
0.842850 -0.252272
0.842596 -0.254553
0.842342 -0.251335
0.842095 -0.239493
0.841866 -0.216953
0.841666 -0.179911
0.841509 -0.132783
0.841401 -0.083830
0.841335 -0.055059
0.841266 -0.098508
0.841087 -0.293441
0.840596 -0.736346
0.839520 -1.456206
0.837619 -2.362301
0.834793 -3.261201
0.831154 -3.966105
0.826951 -4.376835
0.822512 -4.427026
0.818220 -4.084224
0.814460 -3.367281
0.811574 -2.363173
0.809776 -1.220857
0.809126 -0.090353
0.809557 0.928834
0.810938 1.807131
0.813131 2.550940
0.816004 3.170032
0.819429 3.646635
0.823248 3.954170
0.827279 4.061573
0.831305 3.946053
0.835116 3.640765
0.838551 3.206563
0.841510 2.698632
0.843942 2.155639
0.845824 1.605372
0.847160 1.069008
0.847973 0.561022
0.848296 0.090426
0.848168 -0.337678
0.847635 -0.720721
0.846741 -1.057277
0.845534 -1.346263
0.844062 -1.586427
0.842375 -1.776051
0.840524 -1.913388
0.838563 -1.996058
0.836546 -2.023900
0.834529 -1.996029
0.832567 -1.916427
0.830708 -1.790539
0.828996 -1.625345
0.827464 -1.432001
0.826139 -1.209739
0.825052 -0.956158
0.824234 -0.674507
0.823708 -0.374048
0.823486 -0.068861
0.823567 0.227458
0.823935 0.502598
0.824563 0.747754
0.825418 0.952565
0.826454 1.107608
0.827617 1.205013
0.828845 1.237295
0.830073 1.207863
0.831246 1.128772
0.832321 1.013980
0.833268 0.874089
0.834065 0.715780
0.834697 0.546142
0.835156 0.371580
0.835441 0.197854
0.835554 0.030030
0.835505 -0.127552
0.835304 -0.271239
0.834967 -0.398049
0.834513 -0.505601
0.833962 -0.592087
0.833335 -0.656308
0.832656 -0.697634
0.831946 -0.716008
0.831230 -0.711959
0.830528 -0.686645
0.829861 -0.642692
0.829247 -0.582881
0.828699 -0.510189
0.828228 -0.429308
0.827841 -0.343208
0.827543 -0.251564
0.827339 -0.155275
0.827233 -0.056735
0.827225 0.041373
0.827314 0.135310
0.827493 0.220805
0.827752 0.293719
0.828076 0.350312
0.828447 0.386760
0.828843 0.402567
0.829247 0.400944
0.829641 0.385056
0.830014 0.357009
0.830352 0.318616
0.830649 0.271916
0.830895 0.219068
0.831086 0.162250
0.831219 0.103610
0.831293 0.045163
0.831310 -0.011302
0.831272 -0.064364
0.831183 -0.112998
0.831047 -0.156242
0.830872 -0.193022
0.830663 -0.222369
0.830430 -0.243660
0.830178 -0.256586
0.829919 -0.261122
0.829658 -0.257535
0.829406 -0.246350
0.829168 -0.228307
0.828951 -0.204348
0.828760 -0.175528
0.828600 -0.143031
0.828475 -0.108093
0.828384 -0.071995
0.828330 -0.036000
0.828312 -0.001318
0.828327 0.030933
0.828373 0.059786
0.828445 0.084434
0.828540 0.104245
0.828652 0.118820
0.828776 0.127978
0.828907 0.131710
0.829038 0.130254
0.829166 0.123991
0.829285 0.113485
0.829392 0.099390
0.829483 0.082429
0.829556 0.063375
0.829609 0.043000
0.829642 0.022071
0.829654 0.001333
0.829645 -0.018537
0.829617 -0.036943
0.829572 -0.053365
0.829511 -0.067390
0.829438 -0.078690
0.829354 -0.087065
0.829264 -0.092413
0.829170 -0.094740
0.829076 -0.094138
0.828983 -0.090802
0.828895 -0.084993
0.828813 -0.077045
0.828741 -0.067353
0.828679 -0.056309
0.828629 -0.044352
0.828590 -0.031935
0.828565 -0.019473
0.828551 -0.007380
0.828550 0.003943
0.828559 0.014174
0.828578 0.023024
0.828604 0.030267
0.828638 0.035762
0.828675 0.039422
0.828716 0.041235
0.828757 0.041280
0.828798 0.039671
0.828836 0.036579
0.828871 0.032226
0.828900 0.026813
0.828924 0.020659
0.828941 0.013860
0.828952 0.007245
0.828955 -0.000972
0.828952 -0.003520
0.828943 -0.023522
0.828924 0.013820
0.828913 -0.120101
0.828850 0.245774
0.828937 -0.789961
0.828623 2.231515
0.845339 8.071751
