0.038251 0.038194 0.450620
-0.828073 25.387328
-0.796975 35.719440
-0.758619 39.889344
-0.718417 40.159619
-0.678689 39.021368
-0.640568 37.070826
-0.604587 34.777655
-0.570997 32.321780
-0.539896 29.814877
-0.511303 27.322693
-0.485165 24.922785
-0.461354 22.682642
-0.439701 20.601963
-0.420071 18.634200
-0.402360 16.772434
-0.386438 15.074986
-0.372108 13.594060
-0.359149 12.333397
-0.347343 11.292072
-0.336465 10.481135
-0.326275 9.924784
-0.316526 9.578178
-0.306976 9.602631
-0.297393 9.351972
-0.287675 10.834257
-0.276967 8.527258
-0.268512 12.486357
-0.242076 46.096436
-0.177236 76.684094
-0.094046 90.812939
0.001101 94.539986
0.083203 62.241239
0.126550 32.464710
0.157888 31.732417
0.190800 33.162909
0.224524 35.323814
0.261941 38.751761
0.301901 41.569284
0.345252 44.653437
0.391240 47.564475
0.440581 50.789910
0.491842 50.780933
0.542647 51.978607
0.595387 51.629951
0.645175 48.778293
0.693943 48.628505
0.741789 46.258458
0.787211 45.861996
0.833314 44.594630
0.876362 42.943991
0.920018 43.483025
0.962464 41.170376
1.002509 39.059299
1.040817 37.417561
1.077366 35.617863
1.112128 33.830485
1.145086 32.016702
1.176227 30.207728
1.205578 28.448003
1.233204 26.759195
1.259190 25.189027
1.283688 23.784839
1.306868 22.561877
1.328930 21.558050
1.350111 20.806850
1.370677 20.332064
1.390912 20.145513
1.411105 20.248856
1.431544 20.632060
1.452496 21.269900
1.474200 22.127190
1.496850 23.150230
1.520583 24.283264
1.545484 25.472701
1.571580 26.664963
1.598849 27.804365
1.627215 28.853328
1.656572 29.777579
1.686781 30.556447
1.717693 31.175582
1.749142 31.637546
1.780984 31.956292
1.813073 32.139084
1.845289 32.211269
1.877523 32.170881
1.909651 31.996637
1.941535 31.688697
1.973056 31.274555
2.004125 30.793967
2.034686 30.253050
2.064672 29.654783
2.094039 29.009365
2.122727 28.298579
2.150669 27.516883
2.177789 26.654313
2.204001 25.702083
2.229213 24.654765
2.253327 23.507602
2.276242 22.259600
2.297858 20.914042
2.318083 19.483206
2.336839 17.981318
2.354063 16.421003
2.369701 14.820585
2.383722 13.184689
2.396088 11.521108
2.406783 9.846257
2.415798 8.166993
2.423140 6.506094
2.428834 4.877113
2.432919 3.293138
2.435446 1.765382
2.436479 0.314844
2.436107 -1.042918
2.434420 -2.312134
2.431515 -3.469837
2.427514 -4.506033
2.422535 -5.421253
2.416703 -6.210481
2.410147 -6.862829
2.403006 -7.388306
2.395398 -7.787114
2.387460 -8.054745
2.379311 -8.207332
2.371065 -8.251671
2.362825 -8.193450
2.354694 -8.038912
2.346757 -7.807052
2.339087 -7.504200
2.331752 -7.146814
2.324793 -6.749838
2.318248 -6.325506
2.312139 -5.872478
2.306506 -5.372742
2.301395 -4.834496
2.296837 -4.268433
2.292858 -3.678244
2.289477 -3.075090
2.286701 -2.474945
2.284518 -1.889640
2.282910 -1.328271
2.281846 -0.805659
2.281280 -0.333631
2.281156 0.075033
2.281406 0.410963
2.281952 0.665744
2.282707 0.827050
2.283576 0.891937
2.284460 0.857916
2.285256 0.711168
2.285846 0.452726
2.286127 0.090116
2.285990 -0.384408
2.285320 -0.970409
2.284012 -1.659274
2.281966 -2.444480
2.279087 -3.325226
2.275280 -4.294107
2.270463 -5.343107
2.264559 -6.463293
2.257503 -7.645074
2.249237 -8.877028
2.239714 -10.160377
2.228886 -11.472719
2.216739 -12.804500
2.203246 -14.152773
2.188407 -15.496532
2.172225 -16.830174
2.154721 -18.140276
2.135921 -19.413767
2.115867 -20.650288
2.094603 -21.813906
2.072206 -22.943467
2.048827 -23.603220
2.025240 -23.402202
2.002107 -22.807990
1.979579 -22.213087
1.957622 -21.660131
1.936206 -21.132800
1.915309 -20.621174
1.894913 -20.139122
1.874978 -19.696383
1.855470 -19.285353
1.836356 -18.910205
1.817605 -18.555018
1.799207 -18.207141
1.781152 -17.865967
1.763440 -17.520339
1.746079 -17.166284
1.729074 -16.811843
1.712432 -16.427314
1.696195 -16.017475
1.680361 -15.620055
1.664922 -15.226711
1.649874 -14.841141
1.635205 -14.469811
1.620901 -14.111590
1.606948 -13.769477
1.593329 -13.445031
1.580024 -13.141419
1.567013 -12.859543
1.554272 -12.599790
1.541780 -12.363455
1.529512 -12.151401
1.517445 -11.964043
1.505552 -11.801871
1.493809 -11.664827
1.482191 -11.552481
1.470672 -11.465500
1.459229 -11.402901
1.447836 -11.364185
1.436470 -11.348538
1.425108 -11.355305
1.413729 -11.384045
1.402311 -11.431011
1.390839 -11.492591
1.379300 -11.565234
1.367684 -11.642628
1.355990 -11.721873
1.344216 -11.803738
1.332357 -11.891768
1.320406 -11.989006
1.308352 -12.094851
1.296189 -12.208734
1.283908 -12.330577
1.271501 -12.458597
1.258964 -12.592039
1.246291 -12.729095
1.233480 -12.867300
1.220530 -13.005323
1.207444 -13.141067
1.194223 -13.272734
1.180873 -13.399420
1.167400 -13.519996
1.153809 -13.633803
1.140107 -13.740674
1.126302 -13.840045
1.112402 -13.932011
1.098413 -14.016731
1.084342 -14.094673
1.070198 -14.165532
1.055985 -14.230104
1.041711 -14.289454
1.027379 -14.343099
1.012997 -14.391623
0.998569 -14.436011
0.984098 -14.476364
0.969588 -14.512948
0.955043 -14.548757
0.940460 -14.588936
0.925835 -14.632186
0.911167 -14.673173
0.896461 -14.709657
0.881720 -14.741698
0.866949 -14.770127
0.852151 -14.796083
0.837327 -14.821674
0.822478 -14.848672
0.807600 -14.878190
0.792691 -14.910247
0.777754 -14.928751
0.762815 -14.911933
0.747910 -14.865663
0.733059 -14.804685
0.718274 -14.734407
0.703561 -14.662980
0.688916 -14.600297
0.674327 -14.550008
0.659782 -14.514179
0.645264 -14.494635
0.630758 -14.489877
0.616251 -14.499429
0.601726 -14.522794
0.587172 -14.557731
0.572578 -14.602756
0.557934 -14.656876
0.543233 -14.717595
0.528468 -14.783267
0.513636 -14.851344
0.498736 -14.918689
0.483769 -14.983288
0.468741 -15.042907
0.453656 -15.095462
0.438523 -15.139331
0.423351 -15.169718
0.408158 -15.183517
0.392959 -15.182728
0.377767 -15.168676
0.362595 -15.142452
0.347455 -15.105913
0.332356 -15.059744
0.317307 -15.008220
0.302310 -14.957215
0.287361 -14.910320
0.272457 -14.870824
0.257587 -14.839832
0.242745 -14.817306
0.227920 -14.803532
0.213105 -14.797210
0.198294 -14.797210
0.183479 -14.804232
0.168654 -14.817018
0.153813 -14.835417
0.138951 -14.859947
0.124062 -14.889377
0.109141 -14.923618
0.094183 -14.962302
0.079185 -15.004652
0.064143 -15.050954
0.049052 -15.100198
0.033911 -15.152014
0.018717 -15.206290
0.003468 -15.262181
-0.011838 -15.319297
-0.027202 -15.377334
-0.042624 -15.435529
-0.058104 -15.493715
-0.073642 -15.551428
-0.089237 -15.607532
-0.104888 -15.662061
-0.120592 -15.714373
-0.136347 -15.763818
-0.152151 -15.811520
-0.168000 -15.854004
-0.183890 -15.896275
-0.199688 -15.530524
-0.214663 -14.207074
-0.227912 -12.228973
-0.239193 -10.392757
-0.248936 -9.208235
-0.257874 -8.763246
-0.266605 -8.693102
-0.275252 -8.546962
-0.283624 -8.125764
-0.291412 -7.380529
-0.298317 -6.386657
-0.304160 -5.276857
-0.308877 -4.152097
-0.312491 -3.083385
-0.315084 -2.116412
-0.316767 -1.267818
-0.317663 -0.542569
-0.317896 0.056008
-0.317592 0.531012
-0.316872 0.889856
-0.315846 1.143346
-0.314614 1.303021
-0.313265 1.379546
-0.311876 1.383811
-0.310515 1.326324
-0.309238 1.217654
-0.308091 1.068543
-0.307109 0.888357
-0.306319 0.687954
-0.305736 0.475671
-0.305368 0.259774
-0.305214 0.048048
-0.305268 -0.153687
-0.305517 -0.340236
-0.305943 -0.507634
-0.306526 -0.653380
-0.307244 -0.776216
-0.308072 -0.874580
-0.308986 -0.949091
-0.309964 -1.001376
-0.310984 -1.032385
-0.312025 -1.044536
-0.313070 -1.039702
-0.314102 -1.020512
-0.315110 -0.991992
-0.316085 -0.956162
-0.317023 -0.918488
-0.317926 -0.885373
-0.318798 -0.859741
-0.319650 -0.843576
-0.320490 -0.837273
-0.321329 -0.839878
-0.322174 -0.850169
-0.323033 -0.866833
-0.323911 -0.887954
-0.324812 -0.912672
-0.325739 -0.940150
-0.326695 -0.968748
-0.327679 -0.997798
-0.328692 -1.026961
-0.329734 -1.054718
-0.330803 -1.080997
-0.331898 -1.105591
-0.333016 -1.127961
-0.334156 -1.148337
-0.335314 -1.165789
-0.336489 -1.180759
-0.337677 -1.193965
-0.338878 -1.204565
-0.340088 -1.212506
-0.341305 -1.218448
-0.342527 -1.222874
-0.343752 -1.225538
-0.344980 -1.226231
-0.346207 -1.225881
-0.347433 -1.223990
-0.348657 -1.220645
-0.349877 -1.216677
-0.351093 -1.212080
-0.352303 -1.205818
-0.353506 -1.198954
-0.354703 -1.191435
-0.355892 -1.183720
-0.357073 -1.176129
-0.358246 -1.167525
-0.359410 -1.159482
-0.360567 -1.151654
-0.361716 -1.143431
-0.362856 -1.134882
-0.363988 -1.126498
-0.365111 -1.118070
-0.366226 -1.109135
-0.367332 -1.099449
-0.368427 -1.089912
-0.369514 -1.080636
-0.370590 -1.070454
-0.371657 -1.059888
-0.372712 -1.049411
-0.373758 -1.038542
-0.374791 -1.026865
-0.375813 -1.013847
-0.376821 -1.000527
-0.377816 -0.986831
-0.378797 -0.973213
-0.379764 -0.960244
-0.380719 -0.947266
-0.381661 -0.934694
-0.382590 -0.922483
-0.383508 -0.910469
-0.384413 -0.898466
-0.385307 -0.886656
-0.386188 -0.874652
-0.387058 -0.862335
-0.387915 -0.850013
-0.388759 -0.837619
-0.389591 -0.824769
-0.390410 -0.811785
-0.391217 -0.798765
-0.392010 -0.785768
-0.392790 -0.772578
-0.393556 -0.759263
-0.394310 -0.745723
-0.395049 -0.732092
-0.395775 -0.718804
-0.396488 -0.705051
-0.397187 -0.691917
-0.397873 -0.678200
-0.398545 -0.664322
-0.399203 -0.651282
-0.399848 -0.637551
-0.400480 -0.623834
-0.401097 -0.610246
-0.401702 -0.597085
-0.402292 -0.583222
-0.402869 -0.569690
-0.403433 -0.556508
-0.403983 -0.542681
-0.404520 -0.529459
-0.405043 -0.515832
-0.405553 -0.502603
-0.406049 -0.489303
-0.406532 -0.475771
-0.407002 -0.462492
-0.407458 -0.448956
-0.407901 -0.435595
-0.408330 -0.422144
-0.408746 -0.408649
-0.409148 -0.395228
-0.409537 -0.381714
-0.409912 -0.368481
-0.410275 -0.355380
-0.410624 -0.341807
-0.410959 -0.328418
-0.411281 -0.315413
-0.411591 -0.302382
-0.411887 -0.289107
-0.412169 -0.276184
-0.412439 -0.263221
-0.412696 -0.250196
-0.412940 -0.237014
-0.413171 -0.224195
-0.413389 -0.211537
-0.413594 -0.198245
-0.413786 -0.185557
-0.413966 -0.173077
-0.414132 -0.159658
-0.414286 -0.147849
-0.414428 -0.133139
-0.414555 -0.125448
-0.414674 -0.103467
-0.414756 -0.064105
-0.414805 -0.033349
-0.414841 -0.056249
-0.414718 0.520755
-0.413728 1.307926
-0.412283 1.544085
-0.410656 1.722624
-0.408775 2.077319
-0.406389 2.757163
-0.403654 2.242752
-0.403589 -3.335242
-0.413286 -17.769419
-0.440406 -35.929761
-0.482352 -45.501920
-0.528101 -44.884002
-0.571121 -41.003705
-0.610101 -36.856220
-0.645044 -33.118793
-0.676533 -29.765221
-0.704749 -26.755185
-0.730221 -24.115245
-0.753107 -21.712376
-0.773803 -19.650875
-0.792499 -17.741643
-0.809421 -16.130620
-0.824828 -14.626709
-0.838733 -13.208448
-0.851356 -12.044237
-0.862887 -11.004547
-0.873427 -10.082638
-0.883001 -8.946916
-0.891490 -8.264866
-0.899236 -6.649737
-0.903740 -1.850190
-0.903090 2.498558
-0.899766 3.766821
-0.896020 3.624525
-0.892519 3.453953
-0.888879 3.959113
-0.884590 4.472090
-0.880081 4.521084
-0.875571 4.475446
-0.871152 4.336097
-0.866876 4.236484
-0.862591 4.377373
-0.858094 4.576262
-0.853432 4.766539
-0.848577 4.879821
-0.843679 4.942904
-0.838673 5.029368
-0.833611 5.114290
-0.828418 5.249368
-0.823140 5.271085
-0.817873 5.268609
-0.812598 5.246216
-0.807379 5.196376
-0.802190 5.161947
-0.797050 5.111208
-0.791956 5.066347
-0.786909 5.016194
-0.781914 4.964107
-0.776973 4.907930
-0.772089 4.848703
-0.767267 4.783457
-0.762512 4.720747
-0.757824 4.636836
-0.753223 4.569436
-0.748600 4.727182
-0.743689 5.095884
-0.738550 5.011317
-0.733708 4.771886
-0.728943 4.691644
-0.724345 4.523692
-0.719868 4.412066
-0.715513 4.296757
-0.711250 4.227825
-0.707034 4.202725
-0.702829 4.200907
-0.698624 4.197626
-0.694431 4.175845
-0.690274 4.124711
-0.686185 4.038438
-0.682203 3.909803
-0.678379 3.716446
-0.674768 3.507948
-0.671260 3.588345
-0.667526 3.844509
-0.663603 3.982422
-0.657946 8.935891
-0.643564 20.330552
-0.616498 33.960344
-0.577295 42.435757
-0.534685 41.492274
-0.495182 37.689523
-0.458890 34.905147
-0.425203 32.415288
-0.393976 29.981275
-0.365135 27.685308
-0.338482 25.593825
-0.313869 23.583215
-0.291272 21.561503
-0.270685 19.593688
-0.251979 17.826192
-0.235017 15.998554
-0.219805 14.604156
-0.205629 13.658517
-0.192423 12.825779
-0.180002 11.842650
-0.168896 10.312977
-0.159190 9.280408
-0.150166 8.699705
-0.141712 8.300708
-0.133647 7.605127
-0.126641 6.447405
-0.120564 5.814630
-0.114861 5.599967
-0.109338 5.430569
-0.104139 4.810774
-0.099811 3.879794
-0.096151 3.608282
-0.092486 3.639041
-0.088911 3.536091
-0.085529 3.067252
-0.082844 2.377046
-0.080609 2.169545
-0.078398 2.269688
-0.076075 2.339973
-0.073854 1.989147
-0.072179 1.379577
-0.070942 1.217474
-0.069664 1.286603
-0.068312 1.519572
-0.066724 1.448276
-0.065566 0.915772
-0.064814 0.613010
-0.064246 0.590545
-0.063546 0.824098
-0.062608 1.021438
-0.061645 0.787741
-0.061078 0.412276
-0.060779 0.156717
-0.060668 0.190781
-0.060339 0.401514
-0.059845 0.669016
-0.059105 0.618658
-0.058730 0.196958
-0.058642 -0.018365
-0.058763 -0.220816
-0.059081 -0.413499
-0.059590 -0.603268
-0.060290 -0.796188
-0.061185 -0.993460
-0.062281 -1.197559
-0.063586 -1.410453
-0.065108 -1.633581
-0.066860 -1.868017
-0.068852 -2.115348
-0.071100 -2.378239
-0.073619 -2.657349
-0.076426 -2.954856
-0.079541 -3.272663
-0.082985 -3.612446
-0.086781 -3.976348
-0.090955 -4.366975
-0.095533 -4.785787
-0.100546 -5.234896
-0.106025 -5.717084
-0.112003 -6.233885
-0.118517 -6.787626
-0.125605 -7.379818
-0.133305 -8.012035
-0.141659 -8.685708
-0.150708 -9.402252
-0.160497 -10.161817
-0.171066 -10.963462
-0.182459 -11.806736
-0.194717 -12.690188
-0.207877 -13.608624
-0.221974 -14.563850
-0.237043 -15.547722
-0.253067 -16.431330
-0.269791 -16.872179
-0.286602 -16.584479
-0.302734 -15.520162
-0.317515 -13.983522
-0.330767 -12.559102
-0.342756 -11.426293
-0.353705 -10.483208
-0.363801 -9.712360
-0.373194 -9.075147
-0.382006 -8.546850
-0.390334 -8.105731
-0.398257 -7.734647
-0.405837 -7.418470
-0.413123 -7.146733
-0.420157 -6.910689
-0.426968 -6.702841
-0.433584 -6.518466
-0.440024 -6.352812
-0.446307 -6.202391
-0.452446 -6.064842
-0.458453 -5.938307
-0.464337 -5.820583
-0.470108 -5.710493
-0.475772 -5.606874
-0.481335 -5.508627
-0.486802 -5.415596
-0.492178 -5.327162
-0.497468 -5.242203
-0.502674 -5.161002
-0.507801 -5.083054
-0.512852 -5.007711
-0.517828 -4.935124
-0.522732 -4.864741
-0.527568 -4.796902
-0.532336 -4.730937
-0.537040 -4.666801
-0.541680 -4.604279
-0.546258 -4.543644
-0.550777 -4.484316
-0.555236 -4.426138
-0.559638 -4.369548
-0.563984 -4.313752
-0.568275 -4.259118
-0.572511 -4.205529
-0.576695 -4.152786
-0.580826 -4.100989
-0.584905 -4.050136
-0.588934 -4.000094
-0.592914 -3.951185
-0.596845 -3.902968
-0.600728 -3.856071
-0.604565 -3.810140
-0.608356 -3.764979
-0.612103 -3.721193
-0.615806 -3.678015
-0.619467 -3.636131
-0.623086 -3.595010
-0.626665 -3.555502
-0.630204 -3.516940
-0.633706 -3.479091
-0.637170 -3.442743
-0.640598 -3.407103
-0.643992 -3.372947
-0.647351 -3.339941
-0.650679 -3.307997
-0.653974 -3.276922
-0.657239 -3.247314
-0.660476 -3.218889
-0.663684 -3.191385
-0.666865 -3.165113
-0.670021 -3.140047
-0.673152 -3.116226
-0.676260 -3.093630
-0.679346 -3.072123
-0.682411 -3.051695
-0.685456 -3.032799
-0.688483 -3.014956
-0.691492 -2.998125
-0.694486 -2.982888
-0.697465 -2.969225
-0.700430 -2.957094
-0.703386 -2.947895
-0.706333 -2.940518
-0.709273 -2.934758
-0.712209 -2.931127
-0.715142 -2.930084
-0.718076 -2.932285
-0.721013 -2.937319
-0.723958 -2.945620
-0.726912 -2.957666
-0.729880 -2.973522
-0.732866 -2.992493
-0.735872 -3.014618
-0.738902 -3.039211
-0.741957 -3.065903
-0.745041 -3.094535
-0.748153 -3.124446
-0.751296 -3.155242
-0.754470 -3.186779
-0.757676 -3.218714
-0.760914 -3.250669
-0.764184 -3.282080
-0.767484 -3.311796
-0.770813 -3.338925
-0.774168 -3.363156
-0.777545 -3.384344
-0.780942 -3.402279
-0.784355 -3.416248
-0.787780 -3.425073
-0.791210 -3.428799
-0.794643 -3.429215
-0.798075 -3.427819
-0.801505 -3.425305
-0.804932 -3.421915
-0.808356 -3.417734
-0.811774 -3.412859
-0.815188 -3.407327
-0.818596 -3.401172
-0.821997 -3.394398
-0.825391 -3.386913
-0.828777 -3.378672
-0.832155 -3.369463
-0.835523 -3.359054
-0.838879 -3.347335
-0.842223 -3.334316
-0.845554 -3.319992
-0.848870 -3.304406
-0.852169 -3.287585
-0.855451 -3.269386
-0.858714 -3.249816
-0.861957 -3.228907
-0.865178 -3.206564
-0.868376 -3.182798
-0.871549 -3.157584
-0.874697 -3.130932
-0.877817 -3.102863
-0.880908 -3.073322
-0.883969 -3.042354
-0.886999 -3.010017
-0.889995 -2.976201
-0.892956 -2.941008
-0.895882 -2.904080
-0.898770 -2.866487
-0.901620 -2.825175
-0.904428 -2.788621
-0.907196 -2.733026
-0.909887 -2.639200
-0.912451 -2.459848
-0.914744 -2.078537
-0.916492 -1.336091
-0.917247 -0.078848
-0.916497 1.637721
-0.913913 3.518621
-0.909535 5.152122
-0.903766 6.283247
-0.897149 6.834141
-0.890280 6.797757
-0.883698 6.288056
-0.877792 5.479064
-0.872771 4.544266
-0.868688 3.628404
-0.865474 2.810538
-0.863013 2.137570
-0.861136 1.640708
-0.859663 1.336772
-0.858393 1.234499
-0.857138 1.294938
-0.855781 1.413971
-0.854316 1.505904
-0.852778 1.559511
-0.851206 1.577136
-0.849631 1.563556
-0.848084 1.523392
-0.846589 1.462009
-0.845163 1.384710
-0.843820 1.296878
-0.842568 1.203085
-0.841412 1.107455
-0.840351 1.013258
-0.839382 0.922780
-0.838502 0.837604
-0.837703 0.758468
-0.836981 0.685779
-0.836328 0.619369
-0.835739 0.558976
-0.835207 0.504124
-0.834728 0.454415
-0.834296 0.409436
-0.833907 0.368682
-0.833557 0.331986
-0.833241 0.299050
-0.832957 0.269653
-0.832700 0.243724
-0.832468 0.220993
-0.832257 0.201304
-0.832064 0.184376
-0.831887 0.169828
-0.831723 0.157240
-0.831571 0.146272
-0.831430 0.136856
-0.831297 0.128792
-0.831172 0.122073
-0.831052 0.116634
-0.830938 0.112296
-0.830827 0.108824
-0.830720 0.105944
-0.830615 0.103293
-0.830513 0.100618
-0.830414 0.097510
-0.830318 0.093614
-0.830227 0.088788
-0.830141 0.082675
-0.830061 0.075083
-0.829991 0.065816
-0.829930 0.054791
-0.829882 0.041945
-0.829847 0.027168
-0.829828 0.010553
-0.829826 -0.007832
-0.829844 -0.027903
-0.829883 -0.049501
-0.829944 -0.072414
-0.830028 -0.096446
-0.830137 -0.121464
-0.830272 -0.147163
-0.830432 -0.173364
-0.830619 -0.199775
-0.830832 -0.226003
-0.831071 -0.251590
-0.831335 -0.276275
-0.831624 -0.300064
-0.831936 -0.322999
-0.832270 -0.345637
-0.832628 -0.368095
-0.833007 -0.390101
-0.833408 -0.411314
-0.833830 -0.431476
-0.834272 -0.450505
-0.834732 -0.468271
-0.835209 -0.484839
-0.835702 -0.500256
-0.836210 -0.514689
-0.836732 -0.528161
-0.837267 -0.540424
-0.837814 -0.551546
-0.838371 -0.562063
-0.838939 -0.572143
-0.839516 -0.580847
-0.840100 -0.584731
-0.840683 -0.578370
-0.841254 -0.559084
-0.841799 -0.529599
-0.842312 -0.494467
-0.842788 -0.456646
-0.843226 -0.418609
-0.843626 -0.380013
-0.843986 -0.338987
-0.844303 -0.293629
-0.844569 -0.235135
-0.844772 -0.169555
-0.844913 -0.114987
-0.845007 -0.077730
-0.845073 -0.055545
-0.845122 -0.042138
-0.845159 -0.033611
-0.845190 -0.027993
-0.845216 -0.024033
-0.845238 -0.021023
-0.845258 -0.018571
-0.845276 -0.016524
-0.845291 -0.014659
-0.845305 -0.012959
-0.845317 -0.011443
-0.845328 -0.010045
-0.845337 -0.008741
-0.845346 -0.007543
-0.845353 -0.006526
-0.845359 -0.005617
-0.845364 -0.004827
-0.845368 -0.004151
-0.845372 -0.003629
-0.845376 -0.003236
-0.845379 -0.002957
-0.845382 -0.002814
-0.845384 -0.002744
-0.845387 -0.002763
-0.845390 -0.002884
-0.845393 -0.003109
-0.845396 -0.003345
-0.845400 -0.003581
-0.845403 -0.003834
-0.845407 -0.004047
-0.845411 -0.004177
-0.845416 -0.004109
-0.845420 -0.003733
-0.845423 -0.003089
-0.845426 -0.002285
-0.845427 -0.001388
-0.845428 -0.000473
-0.845428 0.000463
-0.845427 0.001400
-0.845426 0.002295
-0.845423 0.003208
-0.845419 0.004167
-0.845415 0.005173
-0.845409 0.006145
-0.845402 0.007088
-0.845395 0.008007
-0.845386 0.008829
-0.845377 0.009656
-0.845367 0.010404
-0.845356 0.011074
-0.845345 0.011801
-0.845333 0.012323
-0.845320 0.013023
-0.845307 0.013016
-0.845293 0.015311
-0.845279 0.009827
-0.845265 0.029349
-0.845245 -0.026679
-0.845245 0.137561
-0.845176 -0.314924
-0.845279 1.019318
-0.828073 25.387328
