solsol_wf 1.41186018531
solta_wf 0.782138084712
gasgas_wf 0.679994573347
vasvas_wf 1.21652135786
hamham_wf 0.366151460153
gluglu_wf 0.31817289387
tata_wl 1.13772143491
hfhf_wl 0.223719366884
hamhf_wl 1.41545111526
ta_bl 0.663476682016
hf_bl 0.844981243803
ham_bl 0.755296471025
kbodyweight 0.923300415074
kp 2.26211511555
kd 0.441374067167
kref 0.0914335302276
deltas 0.650933586293
sol_activitybasal 0.0109365559268
ta_activitybasal 0.046167490854
gas_activitybasal 0.010088407483
vas_activitybasal 0.0224354786912
ham_activitybasal 0.0558022203883
glu_activitybasal 0.0177043027676
hf_activitybasal 0.0473525917664
vas_activitybasal_stance 0.112682974566
bal_activitybasal_stance 0.0741245959492
kphiknee 2.77537937212
klean 0.638533924664
