solsol_wf 1.31724774841
solta_wf 0.746430584682
gasgas_wf 0.830538904652
vasvas_wf 1.33013468738
hamham_wf 0.444408123247
gluglu_wf 0.322484927156
tata_wl 1.6924526209
hfhf_wl 0.209596130776
hamhf_wl 1.81574627052
ta_bl 0.705832852931
hf_bl 0.53451954207
ham_bl 0.724709528338
kbodyweight 1.15917593766
kp 1.84786953408
kd 0.39877594558
kref 0.0902776771689
deltas 0.456586842605
sol_activitybasal 0.0101652603256
ta_activitybasal 0.0128426062373
gas_activitybasal 0.0136355236199
vas_activitybasal 0.0125698247079
ham_activitybasal 0.0461406927757
glu_activitybasal 0.0203783465652
hf_activitybasal 0.0133358285267
vas_activitybasal_stance 0.119882019011
bal_activitybasal_stance 0.0678353739301
kphiknee 1.62170328239
klean 1.34734242128
