solsol_wf 1.26302421771
solta_wf 0.684662941842
gasgas_wf 0.968404496127
vasvas_wf 1.45109906119
hamham_wf 0.5575623944
gluglu_wf 0.554763233517
tata_wl 2.11943635522
hfhf_wl 0.345590866331
hamhf_wl 0.770415574159
ta_bl 0.709632257328
hf_bl 0.924651364988
ham_bl 0.84226484689
kbodyweight 0.848278081781
kp 1.80221426614
kd 0.294004790457
kref 0.0761402634963
deltas 0.714382440833
sol_activitybasal 0.0268264174781
ta_activitybasal 0.0565271691012
gas_activitybasal 0.0309278817179
vas_activitybasal 0.0160141122042
ham_activitybasal 0.0388483211716
glu_activitybasal 0.028898992932
hf_activitybasal 0.0501865124192
vas_activitybasal_stance 0.13748316693
bal_activitybasal_stance 0.0868928955471
kphiknee 2.13636826194
klean 0.159397628679
