0.228140 0.264403 0.558853
-0.817951 -3.323313
-0.820425 -1.704327
-0.821531 -0.588147
-0.821744 0.103974
-0.821418 0.509177
-0.820792 0.713760
-0.820038 0.773148
-0.819279 0.728349
-0.818603 0.612805
-0.818075 0.427595
-0.817740 0.262648
-0.817599 -0.050377
-0.817758 -0.114965
-0.817832 -0.188150
-0.818391 -1.028046
-0.818320 2.837240
-0.812423 7.565156
-0.804350 8.768145
-0.794725 10.402854
-0.783687 11.547714
-0.771760 12.231590
-0.759334 12.512859
-0.746861 12.340589
-0.734763 11.764666
-0.723425 10.837724
-0.713153 9.649276
-0.704164 8.289118
-0.696586 6.845655
-0.690461 5.396991
-0.685761 4.007321
-0.682402 2.726147
-0.680253 1.596991
-0.679145 0.647066
-0.678899 -0.128353
-0.679351 -0.749611
-0.680355 -1.237394
-0.681790 -1.611355
-0.683550 -1.889710
-0.685547 -2.089432
-0.687709 -2.218024
-0.689963 -2.274698
-0.692240 -2.262406
-0.694472 -2.186948
-0.696599 -2.054277
-0.698567 -1.870450
-0.700328 -1.640040
-0.701839 -1.374178
-0.703067 -1.071409
-0.703978 -0.749879
-0.704579 -0.459612
-0.704910 -0.206770
-0.704995 0.037162
-0.704835 0.282711
-0.704429 0.528349
-0.703778 0.772922
-0.702884 1.012896
-0.701752 1.246053
-0.700392 1.470353
-0.698812 1.684796
-0.697022 1.889226
-0.695033 2.084558
-0.692852 2.272173
-0.690486 2.453450
-0.687941 2.630030
-0.685222 2.803515
-0.682329 2.975451
-0.679265 3.147538
-0.676027 3.321223
-0.672615 3.497811
-0.669023 3.678685
-0.665248 3.864951
-0.661284 4.057483
-0.657123 4.257093
-0.652758 4.464336
-0.648182 4.679483
-0.643387 4.902503
-0.638365 5.133289
-0.633108 5.371652
-0.627609 5.617142
-0.621860 5.869214
-0.615856 6.127107
-0.609592 6.389947
-0.603062 6.657065
-0.596263 6.927867
-0.589192 7.200266
-0.581847 7.476285
-0.574224 7.755464
-0.566321 8.033042
-0.558143 8.306151
-0.549694 8.575159
-0.540975 8.845515
-0.531985 9.115732
-0.522729 9.374828
-0.513220 9.624899
-0.503466 9.858391
-0.493432 10.246157
-0.482809 11.063204
-0.471179 12.193569
-0.458435 13.212479
-0.444799 14.015880
-0.430419 14.688632
-0.415443 15.209999
-0.400007 15.617053
-0.384233 15.856502
-0.368294 16.000766
-0.352273 15.927126
-0.336662 15.089605
-0.322203 13.833338
-0.308940 12.662235
-0.296845 11.516478
-0.285842 10.494194
-0.275768 9.674301
-0.266397 9.084973
-0.257514 8.692343
-0.248949 8.438492
-0.240592 8.267688
-0.232383 8.137979
-0.224296 8.020352
-0.216329 7.894628
-0.208497 7.750338
-0.200820 7.584217
-0.193320 7.398627
-0.186014 7.195203
-0.178923 6.969739
-0.172069 6.718705
-0.165482 6.436209
-0.159196 6.118967
-0.153243 5.768961
-0.147657 5.386314
-0.142470 4.973722
-0.137709 4.534599
-0.133399 4.072671
-0.129561 3.592639
-0.126210 3.101053
-0.123354 2.605704
-0.120993 2.113084
-0.119120 1.630298
-0.117723 1.165823
-0.116779 0.724060
-0.116264 0.309112
-0.116150 -0.074594
-0.116402 -0.423396
-0.116984 -0.734191
-0.117857 -1.001835
-0.118976 -1.226972
-0.120301 -1.414665
-0.121774 -1.501210
-0.123259 -1.444063
-0.124640 -1.309618
-0.125869 -1.139992
-0.126909 -0.931092
-0.127721 -0.686088
-0.128271 -0.408313
-0.128528 -0.100864
-0.128464 0.233261
-0.128054 0.590992
-0.127275 0.968068
-0.126110 1.361218
-0.124545 1.767747
-0.122568 2.184759
-0.120169 2.607494
-0.117346 3.034607
-0.114094 3.463366
-0.110413 3.889240
-0.106309 4.310612
-0.101785 4.725740
-0.096851 5.132112
-0.091515 5.527946
-0.085788 5.912414
-0.079682 6.284278
-0.073212 6.640700
-0.066393 6.979823
-0.059244 7.301271
-0.051782 7.604301
-0.044026 7.888670
-0.035996 8.153392
-0.027709 8.399263
-0.019186 8.626622
-0.010444 8.840104
-0.001497 9.028604
0.007631 9.215212
0.016970 9.454831
0.026573 9.735603
0.036457 10.006104
0.046598 10.254448
0.056982 10.487977
0.067589 10.703150
0.078404 10.902040
0.089409 11.084168
0.100589 11.249261
0.111925 11.398951
0.123404 11.532762
0.135009 11.650969
0.146725 11.755466
0.158538 11.845817
0.170436 11.922499
0.182403 11.987128
0.194430 12.040408
0.206505 12.082883
0.218617 12.115709
0.230758 12.140335
0.242919 12.157878
0.255096 12.169130
0.267280 12.175470
0.279470 12.177947
0.291660 12.177380
0.303848 12.175848
0.316036 12.173898
0.328221 12.172730
0.340406 12.173906
0.352594 12.177715
0.364787 12.185425
0.376991 12.197922
0.389209 12.214792
0.401446 12.236355
0.413708 12.264172
0.426001 12.297774
0.438330 12.336685
0.450701 12.379778
0.463116 12.426969
0.475581 12.479218
0.488100 12.534016
0.500675 12.591895
0.513310 12.652401
0.526006 12.714301
0.538765 12.778053
0.551588 12.842460
0.564476 12.907507
0.577429 12.972893
0.590448 13.038832
0.603532 13.103954
0.616681 13.168513
0.629896 13.233478
0.643175 13.297728
0.656517 13.360783
0.669923 13.424329
0.683394 13.489660
0.696929 13.552074
0.710523 13.610205
0.724176 13.666458
0.737884 13.722280
0.751646 13.774130
0.765456 13.817212
0.779306 13.853079
0.793189 13.883865
0.807099 13.907671
0.821029 13.922779
0.834969 13.928017
0.848909 13.922728
0.862839 13.908052
0.876750 13.884012
0.890633 13.852302
0.904480 13.814540
0.918288 13.772485
0.932052 13.726704
0.945768 13.678961
0.959438 13.634502
0.973074 13.617452
0.986718 13.654547
1.000426 13.739141
1.014231 13.843210
1.028127 13.907007
1.042038 13.867564
1.055845 13.694880
1.069406 13.374162
1.082571 12.906496
1.095201 12.308193
1.107177 11.605176
1.118410 10.828736
1.128843 10.010953
1.138449 9.182489
1.147232 8.370533
1.155220 7.597916
1.162462 6.882460
1.169022 6.237654
1.174976 5.672176
1.180405 5.189968
1.185395 4.792683
1.190028 4.478059
1.194386 4.242010
1.198545 4.079567
1.202575 3.983237
1.206539 3.945783
1.210492 3.960815
1.214483 4.020333
1.218553 4.116116
1.222734 4.241869
1.227053 4.391000
1.231530 4.556966
1.236180 4.735377
1.241013 4.920509
1.246032 5.107264
1.251237 5.293394
1.256628 5.474989
1.262196 5.648909
1.267934 5.813783
1.273831 5.968276
1.279878 6.111134
1.286061 6.240387
1.292367 6.357257
1.298784 6.461216
1.305298 6.550482
1.311894 6.627849
1.318563 6.692879
1.325289 6.744620
1.332062 6.785514
1.338870 6.815744
1.345703 6.835380
1.352551 6.845186
1.359405 6.846580
1.366256 6.839829
1.373095 6.824948
1.379917 6.803879
1.386715 6.776892
1.393482 6.743683
1.400214 6.705744
1.406906 6.663693
1.413554 6.618177
1.420154 6.568483
1.426703 6.515724
1.433198 6.461872
1.439638 6.404845
1.446020 6.346819
1.452344 6.287754
1.458608 6.227891
1.464813 6.169147
1.470959 6.110327
1.477046 6.052905
1.483078 5.997709
1.489054 5.943566
1.494977 5.891750
1.500850 5.842087
1.506674 5.794304
1.512451 5.748800
1.518183 5.704441
1.523872 5.661741
1.529519 5.621095
1.535126 5.581252
1.540693 5.542033
1.546221 5.503847
1.551712 5.466323
1.557165 5.428889
1.562580 5.391136
1.567958 5.353691
1.573298 5.315093
1.578599 5.276045
1.583860 5.236279
1.589081 5.194911
1.594260 5.152810
1.599397 5.109468
1.604489 5.064374
1.609535 5.017462
1.614534 4.969603
1.619483 4.920025
1.624383 4.868289
1.629229 4.815334
1.634022 4.760356
1.638759 4.703902
1.643439 4.646712
1.648061 4.587881
1.652624 4.528272
1.657127 4.467861
1.661568 4.405733
1.665946 4.342060
1.670260 4.277172
1.674509 4.210739
1.678690 4.142237
1.682801 4.071804
1.686841 3.999903
1.690808 3.926034
1.694700 3.850206
1.698516 3.773112
1.702253 3.693738
1.705910 3.612159
1.709484 3.529440
1.712975 3.445000
1.716381 3.358273
1.719698 3.269619
1.722926 3.178992
1.726062 3.086646
1.729105 2.992437
1.732052 2.895926
1.734902 2.798158
1.737653 2.698052
1.740303 2.595786
1.742849 2.491720
1.745291 2.386508
1.747627 2.280910
1.749856 2.173055
1.751977 2.064254
1.753989 1.955337
1.755891 1.844969
1.757682 1.733669
1.759362 1.622466
1.760930 1.510735
1.762386 1.398550
1.763730 1.286309
1.764961 1.172904
1.766078 1.059055
1.767081 0.944803
1.767969 0.829859
1.768742 0.714715
1.769400 0.599226
1.769942 0.483538
1.770368 0.366502
1.770676 0.248942
1.770866 0.132755
1.770944 0.023500
1.770917 -0.074612
1.770796 -0.168106
1.770581 -0.260876
1.770274 -0.353821
1.769872 -0.448756
1.769375 -0.544650
1.768781 -0.641755
1.768090 -0.738878
1.767301 -0.837747
1.766412 -0.938213
1.765423 -1.038137
1.764333 -1.139675
1.763141 -1.241845
1.761847 -1.344787
1.760449 -1.449177
1.758946 -1.553409
1.757338 -1.658579
1.755625 -1.764838
1.753805 -1.871236
1.751878 -1.978542
1.749844 -2.086589
1.747701 -2.194840
1.745449 -2.304127
1.743088 -2.413508
1.740617 -2.523285
1.738036 -2.634111
1.735344 -2.744816
1.732541 -2.855861
1.729626 -2.967149
1.726600 -3.078911
1.723462 -3.190879
1.720212 -3.303117
1.716849 -3.415569
1.713374 -3.527430
1.709787 -3.639838
1.706087 -3.752731
1.702275 -3.864722
1.698350 -3.976931
1.694313 -4.089049
1.690164 -4.201196
1.685901 -4.317900
1.681515 -4.447967
1.676989 -4.598090
1.672304 -4.763644
1.667451 -4.933130
1.662431 -5.092833
1.657262 -5.230999
1.651969 -5.339745
1.646583 -5.415023
1.641139 -5.458399
1.635665 -5.474206
1.630186 -5.468529
1.624721 -5.449404
1.619279 -5.424452
1.613861 -5.400825
1.608464 -5.384263
1.603078 -5.378771
1.597691 -5.387237
1.592288 -5.411077
1.586852 -5.451479
1.581369 -5.507427
1.575822 -5.577661
1.570197 -5.661564
1.564483 -5.756513
1.558670 -5.860515
1.552748 -5.972283
1.546711 -6.090127
1.540554 -6.211764
1.534275 -6.335327
1.527870 -6.461156
1.521340 -6.586677
1.514684 -6.710377
1.507906 -6.833260
1.501005 -6.952909
1.493987 -7.069007
1.486854 -7.182346
1.479610 -7.291149
1.472258 -7.395963
1.464804 -7.496627
1.457252 -7.593239
1.449604 -7.686340
1.441865 -7.775521
1.434038 -7.860536
1.426128 -7.944170
1.418133 -8.030842
1.410051 -8.117087
1.401884 -8.200981
1.393628 -8.296743
1.385278 -8.377981
1.376850 -8.477266
1.368251 -8.744275
1.359297 -9.152297
1.349920 -9.585515
1.340099 -10.041183
1.329806 -10.529374
1.319011 -11.040845
1.307698 -11.566303
1.295849 -12.111204
1.283441 -12.687373
1.270438 -13.297674
1.256808 -13.939771
1.242517 -14.621230
1.227527 -15.330734
1.211819 -16.058656
1.195361 -16.836524
1.178105 -17.633965
1.160056 -18.434939
1.141076 -19.603263
1.120707 -21.083667
1.098875 -22.537367
1.075586 -23.994625
1.050844 -25.433999
1.024679 -26.836545
0.997135 -28.184376
0.968272 -29.478271
0.938141 -30.707540
0.906824 -31.851501
0.874403 -32.911816
0.840963 -33.886427
0.806591 -34.774329
0.771372 -35.578346
0.735391 -36.298671
0.698729 -36.938302
0.661467 -37.498474
0.623684 -37.979541
0.585457 -38.384075
0.546864 -38.711755
0.507981 -38.964215
0.468883 -39.142610
0.429642 -39.247767
0.390332 -39.281478
0.351024 -39.244165
0.311788 -39.139740
0.272688 -38.971188
0.233789 -38.739239
0.195152 -38.447604
0.156836 -38.098602
0.118897 -37.693607
0.081390 -37.237608
0.044363 -36.733576
0.007863 -36.187552
-0.028074 -35.611824
-0.063424 -35.012598
-0.098163 -34.391949
-0.132270 -33.752775
-0.165730 -33.095229
-0.198521 -32.418869
-0.230626 -31.724068
-0.262026 -31.010448
-0.292703 -30.278262
-0.322637 -29.526164
-0.351808 -28.754370
-0.380197 -27.963345
-0.407784 -27.152761
-0.434550 -26.323276
-0.460477 -25.476059
-0.485548 -24.612087
-0.509745 -23.732364
-0.533055 -22.839046
-0.555465 -21.934056
-0.576964 -21.019540
-0.597544 -20.098124
-0.617199 -19.172431
-0.635927 -18.245436
-0.653727 -17.320057
-0.670603 -16.399474
-0.686562 -15.486741
-0.701612 -14.585629
-0.715767 -13.697679
-0.729041 -12.828372
-0.741458 -11.985294
-0.753044 -11.166996
-0.763821 -10.369227
-0.773813 -9.602772
-0.783054 -8.860426
-0.791563 -8.151717
-0.799439 -7.638426
-0.806904 -7.270234
-0.813986 -6.877601
-0.820665 -6.462648
-0.826924 -6.046895
-0.832758 -5.593436
-0.838074 -4.995963
-0.842711 -4.249919
-0.846605 -3.571875
-0.849768 -2.612237
-0.852263 -2.938174
-0.854178 1.146545
-0.855606 -11.666910
-0.856634 38.161374
-0.857338 -146.168227
-0.857782 543.072335
0.000000 543.320287
0.000000 -145.582232
0.000000 39.008642
0.000000 -10.452334
0.000000 2.800694
0.000000 -0.750444
0.000000 0.201081
0.000000 -0.053879
0.000000 0.014437
0.000000 -0.003868
0.000000 0.001037
0.000000 -0.000278
0.000000 0.000074
0.000000 -0.000020
0.000000 0.000005
0.000000 -0.000001
0.000000 0.000000
0.000000 -0.000000
0.000000 0.000000
0.000000 -0.000000
0.000000 0.000000
0.000000 -0.000000
0.000000 0.000000
0.000000 -0.000000
0.000000 0.000000
0.000000 -0.000000
0.000000 0.000000
0.000000 -0.000000
0.000000 0.000000
0.000000 -0.000000
0.000000 0.000000
0.000000 -0.000000
0.000000 0.000000
0.000000 -0.000000
0.000000 0.000000
0.000000 -0.000000
0.000000 0.000000
0.000000 -0.000000
0.000000 0.000000
0.000000 -0.000000
0.000000 0.000000
0.000000 -0.000000
0.000000 0.000000
0.000000 -0.000000
0.000000 0.000000
0.000000 -0.000000
0.000000 0.000000
0.000000 -0.000000
0.000000 0.000000
0.000000 -0.000000
0.000000 0.000000
0.000000 -0.000000
0.000000 0.000000
0.000000 -0.000000
0.000000 0.000000
0.000000 -0.000000
0.000000 0.000000
0.000000 -0.000000
0.000000 0.000000
0.000000 -0.000000
0.000000 0.000000
0.000000 -0.000000
0.000000 0.000000
0.000000 -0.000000
0.000000 0.000000
0.000000 -0.000000
0.000000 0.000000
0.000000 -0.000000
0.000000 0.000000
0.000000 -0.000000
0.000000 0.000000
0.000000 -0.000000
0.000000 0.000000
0.000000 -0.000000
0.000000 0.000000
0.000000 -0.000000
0.000000 0.000000
0.000000 -0.000000
0.000000 0.000000
0.000000 -0.000000
0.000000 0.000000
0.000000 -0.000000
0.000000 0.000000
0.000000 -0.000000
0.000000 0.000000
0.000000 -0.000000
0.000000 0.000000
0.000000 -0.000000
0.000000 0.000000
0.000000 -0.000000
0.000000 0.000000
0.000000 -0.000000
0.000000 0.000000
0.000000 -0.000000
0.000000 0.000000
0.000000 -0.000000
0.000000 0.000000
0.000000 -0.000000
0.000000 0.000000
0.000000 -0.000000
0.000000 0.000000
0.000000 -0.000000
0.000000 0.000000
0.000000 -0.000000
0.000000 0.000000
0.000000 -0.000000
0.000000 0.000000
0.000000 -0.000000
0.000000 0.000000
0.000000 -0.000000
0.000000 0.000000
0.000000 -0.000000
0.000000 0.000000
0.000000 -0.000000
0.000000 0.000000
0.000000 -0.000000
0.000000 0.000000
0.000000 -0.000000
0.000000 0.000000
0.000000 -0.000000
0.000000 0.000000
0.000000 -0.000000
0.000000 0.000000
0.000000 -0.000000
0.000000 0.000000
0.000000 -0.000000
0.000000 0.000000
0.000000 -0.000000
0.000000 0.000000
0.000000 -0.000000
0.000000 0.000000
0.000000 -0.000000
0.000000 0.000000
0.000000 -0.000000
0.000000 0.000000
0.000000 -0.000000
0.000000 0.000000
0.000000 -0.000000
0.000000 0.000000
0.000000 -0.000000
0.000000 0.000000
0.000000 -0.000000
0.000000 0.000000
0.000000 -0.000000
0.000000 0.000000
0.000000 -0.000000
0.000000 0.000000
0.000000 -0.000000
0.000000 0.000000
0.000000 -0.000000
0.000000 0.000000
0.000000 -0.000000
0.000000 0.000000
0.000000 -0.000000
0.000000 0.000000
0.000000 -0.000000
0.000000 0.000000
0.000000 -0.000000
0.000000 0.000000
0.000000 -0.000000
0.000000 0.000000
0.000000 -0.000000
0.000000 0.000000
0.000000 -0.000000
0.000000 0.000000
0.000000 -0.000000
0.000000 0.000000
0.000000 -0.000000
0.000000 0.000000
0.000000 -0.000000
0.000000 0.000000
0.000000 -0.000000
0.000000 0.000000
0.000000 -0.000000
0.000000 0.000000
0.000000 -0.000000
0.000000 0.000000
0.000000 -0.000000
0.000000 0.000000
0.000000 -0.000000
0.000000 0.000000
0.000000 -0.000000
0.000000 0.000000
0.000000 -0.000000
0.000000 0.000000
0.000000 -0.000000
0.000000 0.000000
0.000000 -0.000000
0.000000 0.000000
0.000000 -0.000000
0.000000 0.000000
0.000000 -0.000000
0.000000 0.000000
0.000000 -0.000000
0.000000 0.000000
0.000000 -0.000000
0.000000 0.000000
0.000000 -0.000000
0.000000 0.000000
0.000000 -0.000000
0.000000 0.000000
0.000000 -0.000000
0.000000 0.000000
0.000000 -0.000000
0.000000 0.000000
0.000000 -0.000000
0.000000 0.000000
0.000000 -0.000000
0.000000 0.000000
0.000000 -0.000000
0.000000 0.000000
0.000000 -0.000000
0.000000 0.000000
0.000000 -0.000000
0.000000 0.000000
0.000000 -0.000000
0.000000 0.000000
0.000000 -0.000000
0.000000 0.000000
0.000000 -0.000000
0.000000 0.000000
0.000000 -0.000000
0.000000 0.000000
0.000000 -0.000000
0.000000 0.000000
0.000000 -0.000000
0.000000 0.000000
0.000000 -0.000000
0.000000 0.000000
0.000000 -0.000000
0.000000 0.000000
0.000000 -0.000000
0.000000 0.000000
0.000000 -0.000000
0.000000 0.000000
0.000000 -0.000000
0.000000 0.000000
0.000000 -0.000000
0.000000 0.000000
0.000000 -0.000000
0.000000 0.000000
0.000000 -0.000000
0.000000 0.000000
0.000000 -0.000000
0.000000 0.000000
0.000000 -0.000000
0.000000 0.000000
0.000000 -0.000000
0.000000 0.000000
0.000000 -0.000000
0.000000 0.000000
0.000000 -0.000000
0.000000 0.000000
0.000000 -0.000000
0.000000 0.000000
0.000000 -0.000000
0.000000 0.000000
0.000000 -0.000000
0.000000 0.000000
0.000000 -0.000000
0.000000 0.000000
0.000000 -0.000000
0.000000 0.000000
0.000000 -0.000000
0.000000 0.000000
0.000000 -0.000000
0.000000 0.000000
0.000000 -0.000000
0.000000 0.000000
0.000000 -0.000000
0.000000 0.000000
0.000000 -0.000000
0.000000 0.000000
0.000000 -0.000000
0.000000 0.000000
0.000000 -0.000000
0.000000 0.000000
0.000000 -0.000000
0.000000 0.000000
0.000000 -0.000000
0.000000 0.000000
0.000000 -0.000000
0.000000 0.000000
0.000000 -0.000000
0.000000 0.000000
0.000000 -0.000000
0.000000 0.000000
0.000000 -0.000000
0.000000 0.000000
0.000000 -0.000000
0.000000 0.000000
0.000000 -0.000000
0.000000 0.000000
0.000000 -0.000000
0.000000 0.000000
0.000000 -0.000000
0.000000 0.000000
0.000000 -0.000000
0.000000 0.000000
0.000000 -0.000000
0.000000 0.000000
0.000000 -0.000000
0.000000 0.000000
0.000000 -0.000000
0.000000 0.000000
0.000000 -0.000000
0.000000 0.000000
0.000000 -0.000000
0.000000 0.000000
0.000000 -0.000000
0.000000 0.000000
0.000000 -0.000000
0.000000 0.000000
0.000000 -0.000000
0.000000 0.000000
0.000000 -0.000000
0.000000 0.000000
0.000000 -0.000000
0.000000 0.000000
0.000000 -0.000000
0.000000 0.000000
0.000000 -0.000000
0.000000 0.000000
0.000000 -0.000000
0.000000 0.000000
0.000000 -0.000000
0.000000 0.000000
0.000000 -0.000000
0.000000 0.000000
0.000000 -0.000000
0.000000 0.000000
0.000000 -0.000000
0.000000 0.000000
0.000000 -0.000000
0.000000 0.000000
0.000000 -0.000000
0.000000 0.000000
0.000000 -0.000000
0.000000 0.000000
0.000000 -0.000000
0.000000 0.000000
0.000000 -0.000000
0.000000 0.000000
0.000000 -0.000000
0.000000 0.000000
0.000000 -0.000000
0.000000 0.000000
0.000000 -0.000000
0.000000 0.000000
0.000000 -0.000000
0.000000 0.000000
0.000000 -0.000000
0.000000 0.000000
0.000000 -0.000000
0.000000 0.000000
0.000000 -0.000000
0.000000 0.000000
0.000000 -0.000000
0.000000 0.000000
0.000000 -0.000000
0.000000 0.000000
0.000000 -0.000000
0.000000 0.000000
0.000000 -0.000000
0.000000 0.000000
0.000000 -0.000000
0.000000 0.000000
0.000000 -0.000000
0.000000 0.000000
0.000000 -0.000000
0.000000 0.000000
0.000000 -0.000000
0.000000 0.000000
0.000000 -0.000000
0.000000 0.000000
0.000000 -0.000000
0.000000 0.000000
0.000000 -0.000000
0.000000 0.000000
0.000000 -0.000000
0.000000 0.000000
0.000000 -0.000000
0.000000 0.000000
0.000000 -0.000000
0.000000 0.000000
0.000000 -0.000000
0.000000 0.000000
0.000000 -0.000000
0.000000 0.000000
0.000000 -0.000000
0.000000 0.000000
0.000000 -0.000000
0.000000 0.000000
0.000000 -0.000000
0.000000 0.000000
0.000000 -0.000000
0.000000 0.000000
0.000000 -0.000000
0.000000 0.000000
-0.817951 -3.323313
