-0.073096 0.001708 -0.000061
-0.061399 80.292215
-0.029085 -2.526260
-0.040028 -6.136998
-0.036872 3.735958
-0.037598 -1.525172
-0.037493 0.504486
-0.037480 -0.137967
-0.037499 0.028283
-0.037489 -0.001966
-0.037493 -0.001856
-0.037492 0.001309
-0.037492 -0.000584
-0.037492 0.000212
-0.037492 -0.000066
-0.037492 0.000018
-0.037492 -0.000004
-0.037492 0.000000
-0.037492 0.000000
-0.037492 -0.000000
-0.037492 0.000000
-0.037492 -0.000000
-0.037492 0.000000
-0.037492 -0.000000
-0.037492 0.000000
-0.037492 0.000000
-0.037492 -0.000000
-0.037492 0.000000
-0.037492 -0.000000
-0.037492 0.000000
-0.037492 -0.000000
-0.037492 0.000000
-0.037492 -0.000000
-0.037492 0.000000
-0.037492 -0.000000
-0.037492 0.000000
-0.037492 -0.000000
-0.037492 0.000000
-0.037492 -0.000000
-0.037492 0.000000
-0.037492 -0.000000
-0.037492 0.000000
-0.037492 -0.000000
-0.037492 0.000000
-0.037492 -0.000000
-0.037492 0.000000
-0.037492 -0.000000
-0.037492 0.000000
-0.037492 -0.000000
-0.037492 0.000000
-0.037492 -0.000000
-0.037492 0.000000
-0.037492 -0.000000
-0.037492 0.000000
-0.037492 -0.000000
-0.037492 0.000000
-0.037492 -0.000000
-0.037492 0.000000
-0.037492 -0.000000
-0.037492 0.000000
-0.037492 -0.000000
-0.037492 0.000000
-0.037492 -0.000000
-0.037492 0.000000
-0.037492 -0.000000
-0.037492 0.000000
-0.037492 -0.000000
-0.037492 0.000000
-0.037492 -0.000000
-0.037492 0.000000
-0.037492 -0.000000
-0.037492 0.000000
-0.037492 -0.000000
-0.037492 0.000000
-0.037492 -0.000000
-0.037492 0.000000
-0.037492 -0.000000
-0.037492 0.000000
-0.037492 -0.000000
-0.037492 0.000000
-0.037492 -0.000000
-0.037492 0.000000
-0.037492 -0.000000
-0.037492 0.000000
-0.037492 -0.000000
-0.037492 0.000000
-0.037492 -0.000000
-0.037492 0.000000
-0.037492 -0.000000
-0.037492 0.000000
-0.037492 -0.000000
-0.037492 0.000000
-0.037492 -0.000000
-0.037492 0.000000
-0.037492 -0.000000
-0.037492 0.000000
-0.037492 -0.000000
-0.037492 0.000000
-0.037492 -0.000000
-0.037492 0.000000
-0.037492 -0.000000
-0.037492 0.000000
-0.037492 -0.000000
-0.037492 0.000000
-0.037492 -0.000000
-0.037492 0.000000
-0.037492 -0.000000
-0.037492 0.000000
-0.037492 -0.000000
-0.037492 0.000000
-0.037492 -0.000000
-0.037492 0.000000
-0.037492 -0.000000
-0.037492 0.000000
-0.037492 -0.000000
-0.037492 0.000000
-0.037492 -0.000000
-0.037492 0.000000
-0.037492 -0.000000
-0.037492 0.000000
-0.037492 -0.000000
-0.037492 0.000000
-0.037492 -0.000000
-0.037492 0.000000
-0.037492 -0.000000
-0.037492 0.000000
-0.037492 -0.000000
-0.037492 0.000000
-0.037492 -0.000000
-0.037492 0.000000
-0.037492 -0.000000
-0.037492 0.000000
-0.037492 -0.000000
-0.037492 0.000000
-0.037492 -0.000000
-0.037492 0.000000
-0.037492 -0.000000
-0.037492 0.000000
-0.037492 -0.000000
-0.037492 0.000000
-0.037492 -0.000000
-0.037492 0.000000
-0.037492 -0.000000
-0.037492 0.000000
-0.037492 -0.000000
-0.037492 0.000000
-0.037492 -0.000000
-0.037492 0.000000
-0.037492 -0.000000
-0.037492 0.000000
-0.037492 -0.000000
-0.037492 0.000000
-0.037492 -0.000000
-0.037492 0.000000
-0.037492 -0.000000
-0.037492 0.000000
-0.037492 -0.000000
-0.037492 0.000000
-0.037492 -0.000000
-0.037492 0.000000
-0.037492 -0.000000
-0.037492 0.000000
-0.037492 -0.000000
-0.037492 0.000000
-0.037492 -0.000000
-0.037492 0.000000
-0.037492 -0.000000
-0.037492 0.000000
-0.037492 -0.000000
-0.037492 0.000000
-0.037492 -0.000000
-0.037492 0.000000
-0.037492 -0.000000
-0.037492 0.000000
-0.037492 -0.000000
-0.037492 0.000000
-0.037492 -0.000000
-0.037492 0.000000
-0.037492 -0.000000
-0.037492 0.000000
-0.037492 -0.000000
-0.037492 0.000000
-0.037492 -0.000000
-0.037492 0.000000
-0.037492 -0.000000
-0.037492 0.000000
-0.037492 -0.000000
-0.037492 0.000000
-0.037492 -0.000000
-0.037492 0.000000
-0.037492 -0.000000
-0.037492 0.000000
-0.037492 -0.000000
-0.037492 0.000000
-0.037492 -0.000000
-0.037492 0.000000
-0.037492 -0.000000
-0.037492 0.000000
-0.037492 -0.000000
-0.037492 0.000000
-0.037492 -0.000000
-0.037492 0.000000
-0.037492 0.000000
-0.037492 -0.000000
-0.037492 0.000000
-0.037492 -0.000000
-0.037492 0.000000
-0.037492 -0.000000
-0.037492 0.000000
-0.037492 -0.000000
-0.037492 0.000000
-0.037492 -0.000000
-0.037492 0.000000
-0.037492 -0.000000
-0.037492 0.000000
-0.037492 -0.000000
-0.037492 0.000000
-0.037492 -0.000000
-0.037492 0.000000
-0.037492 -0.000000
-0.037492 0.000000
-0.037492 -0.000000
-0.037492 0.000000
-0.037492 -0.000000
-0.037492 0.000000
-0.037492 -0.000000
-0.037492 0.000000
-0.037492 -0.000000
-0.037492 0.000000
-0.037492 -0.000000
-0.037492 0.000000
-0.037492 -0.000000
-0.037492 0.000000
-0.037492 -0.000000
-0.037492 0.000000
-0.037492 -0.000000
-0.037492 0.000000
-0.037492 -0.000000
-0.037492 0.000000
-0.037492 -0.000000
-0.037492 0.000000
-0.037492 -0.000000
-0.037492 0.000000
-0.037492 -0.000000
-0.037492 0.000000
-0.037492 -0.000000
-0.037492 0.000000
-0.037492 -0.000000
-0.037492 0.000000
-0.037492 -0.000000
-0.037492 0.000000
-0.037492 -0.000000
-0.037492 0.000000
-0.037492 -0.000000
-0.037492 0.000000
-0.037492 -0.000000
-0.037492 0.000000
-0.037492 -0.000000
-0.037492 0.000000
-0.037492 -0.000000
-0.037492 0.000000
-0.037492 -0.000000
-0.037492 0.000000
-0.037492 -0.000000
-0.037492 0.000000
-0.037492 -0.000000
-0.037492 0.000000
-0.037492 -0.000000
-0.037492 0.000000
-0.037492 -0.000000
-0.037492 0.000000
-0.037492 -0.000000
-0.037492 0.000000
-0.037492 -0.000000
-0.037492 0.000000
-0.037492 -0.000000
-0.037492 0.000000
-0.037492 -0.000000
-0.037492 0.000000
-0.037492 -0.000000
-0.037492 0.000000
-0.037492 -0.000000
-0.037492 0.000000
-0.037492 -0.000000
-0.037492 0.000000
-0.037492 -0.000000
-0.037492 0.000000
-0.037492 -0.000000
-0.037492 0.000000
-0.037492 -0.000000
-0.037492 0.000000
-0.037492 -0.000000
-0.037492 0.000000
-0.037492 -0.000000
-0.037492 0.000000
-0.037492 -0.000000
-0.037492 0.000000
-0.037492 -0.000000
-0.037492 0.000000
-0.037492 -0.000000
-0.037492 0.000000
-0.037492 -0.000000
-0.037492 0.000000
-0.037492 -0.000000
-0.037492 0.000000
-0.037492 -0.000000
-0.037492 0.000000
-0.037492 -0.000000
-0.037492 0.000000
-0.037492 -0.000000
-0.037492 0.000000
-0.037492 -0.000000
-0.037492 0.000000
-0.037492 -0.000000
-0.037492 0.000000
-0.037492 -0.000000
-0.037492 0.000000
-0.037492 -0.000000
-0.037492 0.000000
-0.037492 -0.000000
-0.037492 0.000000
-0.037492 -0.000000
-0.037492 0.000000
-0.037492 -0.000000
-0.037492 0.000000
-0.037492 -0.000000
-0.037492 0.000000
-0.037492 -0.000000
-0.037492 0.000000
-0.037492 -0.000000
-0.037492 0.000000
-0.037492 -0.000000
-0.037492 0.000000
-0.037492 -0.000000
-0.037492 0.000000
-0.037492 -0.000000
-0.037492 0.000000
-0.037492 -0.000000
-0.037492 0.000000
-0.037492 -0.000000
-0.037492 0.000000
-0.037492 -0.000000
-0.037492 0.000000
-0.037492 -0.000000
-0.037492 0.000000
-0.037492 -0.000000
-0.037492 0.000000
-0.037492 -0.000000
-0.037492 0.000000
-0.037492 -0.000000
-0.037492 0.000000
-0.037492 -0.000000
-0.037492 0.000000
-0.037492 -0.000000
-0.037492 0.000000
-0.037492 -0.000000
-0.037492 0.000000
-0.037492 -0.000000
-0.037492 0.000000
-0.037492 -0.000000
-0.037492 0.000000
-0.037492 -0.000000
-0.037492 0.000000
-0.037492 -0.000000
-0.037492 0.000000
-0.037492 -0.000000
-0.037492 0.000000
-0.037492 -0.000000
-0.037492 0.000000
-0.037492 -0.000000
-0.037492 0.000000
-0.037492 -0.000000
-0.037492 0.000000
-0.037492 -0.000000
-0.037492 0.000000
-0.037492 -0.000000
-0.037492 0.000000
-0.037492 -0.000000
-0.037492 0.000000
-0.037492 -0.000000
-0.037492 0.000000
-0.037492 -0.000000
-0.037492 0.000000
-0.037492 -0.000000
-0.037492 0.000000
-0.037492 -0.000001
-0.037492 0.000005
-0.037492 -0.000019
-0.037492 0.000068
-0.037492 -0.000245
-0.037492 0.000884
-0.037492 -0.003183
-0.037492 0.011440
-0.037491 -0.041043
-0.037494 0.146986
-0.037484 -0.525345
-0.037521 1.873537
-0.037383 -6.665514
-0.037901 23.650947
0.000000 24.098541
0.000000 -6.457184
0.000000 1.730197
0.000000 -0.463605
0.000000 0.124223
0.000000 -0.033285
0.000000 0.008919
0.000000 -0.002390
0.000000 0.000640
0.000000 -0.000172
0.000000 0.000046
0.000000 -0.000012
0.000000 0.000003
0.000000 -0.000001
0.000000 0.000000
0.000000 -0.000000
0.000000 0.000000
0.000000 -0.000000
0.000000 0.000000
0.000000 -0.000000
0.000000 0.000000
0.000000 -0.000000
0.000000 0.000000
0.000000 -0.000000
0.000000 0.000000
0.000000 -0.000000
0.000000 0.000000
0.000000 -0.000000
0.000000 0.000000
0.000000 -0.000000
0.000000 0.000000
0.000000 -0.000000
0.000000 0.000000
0.000000 -0.000000
0.000000 0.000000
0.000000 -0.000000
0.000000 0.000000
0.000000 -0.000000
0.000000 0.000000
0.000000 -0.000000
0.000000 0.000000
0.000000 -0.000000
0.000000 0.000000
0.000000 -0.000000
0.000000 0.000000
0.000000 -0.000000
0.000000 0.000000
0.000000 -0.000000
0.000000 0.000000
0.000000 -0.000000
0.000000 0.000000
0.000000 -0.000000
0.000000 0.000000
0.000000 -0.000000
0.000000 0.000000
0.000000 -0.000000
0.000000 0.000000
0.000000 -0.000000
0.000000 0.000000
0.000000 -0.000000
0.000000 0.000000
0.000000 -0.000000
0.000000 0.000000
0.000000 -0.000000
0.000000 0.000000
0.000000 -0.000000
0.000000 0.000000
0.000000 -0.000000
0.000000 0.000000
0.000000 -0.000000
0.000000 0.000000
0.000000 -0.000000
0.000000 0.000000
0.000000 -0.000000
0.000000 0.000000
0.000000 -0.000000
0.000000 0.000000
0.000000 -0.000000
0.000000 0.000000
0.000000 -0.000000
0.000000 0.000000
0.000000 -0.000000
0.000000 0.000000
0.000000 -0.000000
0.000000 0.000000
0.000000 -0.000000
0.000000 0.000000
0.000000 -0.000000
0.000000 0.000000
0.000000 -0.000000
0.000000 0.000000
0.000000 -0.000000
0.000000 0.000000
0.000000 -0.000000
0.000000 0.000000
0.000000 -0.000000
0.000000 0.000000
0.000000 -0.000000
0.000000 0.000000
0.000000 -0.000000
0.000000 0.000000
0.000000 -0.000000
0.000000 0.000000
0.000000 -0.000000
0.000000 0.000000
0.000000 -0.000000
0.000000 0.000000
0.000000 -0.000000
0.000000 0.000000
0.000000 -0.000000
0.000000 0.000000
0.000000 -0.000000
0.000000 0.000000
0.000000 -0.000000
0.000000 0.000000
0.000000 -0.000000
0.000000 0.000000
0.000000 -0.000000
0.000000 0.000000
0.000000 -0.000000
0.000000 0.000000
0.000000 -0.000000
0.000000 0.000000
0.000000 -0.000000
0.000000 0.000000
0.000000 -0.000000
0.000000 0.000000
0.000000 -0.000000
0.000000 0.000000
0.000000 -0.000000
0.000000 0.000000
0.000000 -0.000000
0.000000 0.000000
0.000000 -0.000000
0.000000 0.000000
0.000000 -0.000000
0.000000 0.000000
0.000000 -0.000000
0.000000 0.000000
0.000000 -0.000000
0.000000 0.000000
0.000000 -0.000000
0.000000 0.000000
0.000000 -0.000000
0.000000 0.000000
0.000000 -0.000000
0.000000 0.000000
0.000000 -0.000000
0.000000 0.000000
0.000000 -0.000000
0.000000 0.000000
0.000000 -0.000000
0.000000 0.000000
0.000000 -0.000000
0.000000 0.000000
0.000000 -0.000000
0.000000 0.000000
0.000000 -0.000000
0.000000 0.000000
0.000000 -0.000000
0.000000 0.000000
0.000000 -0.000000
0.000000 0.000000
0.000000 -0.000000
0.000000 0.000000
0.000000 -0.000000
0.000000 0.000000
0.000000 -0.000000
0.000000 0.000000
0.000000 -0.000000
0.000000 0.000000
0.000000 -0.000000
0.000000 0.000000
0.000000 -0.000000
0.000000 0.000000
0.000000 -0.000000
0.000000 0.000000
0.000000 -0.000000
0.000000 0.000000
0.000000 -0.000000
0.000000 0.000000
0.000000 -0.000000
0.000000 0.000000
0.000000 -0.000000
0.000000 0.000000
0.000000 -0.000000
0.000000 0.000000
0.000000 -0.000000
0.000000 0.000000
0.000000 -0.000000
0.000000 0.000000
0.000000 -0.000000
0.000000 0.000000
0.000000 -0.000000
0.000000 0.000000
0.000000 -0.000000
0.000000 0.000000
0.000000 -0.000000
0.000000 0.000000
0.000000 -0.000000
0.000000 0.000000
0.000000 -0.000000
0.000000 0.000000
0.000000 -0.000000
0.000000 0.000000
0.000000 -0.000000
0.000000 0.000000
0.000000 -0.000000
0.000000 0.000000
0.000000 -0.000000
0.000000 0.000000
0.000000 -0.000000
0.000000 0.000000
0.000000 -0.000000
0.000000 0.000000
0.000000 -0.000000
0.000000 0.000000
0.000000 -0.000000
0.000000 0.000000
0.000000 -0.000000
0.000000 0.000000
0.000000 -0.000000
0.000000 0.000000
0.000000 -0.000000
0.000000 0.000000
0.000000 -0.000000
0.000000 0.000000
0.000000 -0.000000
0.000000 0.000000
0.000000 -0.000000
0.000000 0.000000
0.000000 -0.000000
0.000000 0.000000
0.000000 -0.000000
0.000000 0.000000
0.000000 -0.000000
0.000000 0.000000
0.000000 -0.000000
0.000000 0.000000
0.000000 -0.000000
0.000000 0.000000
0.000000 -0.000000
0.000000 0.000000
0.000000 -0.000000
0.000000 0.000000
0.000000 -0.000000
0.000000 0.000000
0.000000 -0.000000
0.000000 0.000000
0.000000 -0.000000
0.000000 0.000000
0.000000 -0.000000
0.000000 0.000000
0.000000 -0.000000
0.000000 0.000000
0.000000 -0.000000
0.000000 0.000000
0.000000 -0.000000
0.000000 0.000000
0.000000 -0.000000
0.000000 0.000000
0.000000 -0.000000
0.000000 0.000000
0.000000 -0.000000
0.000000 0.000000
0.000000 -0.000000
0.000000 0.000000
0.000000 -0.000000
0.000000 0.000000
0.000000 -0.000000
0.000000 0.000000
0.000000 -0.000000
0.000000 0.000000
0.000000 -0.000000
0.000000 0.000000
0.000000 -0.000000
0.000000 0.000000
0.000000 -0.000000
0.000000 0.000000
0.000000 -0.000000
0.000000 0.000000
0.000000 -0.000000
0.000000 0.000000
0.000000 -0.000000
0.000000 0.000000
0.000000 -0.000000
0.000000 0.000000
0.000000 -0.000000
0.000000 0.000000
0.000000 -0.000000
0.000000 0.000000
0.000000 -0.000000
0.000000 0.000000
0.000000 -0.000000
0.000000 0.000000
0.000000 -0.000000
0.000000 0.000000
0.000000 -0.000000
0.000000 0.000000
0.000000 -0.000000
0.000000 0.000000
0.000000 -0.000000
0.000000 0.000000
0.000000 -0.000000
0.000000 0.000000
0.000000 -0.000000
0.000000 0.000000
0.000000 -0.000000
0.000000 0.000000
0.000000 -0.000000
0.000000 0.000000
0.000000 -0.000000
0.000000 0.000000
0.000000 -0.000000
0.000000 0.000000
0.000000 -0.000000
0.000000 0.000000
0.000000 -0.000000
0.000000 0.000000
0.000000 -0.000000
0.000000 0.000000
0.000000 -0.000000
0.000000 0.000000
0.000000 -0.000000
0.000000 0.000000
0.000000 -0.000000
0.000000 0.000000
0.000000 -0.000000
0.000000 0.000000
0.000000 -0.000000
0.000000 0.000000
0.000000 -0.000000
0.000000 0.000000
0.000000 -0.000000
0.000000 0.000000
0.000000 -0.000000
0.000000 0.000000
0.000000 -0.000000
0.000000 0.000000
0.000000 -0.000000
0.000000 0.000000
0.000000 -0.000000
0.000000 0.000000
0.000000 -0.000000
0.000000 0.000000
0.000000 -0.000000
0.000000 0.000000
0.000000 -0.000000
0.000000 0.000000
0.000000 -0.000000
0.000000 0.000000
0.000000 -0.000000
0.000000 0.000000
0.000000 -0.000000
0.000000 0.000000
0.000000 -0.000000
0.000000 0.000000
0.000000 -0.000000
0.000000 0.000000
0.000000 -0.000000
0.000000 0.000000
0.000000 -0.000000
0.000000 0.000000
0.000000 -0.000000
0.000000 0.000000
0.000000 -0.000000
0.000000 0.000000
0.000000 -0.000000
0.000000 0.000000
0.000000 -0.000000
0.000000 0.000000
0.000000 -0.000000
0.000000 0.000000
0.000000 -0.000000
0.000000 0.000000
0.000000 -0.000000
0.000000 0.000000
0.000000 -0.000000
0.000000 0.000000
0.000000 -0.000000
0.000000 0.000000
0.000000 -0.000000
0.000000 0.000000
0.000000 -0.000000
0.000000 0.000000
0.000000 -0.000000
0.000000 0.000000
0.000000 -0.000000
0.000000 0.000000
0.000000 -0.000000
0.000000 0.000000
0.000000 -0.000000
0.000000 0.000000
0.000000 -0.000000
0.000000 0.000000
0.000000 -0.000000
0.000000 0.000000
0.000000 -0.000000
0.000000 0.000000
0.000000 -0.000000
0.000000 0.000000
0.000000 -0.000000
0.000000 0.000000
0.000000 -0.000000
0.000000 0.000000
0.000000 -0.000000
0.000000 0.000000
0.000000 -0.000000
0.000000 0.000000
0.000000 -0.000000
0.000000 0.000000
0.000000 -0.000000
0.000000 0.000000
0.000000 -0.000000
0.000000 0.000000
0.000000 -0.000000
0.000000 0.000000
0.000000 -0.000000
0.000000 0.000000
0.000000 -0.000000
0.000000 0.000000
0.000000 -0.000000
0.000000 0.000000
0.000000 -0.000000
0.000000 0.000000
0.000000 -0.000000
0.000000 0.000000
0.000000 -0.000000
0.000000 0.000000
0.000000 -0.000000
0.000000 0.000000
0.000000 -0.000000
0.000000 0.000000
0.000000 -0.000000
0.000000 0.000000
0.000000 -0.000000
0.000000 0.000000
0.000000 -0.000000
0.000000 0.000000
0.000000 -0.000000
0.000000 0.000000
0.000000 -0.000000
0.000000 0.000000
0.000000 -0.000000
0.000000 0.000000
0.000000 -0.000000
0.000000 0.000000
0.000000 -0.000000
0.000000 0.000000
0.000000 -0.000000
0.000000 0.000000
0.000000 -0.000000
0.000000 0.000000
0.000000 -0.000000
0.000000 0.000000
0.000000 -0.000000
0.000000 0.000000
0.000000 -0.000000
0.000000 0.000000
0.000000 -0.000000
0.000000 0.000000
0.000000 -0.000000
0.000000 0.000000
0.000000 -0.000000
0.000000 0.000000
0.000000 -0.000000
0.000000 0.000000
0.000000 -0.000000
0.000000 0.000000
0.000000 -0.000000
0.000000 0.000000
0.000000 -0.000000
0.000000 0.000000
0.000000 -0.000000
0.000000 0.000000
0.000000 -0.000000
0.000000 0.000000
0.000000 -0.000000
0.000000 0.000000
0.000000 -0.000000
0.000000 0.000000
0.000000 -0.000000
0.000000 0.000000
0.000000 -0.000000
0.000000 0.000000
0.000000 -0.000000
0.000000 0.000000
0.000000 -0.000000
0.000000 0.000000
0.000000 -0.000000
0.000000 0.000000
0.000000 -0.000000
0.000000 0.000000
0.000000 -0.000000
0.000000 0.000000
0.000000 -0.000000
0.000000 0.000000
0.000000 -0.000000
0.000000 0.000000
0.000000 -0.000000
0.000000 0.000000
0.000000 -0.000000
0.000000 0.000000
0.000000 -0.000000
0.000000 0.000000
0.000000 -0.000000
0.000000 0.000000
0.000000 -0.000000
0.000000 0.000000
0.000000 -0.000000
0.000000 0.000000
0.000000 -0.000000
0.000000 0.000000
0.000000 -0.000000
0.000000 0.000000
0.000000 -0.000000
0.000000 0.000000
0.000000 -0.000000
0.000000 0.000000
0.000000 -0.000000
0.000000 0.000000
0.000000 -0.000000
0.000000 0.000000
0.000000 -0.000000
0.000000 0.000000
0.000000 -0.000000
0.000000 0.000000
0.000000 -0.000000
0.000000 0.000000
0.000000 -0.000000
0.000000 0.000000
0.000000 -0.000000
0.000000 0.000000
0.000000 -0.000000
0.000000 0.000000
0.000000 -0.000000
0.000000 0.000000
0.000000 -0.000000
0.000000 0.000000
0.000000 -0.000000
0.000000 0.000000
0.000000 -0.000000
0.000000 0.000000
0.000000 -0.000000
0.000000 0.000000
0.000000 -0.000000
0.000000 0.000000
0.000000 -0.000000
0.000000 0.000000
0.000000 -0.000000
0.000000 0.000000
0.000000 -0.000000
0.000000 0.000000
0.000000 -0.000000
0.000000 0.000000
0.000000 -0.000000
0.000000 0.000000
0.000000 -0.000000
0.000000 0.000000
0.000000 -0.000000
0.000000 0.000000
0.000000 -0.000000
0.000000 0.000000
0.000000 -0.000000
0.000000 0.000000
0.000000 0.000000
0.000000 0.000000
0.000000 0.000000
0.000000 0.000000
0.000000 0.000000
0.000000 0.000000
0.000000 0.000000
0.000000 0.000000
0.000000 0.000000
0.000000 0.000000
0.000000 0.000000
0.000000 0.000000
0.000000 0.000000
0.000000 0.000000
0.000000 0.000000
0.000000 0.000000
0.000000 0.000000
0.000000 0.000000
0.000000 0.000000
0.000000 0.000000
0.000000 0.000000
0.000000 0.000000
0.000000 0.000000
0.000000 0.000000
0.000000 0.000000
0.000000 0.000000
0.000000 0.000000
0.000000 0.000000
0.000000 0.000000
0.000000 0.000000
0.000000 0.000000
0.000000 0.000000
0.000000 0.000000
0.000000 0.000000
0.000000 0.000000
0.000000 0.000000
-0.061399 80.292215
