-0.017290 0.001513 0.005533
-0.017527 -0.000000
-0.017527 0.000000
-0.017527 -0.000000
-0.017527 0.000000
-0.017527 -0.000000
-0.017527 0.000000
-0.017527 -0.000000
-0.017527 0.000000
-0.017527 -0.000000
-0.017527 0.000000
-0.017527 -0.000000
-0.017527 0.000000
-0.017527 -0.000000
-0.017527 0.000000
-0.017527 -0.000000
-0.017527 0.000000
-0.017527 -0.000000
-0.017527 0.000000
-0.017527 -0.000000
-0.017527 0.000000
-0.017527 -0.000000
-0.017527 0.000000
-0.017527 -0.000000
-0.017527 0.000000
-0.017527 -0.000000
-0.017527 0.000000
-0.017527 -0.000000
-0.017527 0.000000
-0.017527 -0.000000
-0.017527 0.000000
-0.017527 -0.000000
-0.017527 0.000000
-0.017527 -0.000000
-0.017527 0.000000
-0.017527 -0.000000
-0.017527 0.000000
-0.017527 -0.000000
-0.017527 0.000000
-0.017527 -0.000000
-0.017527 0.000000
-0.017527 -0.000000
-0.017527 0.000000
-0.017527 -0.000000
-0.017527 0.000000
-0.017527 -0.000000
-0.017527 0.000000
-0.017527 -0.000000
-0.017527 0.000000
-0.017527 -0.000000
-0.017527 0.000000
-0.017527 -0.000000
-0.017527 0.000000
-0.017527 -0.000000
-0.017527 0.000000
-0.017527 -0.000000
-0.017527 0.000000
-0.017527 -0.000000
-0.017527 0.000000
-0.017527 0.000000
-0.017527 -0.000000
-0.017527 0.000000
-0.017527 -0.000000
-0.017527 0.000000
-0.017527 -0.000000
-0.017527 0.000000
-0.017527 0.000000
-0.017527 -0.000000
-0.017527 0.000000
-0.017527 -0.000000
-0.017527 0.000001
-0.017527 -0.000000
-0.017527 -0.000005
-0.017527 0.000028
-0.017527 -0.000099
-0.017527 0.000263
-0.017527 -0.000478
-0.017528 0.000090
-0.017525 0.004041
-0.017530 -0.022520
-0.017527 0.082177
-0.017505 -0.232739
-0.017641 0.507907
-0.017125 -0.659085
-0.018622 -0.814305
-0.015455 8.921522
-0.018187 -33.566561
-0.067158 -29.610041
-0.063392 16.526812
-0.080242 -75.710408
-0.155179 11.229435
-0.109509 -56.920327
-0.365996 -415.366166
-0.709099 -78.586439
-0.463251 438.238186
-0.105762 133.834017
-0.161236 -68.435225
-0.118372 102.117269
-0.038513 27.767254
-0.053041 -17.391175
-0.050150 6.919595
-0.050325 -2.145887
-0.050539 0.500557
-0.050392 -0.057726
-0.050456 -0.021726
-0.050434 0.019692
-0.050440 -0.009593
-0.050439 0.003685
-0.050439 -0.001193
-0.050439 0.000323
-0.050439 -0.000067
-0.050439 0.000007
-0.050439 0.000003
-0.050439 -0.000002
-0.050439 0.000001
-0.050439 -0.000000
-0.050439 -0.000000
-0.050439 0.000000
-0.050439 -0.000001
-0.050439 0.000003
-0.050439 -0.000002
-0.050439 -0.000013
-0.050439 0.000114
-0.050439 -0.000595
-0.050439 0.002611
-0.050439 -0.010335
-0.050439 0.038001
-0.050436 -0.131413
-0.050459 0.428130
-0.050343 -1.302475
-0.050851 3.607234
-0.048797 -8.493352
-0.056655 12.969660
-0.018619 47.058426
0.013189 8.120330
0.005607 -6.934924
0.007708 3.193506
0.007150 -1.215591
0.007291 0.418308
0.007258 -0.134510
0.007265 0.041002
0.007264 -0.011912
0.007264 0.003295
0.007264 -0.000861
0.007264 0.000209
0.007264 -0.000045
0.007264 0.000008
0.007264 -0.000001
0.007264 -0.000000
0.007264 0.000000
0.007264 -0.000000
0.007264 0.000000
0.007264 -0.000000
0.007264 0.000000
0.007264 -0.000000
0.007264 0.000000
0.007264 -0.000000
0.007264 0.000000
0.007264 -0.000000
0.007264 0.000000
0.007264 -0.000000
0.007264 0.000000
0.007264 -0.000000
0.007264 0.000000
0.007264 -0.000000
0.007264 0.000000
0.007264 -0.000000
0.007264 0.000000
0.007264 -0.000000
0.007264 0.000000
0.007264 -0.000000
0.007264 0.000000
0.007264 -0.000000
0.007264 0.000000
0.007264 -0.000000
0.007264 0.000000
0.007264 -0.000000
0.007264 0.000000
0.007264 -0.000000
0.007264 0.000000
0.007264 -0.000000
0.007264 0.000000
0.007264 -0.000000
0.007264 0.000000
0.007264 -0.000000
0.007264 0.000000
0.007264 -0.000000
0.007264 0.000000
0.007264 -0.000000
0.007264 0.000000
0.007264 -0.000000
0.007264 0.000000
0.007264 -0.000000
0.007264 0.000000
0.007264 -0.000000
0.007264 0.000000
0.007264 -0.000000
0.007264 0.000000
0.007264 -0.000000
0.007264 0.000000
0.007264 -0.000000
0.007264 0.000000
0.007264 -0.000000
0.007264 0.000000
0.007264 -0.000000
0.007264 0.000000
0.007264 -0.000000
0.007264 0.000000
0.007264 -0.000000
0.007264 0.000000
0.007264 -0.000000
0.007264 0.000000
0.007264 -0.000000
0.007264 0.000000
0.007264 -0.000000
0.007264 0.000000
0.007264 -0.000000
0.007264 0.000000
0.007264 -0.000000
0.007264 0.000000
0.007264 -0.000000
0.007264 0.000000
0.007264 -0.000000
0.007264 0.000000
0.007264 -0.000000
0.007264 0.000000
0.007264 -0.000000
0.007264 0.000000
0.007264 -0.000000
0.007264 0.000000
0.007264 -0.000000
0.007264 0.000000
0.007264 -0.000000
0.007264 0.000000
0.007264 -0.000000
0.007264 0.000000
0.007264 -0.000000
0.007264 0.000000
0.007264 -0.000000
0.007264 0.000000
0.007264 -0.000000
0.007264 0.000000
0.007264 -0.000000
0.007264 0.000000
0.007264 -0.000000
0.007264 0.000000
0.007264 -0.000000
0.007264 0.000000
0.007264 -0.000000
0.007264 0.000000
0.007264 -0.000000
0.007264 0.000000
0.007264 -0.000000
0.007264 0.000000
0.007264 -0.000000
0.007264 0.000000
0.007264 -0.000000
0.007264 0.000000
0.007264 -0.000000
0.007264 0.000000
0.007264 -0.000000
0.007264 0.000000
0.007264 -0.000000
0.007264 0.000000
0.007264 -0.000000
0.007264 0.000000
0.007264 -0.000000
0.007264 0.000000
0.007264 -0.000000
0.007264 0.000000
0.007264 -0.000000
0.007264 0.000000
0.007264 -0.000000
0.007264 0.000000
0.007264 -0.000000
0.007264 0.000000
0.007264 -0.000000
0.007264 0.000000
0.007264 -0.000000
0.007264 0.000000
0.007264 -0.000000
0.007264 0.000000
0.007264 -0.000000
0.007264 0.000000
0.007264 -0.000000
0.007264 0.000000
0.007264 -0.000000
0.007264 0.000000
0.007264 -0.000000
0.007264 0.000000
0.007264 -0.000000
0.007264 0.000000
0.007264 -0.000000
0.007264 0.000000
0.007264 -0.000000
0.007264 0.000000
0.007264 -0.000000
0.007264 0.000000
0.007264 -0.000000
0.007264 0.000000
0.007264 -0.000000
0.007264 0.000000
0.007264 -0.000000
0.007264 0.000000
0.007264 -0.000000
0.007264 0.000000
0.007264 -0.000000
0.007264 0.000000
0.007264 -0.000000
0.007264 0.000000
0.007264 -0.000000
0.007264 0.000000
0.007264 -0.000000
0.007264 0.000000
0.007264 -0.000000
0.007264 0.000000
0.007264 -0.000000
0.007264 0.000000
0.007264 -0.000000
0.007264 0.000000
0.007264 -0.000000
0.007264 0.000000
0.007264 -0.000000
0.007264 0.000000
0.007264 -0.000000
0.007264 0.000000
0.007264 -0.000000
0.007264 0.000000
0.007264 -0.000000
0.007264 0.000000
0.007264 -0.000000
0.007264 0.000000
0.007264 -0.000000
0.007264 0.000000
0.007264 -0.000000
0.007264 0.000000
0.007264 -0.000000
0.007264 0.000000
0.007264 -0.000000
0.007264 0.000000
0.007264 -0.000000
0.007264 0.000000
0.007264 -0.000000
0.007264 0.000000
0.007264 -0.000000
0.007264 0.000000
0.007264 -0.000000
0.007264 0.000000
0.007264 -0.000000
0.007264 0.000000
0.007264 -0.000000
0.007264 0.000000
0.007264 -0.000000
0.007264 0.000000
0.007264 -0.000000
0.007264 0.000000
0.007264 -0.000000
0.007264 0.000000
0.007264 -0.000000
0.007264 0.000000
0.007264 0.000000
0.007264 -0.000000
0.007264 0.000000
0.007264 -0.000000
0.007264 0.000000
0.007264 -0.000000
0.007264 0.000000
0.007264 -0.000000
0.007264 0.000000
0.007264 -0.000000
0.007264 0.000000
0.007264 -0.000000
0.007264 0.000000
0.007264 -0.000000
0.007264 0.000000
0.007264 -0.000000
0.007264 0.000000
0.007264 -0.000000
0.007264 0.000000
0.007264 -0.000000
0.007264 0.000000
0.007264 -0.000000
0.007264 0.000000
0.007264 -0.000000
0.007264 0.000000
0.007264 -0.000000
0.007264 0.000000
0.007264 -0.000000
0.007264 0.000000
0.007264 -0.000000
0.007264 0.000000
0.007264 -0.000000
0.007264 0.000000
0.007264 -0.000000
0.007264 0.000000
0.007264 -0.000000
0.007264 0.000000
0.007264 -0.000000
0.007264 0.000000
0.007264 -0.000000
0.007264 0.000000
0.007264 -0.000000
0.007264 0.000000
0.007264 -0.000000
0.007264 0.000000
0.007264 -0.000000
0.007264 0.000000
0.007264 -0.000000
0.007264 0.000000
0.007264 -0.000000
0.007264 0.000000
0.007264 -0.000000
0.007264 0.000000
0.007264 -0.000000
0.007264 0.000000
0.007264 -0.000000
0.007264 0.000000
0.007264 -0.000000
0.007264 0.000000
0.007264 -0.000000
0.007264 0.000000
0.007264 -0.000000
0.007264 0.000000
0.007264 -0.000000
0.007264 0.000000
0.007264 -0.000000
0.007264 0.000000
0.007264 -0.000000
0.007264 0.000000
0.007264 -0.000000
0.007264 0.000000
0.007264 -0.000000
0.007264 0.000000
0.007264 -0.000000
0.007264 0.000000
0.007264 -0.000000
0.007264 0.000000
0.007264 -0.000000
0.007264 0.000000
0.007264 -0.000000
0.007264 0.000000
0.007264 -0.000000
0.007264 0.000000
0.007264 -0.000000
0.007264 0.000000
0.007264 -0.000000
0.007264 0.000000
0.007264 -0.000000
0.007264 0.000000
0.007264 -0.000000
0.007264 0.000000
0.007264 -0.000000
0.007264 0.000000
0.007264 -0.000000
0.007264 0.000000
0.007264 -0.000000
0.007264 0.000000
0.007264 -0.000000
0.007264 0.000000
0.007264 -0.000000
0.007264 0.000000
0.007264 -0.000000
0.007264 0.000000
0.007264 -0.000000
0.007264 0.000000
0.007264 -0.000000
0.007264 0.000000
0.007264 -0.000000
0.007264 0.000000
0.007264 -0.000000
0.007264 0.000000
0.007264 -0.000000
0.007264 0.000000
0.007264 -0.000000
0.007264 0.000000
0.007264 -0.000000
0.007264 0.000000
0.007264 -0.000000
0.007264 0.000000
0.007264 -0.000000
0.007264 0.000000
0.007264 -0.000000
0.007264 0.000000
0.007264 -0.000000
0.007264 0.000000
0.007264 -0.000000
0.007264 0.000000
0.007264 -0.000000
0.007264 0.000000
0.007264 -0.000000
0.007264 0.000000
0.007264 -0.000000
0.007264 0.000000
0.007264 -0.000000
0.007264 0.000000
0.007264 -0.000000
0.007264 0.000000
0.007264 -0.000000
0.007264 0.000000
0.007264 -0.000000
0.007264 0.000000
0.007264 -0.000000
0.007264 0.000000
0.007264 -0.000000
0.007264 0.000000
0.007264 -0.000000
0.007264 0.000000
0.007264 -0.000000
0.007264 0.000000
0.007264 -0.000000
0.007264 0.000000
0.007264 -0.000000
0.007264 0.000000
0.007264 -0.000000
0.007264 0.000000
0.007264 -0.000000
0.007264 0.000000
0.007264 -0.000000
0.007264 0.000000
0.007264 -0.000000
0.007264 0.000000
0.007264 -0.000000
0.007264 0.000000
0.007264 -0.000000
0.007264 0.000000
0.007264 -0.000000
0.007264 0.000000
0.007264 -0.000000
0.007264 0.000000
0.007264 -0.000000
0.007264 0.000000
0.007264 -0.000000
0.007264 0.000000
0.007264 -0.000000
0.007264 0.000000
0.007264 -0.000000
0.007264 0.000000
0.007264 -0.000000
0.007264 0.000000
0.007264 -0.000000
0.007264 0.000000
0.007264 -0.000000
0.007264 0.000000
0.007264 -0.000000
0.007264 0.000000
0.007264 -0.000000
0.007264 0.000000
0.007264 -0.000000
0.007264 0.000000
0.007264 -0.000000
0.007264 0.000000
0.007264 -0.000000
0.007264 0.000000
0.007264 -0.000000
0.007264 0.000000
0.007264 -0.000000
0.007264 0.000000
0.007264 -0.000000
0.007264 0.000000
0.007264 -0.000000
0.007264 0.000000
0.007264 -0.000000
0.007264 -0.000000
0.007264 0.000000
0.007264 -0.000000
0.007264 0.000000
0.007264 -0.000000
0.007264 0.000000
0.007264 -0.000000
0.007264 -0.000000
0.007264 0.000000
0.007264 -0.000000
0.007264 0.000000
0.007264 -0.000001
0.007264 0.000001
0.007264 0.000002
0.007264 -0.000014
0.007264 0.000061
0.007264 -0.000188
0.007264 0.000423
0.007264 -0.000431
0.007263 -0.002089
0.007267 0.016925
0.007259 -0.075257
0.007257 0.254169
0.007340 -0.699226
0.006910 1.504736
0.008493 -1.865948
0.003888 -3.100227
0.011010 21.813134
0.044184 36.616113
0.069376 6.645228
0.006045 -177.500449
-0.190424 -75.265843
-0.095681 173.689988
0.039899 70.785524
0.060034 9.847506
0.068950 -23.111616
0.017454 -45.014528
0.002136 2.929907
0.007060 2.145026
0.005464 -1.538309
0.005962 0.716565
0.005811 -0.285185
0.005855 0.103798
0.005843 -0.035415
0.005846 0.011453
0.005845 -0.003526
0.005845 0.001033
0.005845 -0.000287
0.005845 0.000076
0.005845 -0.000019
0.005845 0.000005
0.005845 -0.000001
0.005845 0.000000
0.005845 -0.000000
0.005845 0.000000
0.005845 -0.000000
0.005845 0.000000
0.005845 0.000000
0.005845 -0.000000
0.005845 0.000000
0.005845 -0.000000
0.005845 0.000000
0.005845 -0.000000
0.005845 0.000000
0.005845 -0.000000
0.005845 -0.000000
0.005845 0.000000
0.005845 -0.000000
0.005845 0.000000
0.005845 -0.000000
0.005845 0.000000
0.005845 -0.000000
0.005845 0.000000
0.005845 -0.000000
0.005845 0.000000
0.005845 -0.000000
0.005845 0.000000
0.005845 -0.000000
0.005845 0.000000
0.005845 -0.000000
0.005845 0.000000
0.005845 -0.000000
0.005845 0.000000
0.005845 -0.000000
0.005845 0.000000
0.005845 -0.000000
0.005845 0.000000
0.005845 -0.000000
0.005845 0.000000
0.005845 -0.000000
0.005845 0.000000
0.005845 -0.000000
0.005845 0.000000
0.005845 -0.000000
0.005845 0.000000
0.005845 -0.000000
0.005845 0.000000
0.005845 -0.000000
0.005845 0.000000
0.005845 -0.000000
0.005845 0.000000
0.005845 -0.000000
0.005845 0.000000
0.005845 -0.000000
0.005845 0.000000
0.005845 -0.000000
0.005845 0.000000
0.005845 -0.000000
0.005845 0.000000
0.005845 -0.000000
0.005845 0.000000
0.005845 -0.000000
0.005845 0.000000
0.005845 -0.000000
0.005845 0.000000
0.005845 -0.000000
0.005845 0.000000
0.005845 -0.000000
0.005845 0.000000
0.005845 -0.000000
0.005845 0.000000
0.005845 -0.000000
0.005845 0.000000
0.005845 -0.000000
0.005845 0.000000
0.005845 -0.000000
0.005845 0.000000
0.005845 -0.000000
0.005845 0.000000
0.005845 -0.000000
0.005845 0.000000
0.005845 -0.000000
0.005845 0.000000
0.005845 -0.000000
0.005845 0.000000
0.005845 -0.000000
0.005845 0.000000
0.005845 -0.000000
0.005845 0.000000
0.005845 -0.000000
0.005845 0.000000
0.005845 -0.000000
0.005845 0.000000
0.005845 -0.000000
0.005845 0.000000
0.005845 -0.000000
0.005845 0.000000
0.005845 -0.000000
0.005845 0.000000
0.005845 -0.000000
0.005845 0.000000
0.005845 -0.000000
0.005845 0.000000
0.005845 -0.000000
0.005845 0.000000
0.005845 -0.000000
0.005845 0.000000
0.005845 -0.000000
0.005845 0.000000
0.005845 -0.000000
0.005845 0.000000
0.005845 -0.000000
0.005845 0.000000
0.005845 -0.000000
0.005845 0.000000
0.005845 -0.000000
0.005845 0.000000
0.005845 -0.000000
0.005845 0.000000
0.005845 -0.000000
0.005845 0.000000
0.005845 -0.000000
0.005845 0.000000
0.005845 -0.000000
0.005845 0.000000
0.005845 -0.000000
0.005845 0.000000
0.005845 -0.000000
0.005845 0.000000
0.005845 -0.000000
0.005845 0.000000
0.005845 -0.000000
0.005845 0.000000
0.005845 -0.000000
0.005845 0.000000
0.005845 -0.000000
0.005845 0.000000
0.005845 -0.000000
0.005845 0.000000
0.005845 -0.000000
0.005845 0.000000
0.005845 -0.000000
0.005845 0.000000
0.005845 -0.000000
0.005845 0.000000
0.005845 -0.000000
0.005845 0.000000
0.005845 -0.000000
0.005845 0.000000
0.005845 -0.000000
0.005845 0.000000
0.005845 -0.000000
0.005845 0.000000
0.005845 -0.000000
0.005845 0.000000
0.005845 -0.000000
0.005845 0.000000
0.005845 -0.000000
0.005845 0.000000
0.005845 -0.000000
0.005845 0.000000
0.005845 -0.000000
0.005845 0.000000
0.005845 -0.000000
0.005845 0.000000
0.005845 -0.000000
0.005845 0.000000
0.005845 -0.000000
0.005845 0.000000
0.005845 -0.000000
0.005845 0.000000
0.005845 -0.000000
0.005845 0.000000
0.005845 -0.000000
0.005845 0.000000
0.005845 -0.000000
0.005845 0.000000
0.005845 -0.000000
0.005845 0.000000
0.005845 -0.000000
0.005845 0.000000
0.005845 -0.000000
0.005845 0.000000
0.005845 -0.000000
0.005845 0.000000
0.005845 -0.000000
0.005845 0.000000
0.005845 -0.000000
0.005845 0.000000
0.005845 -0.000000
0.005845 0.000000
0.005845 -0.000000
0.005845 0.000000
0.005845 -0.000000
0.005845 0.000000
0.005845 -0.000000
0.005845 0.000000
0.005845 -0.000000
0.005845 0.000000
0.005845 -0.000000
0.005845 0.000000
0.005845 -0.000000
0.005845 0.000000
0.005845 -0.000000
0.005845 0.000000
0.005845 -0.000000
0.005845 0.000000
0.005845 -0.000000
0.005845 0.000000
0.005845 -0.000000
0.005845 0.000000
0.005845 -0.000000
0.005845 0.000000
0.005845 -0.000000
0.005845 0.000000
0.005845 -0.000000
0.005845 0.000000
0.005845 -0.000000
0.005845 0.000000
0.005845 -0.000000
0.005845 0.000000
0.005845 -0.000000
0.005845 0.000000
0.005845 -0.000000
0.005845 0.000000
0.005845 -0.000000
0.005845 0.000000
0.005845 -0.000000
0.005845 0.000000
0.005845 -0.000000
0.005845 0.000000
0.005845 -0.000000
0.005845 0.000000
0.005845 -0.000000
0.005845 0.000000
0.005845 -0.000000
0.005845 0.000000
0.005845 -0.000000
0.005845 0.000000
0.005845 -0.000000
0.005845 0.000000
0.005845 -0.000000
0.005845 0.000000
0.005845 -0.000000
0.005845 0.000000
0.005845 -0.000000
0.005845 0.000000
0.005845 -0.000000
0.005845 0.000000
0.005845 -0.000000
0.005845 0.000000
0.005845 -0.000000
0.005845 0.000000
0.005845 -0.000000
0.005845 0.000000
0.005845 -0.000000
0.005845 0.000000
0.005845 -0.000000
0.005845 0.000000
0.005845 -0.000000
0.005845 0.000000
0.005845 -0.000000
0.005845 0.000000
0.005845 -0.000000
0.005845 0.000000
0.005845 -0.000000
0.005845 0.000000
0.005845 -0.000000
0.005845 0.000000
0.005845 -0.000000
0.005845 0.000000
0.005845 -0.000000
0.005845 0.000000
0.005845 -0.000000
0.005845 0.000000
0.005845 -0.000000
0.005845 0.000000
0.005845 -0.000000
0.005845 0.000000
0.005845 -0.000000
0.005845 0.000000
0.005845 -0.000000
0.005845 0.000000
0.005845 -0.000000
0.005845 0.000000
0.005845 -0.000000
0.005845 0.000000
0.005845 -0.000000
0.005845 0.000000
0.005845 -0.000000
0.005845 0.000000
0.005845 -0.000000
0.005845 0.000000
0.005845 -0.000000
0.005845 0.000000
0.005845 -0.000000
0.005845 0.000000
0.005845 -0.000000
0.005845 0.000000
0.005845 -0.000000
0.005845 0.000000
0.005845 -0.000000
0.005845 0.000000
0.005845 -0.000000
0.005845 0.000000
0.005845 -0.000000
0.005845 0.000000
0.005845 -0.000000
0.005845 0.000000
0.005845 -0.000000
0.005845 0.000000
0.005845 -0.000000
0.005845 0.000000
0.005845 -0.000000
0.005845 0.000000
0.005845 -0.000000
0.005845 0.000000
0.005845 -0.000000
0.005845 0.000000
0.005845 -0.000000
0.005845 0.000000
0.005845 -0.000000
0.005845 0.000000
0.005845 -0.000000
0.005845 0.000000
0.005845 -0.000000
0.005845 0.000000
0.005845 -0.000000
0.005845 0.000000
0.005845 -0.000000
0.005845 0.000000
0.005845 -0.000000
0.005845 0.000000
0.005845 -0.000000
0.005845 0.000000
0.005845 -0.000000
0.005845 0.000000
0.005845 -0.000000
0.005845 0.000000
0.005845 -0.000000
0.005845 0.000000
0.005845 -0.000000
0.005845 0.000000
0.005845 -0.000000
0.005845 0.000000
0.005845 -0.000000
0.005845 0.000000
0.005845 -0.000000
0.005845 0.000000
0.005845 -0.000000
0.005845 0.000000
0.005845 -0.000000
0.005845 0.000000
0.005845 -0.000000
0.005845 0.000000
0.005845 -0.000000
0.005845 0.000000
0.005845 -0.000000
0.005845 0.000000
0.005845 -0.000000
0.005845 0.000000
0.005845 -0.000000
0.005845 0.000000
0.005845 -0.000000
0.005845 0.000000
0.005845 -0.000000
0.005845 0.000000
0.005845 -0.000000
0.005845 0.000000
0.005845 -0.000000
0.005845 0.000000
0.005845 -0.000000
0.005845 0.000000
0.005845 -0.000000
0.005845 0.000000
0.005845 -0.000000
0.005845 0.000000
0.005845 -0.000000
0.005845 0.000000
0.005845 -0.000000
0.005845 0.000000
0.005845 -0.000000
0.005845 0.000000
0.005845 -0.000000
0.005845 0.000000
0.005845 -0.000000
0.005845 0.000000
0.005845 -0.000000
-0.017527 -0.000000
