solsol_wf 1.06369901942
solta_wf 0.706529881105
gasgas_wf 0.969893219808
vasvas_wf 1.356900209
hamham_wf 0.763974980274
gluglu_wf 0.239836142123
tata_wl 2.28896209584
hfhf_wl 0.814836302757
hamhf_wl 1.72619449857
ta_bl 0.768361728595
hf_bl 0.752750997679
ham_bl 0.729549377568
kbodyweight 1.38739974583
kp 2.12771439067
kd 0.480302377827
kref 0.102446800191
deltas 0.194322976203
sol_activitybasal 0.0193589441461
ta_activitybasal 0.0599786602069
gas_activitybasal 0.010232862749
vas_activitybasal 0.0103907637346
ham_activitybasal 0.0402503444202
glu_activitybasal 0.0138077432973
hf_activitybasal 0.0159854869199
vas_activitybasal_stance 0.097757292169
bal_activitybasal_stance 0.044021992784
kphiknee 0.580963308216
klean 0.365912211399
