solsol_wf 1.41144669703
solta_wf 0.702335426694
gasgas_wf 0.75046238745
vasvas_wf 1.35523829158
hamham_wf 0.761743161554
gluglu_wf 0.301842619021
tata_wl 2.30248913593
hfhf_wl 0.524359520381
hamhf_wl 1.32713248458
ta_bl 0.818755575949
hf_bl 0.791950166237
ham_bl 0.785256380783
kbodyweight 0.899247400518
kp 2.21988520722
kd 0.419681095633
kref 0.0816766406202
deltas 0.464485386438
sol_activitybasal 0.0227066072894
ta_activitybasal 0.0937016171055
gas_activitybasal 0.037012442508
vas_activitybasal 0.014168272555
ham_activitybasal 0.0524072563183
glu_activitybasal 0.0440635610606
hf_activitybasal 0.0633503847227
vas_activitybasal_stance 0.10037481242
bal_activitybasal_stance 0.0981014030788
kphiknee 1.88386032715
klean 0.810692337005
