-0.050494 0.091769 -0.018486
0.550188 0.000000
0.550188 -0.000000
0.550188 0.000000
0.550188 -0.000000
0.550188 0.000000
0.550188 -0.000000
0.550188 0.000000
0.550188 -0.000000
0.550188 0.000000
0.550188 -0.000000
0.550188 0.000000
0.550188 -0.000000
0.550188 0.000000
0.550188 -0.000000
0.550188 0.000000
0.550188 -0.000000
0.550188 0.000000
0.550188 -0.000000
0.550188 0.000000
0.550188 -0.000000
0.550188 0.000000
0.550188 -0.000001
0.550188 0.000003
0.550188 -0.000010
0.550188 0.000035
0.550188 -0.000118
0.550188 0.000396
0.550188 -0.001305
0.550188 0.004205
0.550189 -0.013146
0.550185 0.039344
0.550201 -0.109835
0.550141 0.269374
0.550366 -0.472749
0.549155 -1.334018
0.547310 -3.349948
0.531143 -39.249732
0.472861 -62.773179
0.416636 -52.832662
0.365810 -46.727906
0.325056 -34.721399
0.294633 -27.704486
0.268035 -25.354756
0.243780 -23.284019
0.221280 -21.634072
0.200507 -19.868917
0.181527 -18.029758
0.164447 -16.081637
0.149347 -14.085702
0.136244 -12.101397
0.125097 -10.186087
0.115812 -8.390353
0.108242 -6.766865
0.102185 -5.381968
0.097362 -4.311864
0.093433 -3.599083
0.090053 -3.196615
0.086950 -3.044139
0.083867 -3.166325
0.080478 -3.686288
0.076335 -4.664246
0.071044 -5.929951
0.064425 -7.309849
0.056385 -8.764305
0.046863 -10.264913
0.035827 -11.789144
0.023261 -13.313636
0.009189 -14.789248
-0.006337 -16.235472
-0.023319 -17.695737
-0.041759 -19.140411
-0.061619 -20.527630
-0.082841 -21.873491
-0.105370 -23.100214
-0.129113 -24.402271
-0.154071 -25.249190
-0.179878 -26.744662
-0.209296 -33.280205
-0.243472 -30.724416
-0.273568 -36.446317
-0.331856 -88.376923
-0.444371 -121.943138
-0.564747 -121.824398
-0.687651 -119.868919
-0.801312 -107.685183
-0.904409 -99.014096
-1.000474 -93.148680
-1.091539 -89.220502
-1.179739 -87.226371
-1.266622 -86.597462
-1.353483 -87.095037
-1.441208 -88.255987
-1.530278 -89.735372
-1.620885 -91.294758
-1.713010 -92.733525
-1.806436 -93.867975
-1.900783 -94.547917
-1.995533 -94.662956
-2.090097 -94.176574
-2.183878 -93.101734
-2.276300 -91.464409
-2.366812 -89.292624
-2.454886 -86.589051
-2.540008 -83.419952
-2.621710 -79.702212
-2.699248 -75.011838
-2.771576 -69.398488
-2.838102 -63.540919
-2.898800 -57.729164
-2.953657 -51.860816
-3.002612 -45.950033
-3.045637 -40.002738
-3.082679 -34.001522
-3.113703 -27.986775
-3.138713 -21.984169
-3.157722 -16.001458
-3.170761 -10.057695
-3.177877 -4.170634
-3.179135 1.643599
-3.174615 7.371025
-3.164415 12.986490
-3.148665 18.455022
-3.127525 23.751738
-3.101182 28.844483
-3.069851 33.721609
-3.033743 38.384400
-2.993080 42.822877
-2.948086 47.038854
-2.898984 51.025710
-2.846017 54.758997
-2.789444 58.230372
-2.729527 61.439061
-2.666533 64.379209
-2.600731 67.046042
-2.532395 69.447633
-2.461787 71.578251
-2.389178 73.460321
-2.314801 75.099442
-2.238924 76.453987
-2.161825 77.554262
-2.083742 78.407681
-2.004927 79.037144
-1.925573 79.476121
-1.845899 79.664612
-1.766166 79.609736
-1.686586 79.356922
-1.607355 78.919923
-1.528645 78.313683
-1.450618 77.565200
-1.373394 76.712440
-1.297075 75.753549
-1.221769 74.693850
-1.147565 73.553496
-1.074528 72.372747
-1.002698 71.120086
-0.932179 69.768374
-0.863037 68.371253
-0.795318 66.919292
-0.729084 65.409383
-0.664381 63.859643
-0.601250 62.268903
-0.539731 60.640629
-0.479861 58.973528
-0.421671 57.293022
-0.365165 55.596416
-0.310381 53.855378
-0.257357 52.082485
-0.206124 50.274716
-0.156716 48.440787
-0.109155 46.577093
-0.063486 44.659449
-0.020152 41.527150
0.018450 34.795873
0.048600 25.337975
0.069243 16.079446
0.081107 7.769663
0.085194 0.646013
0.082824 -5.208989
0.075182 -9.815952
0.063606 -13.122833
0.049266 -15.361969
0.033153 -16.697518
0.016075 -17.323046
-0.001330 -17.356940
-0.018498 -16.862675
-0.034947 -15.941933
-0.050299 -14.677474
-0.064240 -13.137957
-0.076533 -11.395141
-0.087007 -9.513739
-0.095554 -7.555444
-0.102125 -5.575202
-0.106733 -3.646103
-0.109458 -1.816615
-0.110407 -0.100787
-0.109704 1.482125
-0.107479 2.948369
-0.103834 4.316675
-0.098876 5.567940
-0.092724 6.709393
-0.085475 7.756301
-0.077230 8.699446
-0.068096 9.532022
-0.058186 10.249932
-0.047608 10.871782
-0.036450 11.405430
-0.024805 11.844802
-0.012763 12.203090
-0.000400 12.487039
0.012213 12.704260
0.025016 12.865497
0.037954 12.978552
0.050985 13.051671
0.064072 13.090890
0.077184 13.101738
0.090294 13.087735
0.103378 13.051802
0.116417 12.996100
0.129390 12.921900
0.142281 12.829855
0.155070 12.721374
0.167744 12.597286
0.180286 12.462364
0.192691 12.319775
0.204948 12.168175
0.217051 12.014680
0.229001 11.861497
0.240797 11.707618
0.252442 11.559065
0.263940 11.416090
0.275298 11.278345
0.286528 11.164538
0.297655 11.066319
0.308682 10.968196
0.319616 10.878983
0.330464 10.793899
0.341227 10.713545
0.351915 10.640959
0.362533 10.576167
0.373089 10.512322
0.383573 10.432042
0.393890 10.101656
0.403810 9.810590
0.413598 9.721736
0.423255 9.578614
0.432775 9.437444
0.442141 9.274851
0.451339 9.099564
0.460355 8.914222
0.469140 8.592847
0.477542 8.221991
0.485659 8.025088
0.493578 7.737139
0.501135 7.409719
0.508455 7.211819
0.515575 7.017477
0.522493 6.789379
0.529192 6.637042
0.535651 6.096355
0.541282 5.210051
0.545970 3.991800
0.549005 1.968584
0.550061 0.391702
0.550183 -0.003333
0.550188 0.004681
0.550188 -0.001335
0.550188 0.000390
0.550188 -0.000116
0.550188 0.000035
0.550188 -0.000011
0.550188 0.000003
0.550188 -0.000001
0.550188 0.000000
0.550188 -0.000000
0.550188 0.000000
0.550188 -0.000000
0.550188 0.000000
0.550188 -0.000000
0.550188 0.000000
0.550188 -0.000000
0.550188 0.000000
0.550188 -0.000000
0.550188 0.000000
0.550188 -0.000000
0.550188 0.000000
0.550188 -0.000000
0.550188 0.000000
0.550188 -0.000000
0.550188 0.000000
0.550188 -0.000000
0.550188 0.000000
0.550188 -0.000000
0.550188 0.000000
0.550188 -0.000000
0.550188 0.000000
0.550188 -0.000000
0.550188 0.000000
0.550188 -0.000000
0.550188 0.000000
0.550188 -0.000000
0.550188 0.000000
0.550188 -0.000000
0.550188 0.000000
0.550188 -0.000000
0.550188 0.000000
0.550188 -0.000000
0.550188 0.000000
0.550188 -0.000000
0.550188 0.000000
0.550188 -0.000000
0.550188 0.000000
0.550188 -0.000000
0.550188 0.000000
0.550188 -0.000000
0.550188 0.000000
0.550188 -0.000000
0.550188 0.000000
0.550188 -0.000000
0.550188 0.000000
0.550188 -0.000000
0.550188 0.000000
0.550188 -0.000000
0.550188 0.000000
0.550188 -0.000000
0.550188 0.000000
0.550188 -0.000000
0.550188 0.000000
0.550188 -0.000000
0.550188 0.000000
0.550188 -0.000000
0.550188 0.000000
0.550188 -0.000000
0.550188 0.000000
0.550188 -0.000000
0.550188 0.000000
0.550188 -0.000000
0.550188 0.000000
0.550188 -0.000000
0.550188 0.000000
0.550188 -0.000000
0.550188 0.000000
0.550188 -0.000000
0.550188 0.000000
0.550188 -0.000000
0.550188 0.000000
0.550188 -0.000000
0.550188 0.000000
0.550188 -0.000000
0.550188 0.000000
0.550188 -0.000000
0.550188 0.000000
0.550188 -0.000000
0.550188 0.000000
0.550188 -0.000000
0.550188 0.000000
0.550188 -0.000000
0.550188 0.000000
0.550188 -0.000000
0.550188 0.000000
0.550188 -0.000000
0.550188 0.000000
0.550188 -0.000000
0.550188 0.000000
0.550188 -0.000000
0.550188 0.000000
0.550188 -0.000000
0.550188 0.000000
0.550188 -0.000000
0.550188 0.000000
0.550188 -0.000000
0.550188 0.000000
0.550188 -0.000000
0.550188 0.000000
0.550188 -0.000000
0.550188 0.000000
0.550188 -0.000000
0.550188 0.000000
0.550188 -0.000000
0.550188 0.000000
0.550188 -0.000000
0.550188 0.000000
0.550188 -0.000000
0.550188 0.000000
0.550188 -0.000000
0.550188 0.000000
0.550188 -0.000000
0.550188 0.000000
0.550188 -0.000000
0.550188 0.000000
0.550188 -0.000000
0.550188 0.000000
0.550188 -0.000000
0.550188 0.000000
0.550188 -0.000000
0.550188 0.000000
0.550188 0.000000
0.550188 -0.000000
0.550188 0.000000
0.550188 -0.000000
0.550188 0.000000
0.550188 -0.000000
0.550188 0.000000
0.550188 -0.000000
0.550188 0.000000
0.550188 -0.000000
0.550188 0.000000
0.550188 -0.000000
0.550188 0.000000
0.550188 -0.000000
0.550188 0.000000
0.550188 -0.000000
0.550188 0.000000
0.550188 -0.000000
0.550188 0.000000
0.550188 -0.000000
0.550188 0.000000
0.550188 -0.000000
0.550188 0.000000
0.550188 -0.000000
0.550188 0.000000
0.550188 -0.000000
0.550188 0.000000
0.550188 -0.000000
0.550188 0.000000
0.550188 -0.000000
0.550188 0.000000
0.550188 -0.000000
0.550188 0.000000
0.550188 -0.000000
0.550188 0.000000
0.550188 -0.000000
0.550188 0.000000
0.550188 -0.000000
0.550188 0.000000
0.550188 -0.000000
0.550188 0.000000
0.550188 -0.000000
0.550188 0.000000
0.550188 -0.000000
0.550188 0.000000
0.550188 -0.000000
0.550188 0.000000
0.550188 -0.000000
0.550188 0.000000
0.550188 -0.000000
0.550188 0.000000
0.550188 -0.000000
0.550188 0.000000
0.550188 -0.000000
0.550188 0.000000
0.550188 -0.000000
0.550188 0.000000
0.550188 -0.000000
0.550188 0.000000
0.550188 -0.000000
0.550188 0.000000
0.550188 -0.000000
0.550188 0.000000
0.550188 -0.000000
0.550188 0.000000
0.550188 -0.000000
0.550188 0.000000
0.550188 -0.000000
0.550188 0.000000
0.550188 -0.000000
0.550188 0.000000
0.550188 -0.000000
0.550188 0.000000
0.550188 -0.000000
0.550188 0.000000
0.550188 -0.000000
0.550188 0.000000
0.550188 -0.000000
0.550188 0.000000
0.550188 -0.000000
0.550188 0.000000
0.550188 -0.000000
0.550188 0.000000
0.550188 -0.000000
0.550188 0.000000
0.550188 -0.000000
0.550188 0.000000
0.550188 -0.000000
0.550188 0.000000
0.550188 -0.000000
0.550188 0.000000
0.550188 -0.000000
0.550188 0.000000
0.550188 -0.000000
0.550188 0.000000
0.550188 -0.000000
0.550188 0.000000
0.550188 -0.000000
0.550188 0.000000
0.550188 -0.000000
0.550188 0.000000
0.550188 -0.000000
0.550188 0.000000
0.550188 -0.000000
0.550188 0.000000
0.550188 -0.000000
0.550188 0.000000
0.550188 -0.000000
0.550188 0.000000
0.550188 -0.000000
0.550188 0.000000
0.550188 -0.000000
0.550188 0.000000
0.550188 -0.000000
0.550188 0.000000
0.550188 -0.000000
0.550188 0.000000
0.550188 -0.000000
0.550188 0.000000
0.550188 -0.000000
0.550188 0.000000
0.550188 -0.000000
0.550188 0.000000
0.550188 -0.000001
0.550188 0.000003
0.550188 -0.000010
0.550188 0.000034
0.550188 -0.000114
0.550188 0.000375
0.550188 -0.001211
0.550188 0.003783
0.550189 -0.011257
0.550185 0.030937
0.550198 -0.085204
0.549874 -0.619624
0.549066 -0.828292
0.548343 -0.656733
0.547598 -0.946485
0.546187 -2.019386
0.543769 -2.450467
0.537835 -13.209262
0.511671 -40.909407
0.460993 -53.449235
0.410929 -47.217126
0.366511 -40.843895
0.329616 -33.103179
0.299413 -27.835965
0.273083 -24.981853
0.249114 -22.981834
0.226967 -21.301064
0.206452 -19.673463
0.187606 -17.969448
0.170498 -16.201845
0.155181 -14.403359
0.141652 -12.635731
0.129857 -10.949692
0.119688 -9.391394
0.110996 -8.010237
0.103574 -6.861656
0.097164 -5.997272
0.091467 -5.434161
0.086194 -5.142090
0.081091 -5.094598
0.075904 -5.320147
0.070318 -5.911310
0.063946 -6.871977
0.056489 -8.046533
0.047791 -9.357769
0.037747 -10.693464
0.026318 -12.224921
0.013414 -13.330781
-0.000729 -15.510438
-0.017914 -18.517882
-0.037266 -19.920605
-0.057642 -20.864586
-0.079104 -22.009737
-0.101706 -23.156786
-0.125441 -24.233149
-0.150270 -25.456654
-0.176233 -26.166189
-0.203041 -28.034794
-0.232545 -30.459237
-0.264321 -33.783170
-0.299506 -35.090609
-0.337382 -44.817891
-0.398673 -82.843450
-0.500379 -112.311069
-0.616043 -119.369471
-0.736689 -118.431879
-0.850169 -108.576708
-0.954678 -100.574378
-1.052153 -94.473904
-1.144487 -90.387467
-1.233722 -88.138162
-1.321391 -87.240480
-1.408739 -87.424038
-1.496639 -88.282278
-1.585591 -89.474875
-1.675798 -90.759010
-1.767259 -91.946192
-1.859775 -92.834219
-1.952963 -93.273019
-2.046339 -93.204858
-2.139379 -92.596525
-2.231530 -91.427587
-2.322224 -89.679425
-2.410887 -87.388011
-2.497007 -84.591406
-2.580084 -81.328384
-2.659657 -77.558565
-2.735074 -72.942907
-2.805389 -67.429332
-2.869944 -61.544711
-2.928598 -55.646918
-2.981341 -49.726818
-3.028142 -43.780685
-3.068986 -37.819928
-3.103849 -31.832199
-3.132713 -25.840829
-3.155588 -19.866837
-3.172495 -13.918734
-3.183469 -8.018088
-3.188568 -2.179727
-3.187858 3.582859
-3.181427 9.250204
-3.169378 14.800408
-3.151845 20.203419
-3.128989 25.432659
-3.100995 30.464139
-3.068072 35.277824
-3.030449 39.849365
-2.988374 44.182160
-2.942070 48.294323
-2.891766 52.172545
-2.837705 55.799695
-2.780140 59.172077
-2.719329 62.283194
-2.655539 65.126011
-2.589036 67.701574
-2.520087 70.016423
-2.448951 72.068182
-2.375889 73.872115
-2.301141 75.427315
-2.224971 76.719021
-2.147633 77.761745
-2.069373 78.561209
-1.990424 79.148241
-1.910987 79.529511
-1.831285 79.672551
-1.751558 79.588885
-1.672015 79.304652
-1.592850 78.840742
-1.514231 78.212706
-1.436315 77.442263
-1.359228 76.562499
-1.283073 75.576304
-1.207956 74.492579
-1.133965 73.329553
-1.061167 72.115136
-0.989616 70.824716
-0.919405 69.446572
-0.850601 68.016500
-0.783255 66.530987
-0.717423 64.993283
-0.653196 63.283451
-0.590760 61.482920
-0.530111 59.668876
-0.471349 57.715673
-0.414580 55.715278
-0.359798 53.739581
-0.306984 51.790892
-0.256145 49.745317
-0.207437 47.571058
-0.160891 45.446443
-0.116449 43.333995
-0.074263 40.842948
-0.035172 36.882074
-0.001329 30.212076
0.024602 21.412515
0.041620 12.855316
0.050810 5.711703
0.053450 -0.245849
0.050742 -4.933420
0.043988 -8.378947
0.034312 -10.790952
0.022674 -12.336790
0.009850 -13.176284
-0.003515 -13.445153
-0.016914 -13.252548
-0.029910 -12.650962
-0.042126 -11.706235
-0.053256 -10.492563
-0.063068 -9.083803
-0.071396 -7.535956
-0.078127 -5.904614
-0.083206 -4.241292
-0.086624 -2.595916
-0.088426 -1.020634
-0.088700 0.456071
-0.087548 1.828300
-0.085077 3.089380
-0.081399 4.243850
-0.076609 5.312529
-0.070793 6.291006
-0.064044 7.181421
-0.056443 7.991607
-0.048074 8.714946
-0.039026 9.348115
-0.029390 9.889020
-0.019255 10.348198
-0.008696 10.737813
0.002218 11.054757
0.013415 11.307533
0.024837 11.505135
0.036431 11.652404
0.048152 11.758640
0.059960 11.830397
0.071827 11.875388
0.083727 11.896586
0.095638 11.900267
0.107545 11.886317
0.119430 11.857947
0.131281 11.817326
0.143084 11.762713
0.154826 11.695976
0.166495 11.618740
0.178083 11.528964
0.189572 11.426490
0.200957 11.318617
0.212230 11.205739
0.223389 11.088168
0.234429 10.971119
0.245354 10.858137
0.256167 10.744926
0.266868 10.638267
0.277466 10.534335
0.287963 10.447317
0.298387 10.375888
0.308737 10.306661
0.319024 10.246961
0.329253 10.193130
0.339433 10.146011
0.349569 10.108269
0.359671 10.075895
0.369741 10.046424
0.379780 10.004545
0.389765 9.947349
0.399685 9.861816
0.409502 9.756368
0.419217 9.650259
0.428808 9.501447
0.438252 9.392628
0.447553 9.106640
0.456469 8.777018
0.465181 8.617481
0.473709 8.420446
0.482043 8.235534
0.490158 7.934188
0.497926 7.630293
0.505474 7.445848
0.512827 7.242909
0.519968 7.021399
0.526830 6.638184
0.533289 6.350097
0.539454 5.797075
0.544653 4.518179
0.548321 2.704597
0.550012 0.724959
0.550174 -0.052846
0.550192 0.025929
0.550187 -0.009834
0.550188 0.003417
0.550188 -0.001127
0.550188 0.000359
0.550188 -0.000112
0.550188 0.000034
0.550188 -0.000010
0.550188 0.000003
0.550188 -0.000001
0.550188 0.000000
0.550188 -0.000000
0.550188 0.000000
0.550188 -0.000000
0.550188 0.000000
0.550188 -0.000000
0.550188 0.000000
0.550188 -0.000000
0.550188 0.000000
0.550188 -0.000000
0.550188 0.000000
0.550188 -0.000000
0.550188 0.000000
0.550188 -0.000000
0.550188 0.000000
0.550188 -0.000000
0.550188 0.000000
0.550188 -0.000000
0.550188 0.000000
0.550188 -0.000000
0.550188 0.000000
0.550188 -0.000000
0.550188 0.000000
0.550188 -0.000000
0.550188 0.000000
0.550188 -0.000000
0.550188 0.000000
0.550188 -0.000000
0.550188 0.000000
0.550188 -0.000000
0.550188 0.000000
0.550188 -0.000000
0.550188 0.000000
0.550188 -0.000000
0.550188 0.000000
0.550188 -0.000000
0.550188 0.000000
0.550188 -0.000000
0.550188 0.000000
0.550188 -0.000000
0.550188 0.000000
0.550188 -0.000000
0.550188 0.000000
0.550188 -0.000000
0.550188 0.000000
0.550188 -0.000000
0.550188 0.000000
0.550188 -0.000000
0.550188 0.000000
0.550188 -0.000000
0.550188 0.000000
0.550188 -0.000000
0.550188 0.000000
0.550188 -0.000000
0.550188 0.000000
0.550188 -0.000000
0.550188 0.000000
0.550188 -0.000000
0.550188 0.000000
0.550188 -0.000000
0.550188 0.000000
0.550188 -0.000000
0.550188 0.000000
0.550188 -0.000000
0.550188 0.000000
0.550188 -0.000000
0.550188 0.000000
0.550188 -0.000000
0.550188 0.000000
0.550188 -0.000000
0.550188 0.000000
0.550188 -0.000000
0.550188 0.000000
0.550188 -0.000000
0.550188 0.000000
0.550188 -0.000000
0.550188 0.000000
0.550188 -0.000000
0.550188 0.000000
0.550188 -0.000000
0.550188 0.000000
0.550188 -0.000000
0.550188 0.000000
0.550188 -0.000000
0.550188 0.000000
0.550188 -0.000000
0.550188 0.000000
0.550188 -0.000000
0.550188 0.000000
0.550188 -0.000000
0.550188 0.000000
0.550188 -0.000000
0.550188 0.000000
0.550188 -0.000000
0.550188 0.000000
0.550188 -0.000000
0.550188 0.000000
0.550188 -0.000000
0.550188 0.000000
0.550188 -0.000000
0.550188 0.000000
0.550188 -0.000000
0.550188 0.000000
0.550188 -0.000000
0.550188 0.000000
0.550188 -0.000000
0.550188 0.000000
0.550188 -0.000000
0.550188 0.000000
0.550188 -0.000000
0.550188 0.000000
0.550188 -0.000000
0.550188 0.000000
0.550188 -0.000000
0.550188 0.000000
0.550188 -0.000000
0.550188 0.000000
0.550188 -0.000000
0.550188 0.000000
0.550188 -0.000000
0.550188 0.000000
0.550188 -0.000000
0.550188 0.000000
0.550188 -0.000000
0.550188 0.000000
0.550188 -0.000000
0.550188 0.000000
0.550188 -0.000000
0.550188 0.000000
0.550188 -0.000000
0.550188 0.000000
0.550188 -0.000000
0.550188 0.000000
0.550188 -0.000000
0.550188 0.000000
0.550188 -0.000000
0.550188 0.000000
0.550188 -0.000000
0.550188 0.000000
0.550188 -0.000000
0.550188 0.000000
0.550188 -0.000000
0.550188 0.000000
0.550188 -0.000000
0.550188 0.000000
0.550188 -0.000000
0.550188 0.000000
0.550188 -0.000000
0.550188 0.000000
0.550188 -0.000000
0.550188 0.000000
0.550188 -0.000000
0.550188 0.000000
0.550188 -0.000000
0.550188 0.000000
0.550188 -0.000000
0.550188 0.000000
0.550188 -0.000000
0.550188 0.000000
0.550188 -0.000000
0.550188 0.000000
0.550188 -0.000000
0.550188 0.000000
0.550188 -0.000000
0.550188 0.000000
0.550188 -0.000000
0.550188 0.000000
0.550188 -0.000000
0.550188 0.000000
0.550188 -0.000000
0.550188 0.000000
0.550188 -0.000000
0.550188 0.000000
0.550188 -0.000000
0.550188 0.000000
0.550188 -0.000000
0.550188 0.000000
0.550188 -0.000000
0.550188 0.000000
0.550188 -0.000000
0.550188 0.000000
0.550188 -0.000000
0.550188 0.000000
0.550188 -0.000000
0.550188 0.000000
0.550188 -0.000000
0.550188 0.000000
0.550188 -0.000000
0.550188 0.000000
0.550188 -0.000000
0.550188 0.000000
0.550188 -0.000000
0.550188 0.000000
0.550188 -0.000000
0.550188 0.000000
0.550188 -0.000000
0.550188 0.000000
0.550188 -0.000000
0.550188 0.000000
0.550188 -0.000000
0.550188 0.000000
0.550188 -0.000000
0.550188 0.000000
0.550188 -0.000000
0.550188 0.000000
0.550188 -0.000000
0.550188 0.000000
0.550188 -0.000000
0.550188 0.000000
0.550188 -0.000000
0.550188 0.000000
0.550188 -0.000000
0.550188 0.000000
0.550188 -0.000000
0.550188 0.000000
0.550188 -0.000000
0.550188 0.000000
0.550188 -0.000000
0.550188 0.000000
0.550188 -0.000000
0.550188 0.000000
0.550188 -0.000000
0.550188 0.000000
0.550188 -0.000000
0.550188 0.000000
0.550188 0.000000
