0.026746 0.053456 0.000020
0.149039 10.449925
0.207264 96.638691
0.324000 127.354391
0.453678 132.446191
0.589999 140.058477
0.731801 140.853088
0.878992 162.641388
1.027769 95.598368
1.067463 19.811978
1.094053 23.805736
1.109054 9.613248
1.116426 4.793626
1.118709 0.148519
1.115690 -7.593814
1.102286 -18.991404
1.077737 -30.185585
1.041876 -41.314511
0.995395 -51.333066
0.939646 -59.737975
0.876437 -66.232134
0.807668 -70.871708
0.735100 -73.869625
0.660182 -75.666126
0.583864 -76.721142
0.506758 -77.260513
0.429318 -77.410829
0.351874 -77.283666
0.274650 -76.993092
0.197840 -76.384342
0.121937 -75.151118
0.047578 -73.345138
-0.024751 -71.092129
-0.094641 -68.515488
-0.161835 -65.685479
-0.225817 -61.878548
-0.285724 -58.096905
-0.342085 -54.190144
-0.394038 -49.759283
-0.442130 -46.606225
-0.483305 -31.350579
-0.501283 -5.272112
-0.500082 2.161134
-0.500422 -0.794235
-0.500330 0.271186
-0.500355 -0.088490
-0.500348 0.027999
-0.500350 -0.008664
-0.500350 0.002636
-0.500350 -0.000791
-0.500350 0.000235
-0.500350 -0.000069
-0.500350 0.000020
-0.500350 -0.000006
-0.500350 0.000002
-0.500350 -0.000000
-0.500350 0.000000
-0.500350 0.000000
-0.500350 -0.000001
-0.500350 0.000003
-0.500350 -0.000011
-0.500350 0.000035
-0.500350 -0.000107
-0.500350 0.000308
-0.500350 -0.000809
-0.500350 0.001733
-0.500348 -0.001618
-0.500356 -0.012244
-0.500327 0.114591
-0.500436 -0.687157
-0.499533 5.013409
-0.486602 22.095287
-0.458975 28.158298
-0.433325 24.943229
-0.407855 25.273825
-0.383304 23.873479
-0.360067 22.452161
-0.338444 20.764462
-0.318356 19.498911
-0.299534 17.852701
-0.282476 16.622752
-0.264716 20.003707
-0.242060 24.490731
-0.217451 23.686604
-0.196358 17.730048
-0.182431 10.348342
-0.174996 4.898520
-0.171989 1.354203
-0.172443 -2.663388
-0.178017 -8.767771
-0.190133 -15.281438
-0.208130 -20.355006
-0.230418 -24.035258
-0.256118 -27.323544
-0.284905 -29.968075
-0.315793 -31.651494
-0.347942 -32.348147
-0.380300 -32.282693
-0.412228 -31.184806
-0.443398 -32.083672
-0.475261 -29.389386
-0.497206 -11.618824
-0.500375 0.596704
-0.500332 -0.139412
-0.500354 0.023513
-0.500349 -0.002660
-0.500350 -0.000245
-0.500350 0.000317
-0.500350 -0.000151
-0.500350 0.000058
-0.500350 -0.000020
-0.500350 0.000007
-0.500350 -0.000002
-0.500350 0.000001
-0.500350 -0.000000
-0.500350 0.000000
-0.500350 -0.000000
-0.500350 0.000000
-0.500350 -0.000000
-0.500350 0.000000
-0.500350 -0.000000
-0.500350 0.000000
-0.500350 -0.000000
-0.500350 0.000000
-0.500350 -0.000000
-0.500350 0.000000
-0.500350 -0.000000
-0.500350 0.000000
-0.500350 -0.000000
-0.500350 0.000000
-0.500350 -0.000000
-0.500350 0.000000
-0.500350 -0.000000
-0.500350 0.000000
-0.500350 -0.000000
-0.500350 0.000000
-0.500350 -0.000000
-0.500350 0.000000
-0.500350 -0.000000
-0.500350 0.000000
-0.500350 -0.000000
-0.500350 0.000000
-0.500350 -0.000000
-0.500350 0.000000
-0.500350 -0.000000
-0.500350 0.000000
-0.500350 -0.000000
-0.500350 0.000000
-0.500350 -0.000000
-0.500350 0.000000
-0.500350 -0.000000
-0.500350 0.000001
-0.500350 -0.000002
-0.500350 0.000006
-0.500350 -0.000020
-0.500350 0.000066
-0.500350 -0.000216
-0.500350 0.000699
-0.500350 -0.002216
-0.500350 0.006827
-0.500348 -0.020180
-0.500356 0.055855
-0.500326 -0.137082
-0.500437 0.251680
-0.499198 2.510439
-0.494719 6.842043
-0.485641 10.751633
-0.474369 11.138992
-0.463876 9.922164
-0.454272 9.403953
-0.444882 9.385963
-0.435518 9.258625
-0.426380 9.030495
-0.417456 8.751571
-0.408949 8.205958
-0.401135 7.336632
-0.394289 6.383235
-0.388346 5.460757
-0.383400 4.407918
-0.379508 3.394091
-0.376557 2.522983
-0.374413 1.783889
-0.372943 1.174037
-0.372027 0.671779
-0.371584 0.210197
-0.371644 -0.364106
-0.372344 -1.030993
-0.373677 -1.604708
-0.375522 -2.074354
-0.377817 -2.507079
-0.380548 -2.960752
-0.383787 -3.542371
-0.387715 -4.349518
-0.392575 -5.394980
-0.398569 -6.600177
-0.405805 -7.855951
-0.414284 -9.071974
-0.423918 -10.142007
-0.434547 -11.090529
-0.446010 -11.704772
-0.457906 -12.097648
-0.470180 -12.343301
-0.482503 -12.244348
-0.493551 -8.721025
-0.499148 -2.758027
-0.500206 -0.191742
-0.500346 -0.063478
-0.500350 0.013746
-0.500350 -0.003314
-0.500350 0.000787
-0.500350 -0.000183
-0.500350 0.000041
-0.500350 -0.000009
-0.500350 0.000002
-0.500350 -0.000000
-0.500350 0.000000
-0.500350 -0.000000
-0.500350 -0.000000
-0.500350 0.000000
-0.500350 -0.000000
-0.500350 0.000000
-0.500350 -0.000000
-0.500350 0.000000
-0.500350 -0.000000
-0.500350 0.000000
-0.500350 -0.000000
-0.500350 0.000000
-0.500350 -0.000000
-0.500350 0.000000
-0.500350 -0.000000
-0.500350 0.000000
-0.500350 -0.000000
-0.500350 0.000000
-0.500350 -0.000000
-0.500350 0.000000
-0.500350 -0.000000
-0.500350 0.000000
-0.500350 -0.000000
-0.500350 0.000000
-0.500350 -0.000000
-0.500350 0.000000
-0.500350 -0.000000
-0.500350 0.000000
-0.500350 -0.000000
-0.500350 0.000000
-0.500350 -0.000000
-0.500350 0.000000
-0.500350 -0.000000
-0.500350 0.000000
-0.500350 -0.000000
-0.500350 0.000000
-0.500350 -0.000000
-0.500350 0.000000
-0.500350 -0.000000
-0.500350 0.000000
-0.500350 -0.000000
-0.500350 0.000000
-0.500350 -0.000000
-0.500350 0.000000
-0.500350 -0.000000
-0.500350 0.000000
-0.500350 -0.000000
-0.500350 0.000000
-0.500350 -0.000000
-0.500350 0.000000
-0.500350 -0.000000
-0.500350 0.000000
-0.500350 -0.000000
-0.500350 0.000000
-0.500350 -0.000000
-0.500350 0.000000
-0.500350 -0.000000
-0.500350 0.000000
-0.500350 -0.000000
-0.500350 0.000000
-0.500350 -0.000000
-0.500350 0.000000
-0.500350 -0.000000
-0.500350 0.000000
-0.500350 -0.000000
-0.500350 0.000000
-0.500350 -0.000000
-0.500350 0.000000
-0.500350 -0.000000
-0.500350 0.000000
-0.500350 -0.000000
-0.500350 0.000000
-0.500350 -0.000000
-0.500350 0.000000
-0.500350 -0.000000
-0.500350 0.000000
-0.500350 -0.000000
-0.500350 0.000000
-0.500350 -0.000000
-0.500350 0.000000
-0.500350 -0.000000
-0.500350 0.000000
-0.500350 -0.000000
-0.500350 0.000000
-0.500350 -0.000000
-0.500350 0.000000
-0.500350 -0.000000
-0.500350 0.000000
-0.500350 -0.000000
-0.500350 0.000000
-0.500350 -0.000000
-0.500350 0.000000
-0.500350 -0.000000
-0.500350 0.000000
-0.500350 -0.000000
-0.500350 0.000000
-0.500350 -0.000000
-0.500350 0.000000
-0.500350 -0.000000
-0.500350 0.000000
-0.500350 -0.000000
-0.500350 0.000000
-0.500350 -0.000000
-0.500350 0.000000
-0.500350 -0.000000
-0.500350 0.000000
-0.500350 -0.000000
-0.500350 0.000000
-0.500350 -0.000000
-0.500350 0.000000
-0.500350 -0.000000
-0.500350 0.000000
-0.500350 -0.000000
-0.500350 0.000000
-0.500350 -0.000000
-0.500350 0.000000
-0.500350 -0.000000
-0.500350 0.000000
-0.500350 -0.000000
-0.500350 0.000000
-0.500350 -0.000000
-0.500350 0.000000
-0.500350 -0.000000
-0.500350 0.000000
-0.500350 -0.000000
-0.500350 0.000000
-0.500350 -0.000000
-0.500350 0.000000
-0.500350 -0.000000
-0.500350 0.000000
-0.500350 -0.000000
-0.500350 0.000000
-0.500350 -0.000000
-0.500350 0.000000
-0.500350 -0.000000
-0.500350 0.000000
-0.500350 -0.000000
-0.500350 0.000000
-0.500350 -0.000000
-0.500350 0.000000
-0.500350 -0.000000
-0.500350 0.000000
-0.500350 -0.000000
-0.500350 0.000000
-0.500350 -0.000000
-0.500350 0.000000
-0.500350 -0.000000
-0.500350 0.000000
-0.500350 -0.000000
-0.500350 0.000000
-0.500350 -0.000000
-0.500350 0.000000
-0.500350 -0.000000
-0.500350 0.000000
-0.500350 -0.000000
-0.500350 0.000000
-0.500350 -0.000000
-0.500350 0.000000
-0.500350 -0.000000
-0.500350 0.000000
-0.500350 -0.000000
-0.500350 0.000000
-0.500350 -0.000000
-0.500350 0.000000
-0.500350 -0.000000
-0.500350 0.000000
-0.500350 -0.000000
-0.500350 0.000000
-0.500350 -0.000000
-0.500350 0.000000
-0.500350 -0.000000
-0.500350 0.000000
-0.500350 -0.000000
-0.500350 0.000000
-0.500350 -0.000000
-0.500350 0.000000
-0.500350 -0.000000
-0.500350 0.000000
-0.500350 -0.000000
-0.500350 0.000000
-0.500350 -0.000000
-0.500350 0.000000
-0.500350 -0.000000
-0.500350 0.000000
-0.500350 -0.000000
-0.500350 0.000000
-0.500350 -0.000000
-0.500350 0.000000
-0.500350 -0.000000
-0.500350 0.000000
-0.500350 -0.000000
-0.500350 0.000000
-0.500350 -0.000000
-0.500350 0.000000
-0.500350 -0.000000
-0.500350 0.000000
-0.500350 -0.000000
-0.500350 0.000000
-0.500350 -0.000000
-0.500350 0.000000
-0.500350 -0.000000
-0.500350 0.000000
-0.500350 -0.000000
-0.500350 0.000000
-0.500350 -0.000000
-0.500350 0.000000
-0.500350 -0.000000
-0.500350 0.000000
-0.500350 -0.000000
-0.500350 0.000000
-0.500350 -0.000000
-0.500350 0.000000
-0.500350 -0.000000
-0.500350 0.000000
-0.500350 -0.000000
-0.500350 0.000000
-0.500350 -0.000000
-0.500350 0.000000
-0.500350 -0.000000
-0.500350 0.000000
-0.500350 -0.000000
-0.500350 0.000000
-0.500350 -0.000000
-0.500350 0.000000
-0.500350 -0.000000
-0.500350 0.000000
-0.500350 -0.000000
-0.500350 0.000000
-0.500350 -0.000000
-0.500350 0.000000
-0.500350 -0.000000
-0.500350 0.000000
-0.500350 -0.000000
-0.500350 0.000000
-0.500350 -0.000000
-0.500350 0.000000
-0.500350 -0.000000
-0.500350 0.000000
-0.500350 -0.000000
-0.500350 0.000000
-0.500350 -0.000000
-0.500350 0.000000
-0.500350 -0.000000
-0.500350 0.000000
-0.500350 -0.000000
-0.500350 0.000000
-0.500350 -0.000000
-0.500350 0.000000
-0.500350 -0.000000
-0.500350 0.000000
-0.500350 -0.000000
-0.500350 0.000000
-0.500350 -0.000000
-0.500350 0.000000
-0.500350 -0.000000
-0.500350 0.000000
-0.500350 -0.000000
-0.500350 0.000000
-0.500350 -0.000000
-0.500350 0.000000
-0.500350 -0.000000
-0.500350 0.000000
-0.500350 -0.000000
-0.500350 0.000000
-0.500350 -0.000000
-0.500350 0.000000
-0.500350 -0.000000
-0.500350 0.000000
-0.500350 -0.000000
-0.500350 0.000000
-0.500350 -0.000000
-0.500350 0.000000
-0.500350 -0.000000
-0.500350 0.000000
-0.500350 -0.000000
-0.500350 0.000000
-0.500350 -0.000000
-0.500350 0.000000
-0.500350 -0.000000
-0.500350 0.000000
-0.500350 -0.000000
-0.500350 0.000000
-0.500350 -0.000000
-0.500350 0.000000
-0.500350 -0.000000
-0.500350 0.000000
-0.500350 -0.000000
-0.500350 0.000000
-0.500350 -0.000000
-0.500350 0.000000
-0.500350 -0.000001
-0.500350 0.000002
-0.500350 -0.000006
-0.500350 0.000017
-0.500350 -0.000046
-0.500350 0.000101
-0.500350 -0.000102
-0.500350 -0.000716
-0.500348 0.007019
-0.500355 -0.043392
-0.500264 0.418034
-0.499614 0.594062
-0.498275 3.166382
-0.491362 11.470271
-0.474110 23.376912
-0.446142 30.548141
-0.414933 31.782243
-0.382579 32.819908
-0.349397 33.351802
-0.315882 33.664071
-0.281966 34.080390
-0.247666 34.458110
-0.212978 34.845968
-0.177907 35.225232
-0.142458 35.599660
-0.106639 35.965473
-0.070459 36.321634
-0.033927 36.667921
0.002947 37.004523
0.040153 37.331471
0.077682 37.648946
0.115524 37.957683
0.153671 38.258512
0.192116 38.554052
0.230855 38.846790
0.269886 39.137934
0.309211 39.435747
0.348843 39.752653
0.388805 40.094892
0.429124 40.470737
0.469842 40.892002
0.511008 41.366265
0.552678 41.902345
0.594918 42.503880
0.637791 43.164297
0.681359 43.901121
0.725708 44.717709
0.770908 45.606815
0.817012 46.493634
0.863957 47.287538
0.911703 48.145544
0.960392 49.145478
1.010112 50.205043
1.060917 51.307466
1.112848 52.463858
1.165944 53.604035
1.220112 54.591873
1.275179 55.404300
1.330977 56.051195
1.387159 55.995201
1.442492 54.180331
1.494646 49.421562
1.540660 42.341279
1.579369 35.129634
1.611426 29.227733
1.638478 25.107294
1.662132 22.308654
1.683417 20.340798
1.703075 19.035109
1.721697 18.245104
1.739741 17.870973
1.757593 17.849775
1.775575 18.125151
1.793981 18.706285
1.813140 19.630139
1.833361 20.792287
1.854848 22.199598
1.877903 23.903732
1.902795 25.882768
1.929823 28.167664
1.959320 30.851670
1.991756 34.041430
2.027792 38.194306
2.068870 44.290931
2.117353 53.057425
2.175873 64.165788
2.245991 75.807962
2.327374 86.650894
2.418833 95.593380
2.517865 101.877749
2.621988 105.751897
2.728782 107.233739
2.835984 106.660569
2.941769 104.446215
3.044631 100.869673
3.143331 96.155593
3.236765 90.331209
3.323949 83.833530
3.404415 76.783752
3.477554 69.385408
3.543239 61.729599
3.600364 51.756810
3.646470 40.627865
3.682684 32.445066
3.712368 27.085336
3.737265 22.790884
3.758177 19.041022
3.775485 15.591029
3.789487 12.433130
3.800476 9.573990
3.808750 7.002514
3.814586 4.704547
3.818250 2.650655
3.819973 0.839397
3.819947 -0.923833
3.817945 -3.224405
3.813188 -6.434158
3.804918 -10.080042
3.793008 -13.725257
3.777449 -17.343262
3.758320 -20.863272
3.735710 -24.295749
3.709708 -27.642223
3.680401 -30.897215
3.647882 -34.062777
3.612232 -37.153844
3.573521 -40.180810
3.531808 -43.153259
3.487141 -46.087000
3.439551 -48.993734
3.389064 -51.874324
3.335704 -54.738238
3.279483 -57.588455
3.220415 -60.427168
3.158511 -63.254249
3.093785 -66.066998
3.026252 -68.858948
2.955939 -71.621557
2.882878 -74.346254
2.807115 -77.019145
2.728707 -79.628787
2.647723 -82.162771
2.564247 -84.605930
2.478375 -86.951489
2.390207 -89.187146
2.299863 -91.298230
2.207471 -93.278169
2.113166 -95.120435
2.017090 -96.813564
1.919397 -98.352284
1.820240 -99.734557
1.719784 -100.950010
1.618194 -101.998347
1.515639 -102.878667
1.412288 -103.588135
1.308312 -104.127462
1.203881 -104.498203
1.099165 -104.691536
0.994333 -104.748964
0.889546 -104.540870
0.784979 -104.521427
0.680761 -103.103014
0.578853 -100.825856
0.478464 -99.876666
0.378829 -99.139469
0.280085 -98.107949
0.182380 -97.187609
0.085807 -95.393059
-0.008115 -92.152305
-0.099191 -90.437826
-0.189307 -89.130236
-0.276803 -85.344603
-0.360114 -81.399442
-0.435304 -64.083522
-0.482607 -29.378917
-0.497703 -5.412114
-0.499843 -0.627179
-0.500426 -0.239227
-0.500329 0.125393
-0.500355 -0.050014
-0.500348 0.017796
-0.500350 -0.005945
-0.500350 0.001908
-0.500350 -0.000595
-0.500350 0.000182
-0.500350 -0.000055
-0.500350 0.000016
-0.500350 -0.000005
-0.500350 0.000001
-0.500350 -0.000000
-0.500350 0.000000
-0.500350 -0.000000
-0.500350 0.000000
-0.500350 -0.000000
-0.500350 0.000000
-0.500350 -0.000000
-0.500350 0.000000
-0.500350 -0.000000
-0.500350 0.000000
-0.500350 -0.000000
-0.500350 0.000000
-0.500350 -0.000000
-0.500350 0.000000
-0.500350 -0.000000
-0.500350 0.000000
-0.500350 -0.000000
-0.500350 0.000000
-0.500350 -0.000000
-0.500350 0.000000
-0.500350 -0.000000
-0.500350 0.000000
-0.500350 -0.000000
-0.500350 0.000000
-0.500350 -0.000000
-0.500350 0.000000
-0.500350 -0.000000
-0.500350 0.000000
-0.500350 -0.000000
-0.500350 0.000000
-0.500350 -0.000000
-0.500350 0.000000
-0.500350 -0.000000
-0.500350 0.000000
-0.500350 -0.000000
-0.500350 0.000000
-0.500350 -0.000000
-0.500350 0.000000
-0.500350 -0.000000
-0.500350 0.000000
-0.500350 -0.000000
-0.500350 0.000000
-0.500350 -0.000000
-0.500350 0.000000
-0.500350 -0.000000
-0.500350 0.000000
-0.500350 -0.000000
-0.500350 0.000000
-0.500350 -0.000000
-0.500350 0.000000
-0.500350 -0.000000
-0.500350 0.000000
-0.500350 -0.000000
-0.500350 0.000000
-0.500350 -0.000000
-0.500350 0.000000
-0.500350 -0.000000
-0.500350 0.000000
-0.500350 -0.000000
-0.500350 0.000000
-0.500350 -0.000000
-0.500350 0.000000
-0.500350 -0.000000
-0.500350 0.000000
-0.500350 -0.000000
-0.500350 0.000000
-0.500350 -0.000000
-0.500350 0.000000
-0.500350 -0.000000
-0.500350 0.000000
-0.500350 -0.000000
-0.500350 0.000000
-0.500350 -0.000000
-0.500350 0.000000
-0.500350 -0.000000
-0.500350 0.000000
-0.500350 -0.000000
-0.500350 0.000000
-0.500350 -0.000000
-0.500350 0.000000
-0.500350 -0.000000
-0.500350 0.000000
-0.500350 -0.000000
-0.500350 0.000000
-0.500350 -0.000000
-0.500350 0.000000
-0.500350 -0.000000
-0.500350 0.000000
-0.500350 -0.000000
-0.500350 0.000000
-0.500350 -0.000000
-0.500350 0.000000
-0.500350 -0.000000
-0.500350 0.000000
-0.500350 -0.000000
-0.500350 0.000000
-0.500350 -0.000000
-0.500350 0.000000
-0.500350 -0.000000
-0.500350 0.000000
-0.500350 -0.000000
-0.500350 0.000000
-0.500350 -0.000000
-0.500350 0.000000
-0.500350 -0.000000
-0.500350 0.000000
-0.500350 -0.000000
-0.500350 0.000000
-0.500350 -0.000000
-0.500350 0.000000
-0.500350 -0.000000
-0.500350 0.000000
-0.500350 -0.000000
-0.500350 0.000000
-0.500350 -0.000000
-0.500350 0.000000
-0.500350 -0.000000
-0.500350 0.000000
-0.500350 -0.000000
-0.500350 0.000000
-0.500350 -0.000000
-0.500350 0.000000
-0.500350 -0.000000
-0.500350 0.000000
-0.500350 -0.000000
-0.500350 0.000000
-0.500350 -0.000000
-0.500350 0.000000
-0.500350 -0.000000
-0.500350 0.000000
-0.500350 -0.000000
-0.500350 0.000000
-0.500350 -0.000000
-0.500350 0.000000
-0.500350 -0.000001
-0.500350 0.000003
-0.500350 -0.000011
-0.500350 0.000038
-0.500350 -0.000133
-0.500350 0.000486
-0.500350 -0.001857
-0.500350 0.007388
-0.500351 -0.030451
-0.500345 0.128960
-0.500017 0.514021
-0.499397 0.654061
-0.498769 0.610272
-0.498155 0.627150
-0.497409 0.958219
-0.496244 1.268637
-0.494969 1.279648
-0.493680 1.296807
-0.492367 1.329749
-0.491030 1.326217
-0.489678 1.424741
-0.488063 1.867123
-0.486020 2.071196
-0.483545 3.389024
-0.478485 6.954367
-0.469346 11.347883
-0.455581 16.296145
-0.437150 19.959650
-0.416523 20.922096
-0.395502 21.168322
-0.374080 21.607179
-0.352265 21.984318
-0.330065 22.369845
-0.307484 22.747659
-0.284524 23.125912
-0.261188 23.497193
-0.237485 23.858749
-0.213425 24.213626
-0.189011 24.564508
-0.164247 24.913103
-0.139136 25.259814
-0.113678 25.603026
-0.087882 25.935702
-0.061760 26.253462
-0.035333 26.539155
-0.008656 26.743389
0.018161 26.808748
0.044954 26.689396
0.071528 26.374393
0.097706 25.910424
0.123373 25.364588
0.148473 24.781614
0.172981 24.184197
0.196889 23.582885
0.220194 22.980888
0.242897 22.379169
0.264994 21.768152
0.286468 21.131734
0.307291 20.468094
0.327439 19.785286
0.346899 19.097050
0.365650 18.346629
0.383597 17.498321
0.400667 16.604358
0.416830 15.684527
0.432065 14.757882
0.446383 13.854886
0.459784 12.897401
0.472188 11.891792
0.483603 10.920858
0.494062 9.982219
0.503602 9.085581
0.512262 8.221948
0.520057 7.342232
0.526947 6.417689
0.532835 5.282571
0.537420 3.841754
0.540363 1.913366
0.541045 -0.632254
0.538918 -3.715583
0.533334 -7.614853
0.523307 -12.611309
0.507883 -18.216837
0.486912 -23.597942
0.460837 -28.386656
0.430340 -32.401246
0.396275 -35.501913
0.359586 -37.639697
0.321239 -38.823812
0.282155 -39.127205
0.243170 -38.639735
0.205028 -37.463861
0.168355 -35.725225
0.133653 -33.544281
0.101308 -31.037526
0.071586 -28.320082
0.044650 -25.484215
0.020583 -22.600414
-0.000603 -19.737631
-0.018958 -16.954284
-0.034587 -14.295821
-0.047631 -11.795852
-0.058262 -9.476239
-0.066669 -7.353747
-0.073055 -5.442990
-0.077637 -3.746634
-0.080637 -2.294392
-0.082316 -1.099981
-0.082928 -0.170453
-0.082762 0.446452
-0.082120 0.807728
-0.081177 1.072830
-0.079981 1.310552
-0.078567 1.507362
-0.076977 1.662236
-0.075253 1.774875
-0.073437 1.846927
-0.071567 1.884078
-0.069675 1.892377
-0.067786 1.879920
-0.065916 1.855036
-0.064073 1.826196
-0.062258 1.802432
-0.060460 1.791589
-0.058665 1.800401
-0.056848 1.834673
-0.054981 1.900290
-0.053032 2.000879
-0.050963 2.139040
-0.048736 2.317801
-0.046309 2.537968
-0.043641 2.799961
-0.040689 3.103077
-0.037416 3.443587
-0.033785 3.816494
-0.029767 4.213827
-0.025344 4.624603
-0.020508 5.036350
-0.015266 5.434209
-0.009639 5.802148
-0.003665 6.124548
0.002603 6.387644
0.009099 6.580255
0.015750 6.694218
0.022474 6.727512
0.029192 6.680925
0.035825 6.560789
0.042305 6.376794
0.048573 6.139098
0.054582 5.860324
0.060296 5.552475
0.065692 5.226889
0.070758 4.893160
0.075489 4.560266
0.079890 4.234889
0.083971 3.922298
0.087748 3.626654
0.091238 3.350636
0.094463 3.096903
0.097445 2.864763
0.100206 2.655538
0.102770 2.469379
0.105157 2.304805
0.107391 2.161242
0.109490 2.036798
0.111475 1.932271
0.113363 1.840130
0.115169 1.778103
0.116910 1.677546
0.118593 1.773304
0.120241 1.213037
0.121837 3.095950
0.149039 10.449925
