-0.197669 0.192873 0.000006
-0.799444 2.894035
-0.797069 1.839715
-0.795783 0.718187
-0.795642 -0.434921
-0.796689 -1.693282
-0.798645 -1.791922
-0.801414 -5.299411
-0.804089 6.674401
-0.784625 28.919027
-0.749083 42.501623
-0.700022 54.628008
-0.640847 63.368465
-0.573775 70.260956
-0.500849 75.162775
-0.423829 78.475737
-0.344179 80.475036
-0.263051 81.476765
-0.181275 81.842277
-0.099313 81.876340
-0.017413 81.746038
0.064329 81.575996
0.145918 81.451844
0.227426 81.418047
0.308951 81.486079
0.390591 81.644257
0.472423 81.862909
0.554489 82.104762
0.636790 82.325456
0.719305 82.545774
0.801892 82.302024
0.884684 83.887254
0.966406 75.196408
1.021349 24.913184
1.023435 -3.933188
1.025146 2.198913
1.024784 -0.817936
1.024882 0.280861
1.024855 -0.091880
1.024862 0.029094
1.024861 -0.008999
1.024861 0.002735
1.024861 -0.000820
1.024861 0.000243
1.024861 -0.000071
1.024861 0.000021
1.024861 -0.000006
1.024861 0.000002
1.024861 -0.000000
1.024861 0.000000
1.024861 -0.000000
1.024861 0.000000
1.024861 -0.000000
1.024861 0.000000
1.024861 -0.000000
1.024861 0.000000
1.024861 -0.000000
1.024861 0.000000
1.024861 -0.000000
1.024861 0.000000
1.024861 -0.000000
1.024861 0.000000
1.024861 -0.000000
1.024861 0.000000
1.024861 -0.000000
1.024861 0.000000
1.024861 -0.000000
1.024861 0.000000
1.024861 -0.000000
1.024861 0.000000
1.024861 -0.000000
1.024861 0.000000
1.024861 -0.000000
1.024861 0.000000
1.024861 -0.000000
1.024861 0.000000
1.024861 -0.000000
1.024861 0.000000
1.024861 -0.000000
1.024861 0.000000
1.024861 -0.000000
1.024861 0.000000
1.024861 -0.000000
1.024861 0.000000
1.024861 -0.000000
1.024861 0.000000
1.024861 -0.000000
1.024861 0.000000
1.024861 -0.000000
1.024861 0.000000
1.024861 -0.000000
1.024861 0.000001
1.024861 -0.000004
1.024861 0.000013
1.024861 -0.000042
1.024861 0.000134
1.024861 -0.000411
1.024861 0.001195
1.024861 -0.003193
1.024859 0.007179
1.024867 -0.009079
1.024822 -0.083263
1.024717 -0.106363
1.024625 -0.080901
1.024526 -0.142053
1.024341 -0.203781
1.024138 -0.207299
1.023894 -0.304048
1.023529 -0.400704
1.023137 -0.363663
1.022789 -0.363100
1.022389 -0.424580
1.021953 -0.443100
1.021499 -0.470565
1.021004 -0.518567
1.020452 -0.592877
1.019816 -0.672145
1.019099 -0.773588
1.018241 -0.951636
1.017178 -1.177038
1.015875 -1.432829
1.014313 -1.677614
1.012456 -2.103257
1.009994 -2.854064
1.006740 -3.611671
1.002778 -4.324643
0.998051 -5.130318
0.992496 -5.970569
0.986013 -7.064920
0.978356 -8.146830
0.969794 -8.956959
0.960429 -9.753871
0.950239 -10.633664
0.939085 -11.679835
0.926761 -13.009567
0.913101 -14.155366
0.898505 -15.053222
0.882929 -16.055953
0.866376 -17.012096
0.848849 -18.034685
0.830320 -18.909673
0.810896 -20.070250
0.789978 -21.715506
0.767456 -23.258015
0.743559 -24.370389
0.718733 -25.282399
0.692915 -26.277560
0.666146 -27.211840
0.638440 -28.139433
0.609820 -29.039576
0.580309 -29.917985
0.549932 -30.771021
0.518714 -31.598746
0.486681 -32.399895
0.453858 -33.174747
0.420273 -33.924353
0.385951 -34.645783
0.350922 -35.339073
0.315211 -36.005817
0.278847 -36.646077
0.241855 -37.258426
0.204264 -37.843952
0.166100 -38.404800
0.127387 -38.939301
0.088151 -39.448575
0.048419 -39.933487
0.008213 -40.393595
-0.032442 -40.830583
-0.073522 -41.243014
-0.115002 -41.631402
-0.156861 -41.997335
-0.199072 -42.336816
-0.241575 -42.543321
-0.284098 -42.311677
-0.326072 -41.449531
-0.366897 -40.039228
-0.406090 -38.205195
-0.443283 -36.067510
-0.478233 -33.738924
-0.510795 -31.312735
-0.540917 -28.872705
-0.568613 -26.475209
-0.593946 -24.155842
-0.617006 -21.935510
-0.637898 -19.825916
-0.656736 -17.832102
-0.673638 -15.958294
-0.688725 -14.205938
-0.702119 -12.575451
-0.713942 -11.067678
-0.724317 -9.681584
-0.733365 -8.416672
-0.741207 -7.270593
-0.747959 -6.239597
-0.753736 -5.319288
-0.758643 -4.502925
-0.762783 -3.785205
-0.766252 -3.160470
-0.769139 -2.619724
-0.771523 -2.157122
-0.773481 -1.766311
-0.775081 -1.441346
-0.776387 -1.177518
-0.777456 -0.967390
-0.778339 -0.804001
-0.779079 -0.680246
-0.779713 -0.591132
-0.780273 -0.531254
-0.780784 -0.493137
-0.781267 -0.475482
-0.781741 -0.474001
-0.782219 -0.482082
-0.782710 -0.500473
-0.783223 -0.525284
-0.783762 -0.554087
-0.784333 -0.586044
-0.784936 -0.619011
-0.785572 -0.652092
-0.786241 -0.684323
-0.786942 -0.715498
-0.787673 -0.745097
-0.788433 -0.773373
-0.789220 -0.798346
-0.790031 -0.821757
-0.790865 -0.843101
-0.791718 -0.862321
-0.792591 -0.880392
-0.793480 -0.896685
-0.794385 -0.911416
-0.795305 -0.925065
-0.796238 -0.938845
-0.797184 -0.952248
-0.798143 -0.964397
-0.799115 -0.976920
-0.800100 -0.991057
-0.801099 -1.004166
-0.802110 -1.017971
-0.803137 -1.033443
-0.804179 -1.048113
-0.805236 -1.064575
-0.806310 -1.081370
-0.807401 -1.097887
-0.808508 -1.114168
-0.809631 -1.129665
-0.810769 -1.143612
-0.811920 -1.154638
-0.813081 -1.165507
-0.814253 -1.175075
-0.815433 -1.182626
-0.816620 -1.188794
-0.817812 -1.194085
-0.819010 -1.197927
-0.820210 -1.200148
-0.821413 -1.202527
-0.822617 -1.202856
-0.823820 -1.202051
-0.825024 -1.201491
-0.826226 -1.200257
-0.827427 -1.199262
-0.828626 -1.197066
-0.829823 -1.195109
-0.831019 -1.193413
-0.832213 -1.192356
-0.833406 -1.191507
-0.834598 -1.191263
-0.835791 -1.192948
-0.836987 -1.195233
-0.838185 -1.199348
-0.839388 -1.205609
-0.840599 -1.213636
-0.841819 -1.223539
-0.843050 -1.236768
-0.844296 -1.252982
-0.845559 -1.272471
-0.846844 -1.294248
-0.848151 -1.319008
-0.849486 -1.347104
-0.850849 -1.378143
-0.852247 -1.414501
-0.853683 -1.456614
-0.855164 -1.503055
-0.856693 -1.551088
-0.858270 -1.600635
-0.859897 -1.650448
-0.861573 -1.697890
-0.863295 -1.740572
-0.865056 -1.778287
-0.866855 -1.814513
-0.868688 -1.848821
-0.870555 -1.881752
-0.872456 -1.915177
-0.874389 -1.948218
-0.876356 -1.981255
-0.878356 -2.014477
-0.880389 -2.047886
-0.882456 -2.082156
-0.884558 -2.116499
-0.886693 -2.150422
-0.888863 -2.184945
-0.891068 -2.220354
-0.893308 -2.255330
-0.895583 -2.290483
-0.897894 -2.326266
-0.900240 -2.361514
-0.902622 -2.396997
-0.905039 -2.433324
-0.907493 -2.468297
-0.909981 -2.503106
-0.912504 -2.538872
-0.915063 -2.573486
-0.917657 -2.608814
-0.920286 -2.643640
-0.922949 -2.677028
-0.925645 -2.711206
-0.928377 -2.745097
-0.931141 -2.777437
-0.933937 -2.810431
-0.936767 -2.843067
-0.939629 -2.874814
-0.942522 -2.906837
-0.945448 -2.938658
-0.948406 -2.970032
-0.951394 -3.002095
-0.954416 -3.033607
-0.957467 -3.063927
-0.960550 -3.094809
-0.963663 -3.126035
-0.966808 -3.155935
-0.969981 -3.185896
-0.973186 -3.215979
-0.976419 -3.244955
-0.979683 -3.274944
-0.982976 -3.303803
-0.986297 -3.332030
-0.989646 -3.360978
-0.993025 -3.388157
-0.996430 -3.415129
-0.999862 -3.443386
-1.003323 -3.469736
-1.006808 -3.495640
-1.010321 -3.521521
-1.013858 -3.546585
-1.017421 -3.571506
-1.021008 -3.595605
-1.024619 -3.618905
-1.028253 -3.641799
-1.031910 -3.664153
-1.035588 -3.685742
-1.039289 -3.707430
-1.043010 -3.728080
-1.046752 -3.747787
-1.050513 -3.767298
-1.054294 -3.786460
-1.058094 -3.804579
-1.061911 -3.822244
-1.065746 -3.839511
-1.069597 -3.856333
-1.073466 -3.873363
-1.077351 -3.888497
-1.081251 -3.903702
-1.085166 -3.918674
-1.089096 -3.932206
-1.093038 -3.945209
-1.096994 -3.957477
-1.100962 -3.970638
-1.104942 -3.981676
-1.108933 -3.991900
-1.112934 -4.003159
-1.116946 -4.012798
-1.120968 -4.021432
-1.124997 -4.029564
-1.129035 -4.037707
-1.133080 -4.045376
-1.137133 -4.051282
-1.141191 -4.056387
-1.145254 -4.061785
-1.149322 -4.066543
-1.153395 -4.070255
-1.157471 -4.073243
-1.161549 -4.075607
-1.165630 -4.077179
-1.169712 -4.078643
-1.173795 -4.079068
-1.177878 -4.078123
-1.181960 -4.077930
-1.186041 -4.076620
-1.190121 -4.074676
-1.194199 -4.072063
-1.198273 -4.068382
-1.202344 -4.065402
-1.206411 -4.060463
-1.210473 -4.057184
-1.214532 -4.048669
-1.218573 -4.022706
-1.222583 -3.991328
-1.226564 -3.960143
-1.230509 -3.922034
-1.234416 -3.884217
-1.238289 -3.856115
-1.242140 -3.842459
-1.245983 -3.832792
-1.249799 -3.777888
-1.253515 -3.630020
-1.257008 -3.309020
-1.260062 -2.756488
-1.262495 -2.110147
-1.264329 -1.589405
-1.265755 -1.300849
-1.267010 -1.242809
-1.268300 -1.355757
-1.269757 -1.566399
-1.271450 -1.820204
-1.273403 -2.080507
-1.275613 -2.332005
-1.278066 -2.565877
-1.280742 -2.777935
-1.283621 -2.970271
-1.286681 -3.139164
-1.289898 -3.286301
-1.293253 -3.411432
-1.296721 -3.514893
-1.300283 -3.598197
-1.303918 -3.662662
-1.307610 -3.710990
-1.311342 -3.742348
-1.315098 -3.760075
-1.318865 -3.766006
-1.322634 -3.762997
-1.326396 -3.752404
-1.330144 -3.734910
-1.333872 -3.712526
-1.337576 -3.687137
-1.341253 -3.659833
-1.344902 -3.630273
-1.348521 -3.600067
-1.352109 -3.569924
-1.355668 -3.539399
-1.359195 -3.509532
-1.362694 -3.480877
-1.366164 -3.451636
-1.369605 -3.423788
-1.373019 -3.397124
-1.376406 -3.370404
-1.379767 -3.344493
-1.383101 -3.318349
-1.386410 -3.293206
-1.389694 -3.267008
-1.392951 -3.241217
-1.396183 -3.216417
-1.399390 -3.190182
-1.402570 -3.164078
-1.405724 -3.137270
-1.408851 -3.110536
-1.411951 -3.083206
-1.415023 -3.054598
-1.418067 -3.026422
-1.421082 -2.997749
-1.424068 -2.968521
-1.427024 -2.938378
-1.429950 -2.907562
-1.432846 -2.877102
-1.435710 -2.845485
-1.438542 -2.813326
-1.441342 -2.781265
-1.444110 -2.748543
-1.446845 -2.715356
-1.449546 -2.681270
-1.452212 -2.646992
-1.454845 -2.612257
-1.457442 -2.576966
-1.460004 -2.540382
-1.462528 -2.503091
-1.465015 -2.465656
-1.467464 -2.427519
-1.469875 -2.389524
-1.472247 -2.350070
-1.474580 -2.313169
-1.476875 -2.268702
-1.479121 -2.221247
-1.481325 -2.182817
-1.483490 -2.139711
-1.485608 -2.092589
-1.487678 -2.043296
-1.489698 -1.991857
-1.491666 -1.940627
-1.493582 -1.885715
-1.495443 -1.836069
-1.497249 -1.761431
-1.498960 -1.659004
-1.500570 -1.554198
-1.502070 -1.445098
-1.503462 -1.334466
-1.504739 -1.216529
-1.505900 -1.104309
-1.506953 -1.000693
-1.507894 -0.871356
-1.508696 -0.735751
-1.509380 -0.637091
-1.509946 -0.464252
-1.510254 -0.126628
-1.510220 0.148904
-1.509973 0.372348
-1.509432 0.723638
-1.508503 1.139765
-1.507115 1.662117
-1.505133 2.312967
-1.502445 3.082237
-1.498836 4.228540
-1.493713 6.173684
-1.486313 8.610276
-1.476462 11.085572
-1.464104 13.605280
-1.449228 16.115180
-1.431846 18.613820
-1.411964 21.108708
-1.389588 23.596646
-1.364727 26.075534
-1.337388 28.545831
-1.307582 31.002129
-1.275328 33.439086
-1.240647 35.847313
-1.203575 38.214462
-1.164159 40.529681
-1.122456 42.780854
-1.078534 44.963040
-1.032463 47.075328
-0.984313 49.115946
-0.934158 51.082205
-0.882072 52.973206
-0.828131 54.788465
-0.772411 56.525915
-0.714991 58.188268
-0.655943 59.777154
-0.595342 61.290241
-0.533264 62.729057
-0.469779 64.107104
-0.404949 65.402507
-0.338855 66.659577
-0.271500 67.906055
-0.203241 68.152549
-0.135255 67.810312
-0.067112 68.585438
0.002167 69.702625
0.072350 70.570128
0.143477 71.521314
0.215518 72.419661
0.288462 73.320122
0.362288 74.169202
0.436983 75.122918
0.512467 75.427097
0.587606 74.584532
0.662128 74.768499
0.737679 76.110996
0.813621 74.810895
0.887346 73.196758
0.957378 63.243070
1.006091 29.710087
1.019949 5.440112
1.024017 2.254529
1.024797 0.072053
1.024877 0.032201
1.024857 -0.021208
1.024862 0.009036
1.024861 -0.003315
1.024861 0.001126
1.024861 -0.000365
1.024861 0.000115
1.024861 -0.000035
1.024861 0.000011
1.024861 -0.000003
1.024861 0.000001
1.024861 -0.000000
1.024861 0.000000
1.024861 -0.000000
1.024861 0.000000
1.024861 -0.000000
1.024861 0.000000
1.024861 -0.000000
1.024861 0.000000
1.024861 -0.000000
1.024861 0.000000
1.024861 -0.000000
1.024861 0.000000
1.024861 -0.000000
1.024861 0.000000
1.024861 -0.000000
1.024861 0.000000
1.024861 -0.000000
1.024861 0.000000
1.024861 -0.000000
1.024861 0.000000
1.024861 -0.000000
1.024861 0.000000
1.024861 -0.000000
1.024861 0.000000
1.024861 -0.000000
1.024861 0.000000
1.024861 -0.000000
1.024861 0.000000
1.024861 -0.000000
1.024861 0.000000
1.024861 -0.000000
1.024861 0.000000
1.024861 -0.000000
1.024861 0.000000
1.024861 -0.000000
1.024861 0.000000
1.024861 -0.000000
1.024861 0.000000
1.024861 -0.000000
1.024861 0.000000
1.024861 -0.000000
1.024861 0.000000
1.024861 -0.000000
1.024861 0.000000
1.024861 -0.000000
1.024861 0.000000
1.024861 -0.000000
1.024861 0.000000
1.024861 -0.000000
1.024861 0.000000
1.024861 -0.000000
1.024861 0.000000
1.024861 -0.000000
1.024861 0.000000
1.024861 -0.000000
1.024861 0.000000
1.024861 -0.000000
1.024861 0.000000
1.024861 -0.000000
1.024861 0.000000
1.024861 -0.000000
1.024861 0.000000
1.024861 -0.000000
1.024861 0.000000
1.024861 -0.000000
1.024861 0.000000
1.024861 -0.000000
1.024861 0.000000
1.024861 -0.000000
1.024861 0.000000
1.024861 -0.000000
1.024861 0.000000
1.024861 -0.000000
1.024861 0.000000
1.024861 -0.000000
1.024861 0.000000
1.024861 -0.000000
1.024861 0.000000
1.024861 -0.000000
1.024861 0.000000
1.024861 -0.000000
1.024861 0.000000
1.024861 -0.000000
1.024861 0.000000
1.024861 -0.000000
1.024861 0.000000
1.024861 -0.000000
1.024861 0.000000
1.024861 -0.000000
1.024861 0.000000
1.024861 -0.000000
1.024861 0.000000
1.024861 -0.000000
1.024861 0.000000
1.024861 -0.000000
1.024861 0.000000
1.024861 -0.000000
1.024861 0.000000
1.024861 -0.000000
1.024861 0.000000
1.024861 -0.000000
1.024861 0.000000
1.024861 -0.000000
1.024861 0.000000
1.024861 -0.000000
1.024861 0.000000
1.024861 -0.000000
1.024861 0.000000
1.024861 -0.000000
1.024861 0.000000
1.024861 -0.000000
1.024861 0.000000
1.024861 -0.000000
1.024861 0.000000
1.024861 -0.000000
1.024861 0.000000
1.024861 -0.000000
1.024861 0.000000
1.024861 -0.000000
1.024861 0.000000
1.024861 -0.000000
1.024861 0.000000
1.024861 -0.000000
1.024861 0.000000
1.024861 -0.000000
1.024861 0.000000
1.024861 -0.000000
1.024861 0.000000
1.024861 -0.000000
1.024861 0.000000
1.024861 -0.000000
1.024861 0.000000
1.024861 -0.000000
1.024861 0.000000
1.024861 -0.000000
1.024861 0.000000
1.024861 -0.000000
1.024861 0.000000
1.024861 -0.000000
1.024861 0.000000
1.024861 -0.000000
1.024861 0.000000
1.024861 -0.000000
1.024861 0.000000
1.024861 -0.000000
1.024861 -0.000000
1.024861 0.000000
1.024861 -0.000000
1.024861 0.000000
1.024861 -0.000000
1.024861 0.000000
1.024861 -0.000000
1.024861 0.000000
1.024861 -0.000000
1.024861 0.000000
1.024861 -0.000000
1.024861 0.000000
1.024861 -0.000000
1.024861 0.000000
1.024861 -0.000000
1.024861 0.000000
1.024861 -0.000000
1.024861 0.000000
1.024861 -0.000000
1.024861 0.000000
1.024861 -0.000000
1.024861 0.000000
1.024861 -0.000000
1.024861 0.000000
1.024861 -0.000000
1.024861 0.000000
1.024861 -0.000000
1.024861 0.000000
1.024861 -0.000000
1.024861 0.000000
1.024861 -0.000000
1.024861 0.000000
1.024861 -0.000000
1.024861 0.000000
1.024861 -0.000000
1.024861 0.000000
1.024861 -0.000000
1.024861 0.000000
1.024861 -0.000000
1.024861 0.000000
1.024861 -0.000000
1.024861 0.000000
1.024861 -0.000000
1.024861 0.000000
1.024861 -0.000000
1.024861 0.000000
1.024861 -0.000000
1.024861 0.000000
1.024861 -0.000000
1.024861 0.000000
1.024861 -0.000000
1.024861 0.000000
1.024861 -0.000000
1.024861 0.000000
1.024861 -0.000000
1.024861 0.000000
1.024861 -0.000000
1.024861 0.000000
1.024861 -0.000000
1.024861 0.000000
1.024861 -0.000000
1.024861 0.000000
1.024861 -0.000000
1.024861 0.000000
1.024861 -0.000000
1.024861 0.000000
1.024861 -0.000000
1.024861 0.000000
1.024861 -0.000000
1.024861 0.000000
1.024861 -0.000000
1.024861 0.000000
1.024861 -0.000000
1.024861 0.000000
1.024861 -0.000000
1.024861 0.000000
1.024861 -0.000000
1.024861 0.000000
1.024861 -0.000000
1.024861 0.000000
1.024861 -0.000000
1.024861 0.000000
1.024861 -0.000000
1.024861 0.000000
1.024861 -0.000000
1.024861 0.000000
1.024861 -0.000000
1.024861 0.000000
1.024861 -0.000000
1.024861 0.000000
1.024861 -0.000000
1.024861 0.000000
1.024861 -0.000000
1.024861 0.000000
1.024861 -0.000000
1.024861 0.000000
1.024861 -0.000000
1.024861 0.000000
1.024861 -0.000000
1.024861 0.000000
1.024861 -0.000000
1.024861 0.000000
1.024861 -0.000000
1.024861 0.000000
1.024861 -0.000000
1.024861 0.000000
1.024861 -0.000000
1.024861 0.000000
1.024861 -0.000000
1.024861 0.000000
1.024861 -0.000000
1.024861 0.000000
1.024861 -0.000000
1.024861 0.000000
1.024861 -0.000000
1.024861 0.000000
1.024861 -0.000000
1.024861 0.000000
1.024861 -0.000000
1.024861 0.000000
1.024861 -0.000000
1.024861 0.000000
1.024861 -0.000000
1.024861 0.000000
1.024861 -0.000000
1.024861 0.000000
1.024861 -0.000000
1.024861 0.000000
1.024861 -0.000000
1.024861 0.000000
1.024861 -0.000000
1.024861 0.000000
1.024861 -0.000000
1.024861 0.000000
1.024861 -0.000000
1.024861 0.000000
1.024861 -0.000000
1.024861 0.000000
1.024861 -0.000000
1.024861 0.000000
1.024861 -0.000000
1.024861 0.000000
1.024861 -0.000000
1.024861 0.000000
1.024861 -0.000000
1.024861 0.000000
1.024861 -0.000001
1.024861 0.000004
1.024861 -0.000012
1.024861 0.000039
1.024861 -0.000119
1.024861 0.000344
1.024861 -0.000901
1.024860 0.001902
1.024863 -0.001525
1.024854 -0.015534
1.024888 0.138685
1.024646 -1.161567
1.022214 -3.505787
1.018278 -3.901425
1.014640 -3.587438
1.010931 -3.768064
1.007230 -3.547188
1.003575 -4.089055
0.998424 -6.488663
0.990974 -7.721796
0.983478 -7.417923
0.975998 -7.487122
0.968547 -7.382760
0.961321 -6.969775
0.954587 -6.576532
0.948380 -5.508179
0.942838 -6.602586
0.934815 -8.736956
0.923982 -14.960937
0.902657 -27.796910
0.866782 -45.279047
0.807331 -76.777135
0.711576 -112.763903
0.588603 -127.696401
0.461279 -126.592476
0.334991 -126.008400
0.208881 -125.810554
0.083236 -125.260669
-0.041793 -124.415203
-0.165481 -122.481107
-0.286396 -118.735046
-0.402222 -112.091468
-0.509322 -101.008463
-0.602904 -85.318316
-0.679407 -67.464616
-0.738219 -50.364561
-0.781090 -35.820016
-0.811015 -24.522471
-0.831213 -16.307862
-0.844501 -10.606175
-0.853069 -6.770250
-0.858491 -4.239715
-0.861851 -2.591354
-0.863874 -1.526986
-0.865035 -0.842698
-0.865643 -0.404799
-0.865897 -0.123268
-0.865923 0.059113
-0.865800 0.178503
-0.865578 0.259248
-0.865289 0.316967
-0.864948 0.362004
-0.864566 0.401953
-0.864143 0.442688
-0.863678 0.488233
-0.863163 0.542187
-0.862590 0.604336
-0.861951 0.674031
-0.861237 0.752049
-0.860442 0.838081
-0.859558 0.930138
-0.858579 1.025937
-0.857502 1.125605
-0.856325 1.226393
-0.855048 1.325336
-0.853672 1.422509
-0.852202 1.514886
-0.850642 1.601030
-0.848999 1.680053
-0.847281 1.749226
-0.845500 1.808903
-0.843664 1.856212
-0.841788 1.891360
-0.839882 1.913396
-0.837962 1.921412
-0.836040 1.916526
-0.834129 1.898015
-0.832244 1.866067
-0.830398 1.820754
-0.828603 1.764027
-0.826870 1.695804
-0.825211 1.618349
-0.823633 1.533726
-0.822143 1.442253
-0.820747 1.345843
-0.819449 1.247087
-0.818251 1.146064
-0.817155 1.044549
-0.816159 0.944886
-0.815263 0.846683
-0.814463 0.751302
-0.813757 0.660606
-0.813139 0.574370
-0.812606 0.491638
-0.812153 0.415064
-0.811773 0.343681
-0.811463 0.276757
-0.811217 0.217618
-0.811024 0.170418
-0.810870 0.138532
-0.810743 0.118383
-0.810631 0.104854
-0.810531 0.095373
-0.810440 0.087898
-0.810355 0.080979
-0.810277 0.073923
-0.810207 0.066595
-0.810144 0.058264
-0.810091 0.049495
-0.810046 0.040171
-0.810010 0.031552
-0.809983 0.022541
-0.809965 0.013794
-0.809955 0.004916
-0.809955 -0.002992
-0.809960 -0.009251
-0.809973 -0.015483
-0.809991 -0.019456
-0.810012 -0.022209
-0.810034 -0.023109
-0.810058 -0.023253
-0.810081 -0.021959
-0.810103 -0.023595
-0.810123 -0.010182
-0.810138 -0.042229
-0.810153 0.088586
-0.810156 -0.365503
-0.810169 1.325725
-0.799444 2.894035
