0.040301 0.049541 -0.000011
0.713036 -19.951429
0.685083 -35.911835
0.641114 -51.952540
0.581415 -66.972806
0.507836 -79.589940
0.422971 -89.524931
0.329427 -97.001342
0.229435 -102.496187
0.124730 -106.490527
0.016600 -109.407821
-0.094029 -111.500966
-0.206486 -113.177931
-0.320314 -113.961968
-0.434766 -115.127668
-0.549651 -112.852417
-0.663796 -119.865108
-0.774017 -80.110330
-0.814217 -10.507213
-0.813646 3.370937
-0.813489 -0.795463
-0.813520 0.187795
-0.813521 -0.050638
-0.813520 0.014213
-0.813520 -0.003867
-0.813520 0.001025
-0.813520 -0.000272
-0.813520 0.000073
-0.813520 -0.000020
-0.813520 0.000005
-0.813520 -0.000001
-0.813520 0.000000
-0.813520 -0.000000
-0.813520 0.000000
-0.813520 -0.000000
-0.813520 0.000000
-0.813520 -0.000000
-0.813520 0.000000
-0.813520 -0.000000
-0.813520 0.000000
-0.813520 -0.000000
-0.813520 0.000000
-0.813520 -0.000000
-0.813520 0.000000
-0.813520 -0.000000
-0.813520 0.000000
-0.813520 -0.000000
-0.813520 0.000000
-0.813520 -0.000000
-0.813520 0.000000
-0.813520 -0.000000
-0.813520 0.000000
-0.813520 -0.000000
-0.813520 0.000000
-0.813520 -0.000000
-0.813520 0.000000
-0.813520 -0.000000
-0.813520 0.000000
-0.813520 -0.000000
-0.813520 0.000000
-0.813520 -0.000000
-0.813520 0.000000
-0.813520 -0.000000
-0.813520 0.000000
-0.813520 -0.000000
-0.813520 0.000000
-0.813520 -0.000000
-0.813520 0.000000
-0.813520 -0.000000
-0.813520 0.000000
-0.813520 -0.000000
-0.813520 0.000000
-0.813520 -0.000000
-0.813520 0.000000
-0.813520 -0.000000
-0.813520 0.000000
-0.813520 -0.000000
-0.813520 0.000000
-0.813520 -0.000000
-0.813520 0.000000
-0.813520 -0.000000
-0.813520 0.000000
-0.813520 -0.000000
-0.813520 0.000000
-0.813520 -0.000000
-0.813520 0.000000
-0.813520 -0.000000
-0.813520 0.000000
-0.813520 -0.000000
-0.813520 0.000000
-0.813520 -0.000000
-0.813520 0.000000
-0.813520 -0.000000
-0.813520 0.000000
-0.813520 -0.000000
-0.813520 0.000000
-0.813520 -0.000000
-0.813520 0.000000
-0.813520 -0.000000
-0.813520 0.000000
-0.813520 -0.000000
-0.813520 0.000000
-0.813520 -0.000000
-0.813520 0.000000
-0.813520 -0.000000
-0.813520 0.000000
-0.813520 -0.000000
-0.813520 0.000000
-0.813520 -0.000000
-0.813520 0.000000
-0.813520 -0.000000
-0.813520 0.000000
-0.813520 -0.000000
-0.813520 0.000000
-0.813520 -0.000000
-0.813520 0.000000
-0.813520 -0.000000
-0.813520 0.000000
-0.813520 -0.000000
-0.813520 0.000000
-0.813520 -0.000000
-0.813520 0.000000
-0.813520 -0.000000
-0.813520 0.000000
-0.813520 -0.000000
-0.813520 0.000000
-0.813520 -0.000000
-0.813520 0.000000
-0.813520 -0.000000
-0.813520 0.000000
-0.813520 -0.000000
-0.813520 0.000000
-0.813520 -0.000000
-0.813520 0.000000
-0.813520 -0.000000
-0.813520 0.000000
-0.813520 -0.000000
-0.813520 0.000000
-0.813520 -0.000000
-0.813520 0.000000
-0.813520 -0.000000
-0.813520 0.000000
-0.813520 -0.000000
-0.813520 0.000000
-0.813520 -0.000000
-0.813520 0.000000
-0.813520 -0.000000
-0.813520 0.000000
-0.813520 -0.000000
-0.813520 0.000000
-0.813520 -0.000000
-0.813520 0.000000
-0.813520 -0.000000
-0.813520 0.000000
-0.813520 -0.000000
-0.813520 0.000000
-0.813520 -0.000000
-0.813520 0.000000
-0.813520 -0.000000
-0.813520 0.000000
-0.813520 -0.000000
-0.813520 0.000002
-0.813520 -0.000006
-0.813520 0.000021
-0.813520 -0.000077
-0.813520 0.000294
-0.813520 -0.001180
-0.813520 0.004484
-0.813519 -0.013498
-0.813525 0.035923
-0.813435 0.121013
-0.813308 0.130644
-0.813180 0.123603
-0.813064 0.104584
-0.812974 0.074932
-0.812915 0.043181
-0.812890 0.004137
-0.812922 -0.080533
-0.813052 -0.167396
-0.813262 -0.270366
-0.813513 -0.132443
-0.813520 0.029371
-0.813520 -0.008460
-0.813520 0.002229
-0.813520 -0.000580
-0.813520 0.000155
-0.813520 -0.000042
-0.813520 0.000011
-0.813520 -0.000003
-0.813520 0.000001
-0.813520 -0.000000
-0.813520 0.000000
-0.813520 -0.000000
-0.813520 0.000000
-0.813520 -0.000000
-0.813520 0.000000
-0.813520 -0.000000
-0.813520 0.000000
-0.813520 -0.000000
-0.813520 0.000000
-0.813520 -0.000000
-0.813520 0.000000
-0.813520 -0.000000
-0.813520 0.000000
-0.813520 -0.000000
-0.813520 0.000000
-0.813520 -0.000000
-0.813520 0.000000
-0.813520 -0.000000
-0.813520 0.000000
-0.813520 -0.000000
-0.813520 0.000000
-0.813520 -0.000000
-0.813520 0.000000
-0.813520 -0.000000
-0.813520 0.000000
-0.813520 -0.000000
-0.813520 0.000000
-0.813520 -0.000000
-0.813520 0.000000
-0.813520 -0.000000
-0.813520 0.000000
-0.813520 -0.000000
-0.813520 0.000000
-0.813520 -0.000000
-0.813520 0.000000
-0.813520 -0.000000
-0.813520 0.000000
-0.813520 -0.000000
-0.813520 0.000000
-0.813520 -0.000000
-0.813520 0.000000
-0.813520 -0.000000
-0.813520 0.000000
-0.813520 -0.000000
-0.813520 0.000000
-0.813520 -0.000000
-0.813520 0.000000
-0.813520 -0.000000
-0.813520 0.000000
-0.813520 -0.000000
-0.813520 0.000000
-0.813520 -0.000000
-0.813520 0.000000
-0.813520 -0.000000
-0.813520 0.000000
-0.813520 -0.000000
-0.813520 0.000000
-0.813520 -0.000000
-0.813520 0.000000
-0.813520 -0.000000
-0.813520 0.000000
-0.813520 -0.000000
-0.813520 0.000000
-0.813520 -0.000000
-0.813520 0.000000
-0.813520 -0.000000
-0.813520 0.000000
-0.813520 -0.000000
-0.813520 0.000000
-0.813520 -0.000000
-0.813520 0.000000
-0.813520 -0.000000
-0.813520 0.000000
-0.813520 -0.000000
-0.813520 0.000000
-0.813520 -0.000000
-0.813520 0.000000
-0.813520 -0.000000
-0.813520 0.000000
-0.813520 -0.000000
-0.813520 0.000000
-0.813520 -0.000000
-0.813520 0.000000
-0.813520 -0.000000
-0.813520 0.000000
-0.813520 -0.000000
-0.813520 0.000000
-0.813520 -0.000000
-0.813520 0.000000
-0.813520 -0.000000
-0.813520 0.000000
-0.813520 -0.000000
-0.813520 0.000000
-0.813520 -0.000000
-0.813520 0.000000
-0.813520 -0.000000
-0.813520 0.000000
-0.813520 -0.000000
-0.813520 0.000000
-0.813520 -0.000000
-0.813520 0.000000
-0.813520 -0.000000
-0.813520 0.000000
-0.813520 -0.000000
-0.813520 0.000000
-0.813520 -0.000000
-0.813520 0.000000
-0.813520 -0.000000
-0.813520 0.000000
-0.813520 -0.000000
-0.813520 0.000000
-0.813520 -0.000000
-0.813520 0.000000
-0.813520 -0.000000
-0.813520 0.000000
-0.813520 -0.000000
-0.813520 0.000000
-0.813520 -0.000000
-0.813520 0.000000
-0.813520 -0.000000
-0.813520 0.000000
-0.813520 -0.000000
-0.813520 0.000000
-0.813520 -0.000000
-0.813520 0.000000
-0.813520 -0.000000
-0.813520 0.000000
-0.813520 -0.000000
-0.813520 0.000000
-0.813520 -0.000000
-0.813520 0.000000
-0.813520 -0.000000
-0.813520 0.000000
-0.813520 -0.000000
-0.813520 0.000000
-0.813520 -0.000000
-0.813520 0.000000
-0.813520 -0.000000
-0.813520 0.000000
-0.813520 -0.000000
-0.813520 0.000000
-0.813520 -0.000000
-0.813520 0.000000
-0.813520 -0.000000
-0.813520 0.000000
-0.813520 -0.000000
-0.813520 0.000000
-0.813520 -0.000000
-0.813520 0.000000
-0.813520 -0.000000
-0.813520 0.000000
-0.813520 -0.000000
-0.813520 0.000000
-0.813520 -0.000000
-0.813520 0.000000
-0.813520 -0.000000
-0.813520 0.000000
-0.813520 -0.000000
-0.813520 0.000000
-0.813520 -0.000000
-0.813520 0.000000
-0.813520 -0.000000
-0.813520 0.000000
-0.813520 -0.000000
-0.813520 0.000000
-0.813520 -0.000000
-0.813520 0.000000
-0.813520 -0.000000
-0.813520 0.000000
-0.813520 -0.000000
-0.813520 0.000000
-0.813520 -0.000000
-0.813520 0.000000
-0.813520 -0.000000
-0.813520 0.000000
-0.813520 -0.000000
-0.813520 0.000000
-0.813520 -0.000000
-0.813520 0.000000
-0.813520 -0.000000
-0.813520 0.000000
-0.813520 -0.000000
-0.813520 0.000000
-0.813520 -0.000000
-0.813520 0.000000
-0.813520 -0.000000
-0.813520 0.000000
-0.813520 -0.000000
-0.813520 0.000000
-0.813520 -0.000000
-0.813520 0.000000
-0.813520 -0.000000
-0.813520 0.000000
-0.813520 -0.000000
-0.813520 0.000000
-0.813520 -0.000000
-0.813520 0.000000
-0.813520 -0.000000
-0.813520 0.000000
-0.813520 -0.000000
-0.813520 0.000000
-0.813520 -0.000000
-0.813520 0.000000
-0.813520 -0.000000
-0.813520 0.000000
-0.813520 -0.000000
-0.813520 0.000000
-0.813520 -0.000000
-0.813520 0.000000
-0.813520 -0.000000
-0.813520 0.000000
-0.813520 -0.000000
-0.813520 0.000000
-0.813520 -0.000000
-0.813520 0.000000
-0.813520 -0.000000
-0.813520 0.000000
-0.813520 -0.000000
-0.813520 0.000000
-0.813520 -0.000000
-0.813520 0.000000
-0.813520 -0.000000
-0.813520 0.000000
-0.813520 -0.000000
-0.813520 0.000000
-0.813520 -0.000000
-0.813520 0.000000
-0.813520 -0.000000
-0.813520 0.000000
-0.813520 -0.000000
-0.813520 0.000000
-0.813520 -0.000000
-0.813520 0.000000
-0.813520 -0.000000
-0.813520 0.000000
-0.813520 -0.000000
-0.813520 0.000000
-0.813520 -0.000000
-0.813520 0.000000
-0.813520 -0.000000
-0.813520 0.000000
-0.813520 -0.000000
-0.813520 0.000000
-0.813520 -0.000000
-0.813520 0.000000
-0.813520 -0.000000
-0.813520 0.000000
-0.813520 -0.000000
-0.813520 0.000000
-0.813520 -0.000000
-0.813520 0.000000
-0.813520 -0.000000
-0.813520 0.000000
-0.813520 -0.000000
-0.813520 0.000000
-0.813520 -0.000000
-0.813520 0.000000
-0.813520 -0.000000
-0.813520 0.000000
-0.813520 -0.000000
-0.813520 0.000000
-0.813520 -0.000000
-0.813520 0.000000
-0.813520 -0.000000
-0.813520 0.000000
-0.813520 -0.000000
-0.813520 0.000000
-0.813520 -0.000000
-0.813520 0.000000
-0.813520 -0.000000
-0.813520 0.000000
-0.813520 -0.000000
-0.813520 0.000000
-0.813520 -0.000000
-0.813520 0.000000
-0.813520 -0.000000
-0.813520 0.000000
-0.813520 -0.000000
-0.813520 0.000000
-0.813520 -0.000000
-0.813520 0.000000
-0.813520 -0.000000
-0.813520 0.000000
-0.813520 -0.000000
-0.813520 0.000000
-0.813520 -0.000000
-0.813520 0.000000
-0.813520 -0.000000
-0.813520 0.000000
-0.813520 -0.000000
-0.813520 0.000000
-0.813520 -0.000000
-0.813520 0.000000
-0.813520 -0.000000
-0.813520 0.000000
-0.813520 -0.000000
-0.813520 0.000000
-0.813520 -0.000000
-0.813520 0.000000
-0.813520 -0.000000
-0.813520 0.000000
-0.813520 -0.000000
-0.813520 0.000000
-0.813520 -0.000000
-0.813520 0.000000
-0.813520 -0.000000
-0.813520 0.000000
-0.813520 -0.000000
-0.813520 0.000000
-0.813520 -0.000000
-0.813520 0.000000
-0.813520 -0.000000
-0.813520 0.000000
-0.813520 -0.000000
-0.813520 0.000000
-0.813520 -0.000000
-0.813520 0.000000
-0.813520 -0.000000
-0.813520 0.000000
-0.813520 -0.000000
-0.813520 0.000000
-0.813520 -0.000000
-0.813520 0.000000
-0.813520 -0.000000
-0.813520 0.000000
-0.813520 -0.000000
-0.813520 0.000000
-0.813520 -0.000000
-0.813520 0.000000
-0.813520 -0.000000
-0.813520 0.000000
-0.813520 -0.000000
-0.813520 0.000000
-0.813520 -0.000000
-0.813520 0.000000
-0.813520 -0.000000
-0.813520 0.000000
-0.813520 -0.000000
-0.813520 0.000000
-0.813520 -0.000000
-0.813520 0.000000
-0.813520 -0.000000
-0.813520 0.000000
-0.813520 -0.000000
-0.813520 0.000000
-0.813520 -0.000001
-0.813520 0.000003
-0.813520 -0.000012
-0.813520 0.000043
-0.813520 -0.000158
-0.813520 0.000594
-0.813520 -0.002305
-0.813520 0.008831
-0.813520 -0.030491
-0.813526 0.095105
-0.813526 -0.368123
-0.813164 2.462677
-0.804345 18.030525
-0.773918 43.034574
-0.719958 62.740415
-0.651357 73.319664
-0.574326 80.439945
-0.488905 91.789781
-0.390652 102.871052
-0.280767 120.516314
-0.147967 142.390328
0.004633 165.265054
0.184162 191.939870
0.386681 211.975429
0.606928 227.189616
0.840143 238.291303
1.083148 246.876922
1.333402 252.496058
1.586941 253.004681
1.837598 246.562310
2.078582 234.195365
2.305822 219.923607
2.519109 206.370373
2.718641 191.812310
2.902280 174.742465
3.069011 159.276284
3.221129 143.744605
3.353614 118.701720
3.453760 78.642619
3.513783 46.754196
3.554094 35.041027
3.583782 22.868173
3.598057 5.243672
3.596844 -4.695619
3.587414 -18.356928
3.560719 -30.144371
3.529097 -35.844226
3.488096 -44.129156
3.442292 -47.793068
3.392271 -51.886403
3.338737 -55.014659
3.282302 -57.632622
3.223558 -59.647649
3.163071 -61.109934
3.101388 -62.054843
3.038981 -62.568636
2.976237 -62.747993
2.913452 -62.650498
2.850882 -62.340470
2.788692 -61.893412
2.727005 -61.344723
2.665891 -60.761602
2.605357 -60.187742
2.545384 -59.648437
2.485920 -59.169956
2.426902 -58.762394
2.368252 -58.432468
2.309894 -58.180228
2.251753 -57.994037
2.193771 -57.862415
2.135896 -57.778287
2.078092 -57.716432
2.020347 -57.658124
1.962664 -57.587426
1.905070 -57.478312
1.847612 -57.309426
1.790365 -57.054522
1.733423 -56.697733
1.676896 -56.221041
1.620915 -55.606490
1.565620 -54.846583
1.511162 -53.936081
1.457693 -52.866370
1.405377 -51.635570
1.354372 -50.244313
1.304839 -48.700560
1.256921 -47.014006
1.210762 -45.189861
1.166492 -43.242605
1.124227 -41.187434
1.084065 -39.040257
1.046094 -36.816110
1.010378 -34.534692
0.976969 -32.212896
0.945895 -29.869117
0.917172 -27.520086
0.890796 -25.184085
0.866744 -22.878854
0.844977 -20.620747
0.825440 -18.425866
0.808062 -16.309724
0.792757 -14.286465
0.779425 -12.368756
0.767956 -10.566923
0.758229 -8.889037
0.750117 -7.340062
0.743489 -5.924056
0.738212 -4.641947
0.734151 -3.493993
0.731173 -2.479109
0.729143 -1.600071
0.727905 -0.914841
0.727245 -0.429493
0.727006 -0.059871
0.727101 0.237522
0.727456 0.458988
0.728000 0.621654
0.728691 0.753018
0.729501 0.864694
0.730418 0.964796
0.731429 1.053192
0.732523 1.132400
0.733693 1.204104
0.734932 1.270907
0.736237 1.335049
0.737604 1.396821
0.739032 1.455227
0.740516 1.510282
0.742053 1.559109
0.743635 1.599472
0.745253 1.630769
0.746896 1.651709
0.748556 1.661913
0.750220 1.661475
0.751878 1.649901
0.753519 1.626883
0.755132 1.592992
0.756705 1.548467
0.758229 1.494686
0.759694 1.432308
0.761094 1.362693
0.762420 1.287223
0.763669 1.208098
0.764838 1.126652
0.765925 1.044524
0.766930 0.964103
0.767856 0.886922
0.768707 0.814088
0.769488 0.747132
0.770205 0.687188
0.770866 0.634599
0.771478 0.590404
0.772050 0.553489
0.772589 0.524227
0.773102 0.502407
0.773597 0.486122
0.774077 0.475266
0.774550 0.468947
0.775017 0.464601
0.775481 0.462323
0.775943 0.460750
0.776403 0.457778
0.776859 0.453924
0.777310 0.447189
0.777753 0.437899
0.778186 0.426399
0.778606 0.412795
0.779012 0.397941
0.779403 0.383751
0.779781 0.370536
0.780146 0.358947
0.780500 0.349841
0.780847 0.343293
0.781189 0.339970
0.781528 0.339197
0.781869 0.341848
0.782214 0.347558
0.782566 0.356394
0.782928 0.368161
0.783304 0.383167
0.783696 0.400250
0.784106 0.419871
0.784537 0.441735
0.784991 0.464348
0.785468 0.489152
0.785970 0.515141
0.786499 0.542331
0.787057 0.571536
0.787644 0.602511
0.788264 0.636787
0.788920 0.675113
0.789617 0.717633
0.790359 0.765281
0.791151 0.817612
0.791997 0.874144
0.792902 0.934287
0.793868 0.996568
0.794898 1.060354
0.795991 1.123995
0.797147 1.185736
0.798364 1.244317
0.799637 1.298534
0.800961 1.346573
0.802330 1.387182
0.803736 1.420215
0.805170 1.443419
0.806623 1.457503
0.808085 1.462671
0.809548 1.458014
0.811001 1.444796
0.812437 1.423071
0.813848 1.394346
0.815227 1.359255
0.816567 1.318171
0.817864 1.272229
0.819113 1.222185
0.820310 1.169261
0.821453 1.113231
0.822538 1.055344
0.823565 0.995561
0.824531 0.934630
0.825435 0.872421
0.826278 0.811607
0.827055 0.733935
0.827731 0.609261
0.828193 0.241003
0.827983 -0.819120
0.826310 -2.608607
0.822623 -4.811193
0.816614 -7.206397
0.808205 -9.573735
0.797531 -11.689775
0.784963 -13.323145
0.771068 -14.326159
0.756508 -14.652306
0.741952 -14.327067
0.728016 -13.429310
0.715219 -12.073812
0.703952 -10.395326
0.694468 -8.534424
0.686883 -6.623675
0.681185 -4.779647
0.677261 -3.092435
0.674882 -1.740550
0.673634 -0.816404
0.673155 -0.171130
0.673227 0.280586
0.673654 0.543387
0.674258 0.636731
0.674886 0.603919
0.675445 0.505423
0.675871 0.324884
0.676035 -0.037424
0.675741 -0.562467
0.674899 -1.117744
0.673514 -1.642111
0.671637 -2.089848
0.669366 -2.429135
0.666819 -2.633053
0.664152 -2.664990
0.661541 -2.526086
0.659145 -2.236492
0.657104 -1.824053
0.655523 -1.322798
0.654468 -0.786353
0.653913 -0.358268
0.653712 -0.046477
0.653806 0.224438
0.654146 0.450156
0.654688 0.618491
0.655366 0.731271
0.656141 0.811641
0.656977 0.851329
0.657833 0.851486
0.658669 0.814425
0.659453 0.746214
0.660155 0.654497
0.660758 0.547880
0.661250 0.434571
0.661629 0.323881
0.661901 0.221680
0.662074 0.124487
0.662154 0.036387
0.662159 -0.017557
0.662137 -0.015068
0.662138 0.017448
0.662174 0.055221
0.662254 0.109136
0.662398 0.181369
0.662622 0.267029
0.662936 0.360966
0.663346 0.457471
0.663850 0.550013
0.664443 0.632871
0.665112 0.701029
0.665841 0.751148
0.666609 0.780604
0.667397 0.789050
0.668182 0.777460
0.668947 0.747607
0.669674 0.703530
0.670352 0.649155
0.670972 0.588561
0.671530 0.525881
0.672026 0.465847
0.672464 0.411010
0.672851 0.364991
0.673198 0.329903
0.673516 0.306592
0.673816 0.295846
0.674112 0.297903
0.674417 0.311584
0.674739 0.335343
0.675091 0.367512
0.675477 0.405111
0.675903 0.446788
0.676372 0.489229
0.676882 0.529742
0.677431 0.566504
0.678014 0.597970
0.678626 0.622662
0.679258 0.639297
0.679903 0.648142
0.680553 0.649344
0.681201 0.643826
0.681840 0.632289
0.682465 0.616184
0.683073 0.597627
0.683661 0.577850
0.684230 0.557968
0.684779 0.540111
0.685312 0.524919
0.685831 0.514067
0.686343 0.508476
0.686851 0.508272
0.687362 0.513487
0.687881 0.524970
0.688415 0.541494
0.688967 0.562168
0.689542 0.587147
0.690143 0.613910
0.690772 0.642657
0.691429 0.671002
0.692114 0.698120
0.692826 0.723704
0.693562 0.745765
0.694318 0.763739
0.695090 0.778051
0.695874 0.788210
0.696666 0.793775
0.697462 0.795370
0.698258 0.793394
0.699050 0.788615
0.699836 0.781510
0.700614 0.772956
0.701383 0.763593
0.702142 0.753936
0.702892 0.744975
0.703634 0.736659
0.704368 0.729281
0.705095 0.723584
0.705817 0.719374
0.706535 0.716326
0.707251 0.714762
0.707966 0.714035
0.708681 0.713860
0.709396 0.714020
0.710110 0.713842
0.710825 0.713545
0.711538 0.712196
0.712250 0.709632
0.712959 0.706062
0.713663 0.700551
0.714361 0.693780
0.715051 0.684992
0.715732 0.674631
0.716401 0.663198
0.717059 0.650149
0.717703 0.636148
0.718332 0.621339
0.718946 0.605622
0.719544 0.589313
0.720126 0.573086
0.720692 0.556501
0.721240 0.539520
0.721772 0.522558
0.722286 0.505525
0.722784 0.488443
0.723264 0.471180
0.723727 0.453285
0.724172 0.435162
0.724598 0.416673
0.725006 0.397607
0.725394 0.377943
0.725762 0.357675
0.726110 0.337288
0.726437 0.316438
0.726743 0.295662
0.727029 0.275200
0.727294 0.254899
0.727540 0.235652
0.727766 0.216947
0.727975 0.199600
0.728166 0.183288
0.728342 0.167775
0.728503 0.153982
0.728650 0.140893
0.728785 0.128925
0.728909 0.118301
0.729022 0.108215
0.729126 0.098808
0.729220 0.090219
0.729306 0.081945
0.729384 0.074050
0.729455 0.066869
0.729518 0.059413
0.729574 0.052343
0.729623 0.045548
0.729665 0.038594
0.729701 0.032272
0.729730 0.026016
0.729752 0.019304
0.729768 0.012514
0.729777 0.004693
0.729778 -0.003251
0.729771 -0.011247
0.729755 -0.019015
0.729733 -0.025673
0.729704 -0.032018
0.729669 -0.036947
0.729630 -0.040724
0.729588 -0.042781
0.729545 -0.043336
0.729502 -0.043246
0.729459 -0.041806
0.729418 -0.039914
0.729379 -0.037987
0.729342 -0.035947
0.729307 -0.033987
0.729274 -0.032109
0.729243 -0.030884
0.729212 -0.029912
0.729183 -0.029249
0.729154 -0.028879
0.729125 -0.029030
0.729095 -0.029368
0.729066 -0.029469
0.729036 -0.029745
0.729006 -0.030380
0.728976 -0.030617
0.728945 -0.030368
0.728915 -0.030183
0.728885 -0.029710
0.728856 -0.028724
0.728827 -0.027654
0.728800 -0.026730
0.728774 -0.024963
0.728750 -0.024330
0.728727 -0.020338
0.728704 -0.030611
0.728684 0.016248
0.728659 -0.168867
0.728620 0.466201
0.728845 -1.141267
0.713036 -19.951429
