0.065486 0.072150 -0.590356
-0.645564 3.434922
-0.643413 1.133504
-0.642751 0.460987
-0.642237 0.546272
-0.641655 0.638128
-0.640939 0.792145
-0.640073 0.935901
-0.639069 1.067096
-0.637958 1.132213
-0.636781 1.262022
-0.635554 1.025262
-0.634826 0.495643
-0.634690 -0.417916
-0.635858 -1.915949
-0.638481 -3.280065
-0.642350 -4.420517
-0.647274 -5.389725
-0.653092 -6.213143
-0.659673 -6.920146
-0.666915 -7.535255
-0.674735 -8.079062
-0.683072 -8.571220
-0.691884 -9.030351
-0.701144 -9.467588
-0.710832 -9.887767
-0.720933 -10.288626
-0.731420 -10.657568
-0.742256 -10.986901
-0.753405 -11.285545
-0.764841 -11.557463
-0.776532 -11.796273
-0.788438 -11.979683
-0.800463 -12.007316
-0.812370 -11.713176
-0.823842 -11.205178
-0.834705 -10.404217
-0.844673 -9.610056
-0.854084 -9.236717
-0.863213 -9.005661
-0.872118 -8.786031
-0.880831 -8.652843
-0.889368 -8.300716
-0.897084 -6.854622
-0.902755 -4.403373
-0.905953 -2.111207
-0.907285 -0.727392
-0.907663 -0.104617
-0.907657 0.030491
-0.907661 -0.010691
-0.907660 0.003538
-0.907660 -0.001127
-0.907660 0.000350
-0.907660 -0.000106
-0.907660 0.000032
-0.907660 -0.000009
-0.907660 0.000003
-0.907660 -0.000001
-0.907660 0.000000
-0.907660 -0.000000
-0.907660 0.000000
-0.907660 -0.000000
-0.907660 0.000000
-0.907660 -0.000000
-0.907660 0.000000
-0.907660 -0.000000
-0.907660 0.000000
-0.907660 -0.000000
-0.907660 0.000000
-0.907660 -0.000000
-0.907660 0.000000
-0.907660 -0.000000
-0.907660 0.000000
-0.907660 -0.000000
-0.907660 0.000000
-0.907660 -0.000000
-0.907660 0.000000
-0.907660 -0.000000
-0.907660 0.000000
-0.907660 -0.000001
-0.907660 0.000002
-0.907660 -0.000007
-0.907660 0.000021
-0.907660 -0.000055
-0.907660 0.000128
-0.907660 -0.000209
-0.907660 -0.000158
-0.907659 0.003832
-0.907664 -0.025492
-0.907639 0.157880
-0.907237 0.671866
-0.906313 1.128304
-0.904879 1.882797
-0.902388 3.103786
-0.898559 4.644708
-0.893251 5.702460
-0.887483 5.740268
-0.881846 5.515458
-0.876419 5.355687
-0.871185 5.014286
-0.866418 4.559499
-0.862026 4.195478
-0.858024 3.816580
-0.854386 3.436017
-0.851160 3.010035
-0.848361 2.582570
-0.845989 2.155758
-0.844042 1.736819
-0.842507 1.332772
-0.841368 0.946053
-0.840606 0.580946
-0.840209 0.202731
-0.840228 -0.258865
-0.840749 -0.785635
-0.841788 -1.272749
-0.843267 -1.668089
-0.845104 -1.992367
-0.847239 -2.267666
-0.849629 -2.499161
-0.852229 -2.690587
-0.855000 -2.836618
-0.857873 -2.876612
-0.860755 -2.905403
-0.863695 -2.950435
-0.866643 -2.937556
-0.869568 -2.902862
-0.872428 -2.787579
-0.875132 -2.619819
-0.877682 -2.481442
-0.880088 -2.308950
-0.882287 -2.082926
-0.884261 -1.863974
-0.885999 -1.584767
-0.887417 -1.255481
-0.888535 -0.995051
-0.889419 -0.764432
-0.890059 -0.514093
-0.890450 -0.270051
-0.890608 -0.050291
-0.890562 0.136364
-0.890334 0.324563
-0.889893 0.569139
-0.889172 0.880033
-0.888100 1.282979
-0.886594 1.714274
-0.884672 2.134894
-0.882342 2.490813
-0.879709 2.776264
-0.876786 3.056897
-0.873598 3.309425
-0.870167 3.541953
-0.866510 3.767518
-0.862582 4.118135
-0.858276 4.437932
-0.853741 4.627935
-0.849022 4.781936
-0.844167 4.936103
-0.839126 5.133556
-0.833912 5.265948
-0.828603 5.339527
-0.823220 5.419882
-0.817751 5.505770
-0.812200 5.583533
-0.806575 5.654557
-0.800882 5.718800
-0.795127 5.777495
-0.789317 5.831689
-0.783453 5.882707
-0.777540 5.931606
-0.771579 5.979225
-0.765570 6.026258
-0.759514 6.074094
-0.753409 6.123278
-0.747255 6.174186
-0.741048 6.227684
-0.734786 6.284505
-0.728465 6.344796
-0.722082 6.409167
-0.715632 6.478615
-0.709110 6.552295
-0.702513 6.630296
-0.695835 6.711574
-0.689075 6.795943
-0.682228 6.886314
-0.675287 6.983046
-0.668246 7.084158
-0.661103 7.190049
-0.653850 7.301585
-0.646482 7.420070
-0.638991 7.549645
-0.631366 7.686656
-0.623601 7.828565
-0.615697 7.958266
-0.607676 8.066271
-0.599554 8.158220
-0.591342 8.254341
-0.583025 8.361501
-0.574599 8.476461
-0.566050 8.604996
-0.557371 8.736284
-0.548560 8.867385
-0.539619 8.997215
-0.530548 9.125103
-0.521352 9.248803
-0.512033 9.370836
-0.502592 9.491249
-0.493032 9.608875
-0.483356 9.724386
-0.473565 9.836773
-0.463663 9.946459
-0.453653 10.053209
-0.443538 10.157346
-0.433319 10.259630
-0.422999 10.360009
-0.412580 10.455945
-0.402071 10.534728
-0.391510 10.551070
-0.380975 10.487788
-0.370528 10.379919
-0.360197 10.263368
-0.349971 10.177217
-0.339813 10.119313
-0.329708 10.073163
-0.319638 10.052627
-0.309575 10.054488
-0.299506 10.062997
-0.289422 10.092182
-0.279301 10.124177
-0.269150 10.167802
-0.258941 10.221946
-0.248686 10.272173
-0.238374 10.329560
-0.228008 10.382896
-0.217587 10.437074
-0.207114 10.488859
-0.196589 10.539510
-0.186014 10.588694
-0.175391 10.637174
-0.164719 10.685167
-0.153999 10.732173
-0.143233 10.777500
-0.132423 10.820725
-0.121571 10.861689
-0.110679 10.900456
-0.099749 10.936924
-0.088784 10.970914
-0.077786 11.002187
-0.066759 11.030597
-0.055704 11.056310
-0.044625 11.078924
-0.033525 11.098707
-0.022406 11.115396
-0.011273 11.128923
-0.000127 11.139523
0.011027 11.146781
0.022188 11.151132
0.033351 11.152184
0.044513 11.150107
0.055672 11.144510
0.066824 11.135751
0.077964 11.121943
0.089088 11.103894
0.100194 11.083936
0.111277 11.060357
0.122336 11.033318
0.133365 11.002314
0.144361 10.967595
0.155321 10.928864
0.166239 10.886031
0.177113 10.839390
0.187938 10.788528
0.198711 10.734152
0.209427 10.675978
0.220083 10.613665
0.230674 10.547445
0.241198 10.478251
0.251651 10.406208
0.262030 10.331792
0.272334 10.256100
0.282562 10.178991
0.292713 10.101270
0.302785 10.024047
0.312781 9.947436
0.322701 9.872448
0.332546 9.798207
0.342319 9.730516
0.352024 9.655716
0.361654 9.595076
0.371233 9.534215
0.380743 9.476517
0.390208 9.427982
0.399616 9.373102
0.408978 9.332628
0.418297 9.284103
0.427568 9.246208
0.436802 9.192030
0.445977 9.154567
0.455122 9.095330
0.464191 9.053700
0.473249 9.016433
0.482235 8.958287
0.491199 8.945279
0.500142 8.925912
0.509071 8.912212
0.517984 8.898990
0.526889 8.892568
0.535786 8.882931
0.544673 8.876464
0.553556 8.868673
0.562429 8.861972
0.571298 8.856456
0.580161 8.854860
0.589026 8.853506
0.597880 8.836219
0.606720 8.830527
0.615563 8.837759
0.624409 8.833184
0.633243 8.817097
0.642056 8.786954
0.650829 8.737423
0.659543 8.670403
0.668181 8.585346
0.676725 8.482339
0.685157 8.361918
0.693463 8.234319
0.701635 8.085437
0.709643 7.917665
0.717490 7.761481
0.725182 7.604652
0.732716 7.454183
0.740114 7.329399
0.747392 7.210361
0.754551 7.097650
0.761610 7.012142
0.768591 6.931456
0.775481 6.833895
0.782278 6.753294
0.789003 6.676813
0.795642 6.592355
0.802206 6.523089
0.808701 6.450998
0.815119 6.374862
0.821463 6.298402
0.827727 6.215076
0.833906 6.132433
0.840002 6.044487
0.846005 5.951545
0.851916 5.856901
0.857729 5.758141
0.863444 5.658348
0.869057 5.556807
0.874567 5.452032
0.879971 5.344956
0.885269 5.240401
0.890464 5.142493
0.895571 5.064097
0.900617 5.028615
0.905653 5.039396
0.910718 5.085121
0.915842 5.156255
0.921043 5.234057
0.926320 5.308357
0.931668 5.377691
0.937085 5.443205
0.942565 5.505071
0.948106 5.566198
0.953707 5.623557
0.959364 5.680245
0.965079 5.737954
0.970850 5.792684
0.976676 5.848871
0.982560 5.905637
0.988498 5.958685
0.994489 6.013031
1.000536 6.067625
1.006635 6.117794
1.012784 6.168274
1.018984 6.218424
1.025233 6.266329
1.031528 6.310796
1.037866 6.352424
1.044246 6.395563
1.050669 6.434832
1.057129 6.473632
1.063629 6.511031
1.070163 6.546375
1.076735 6.583671
1.083343 6.618341
1.089985 6.653448
1.096664 6.692579
1.103383 6.730665
1.110139 6.768303
1.116935 6.809312
1.123770 6.846590
1.130643 6.887134
1.137559 6.930152
1.144516 6.969288
1.151512 7.011365
1.158552 7.053489
1.165632 7.092590
1.172752 7.131098
1.179909 7.169821
1.187105 7.206305
1.194336 7.241419
1.201603 7.278077
1.208905 7.312040
1.216242 7.347610
1.223616 7.384675
1.231026 7.420233
1.238471 7.456550
1.245954 7.495559
1.253478 7.534943
1.261039 7.574043
1.268641 7.612034
1.276278 7.647701
1.283947 7.669550
1.291622 7.660143
1.299266 7.602012
1.306823 7.489639
1.314250 7.345725
1.321521 7.177150
1.328615 6.998181
1.335537 6.837332
1.342311 6.699343
1.348960 6.591725
1.355519 6.519472
1.362021 6.475691
1.368493 6.460564
1.374963 6.468463
1.381447 6.488820
1.387959 6.525899
1.394515 6.572714
1.401119 6.623921
1.407779 6.682095
1.414498 6.742837
1.421279 6.807586
1.428127 6.873678
1.435040 6.938412
1.442017 7.000303
1.449055 7.062752
1.456157 7.127720
1.463324 7.190002
1.470552 7.254910
1.477850 7.324395
1.485215 7.391421
1.492649 7.462597
1.500154 7.531352
1.507726 7.600184
1.515371 7.671019
1.523083 7.738195
1.530862 7.804266
1.538706 7.867962
1.546613 7.929253
1.554579 7.985266
1.562599 8.039259
1.570673 8.092026
1.578796 8.134794
1.586958 8.174850
1.595161 8.211653
1.603395 8.241692
1.611660 8.270835
1.619951 8.292608
1.628261 8.311575
1.636590 8.328635
1.644934 8.341769
1.653290 8.353165
1.661656 8.361787
1.670030 8.370245
1.678413 8.378569
1.686804 8.388439
1.695207 8.398926
1.703619 8.409367
1.712043 8.422645
1.720482 8.437634
1.728936 8.454103
1.737408 8.472602
1.745899 8.492610
1.754410 8.512122
1.762941 8.534641
1.771496 8.557359
1.780073 8.581378
1.788676 8.605257
1.797301 8.628720
1.805951 8.653923
1.814626 8.678440
1.823326 8.703055
1.832049 8.726386
1.840799 8.760208
1.849557 8.704174
1.858205 8.588903
1.866784 8.570468
1.875379 8.597858
1.883995 8.618075
1.892634 8.644295
1.901302 8.673112
1.909997 8.700498
1.918720 8.727560
1.927469 8.751994
1.936242 8.778011
1.945041 8.798042
1.953856 8.820208
1.962692 8.823915
1.971476 8.691382
1.980081 8.522635
1.988336 7.747648
1.995224 5.872158
2.000155 4.183454
2.003772 3.011703
2.006118 1.640290
2.007219 0.758913
2.007898 0.658980
2.008592 0.718164
2.009341 0.793426
2.010193 0.906323
2.011152 1.008005
2.012206 1.094286
2.013328 1.137661
2.014458 1.105333
2.015515 0.993875
2.016424 0.811845
2.017118 0.564925
2.017539 0.269496
2.017634 -0.096586
2.017302 -0.593190
2.016408 -1.204605
2.014864 -1.896000
2.012581 -2.681671
2.009475 -3.527439
2.005519 -4.374577
2.000722 -5.207598
1.995098 -6.025622
1.988665 -6.823424
1.981445 -7.598075
1.973463 -8.344257
1.964750 -9.059422
1.955338 -9.740704
1.945263 -10.382310
1.934566 -10.982009
1.923292 -11.535548
1.911488 -12.040002
1.899204 -12.495041
1.886491 -12.896200
1.873403 -13.246457
1.859989 -13.545330
1.846300 -13.799615
1.832375 -14.016094
1.818252 -14.196219
1.803962 -14.351722
1.789528 -14.483208
1.774974 -14.594139
1.760315 -14.690859
1.745567 -14.774566
1.730742 -14.841563
1.715858 -14.897633
1.700920 -14.945230
1.685942 -14.978862
1.670937 -14.998660
1.655919 -15.003561
1.640905 -14.992841
1.625908 -14.967888
1.610945 -14.925807
1.596032 -14.867868
1.581183 -14.799332
1.566409 -14.716015
1.551725 -14.621638
1.537139 -14.520451
1.522658 -14.409874
1.508292 -14.294445
1.494042 -14.175677
1.479911 -14.059068
1.465893 -13.949898
1.451980 -13.850881
1.438159 -13.764875
1.424418 -13.692252
1.410743 -13.632566
1.397122 -13.585788
1.383539 -13.553666
1.369983 -13.533918
1.356439 -13.529046
1.342893 -13.537485
1.329334 -13.556067
1.315750 -13.587590
1.302128 -13.629899
1.288459 -13.683780
1.274728 -13.753073
1.260920 -13.836542
1.247029 -13.913610
1.233063 -13.997617
1.218991 -14.126663
1.204773 -14.280204
1.190395 -14.455873
1.175819 -14.672746
1.161010 -14.917929
1.145942 -15.195582
1.130577 -15.509390
1.114884 -15.848862
1.098850 -16.180595
1.082497 -16.492214
1.065869 -16.693286
1.049135 -16.719474
1.032380 -16.797199
1.015457 -17.026937
0.998315 -17.187085
0.981088 -17.226470
0.963784 -17.395759
0.946209 -17.722718
0.928304 -18.047312
0.910079 -18.370732
0.891525 -18.695707
0.872654 -19.008474
0.853472 -19.314280
0.833992 -19.605977
0.814228 -19.876160
0.794208 -20.120329
0.773957 -20.336546
0.753504 -20.525255
0.732875 -20.684216
0.712104 -20.813583
0.691215 -20.915612
0.670240 -20.989624
0.649203 -21.038403
0.628129 -21.063358
0.607041 -21.067545
0.585960 -21.047303
0.564910 -21.008335
0.543907 -20.951749
0.522971 -20.877736
0.502115 -20.786784
0.481361 -20.680131
0.460717 -20.563758
0.440196 -20.434731
0.419810 -20.295625
0.399567 -20.147912
0.379476 -19.992663
0.359544 -19.831590
0.339775 -19.665973
0.320174 -19.496862
0.300743 -19.325122
0.281485 -19.152668
0.262400 -18.979594
0.243487 -18.807201
0.224747 -18.636298
0.206177 -18.467148
0.187775 -18.300902
0.169538 -18.137420
0.151463 -17.977105
0.133546 -17.820619
0.115785 -17.667254
0.098175 -17.517572
0.080713 -17.371777
0.063396 -17.229177
0.046219 -17.090015
0.029180 -16.954284
0.012276 -16.821402
-0.004497 -16.691375
-0.021141 -16.563911
-0.037659 -16.438307
-0.054052 -16.314744
-0.070321 -16.192687
-0.086470 -16.071274
-0.102496 -15.950595
-0.118403 -15.830575
-0.134189 -15.710381
-0.149855 -15.590116
-0.165400 -15.469232
-0.180824 -15.347531
-0.196126 -15.224815
-0.211304 -15.100734
-0.226357 -14.975710
-0.241285 -14.849007
-0.256085 -14.720687
-0.270755 -14.590751
-0.285295 -14.459308
-0.299702 -14.325982
-0.313975 -14.191139
-0.328112 -14.055158
-0.342113 -13.917146
-0.355974 -13.777784
-0.369695 -13.637451
-0.383276 -13.495809
-0.396714 -13.353159
-0.410009 -13.209629
-0.423159 -13.065249
-0.436165 -12.920198
-0.449025 -12.774735
-0.461740 -12.628935
-0.474308 -12.483025
-0.486731 -12.336910
-0.499007 -12.190877
-0.511137 -12.044946
-0.523121 -11.899434
-0.534960 -11.754361
-0.546654 -11.609722
-0.558203 -11.466075
-0.569609 -11.322971
-0.580872 -11.180686
-0.591993 -11.039453
-0.602973 -10.899289
-0.613814 -10.760227
-0.624515 -10.622205
-0.635080 -10.485362
-0.645508 -10.349841
-0.655800 -10.215364
-0.665959 -10.082195
-0.675986 -9.950357
-0.685880 -9.819564
-0.695645 -9.690142
-0.705280 -9.562109
-0.714789 -9.435219
-0.724170 -9.309341
-0.733426 -9.184833
-0.742558 -9.061417
-0.751568 -8.939033
-0.760455 -8.818291
-0.769221 -8.696365
-0.777868 -8.584042
-0.786394 -8.432445
-0.794717 -8.181691
-0.802802 -8.015554
-0.810790 -7.927802
-0.818662 -7.806044
-0.826422 -7.697255
-0.834071 -7.587240
-0.841610 -7.470515
-0.849037 -7.382458
-0.856360 -7.206536
-0.863442 -6.963569
-0.870344 -6.849254
-0.877148 -6.716125
-0.883763 -6.501569
-0.890077 -6.027639
-0.895734 -5.267131
-0.900482 -4.087419
-0.903921 -2.918223
-0.906356 -1.844212
-0.907534 -0.532362
-0.907669 0.041277
-0.907658 -0.004298
-0.907661 -0.000780
-0.907660 0.000744
-0.907660 -0.000347
-0.907660 0.000134
-0.907660 -0.000047
-0.907660 0.000016
-0.907660 -0.000005
-0.907660 0.000002
-0.907660 -0.000000
-0.907660 0.000000
-0.907660 -0.000000
-0.907660 0.000000
-0.907660 -0.000000
-0.907660 0.000000
-0.907660 -0.000000
-0.907660 0.000000
-0.907660 -0.000000
-0.907660 0.000000
-0.907660 -0.000000
-0.907660 0.000000
-0.907660 -0.000000
-0.907660 0.000000
-0.907660 -0.000000
-0.907660 0.000000
-0.907660 -0.000000
-0.907660 0.000000
-0.907660 -0.000000
-0.907660 0.000000
-0.907660 -0.000000
-0.907660 0.000000
-0.907660 -0.000000
-0.907660 0.000000
-0.907660 -0.000000
-0.907660 0.000000
-0.907660 -0.000000
-0.907660 0.000000
-0.907660 -0.000000
-0.907660 0.000000
-0.907660 -0.000000
-0.907660 0.000000
-0.907660 -0.000000
-0.907660 0.000000
-0.907660 -0.000000
-0.907660 0.000000
-0.907660 -0.000000
-0.907660 0.000000
-0.907660 -0.000000
-0.907660 0.000000
-0.907660 -0.000000
-0.907660 0.000000
-0.907660 -0.000000
-0.907660 0.000000
-0.907660 -0.000000
-0.907660 0.000000
-0.907660 -0.000000
-0.907660 0.000000
-0.907660 -0.000000
-0.907660 0.000000
-0.907660 -0.000000
-0.907660 0.000000
-0.907660 -0.000000
-0.907660 0.000000
-0.907660 -0.000000
-0.907660 0.000000
-0.907660 -0.000000
-0.907660 0.000000
-0.907660 -0.000000
-0.907660 0.000000
-0.907660 -0.000000
-0.907660 0.000000
-0.907660 -0.000000
-0.907660 0.000000
-0.907660 -0.000000
-0.907660 0.000000
-0.907660 -0.000000
-0.907660 0.000000
-0.907660 -0.000000
-0.907660 0.000000
-0.907660 -0.000000
-0.907660 0.000000
-0.907660 -0.000000
-0.907660 0.000000
-0.907660 -0.000000
-0.907660 0.000000
-0.907660 -0.000000
-0.907660 0.000000
-0.907660 -0.000000
-0.907660 0.000000
-0.907660 -0.000000
-0.907660 0.000000
-0.907660 -0.000000
-0.907660 0.000000
-0.907660 -0.000000
-0.907660 0.000000
-0.907660 -0.000000
-0.907660 0.000000
-0.907660 -0.000000
-0.907660 0.000000
-0.907660 -0.000000
-0.907660 0.000000
-0.907660 -0.000000
-0.907660 0.000000
-0.907660 -0.000000
-0.907660 0.000000
-0.907660 -0.000000
-0.907660 0.000000
-0.907660 -0.000000
-0.907660 0.000000
-0.907660 -0.000000
-0.907660 0.000000
-0.907660 -0.000000
-0.907660 0.000000
-0.907660 -0.000000
-0.907660 0.000000
-0.907660 -0.000000
-0.907660 0.000000
-0.907660 -0.000000
-0.907660 0.000000
-0.907660 -0.000000
-0.907660 0.000000
-0.907660 -0.000000
-0.907660 0.000000
-0.907660 -0.000000
-0.907660 0.000000
-0.907660 -0.000000
-0.907660 0.000000
-0.907660 -0.000000
-0.907660 0.000000
-0.907660 -0.000000
-0.907660 0.000000
-0.907660 -0.000000
-0.907660 0.000000
-0.907660 -0.000000
-0.907660 0.000000
-0.907660 -0.000000
-0.907660 0.000000
-0.907660 -0.000000
-0.907660 0.000000
-0.907660 -0.000000
-0.907660 0.000000
-0.907660 -0.000000
-0.907660 0.000000
-0.907660 -0.000000
-0.907660 0.000000
-0.907660 -0.000001
-0.907660 0.000003
-0.907660 -0.000009
-0.907660 0.000028
-0.907660 -0.000091
-0.907660 0.000291
-0.907660 -0.000901
-0.907660 0.002679
-0.907659 -0.007475
-0.907663 0.018585
-0.907511 0.377236
-0.906917 0.710360
-0.906127 0.930836
-0.905086 1.052483
-0.904020 1.173607
-0.902592 1.728143
-0.900578 2.228689
-0.898228 2.434363
-0.895648 2.808315
-0.892449 3.651677
-0.888331 4.515685
-0.883478 5.173782
-0.877985 5.795488
-0.871970 6.131487
-0.865743 6.368374
-0.859160 6.789488
-0.852246 6.924258
-0.845364 6.857579
-0.838516 6.794345
-0.831800 6.617963
-0.825293 6.361797
-0.819095 6.010809
-0.813259 5.659960
-0.807761 5.318312
-0.802633 4.912492
-0.797949 4.436688
-0.793779 3.878027
-0.790209 3.247788
-0.787282 2.603229
-0.784984 2.000505
-0.783246 1.490826
-0.781979 1.041191
-0.781134 0.672231
-0.780599 0.405027
-0.780303 0.198339
-0.780184 0.045519
-0.780197 -0.062348
-0.780298 -0.136250
-0.780461 -0.185540
-0.780658 -0.202043
-0.780856 -0.189957
-0.781032 -0.159301
-0.781172 -0.117404
-0.781266 -0.069975
-0.781311 -0.021779
-0.781310 0.025140
-0.781262 0.068609
-0.781173 0.110337
-0.781040 0.156603
-0.780858 0.208107
-0.780622 0.262522
-0.780331 0.318916
-0.779983 0.376535
-0.779577 0.434870
-0.779113 0.493647
-0.778589 0.552938
-0.778006 0.612584
-0.777362 0.672766
-0.776658 0.733640
-0.775893 0.795343
-0.775066 0.858046
-0.774175 0.921827
-0.773220 0.986987
-0.772199 1.053163
-0.771111 1.120613
-0.769955 1.189502
-0.768729 1.259454
-0.767433 1.330416
-0.766065 1.402527
-0.764625 1.475553
-0.763111 1.549234
-0.761523 1.623672
-0.759860 1.698385
-0.758123 1.773735
-0.756309 1.849309
-0.754420 1.924902
-0.752456 2.000807
-0.750415 2.076723
-0.748298 2.152581
-0.746105 2.228578
-0.743836 2.304419
-0.741492 2.380500
-0.739071 2.456674
-0.736573 2.532764
-0.734000 2.609278
-0.731350 2.685891
-0.728623 2.762811
-0.725818 2.840021
-0.722937 2.917919
-0.719977 2.996012
-0.716938 3.074519
-0.713821 3.154060
-0.710624 3.233595
-0.707347 3.313836
-0.703989 3.395030
-0.700550 3.476163
-0.697030 3.558050
-0.693427 3.640555
-0.689741 3.723322
-0.685973 3.806757
-0.682120 3.890546
-0.678184 3.974770
-0.674162 4.059486
-0.670057 4.143462
-0.665866 4.231418
-0.661591 4.304081
-0.657229 4.436902
-0.652784 4.340053
-0.645564 3.434922
