0.041969 0.043116 0.296438
0.081574 -46.050142
0.031183 -53.919941
-0.024949 -57.521757
-0.082746 -57.440143
-0.139077 -54.759829
-0.191808 -50.379786
-0.239628 -45.071560
-0.281944 -39.469365
-0.318687 -33.989209
-0.350117 -28.888397
-0.376699 -24.319232
-0.398998 -20.330995
-0.417592 -16.914434
-0.433039 -14.032611
-0.445846 -11.631856
-0.456467 -9.652594
-0.465288 -8.025522
-0.472629 -6.684630
-0.478747 -5.572761
-0.483846 -4.642541
-0.488090 -3.856478
-0.491605 -3.183878
-0.494494 -2.602704
-0.496841 -2.098127
-0.498716 -1.656447
-0.500175 -1.267633
-0.501267 -0.918551
-0.502023 -0.595520
-0.502468 -0.299163
-0.502632 -0.033969
-0.502547 0.198496
-0.502246 0.395300
-0.501768 0.555540
-0.501147 0.678787
-0.500420 0.767197
-0.499623 0.818100
-0.498791 0.844108
-0.497948 0.825951
-0.497144 0.787466
-0.496334 0.860371
-0.495391 1.024837
-0.494276 1.208392
-0.492964 1.414274
-0.491443 1.627076
-0.489706 1.843940
-0.487751 2.061892
-0.485578 2.280118
-0.483186 2.498059
-0.480577 2.714299
-0.477753 2.928519
-0.474715 3.140328
-0.471467 3.349205
-0.468011 3.554051
-0.464353 3.754540
-0.460496 3.950159
-0.456447 4.139532
-0.452211 4.321609
-0.447797 4.495832
-0.443214 4.661106
-0.438470 4.815318
-0.433577 4.958125
-0.428548 5.088388
-0.423395 5.203716
-0.418135 5.303122
-0.412784 5.384982
-0.407361 5.447628
-0.401885 5.489160
-0.396378 5.509868
-0.390856 5.526067
-0.385281 5.643349
-0.379481 5.990873
-0.373252 6.445015
-0.366601 6.830381
-0.359605 7.134816
-0.352345 7.354008
-0.344913 7.480069
-0.337402 7.511735
-0.329878 7.532276
-0.322232 7.824364
-0.314034 8.656581
-0.304728 10.006081
-0.293801 11.954861
-0.280443 14.957767
-0.263470 19.117707
-0.241976 23.856454
-0.215698 28.627938
-0.184694 33.306067
-0.149076 37.815437
-0.109089 42.021025
-0.065072 45.858681
-0.017415 49.290864
0.033465 52.294211
0.087131 54.856246
0.143139 56.973651
0.201045 58.649950
0.260412 59.894414
0.320813 60.718462
0.381834 61.134162
0.443072 61.153535
0.504136 60.790424
0.564651 60.057430
0.624252 58.967815
0.682591 57.538380
0.739338 55.790471
0.794185 53.745708
0.846845 51.425542
0.897055 48.854907
0.944583 46.076251
0.989222 43.062802
1.030774 39.984807
1.069399 37.289157
1.105608 35.137153
1.139905 33.468088
1.172858 32.539983
1.205359 32.537457
1.238056 32.707839
1.270708 32.482541
1.303008 32.021490
1.334740 31.334676
1.365656 30.396525
1.395547 29.320060
1.424384 28.332088
1.452350 27.588371
1.479696 27.084432
1.506639 26.778869
1.533374 26.671924
1.560100 26.757268
1.587003 27.024710
1.614264 27.472204
1.642058 28.086266
1.670543 28.851791
1.699863 29.750788
1.730144 30.767192
1.761492 31.879764
1.793991 33.063123
1.827699 34.292937
1.862655 35.550945
1.898874 36.813827
1.936348 38.053316
1.975044 39.253544
2.014914 40.393179
2.055883 41.449413
2.097862 42.404243
2.140736 43.238379
2.184380 43.938693
2.228651 44.486524
2.273386 44.866535
2.318414 45.067757
2.363547 45.074903
2.408588 44.883625
2.453334 44.480470
2.497563 43.851361
2.541051 43.002049
2.583575 41.921223
2.624896 40.597676
2.664773 39.036878
2.702967 37.234667
2.739235 35.186713
2.773330 32.895678
2.805010 30.357641
2.834028 27.583503
2.860154 24.576252
2.883151 21.333320
2.902789 17.866958
2.918847 14.179718
2.931105 10.277073
2.939354 6.173095
2.943399 1.875050
2.943046 -2.609457
2.938118 -7.264608
2.928443 -12.095469
2.913867 -17.031765
2.894345 -21.969386
2.869898 -26.867565
2.840710 -31.305456
2.807511 -34.882283
2.771019 -38.028025
2.731316 -41.363318
2.688056 -45.160213
2.640697 -49.581187
2.588505 -54.869574
2.530436 -61.392702
2.464992 -69.727688
2.389949 -80.735306
2.302244 -95.087832
2.198373 -113.065751
2.075055 -133.533467
1.931960 -151.242046
1.775394 -159.582518
1.615842 -157.833994
1.461381 -150.179197
1.315934 -140.272191
1.180672 -130.016657
1.055505 -120.166118
0.939881 -110.968603
0.833108 -102.482980
0.734476 -94.697581
0.643302 -87.577321
0.558939 -81.078820
0.480790 -75.156206
0.408299 -69.764788
0.340961 -64.851006
0.278325 -60.364059
0.219983 -56.263312
0.165567 -52.516949
0.114735 -49.097009
0.067175 -45.976034
0.022600 -43.128583
-0.019251 -40.529741
-0.058616 -38.155328
-0.095706 -35.984646
-0.130719 -33.999311
-0.163828 -32.178019
-0.195193 -30.516742
-0.224959 -28.965410
-0.253207 -27.490395
-0.279974 -25.952725
-0.305001 -23.925994
-0.327754 -21.538974
-0.348164 -19.278265
-0.366422 -17.235288
-0.382740 -15.402570
-0.397323 -13.766160
-0.410359 -12.308477
-0.422019 -11.013242
-0.432456 -9.863958
-0.441810 -8.845121
-0.450203 -7.941795
-0.457744 -7.140437
-0.464528 -6.428685
-0.470640 -5.795145
-0.476153 -5.231327
-0.481134 -4.729634
-0.485640 -4.283163
-0.489725 -3.885954
-0.493434 -3.531959
-0.496809 -3.215590
-0.499883 -2.933167
-0.502691 -2.681988
-0.505262 -2.458857
-0.507622 -2.260357
-0.509794 -2.082894
-0.511798 -1.923962
-0.513651 -1.780155
-0.515366 -1.648466
-0.516955 -1.527055
-0.518425 -1.410672
-0.519782 -1.304817
-0.521042 -1.213672
-0.522217 -1.137300
-0.523322 -1.068366
-0.524355 -0.997613
-0.525318 -0.924414
-0.526205 -0.848041
-0.527016 -0.771329
-0.527750 -0.697155
-0.528413 -0.628332
-0.529010 -0.564534
-0.529545 -0.506514
-0.530025 -0.452672
-0.530452 -0.399878
-0.530826 -0.348430
-0.531150 -0.298639
-0.531424 -0.249022
-0.531646 -0.191431
-0.531802 -0.117398
-0.531875 -0.026237
-0.531849 0.081994
-0.531705 0.207065
-0.531429 0.347314
-0.531005 0.501167
-0.530420 0.671289
-0.529656 0.859027
-0.528696 1.060624
-0.527529 1.273183
-0.526145 1.491520
-0.524544 1.705978
-0.522735 1.905306
-0.520738 2.078179
-0.518588 2.210698
-0.516330 2.290287
-0.514023 2.308906
-0.511731 2.259146
-0.509524 2.137385
-0.507475 1.945007
-0.505654 1.682296
-0.504130 1.352294
-0.502968 0.958643
-0.502232 0.501418
-0.501984 -0.016055
-0.502282 -0.588479
-0.503175 -1.199133
-0.504677 -1.791663
-0.506728 -2.283905
-0.509203 -2.637064
-0.511968 -2.870335
-0.514919 -3.012758
-0.517975 -3.084063
-0.521075 -3.101097
-0.524170 -3.077789
-0.527227 -3.024919
-0.530219 -2.950734
-0.533129 -2.861948
-0.535946 -2.764681
-0.538663 -2.662338
-0.541275 -2.558022
-0.543784 -2.454504
-0.546190 -2.352985
-0.548496 -2.255350
-0.550707 -2.162263
-0.552826 -2.074141
-0.554861 -1.991504
-0.556815 -1.913235
-0.558692 -1.838843
-0.560498 -1.768638
-0.562235 -1.703485
-0.563910 -1.643841
-0.565528 -1.590436
-0.567096 -1.544176
-0.568621 -1.503298
-0.570108 -1.467354
-0.571560 -1.435895
-0.572983 -1.407134
-0.574378 -1.381097
-0.575749 -1.357701
-0.577097 -1.336630
-0.578425 -1.317294
-0.579735 -1.300009
-0.581029 -1.284754
-0.582308 -1.271149
-0.583574 -1.259348
-0.584830 -1.249221
-0.586076 -1.241011
-0.587315 -1.234249
-0.588547 -1.228734
-0.589775 -1.224932
-0.591000 -1.222062
-0.592222 -1.220103
-0.593443 -1.219482
-0.594664 -1.219648
-0.595885 -1.220890
-0.597108 -1.222751
-0.598333 -1.224924
-0.599561 -1.228097
-0.600792 -1.231743
-0.602027 -1.235748
-0.603266 -1.240507
-0.604510 -1.245225
-0.605759 -1.250027
-0.607013 -1.255529
-0.608273 -1.261204
-0.609538 -1.266859
-0.610809 -1.273224
-0.612087 -1.280188
-0.613372 -1.287031
-0.614664 -1.294125
-0.615963 -1.301868
-0.617270 -1.309913
-0.618586 -1.318182
-0.619909 -1.326588
-0.621242 -1.335100
-0.622582 -1.343818
-0.623932 -1.352769
-0.625291 -1.361767
-0.626658 -1.371036
-0.628035 -1.380436
-0.629422 -1.389904
-0.630818 -1.399264
-0.632223 -1.408807
-0.633639 -1.418642
-0.635063 -1.428185
-0.636498 -1.437898
-0.637942 -1.447915
-0.639397 -1.458054
-0.640861 -1.467682
-0.642335 -1.477310
-0.643819 -1.487402
-0.645313 -1.497195
-0.646816 -1.506778
-0.648329 -1.516400
-0.649852 -1.525981
-0.651384 -1.535607
-0.652926 -1.545271
-0.654478 -1.554719
-0.656039 -1.563795
-0.657609 -1.573266
-0.659188 -1.582505
-0.660777 -1.591571
-0.662375 -1.601023
-0.663982 -1.610171
-0.665598 -1.618950
-0.667223 -1.627703
-0.668857 -1.636639
-0.670499 -1.645194
-0.672150 -1.653577
-0.673810 -1.661595
-0.675477 -1.669356
-0.677152 -1.677130
-0.678834 -1.684670
-0.680525 -1.692169
-0.682222 -1.699443
-0.683927 -1.706471
-0.685638 -1.713400
-0.687357 -1.720038
-0.689082 -1.726582
-0.690814 -1.733310
-0.692552 -1.739449
-0.694296 -1.745409
-0.696046 -1.751571
-0.697802 -1.757207
-0.699564 -1.762877
-0.701332 -1.768378
-0.703104 -1.773393
-0.704882 -1.778548
-0.706665 -1.783296
-0.708452 -1.787848
-0.710244 -1.791968
-0.712040 -1.795925
-0.713839 -1.799957
-0.715643 -1.803353
-0.717450 -1.806617
-0.719260 -1.809877
-0.721073 -1.812556
-0.722888 -1.815047
-0.724707 -1.817640
-0.726527 -1.819688
-0.728350 -1.821502
-0.730174 -1.823306
-0.732000 -1.824709
-0.733827 -1.825764
-0.735655 -1.826896
-0.737484 -1.827519
-0.739313 -1.827731
-0.741143 -1.828157
-0.742973 -1.828213
-0.744803 -1.827826
-0.746633 -1.827329
-0.748461 -1.826552
-0.750289 -1.825540
-0.752116 -1.824300
-0.753941 -1.822795
-0.755765 -1.821046
-0.757587 -1.819083
-0.759407 -1.816817
-0.761224 -1.814276
-0.763039 -1.811524
-0.764851 -1.808479
-0.766659 -1.805201
-0.768465 -1.801658
-0.770266 -1.797854
-0.772064 -1.793869
-0.773858 -1.789604
-0.775647 -1.785111
-0.777431 -1.780397
-0.779211 -1.775476
-0.780986 -1.770343
-0.782755 -1.764941
-0.784519 -1.759358
-0.786277 -1.753597
-0.788030 -1.747609
-0.789776 -1.741420
-0.791516 -1.735045
-0.793249 -1.728462
-0.794976 -1.721679
-0.796696 -1.714766
-0.798409 -1.707751
-0.800115 -1.700618
-0.801814 -1.693429
-0.803505 -1.686261
-0.805190 -1.679052
-0.806867 -1.671822
-0.808537 -1.664600
-0.810199 -1.657336
-0.811855 -1.650061
-0.813503 -1.642739
-0.815143 -1.635368
-0.816777 -1.627960
-0.818403 -1.620536
-0.820021 -1.613069
-0.821632 -1.605536
-0.823235 -1.597979
-0.824831 -1.590348
-0.826419 -1.582698
-0.828000 -1.575006
-0.829572 -1.567228
-0.831137 -1.559444
-0.832694 -1.551642
-0.834244 -1.543783
-0.835785 -1.535911
-0.837318 -1.528005
-0.838844 -1.520034
-0.840362 -1.512027
-0.841871 -1.504014
-0.843373 -1.495847
-0.844866 -1.487959
-0.846351 -1.478949
-0.847828 -1.472924
-0.849295 -1.453702
-0.850703 -1.330912
-0.851913 -1.066183
-0.852833 -0.786229
-0.853512 -0.582062
-0.854022 -0.449285
-0.854431 -0.373994
-0.854781 -0.329799
-0.855096 -0.300857
-0.855385 -0.277357
-0.855652 -0.255898
-0.855895 -0.226829
-0.856102 -0.187299
-0.856270 -0.146542
-0.856395 -0.103981
-0.856477 -0.058391
-0.856511 -0.010058
-0.856496 0.040429
-0.856430 0.091636
-0.856313 0.142309
-0.856146 0.190987
-0.855932 0.236369
-0.855674 0.277489
-0.855378 0.313322
-0.855049 0.343234
-0.854693 0.366787
-0.854317 0.383834
-0.853927 0.394444
-0.853529 0.398531
-0.853131 0.395992
-0.852739 0.386922
-0.852358 0.371577
-0.851997 0.350434
-0.851659 0.323939
-0.851350 0.292500
-0.851074 0.256702
-0.850837 0.217116
-0.850641 0.174252
-0.850489 0.128694
-0.850384 0.080960
-0.850328 0.031647
-0.850321 -0.018025
-0.850362 -0.063997
-0.850446 -0.100912
-0.850561 -0.126932
-0.850697 -0.142859
-0.850844 -0.150396
-0.850996 -0.151463
-0.851146 -0.147481
-0.851289 -0.139672
-0.851424 -0.128798
-0.851547 -0.115616
-0.851655 -0.100637
-0.851747 -0.083929
-0.851823 -0.065786
-0.851879 -0.046499
-0.851915 -0.026207
-0.851931 -0.005061
-0.851925 0.016959
-0.851897 0.039970
-0.851845 0.063967
-0.851768 0.089091
-0.851666 0.115380
-0.851537 0.142950
-0.851379 0.171920
-0.851192 0.202301
-0.850974 0.234161
-0.850723 0.267501
-0.850438 0.302395
-0.850117 0.338928
-0.849759 0.377215
-0.849361 0.417239
-0.848923 0.458978
-0.848442 0.502394
-0.847916 0.547390
-0.847345 0.593830
-0.846727 0.641704
-0.846060 0.691048
-0.845343 0.741034
-0.844575 0.795469
-0.843751 0.850537
-0.842854 0.960185
-0.841798 1.161720
-0.840514 1.406808
-0.838982 1.649879
-0.837219 1.868204
-0.835252 2.055906
-0.833116 2.205468
-0.830851 2.313560
-0.828499 2.378070
-0.826104 2.398125
-0.823712 2.376049
-0.821359 2.319774
-0.819077 2.233784
-0.816895 2.123289
-0.814831 1.999660
-0.812893 1.872368
-0.811082 1.746620
-0.809396 1.620911
-0.807836 1.498737
-0.806392 1.386861
-0.805054 1.289339
-0.803805 1.209084
-0.802628 1.146343
-0.801505 1.101120
-0.800419 1.070937
-0.799357 1.051761
-0.798310 1.040332
-0.797273 1.033793
-0.796239 1.030803
-0.795208 1.031673
-0.794175 1.031099
-0.793137 1.048029
-0.792092 1.018631
-0.791101 0.979595
-0.790152 0.877860
-0.789483 0.359749
-0.789639 -0.780315
-0.791116 -2.133950
-0.793659 -2.732702
-0.796297 -2.461853
-0.798533 -2.027938
-0.800417 -1.775278
-0.802108 -1.583887
-0.803572 -1.342350
-0.804811 -1.148171
-0.805884 -0.995059
-0.806823 -0.900790
-0.807703 -0.853512
-0.808504 -0.723115
-0.809141 -0.564212
-0.809647 -0.447265
-0.810043 -0.348148
-0.810346 -0.254502
-0.810552 -0.159893
-0.810661 -0.050256
-0.810631 0.124232
-0.810404 0.324332
-0.809993 0.489483
-0.809441 0.602962
-0.808796 0.687450
-0.808066 0.769308
-0.807258 0.843675
-0.806375 0.922833
-0.805409 1.006422
-0.804363 1.082177
-0.803244 1.153602
-0.802055 1.219820
-0.800804 1.280370
-0.799493 1.338770
-0.798123 1.400036
-0.796688 1.467228
-0.795180 1.550769
-0.793577 1.653920
-0.791867 1.763081
-0.790051 1.860410
-0.788150 1.933043
-0.786186 1.992301
-0.784163 2.047888
-0.782087 2.098162
-0.779962 2.148081
-0.777786 2.201787
-0.775555 2.253282
-0.773276 2.300863
-0.770949 2.347530
-0.768577 2.391712
-0.766161 2.435462
-0.763701 2.480079
-0.761199 2.516276
-0.758661 2.558227
-0.756073 2.611585
-0.753436 2.654911
-0.750752 2.717050
-0.747994 2.788150
-0.745176 2.840292
-0.742310 2.886186
-0.739402 2.921568
-0.736462 2.951405
-0.733496 2.973362
-0.730510 2.993336
-0.727502 3.017759
-0.724470 3.040440
-0.721414 3.065045
-0.718333 3.089848
-0.715228 3.113882
-0.712099 3.139018
-0.708944 3.163694
-0.705765 3.187763
-0.702560 3.217612
-0.699324 3.246366
-0.696062 3.273042
-0.692770 3.303671
-0.689447 3.335360
-0.686092 3.369369
-0.682701 3.405177
-0.679274 3.442621
-0.675809 3.482079
-0.672303 3.522876
-0.668755 3.564898
-0.665165 3.609235
-0.661529 3.654941
-0.657847 3.702128
-0.654117 3.751972
-0.650335 3.803484
-0.646502 3.856152
-0.642615 3.910768
-0.638672 3.967190
-0.634672 4.025255
-0.630613 4.084671
-0.626494 4.145200
-0.622314 4.206924
-0.618071 4.269383
-0.613766 4.333087
-0.609396 4.397705
-0.604961 4.463349
-0.600460 4.530021
-0.595892 4.597206
-0.591256 4.665589
-0.586551 4.735101
-0.581776 4.805150
-0.576931 4.875929
-0.572014 4.948038
-0.567025 5.021079
-0.561962 5.094598
-0.556825 5.168703
-0.551614 5.243908
-0.546326 5.319973
-0.540963 5.396681
-0.535522 5.474265
-0.530003 5.552619
-0.524406 5.631528
-0.518729 5.711158
-0.512972 5.791514
-0.507134 5.872583
-0.501214 5.954047
-0.495213 6.036160
-0.489130 6.118746
-0.482964 6.201246
-0.476715 6.284555
-0.470382 6.368090
-0.463966 6.451629
-0.457466 6.535598
-0.450881 6.619582
-0.444213 6.703803
-0.437460 6.788071
-0.430623 6.872435
-0.423702 6.956900
-0.416696 7.041452
-0.409605 7.126228
-0.402429 7.211201
-0.395168 7.296277
-0.387822 7.381043
-0.380391 7.466051
-0.372875 7.551648
-0.365272 7.637344
-0.357584 7.723519
-0.349810 7.810043
-0.341949 7.896786
-0.334000 7.984174
-0.325964 8.071943
-0.317840 8.159785
-0.309628 8.248423
-0.301327 8.337494
-0.292936 8.426528
-0.284457 8.515725
-0.275888 8.604858
-0.267230 8.694448
-0.258482 8.784051
-0.249644 8.873064
-0.240716 8.966021
-0.231696 9.054785
-0.222587 9.147930
-0.213366 9.285842
-0.203994 9.433660
-0.194485 9.567224
-0.184848 9.677561
-0.175118 9.763842
-0.165300 9.850210
-0.155400 9.931819
-0.145416 10.016482
-0.135346 10.103257
-0.125188 10.192799
-0.114940 10.283220
-0.104602 10.372416
-0.094175 10.460568
-0.083660 10.547430
-0.073059 10.632889
-0.062373 10.717109
-0.051604 10.800845
-0.040750 10.884110
-0.029814 10.966296
-0.018796 11.048430
-0.007695 11.130058
0.003486 11.210820
0.014749 11.291028
0.026091 11.370984
0.037513 11.450155
0.049014 11.528937
0.060594 11.607458
0.072252 11.685058
0.083988 11.762467
0.095800 11.839399
0.107690 11.915643
0.119655 11.991679
0.131697 12.067216
0.143814 12.141931
0.156005 12.216789
0.168272 12.291419
0.180612 12.365333
0.193027 12.439301
0.205516 12.512826
0.218078 12.585943
0.230713 12.659378
0.243422 12.732315
0.256203 12.805096
0.269057 12.878104
0.281985 12.950758
0.294985 13.023305
0.308058 13.096030
0.321203 13.168807
0.334422 13.241631
0.347713 13.314263
0.361077 13.386632
0.374513 13.458636
0.388021 13.530608
0.401601 13.601926
0.415252 13.672351
0.428973 13.742819
0.442765 13.812851
0.456626 13.882050
0.470557 13.951014
0.484556 14.019526
0.498623 14.087422
0.512759 14.154991
0.526962 14.222297
0.541232 14.288969
0.555568 14.354693
0.569970 14.420556
0.584438 14.485658
0.598970 14.549811
0.613566 14.613877
0.628227 14.677306
0.642950 14.740053
0.657736 14.802173
0.672584 14.863925
0.687493 14.924949
0.702464 14.985344
0.717494 15.045074
0.732584 15.104075
0.747732 15.162842
0.762939 15.220681
0.778204 15.277800
0.793525 15.334726
0.808904 15.390496
0.824337 15.445246
0.839825 15.499117
0.855366 15.551580
0.870959 15.602652
0.886602 15.652465
0.902294 15.701230
0.918035 15.748600
0.933823 15.794413
0.949655 15.838711
0.965531 15.881584
0.981450 15.922770
0.997408 15.962251
1.013405 15.999900
1.029439 16.035457
1.045508 16.068981
1.061609 16.100158
1.077740 16.129189
1.093899 16.155885
1.110083 16.179804
1.126290 16.200749
1.142516 16.218686
1.158758 16.233633
1.175014 16.245437
1.191281 16.253862
1.207553 16.258663
1.223829 16.259858
1.240105 16.257391
1.256375 16.250446
1.272636 16.238729
1.288884 16.223228
1.305113 16.201715
1.321318 16.175638
1.337496 16.147021
1.353641 16.106692
1.369740 16.062115
1.385796 16.015292
1.401800 15.959624
1.417744 15.893305
1.433617 15.821708
1.449418 15.747419
1.465139 15.660217
1.480768 15.566182
1.496299 15.462358
1.511720 15.348372
1.527024 15.227510
1.542203 15.099103
1.557248 14.956623
1.572142 14.800722
1.586876 14.636811
1.601441 14.461430
1.615823 14.271949
1.630008 14.068340
1.643985 13.855423
1.657741 13.623972
1.671256 13.379696
1.684521 13.118658
1.697514 12.841223
1.710225 12.549760
1.722632 12.238795
1.734721 11.910855
1.746471 11.561570
1.757862 11.195849
1.768878 10.810344
1.779497 10.402005
1.789696 9.971389
1.799453 9.520526
1.808749 9.048932
1.817560 8.550590
1.825859 8.028070
1.833625 7.483099
1.840831 6.909875
1.847450 6.313517
1.853461 5.688147
1.858829 5.034175
1.863532 4.358221
1.867543 3.649371
1.870827 2.907881
1.873357 2.145293
1.875112 1.352662
1.876054 0.526420
1.876157 -0.326782
1.875390 -1.210020
1.873725 -2.122237
1.871132 -3.062027
1.867583 -4.035459
1.863044 -5.037120
1.857492 -6.060140
1.850900 -7.115416
1.843238 -8.197739
1.834480 -9.304293
1.824603 -10.434781
1.813583 -11.587305
1.801397 -12.762704
1.788026 -13.956471
1.773450 -15.170313
1.757648 -16.402466
1.740608 -17.644809
1.722319 -18.900822
1.702765 -20.168291
1.681940 -21.440863
1.659839 -22.718748
1.636456 -23.999764
1.611792 -25.278231
1.585849 -26.555899
1.558630 -27.825739
1.530145 -29.086272
1.500403 -30.334217
1.469423 -31.560612
1.437220 -32.784062
1.403803 -33.968247
1.369230 -35.106875
1.333541 -36.180217
1.296876 -37.017020
1.259590 -37.382308
1.222201 -37.256815
1.185053 -36.976257
1.148170 -36.709361
1.111568 -36.421088
1.075249 -36.148017
1.039193 -35.894360
1.003384 -35.654116
0.967811 -35.422442
0.932468 -35.192299
0.897357 -34.959495
0.862482 -34.719199
0.827852 -34.468590
0.793480 -34.204956
0.759379 -33.926151
0.725565 -33.631666
0.692054 -33.320725
0.658862 -32.993070
0.626007 -32.649035
0.593504 -32.289402
0.561369 -31.913866
0.529617 -31.522756
0.498265 -31.117181
0.467325 -30.698144
0.436812 -30.265034
0.406738 -29.822681
0.377108 -29.378177
0.347923 -28.933083
0.319186 -28.479372
0.290905 -28.030892
0.263081 -27.546001
0.235745 -27.101504
0.208838 -26.614168
0.182543 -25.886580
0.156386 -27.038027
0.081574 -46.050142
