0.016567 0.025616 0.202242
-0.564655 -0.472479
-0.552921 25.233721
-0.511501 58.839232
-0.436760 87.543188
-0.340557 103.309197
-0.231591 114.111483
-0.113078 121.998953
0.012186 128.493506
0.144734 136.690365
0.285104 142.680346
0.428034 141.635957
0.565627 131.502636
0.688485 112.925843
0.791640 94.155533
0.879450 82.774826
0.959643 78.248418
1.037408 77.630355
1.115743 79.062478
1.195640 80.342392
1.276465 81.252553
1.358428 82.521861
1.441737 83.979854
1.526643 85.700137
1.613263 87.284619
1.701344 88.739375
1.791043 90.563169
1.882568 92.138118
1.975165 92.697819
2.067992 92.784827
2.160923 92.880730
2.253936 92.967182
2.347032 93.019567
2.440169 93.094767
2.533274 92.766344
2.626057 92.945447
2.719680 94.111549
2.814117 94.223674
2.907990 93.359430
3.000946 92.266600
3.092525 90.624230
3.182771 90.166212
3.273381 90.736388
3.363656 89.000514
3.451149 86.032640
3.536027 83.464138
3.618105 80.477599
3.697037 77.173965
3.772483 73.498687
3.844045 69.412531
3.911295 64.871588
3.973745 59.812923
4.030852 54.188379
4.082035 47.978804
4.126707 41.173980
4.164262 33.757878
4.194082 25.716681
4.215538 17.049682
4.228015 7.780905
4.230933 -2.033118
4.223786 -12.321052
4.206134 -23.004538
4.177644 -33.950400
4.138120 -45.031680
4.087479 -56.146456
4.025773 -67.087469
3.953233 -77.838031
3.870155 -87.946971
3.777291 -97.673128
3.675145 -105.807460
3.567116 -108.991457
3.458498 -107.517031
3.352353 -104.585151
3.249221 -101.344285
3.149625 -97.613878
3.053868 -93.673678
2.962135 -89.599488
2.874496 -85.506886
2.790929 -81.475951
2.711338 -77.573188
2.635566 -73.854373
2.563404 -70.368136
2.494599 -67.151542
2.428872 -64.218790
2.365944 -61.551963
2.305571 -59.106610
2.247556 -56.829705
2.191758 -54.671139
2.138079 -52.588298
2.086462 -50.546486
2.036880 -48.520689
1.989324 -46.493141
1.943805 -44.450537
1.900342 -42.384372
1.858961 -40.291141
1.819688 -38.172303
1.782549 -36.024886
1.747579 -33.838384
1.714820 -31.606111
1.684315 -29.337887
1.656094 -27.045325
1.630178 -24.731830
1.606587 -22.399044
1.585341 -20.046492
1.566461 -17.671568
1.549974 -15.263125
1.535918 -12.814450
1.524327 -10.342138
1.515194 -7.927657
1.508497 -5.391034
1.504260 -3.275527
1.501303 -3.066620
1.497399 -5.022167
1.490720 -8.562110
1.479973 -12.953374
1.464931 -16.914208
1.446494 -19.727201
1.425748 -21.609314
1.403467 -22.788251
1.380371 -23.232763
1.357189 -22.975156
1.334571 -22.128089
1.313035 -20.841019
1.292938 -19.281839
1.274472 -17.605748
1.257681 -15.959382
1.242464 -14.484255
1.228593 -13.280442
1.215777 -12.375863
1.203722 -11.754830
1.192157 -11.392468
1.180839 -11.256014
1.169560 -11.309151
1.158144 -11.524266
1.146442 -11.878144
1.134327 -12.344088
1.121701 -12.893812
1.108493 -13.504061
1.094651 -14.158131
1.080139 -14.841030
1.064933 -15.541992
1.049020 -16.253470
1.032392 -16.969592
1.015047 -17.686874
0.996984 -18.402256
0.978207 -19.113787
0.958719 -19.821270
0.938527 -20.521964
0.917636 -21.216800
0.896054 -21.900724
0.873801 -22.553862
0.850922 -23.146494
0.827485 -23.668538
0.803551 -24.150262
0.779145 -24.605392
0.754301 -25.029550
0.729045 -25.427054
0.703401 -25.808560
0.677375 -26.192415
0.650958 -26.593861
0.624125 -27.022913
0.596849 -27.478844
0.569107 -27.951280
0.540890 -28.425750
0.512204 -28.884690
0.483076 -29.304553
0.453560 -29.653739
0.423743 -29.901262
0.393733 -30.040852
0.363630 -30.094745
0.333511 -30.067172
0.303465 -29.950020
0.273589 -29.717165
0.244011 -29.365248
0.214812 -28.978048
0.186003 -28.573305
0.157626 -28.115901
0.129719 -27.644241
0.102274 -27.195765
0.075265 -26.771183
0.048670 -26.370114
0.022464 -25.994587
-0.003380 -25.646153
-0.028890 -25.327207
-0.054095 -25.038860
-0.079028 -24.780590
-0.103716 -24.551142
-0.128187 -24.345491
-0.152459 -24.151587
-0.176540 -23.962710
-0.200437 -23.787019
-0.224167 -23.627990
-0.247741 -23.471693
-0.271154 -23.303190
-0.294384 -23.102068
-0.317369 -22.796088
-0.339957 -22.297671
-0.361936 -21.581516
-0.383096 -20.662823
-0.403252 -19.588866
-0.422276 -18.403480
-0.440067 -17.131497
-0.456586 -15.899733
-0.471922 -14.739576
-0.486080 -13.533624
-0.499015 -12.325387
-0.510776 -11.180738
-0.521397 -10.029160
-0.530746 -8.551810
-0.538411 -6.755643
-0.544348 -5.189492
-0.548936 -4.028711
-0.552486 -3.087294
-0.555164 -2.288150
-0.557104 -1.600530
-0.558426 -1.086782
-0.559339 -0.750437
-0.559953 -0.485540
-0.560317 -0.237398
-0.560447 -0.045827
-0.560428 0.088280
-0.560228 0.348203
-0.559857 0.229192
-0.559495 0.932059
-0.557289 3.739620
-0.551583 7.822220
-0.540601 14.984369
-0.520745 24.662708
-0.490900 35.319923
-0.450269 45.273986
-0.401755 50.752260
-0.350047 52.081179
-0.297810 52.445537
-0.244635 54.057018
-0.189663 55.442806
-0.133960 55.863851
-0.077999 55.757693
-0.022792 54.277221
0.030332 51.801810
0.080838 49.093990
0.128596 46.319991
0.173578 43.566832
0.215840 40.882655
0.255467 38.325785
0.292565 35.759891
0.326985 32.973675
0.358671 30.463695
0.388007 28.054725
0.414477 24.568954
0.436667 19.501206
0.452921 12.642673
0.461495 4.338546
0.461367 -4.682780
0.451882 -14.416024
0.432323 -24.699428
0.402619 -34.429185
0.364169 -41.840927
0.319770 -46.505997
0.271823 -48.896471
0.222352 -49.869756
0.172117 -50.443013
0.121565 -50.416297
0.071349 -49.892878
0.021663 -49.419261
-0.027558 -48.854385
-0.075920 -47.620110
-0.122548 -45.350173
-0.166451 -42.297720
-0.207162 -39.047944
-0.244659 -35.899903
-0.279100 -32.950612
-0.310698 -30.218153
-0.339668 -27.697938
-0.366217 -25.380477
-0.390535 -23.230587
-0.412769 -21.212485
-0.433056 -19.354063
-0.451591 -17.721017
-0.468555 -16.151113
-0.483870 -14.415539
-0.497347 -12.476900
-0.508813 -10.429460
-0.518304 -8.614333
-0.526181 -7.167630
-0.532755 -6.024895
-0.538308 -5.075734
-0.542946 -4.214011
-0.546792 -3.495035
-0.549961 -2.829489
-0.552490 -2.265233
-0.554534 -1.814315
-0.556106 -1.312603
-0.557187 -0.888611
-0.557944 -0.643220
-0.558500 -0.473695
-0.558912 -0.363430
-0.559243 -0.296575
-0.559508 -0.235725
-0.559719 -0.188895
-0.559893 -0.163301
-0.560051 -0.153149
-0.560202 -0.148584
-0.560350 -0.147299
-0.560497 -0.147388
-0.560645 -0.148095
-0.560794 -0.149082
-0.560944 -0.150080
-0.561094 -0.151023
-0.561246 -0.151947
-0.561398 -0.152735
-0.561552 -0.153342
-0.561705 -0.153835
-0.561860 -0.154298
-0.562014 -0.155034
-0.562170 -0.156999
-0.562329 -0.159401
-0.562489 -0.160404
-0.562649 -0.160049
-0.562808 -0.156690
-0.562962 -0.149356
-0.563107 -0.140267
-0.563243 -0.131336
-0.563370 -0.123542
-0.563490 -0.117102
-0.563605 -0.112114
-0.563715 -0.108492
-0.563823 -0.106027
-0.563928 -0.104512
-0.564032 -0.103683
-0.564136 -0.103364
-0.564239 -0.103375
-0.564343 -0.103628
-0.564447 -0.104065
-0.564551 -0.104683
-0.564656 -0.105403
-0.564762 -0.106168
-0.564869 -0.107078
-0.564977 -0.108025
-0.565085 -0.108988
-0.565195 -0.109972
-0.565305 -0.110988
-0.565417 -0.111971
-0.565529 -0.112946
-0.565643 -0.113915
-0.565758 -0.114800
-0.565873 -0.115671
-0.565989 -0.116485
-0.566106 -0.117260
-0.566224 -0.117969
-0.566342 -0.118550
-0.566461 -0.119096
-0.566581 -0.119642
-0.566701 -0.120173
-0.566821 -0.120732
-0.566942 -0.121319
-0.567064 -0.121880
-0.567186 -0.122378
-0.567309 -0.122845
-0.567432 -0.123322
-0.567556 -0.123764
-0.567680 -0.124078
-0.567804 -0.124418
-0.567929 -0.124746
-0.568054 -0.124995
-0.568179 -0.125236
-0.568305 -0.125434
-0.568430 -0.125658
-0.568556 -0.125763
-0.568682 -0.125848
-0.568808 -0.125978
-0.568934 -0.126057
-0.569061 -0.126074
-0.569187 -0.126194
-0.569313 -0.126276
-0.569440 -0.126204
-0.569566 -0.126160
-0.569692 -0.126075
-0.569818 -0.126003
-0.569944 -0.125856
-0.570070 -0.125714
-0.570196 -0.125571
-0.570322 -0.125389
-0.570447 -0.125207
-0.570572 -0.125007
-0.570697 -0.124785
-0.570822 -0.124534
-0.570947 -0.124327
-0.571071 -0.124136
-0.571195 -0.123876
-0.571319 -0.123606
-0.571443 -0.123397
-0.571566 -0.123114
-0.571689 -0.122740
-0.571812 -0.122264
-0.571934 -0.121704
-0.572055 -0.121132
-0.572176 -0.120515
-0.572297 -0.119948
-0.572417 -0.119396
-0.572536 -0.118799
-0.572654 -0.118282
-0.572773 -0.117710
-0.572890 -0.117123
-0.573007 -0.116589
-0.573123 -0.116012
-0.573239 -0.115455
-0.573355 -0.114915
-0.573469 -0.114358
-0.573584 -0.113793
-0.573697 -0.113219
-0.573810 -0.112688
-0.573923 -0.112172
-0.574035 -0.111614
-0.574146 -0.111012
-0.574257 -0.110424
-0.574367 -0.109812
-0.574477 -0.109141
-0.574586 -0.108488
-0.574694 -0.107866
-0.574802 -0.107166
-0.574909 -0.106504
-0.575015 -0.105853
-0.575120 -0.105123
-0.575225 -0.104433
-0.575330 -0.103726
-0.575433 -0.103016
-0.575536 -0.102274
-0.575638 -0.101513
-0.575739 -0.100772
-0.575840 -0.099992
-0.575939 -0.099246
-0.576038 -0.098459
-0.576136 -0.097619
-0.576234 -0.096848
-0.576330 -0.096035
-0.576426 -0.095201
-0.576521 -0.094317
-0.576615 -0.093472
-0.576708 -0.092625
-0.576800 -0.091742
-0.576892 -0.090883
-0.576982 -0.089942
-0.577072 -0.089034
-0.577160 -0.088133
-0.577248 -0.087146
-0.577335 -0.086186
-0.577421 -0.085208
-0.577505 -0.084221
-0.577589 -0.083192
-0.577672 -0.082170
-0.577754 -0.081171
-0.577834 -0.080071
-0.577914 -0.079064
-0.577993 -0.077998
-0.578070 -0.076896
-0.578147 -0.075845
-0.578222 -0.074706
-0.578296 -0.073568
-0.578369 -0.072461
-0.578441 -0.071301
-0.578512 -0.070076
-0.578582 -0.068903
-0.578650 -0.067749
-0.578717 -0.066467
-0.578783 -0.065176
-0.578848 -0.064020
-0.578911 -0.062790
-0.578973 -0.061632
-0.579035 -0.060553
-0.579095 -0.059402
-0.579154 -0.058346
-0.579211 -0.057317
-0.579268 -0.056251
-0.579324 -0.055178
-0.579379 -0.054182
-0.579433 -0.053176
-0.579485 -0.052106
-0.579537 -0.051101
-0.579587 -0.050085
-0.579637 -0.049031
-0.579686 -0.047983
-0.579733 -0.046879
-0.579780 -0.045784
-0.579825 -0.044639
-0.579869 -0.043496
-0.579912 -0.042446
-0.579954 -0.041313
-0.579995 -0.040107
-0.580034 -0.039030
-0.580073 -0.037925
-0.580110 -0.036726
-0.580146 -0.035610
-0.580181 -0.034423
-0.580215 -0.033228
-0.580248 -0.032236
-0.580279 -0.030062
-0.580310 -0.033121
-0.580339 -0.016311
-0.580362 -0.059367
-0.580338 0.256667
-0.580013 0.078858
-0.579808 1.014968
-0.575129 10.501274
-0.557209 24.711295
-0.526751 35.642158
-0.487909 40.411409
-0.449334 34.728968
-0.420550 22.548592
-0.403665 11.948521
-0.395676 4.202700
-0.395280 -3.630950
-0.402843 -11.155899
-0.416623 -15.709830
-0.433157 -16.857287
-0.449610 -15.723295
-0.464349 -13.731394
-0.477327 -12.419818
-0.489497 -11.957382
-0.501205 -11.311549
-0.512018 -10.293725
-0.521928 -9.620015
-0.531287 -8.973126
-0.539667 -7.653425
-0.546374 -5.628887
-0.550472 -2.212631
-0.551074 0.391885
-0.550393 0.883030
-0.549394 1.110230
-0.548162 1.360992
-0.546679 1.582432
-0.545087 1.524888
-0.543652 1.391037
-0.542168 1.658707
-0.540288 2.055682
-0.538105 2.295743
-0.535761 2.328985
-0.533514 2.149718
-0.531439 2.026357
-0.529401 2.069300
-0.527229 2.312603
-0.524743 2.641640
-0.521997 2.801767
-0.519183 2.813988
-0.516374 2.793663
-0.513609 2.717296
-0.510964 2.552036
-0.508431 2.593234
-0.505694 2.869890
-0.502664 3.208664
-0.499308 3.431943
-0.495855 3.473009
-0.492365 3.486278
-0.488894 3.441592
-0.485499 3.322925
-0.482249 3.181415
-0.479061 3.246158
-0.475679 3.526943
-0.471965 3.913444
-0.467899 4.134640
-0.463749 4.169838
-0.459552 4.203344
-0.455351 4.186301
-0.451168 4.175426
-0.447023 4.072472
-0.443031 3.921972
-0.439117 3.932417
-0.435099 4.121259
-0.430821 4.445341
-0.426214 4.726567
-0.421412 4.847188
-0.416538 4.882559
-0.411649 4.883783
-0.406762 4.879800
-0.401883 4.864218
-0.397026 4.842899
-0.392179 4.848472
-0.387325 4.838028
-0.382505 4.791458
-0.377738 4.728161
-0.373037 4.672826
-0.368366 4.669182
-0.363668 4.727809
-0.358876 4.859667
-0.353932 5.011644
-0.348866 5.094486
-0.343760 5.096091
-0.338678 5.055134
-0.333644 5.002171
-0.328660 4.959716
-0.323717 4.911454
-0.318833 4.846055
-0.314017 4.774956
-0.309282 4.678558
-0.304597 4.741761
-0.299737 4.959529
-0.294770 4.872323
-0.290000 4.733773
-0.285252 4.718549
-0.280600 4.565134
-0.276096 4.458675
-0.271660 4.392299
-0.267311 4.303147
-0.263038 4.234203
-0.258833 4.167961
-0.254694 4.101235
-0.250624 4.030549
-0.246624 3.961397
-0.242690 3.899348
-0.238812 3.855993
-0.234965 3.829301
-0.231148 3.795841
-0.227371 3.746031
-0.223646 3.703797
-0.219957 3.660325
-0.216316 3.623161
-0.212647 3.754376
-0.208652 4.327464
-0.203895 5.165413
-0.198470 5.525255
-0.193018 5.331679
-0.187800 5.126403
-0.182742 4.959070
-0.177889 4.742072
-0.173255 4.505925
-0.168871 4.259951
-0.164724 4.020884
-0.160820 3.786028
-0.157127 3.604625
-0.153620 3.374141
-0.150386 3.102273
-0.147400 2.858071
-0.144676 2.578873
-0.142166 2.512360
-0.139561 2.701429
-0.136729 2.975298
-0.133762 2.774823
-0.131274 2.273437
-0.129132 2.007504
-0.127264 1.717156
-0.125678 1.476970
-0.124252 1.402025
-0.122760 1.660707
-0.120875 2.076143
-0.118829 1.815666
-0.117323 1.306234
-0.116111 1.103426
-0.115141 0.818897
-0.114419 0.693548
-0.113576 1.096278
-0.112246 1.434436
-0.110891 1.214519
-0.109868 0.833527
-0.109178 0.585396
-0.108705 0.308819
-0.108446 0.373249
-0.107836 0.804682
-0.106917 0.988549
-0.105991 0.770761
-0.105415 0.430509
-0.105091 0.202245
-0.105000 0.005550
-0.104943 0.219913
-0.104508 0.588515
-0.103849 0.705414
-0.103211 0.476483
-0.102921 0.169780
-0.102831 -0.017527
-0.102926 -0.116365
-0.103019 -0.079795
-0.102941 0.392236
-0.102297 0.675044
-0.101805 0.312004
-0.101624 0.093252
-0.101589 -0.038230
-0.101710 -0.198633
-0.101937 -0.208658
-0.102086 -0.092570
-0.102020 0.328269
-0.101517 0.485520
-0.101188 0.224458
-0.101022 0.100308
-0.100995 -0.048024
-0.101100 -0.141860
-0.101250 -0.149482
-0.101432 -0.255716
-0.101711 -0.208217
-0.101803 -0.024207
-0.101720 0.278888
-0.101314 0.373592
-0.101077 0.152917
-0.100953 0.098575
-0.100880 0.042187
-0.100870 -0.018912
-0.100916 -0.072235
-0.101011 -0.116204
-0.101141 -0.138294
-0.101288 -0.159010
-0.101457 -0.174361
-0.101643 -0.208354
-0.101851 -0.170651
-0.101945 -0.012975
-0.101917 0.024428
-0.101889 0.082868
-0.101722 0.227903
-0.101496 0.183205
-0.101367 0.101892
-0.101268 0.092318
-0.101187 0.071034
-0.101129 0.039230
-0.101108 0.007926
-0.101110 -0.013729
-0.101136 -0.036604
-0.101182 -0.055967
-0.101248 -0.075424
-0.101333 -0.093883
-0.101435 -0.111544
-0.101556 -0.129725
-0.101696 -0.148902
-0.101854 -0.168515
-0.102033 -0.188663
-0.102233 -0.210273
-0.102454 -0.232469
-0.102699 -0.256045
-0.102967 -0.281346
-0.103262 -0.306520
-0.103582 -0.334292
-0.103932 -0.363856
-0.104310 -0.393111
-0.104719 -0.424765
-0.105161 -0.458751
-0.105638 -0.494388
-0.106152 -0.531607
-0.106704 -0.571872
-0.107297 -0.614233
-0.107934 -0.658710
-0.108617 -0.707103
-0.109351 -0.757992
-0.110136 -0.812679
-0.110978 -0.870243
-0.111880 -0.932020
-0.112846 -0.999762
-0.113882 -1.070329
-0.114991 -1.146172
-0.116179 -1.228426
-0.117453 -1.318229
-0.118822 -1.419098
-0.120297 -1.529318
-0.121888 -1.653681
-0.123612 -1.790837
-0.125475 -1.932482
-0.127485 -2.086669
-0.129658 -2.256294
-0.132006 -2.438196
-0.134543 -2.633493
-0.137283 -2.843621
-0.140242 -3.070131
-0.143435 -3.312621
-0.146879 -3.571047
-0.150590 -3.847074
-0.154588 -4.143656
-0.158893 -4.461333
-0.163526 -4.800244
-0.168511 -5.163292
-0.173870 -5.547185
-0.179627 -5.962997
-0.185812 -6.389629
-0.192416 -6.808060
-0.199447 -7.243188
-0.206922 -7.694085
-0.214777 -7.925331
-0.222684 -7.841482
-0.230346 -7.368948
-0.237345 -6.623231
-0.243630 -5.949188
-0.249295 -5.393712
-0.254469 -4.959068
-0.259257 -4.625213
-0.263756 -4.374016
-0.268032 -4.178076
-0.272134 -4.022424
-0.276095 -3.895131
-0.279938 -3.787923
-0.283683 -3.694887
-0.287339 -3.612054
-0.290916 -3.536550
-0.294421 -3.466052
-0.297857 -3.398784
-0.301226 -3.333128
-0.304530 -3.268091
-0.307769 -3.203395
-0.310943 -3.139025
-0.314053 -3.075203
-0.317100 -3.012040
-0.320084 -2.949561
-0.323005 -2.887773
-0.325865 -2.826782
-0.328665 -2.766807
-0.331405 -2.707802
-0.334086 -2.649810
-0.336710 -2.593025
-0.339278 -2.537535
-0.341790 -2.483192
-0.344249 -2.429948
-0.346656 -2.377796
-0.349010 -2.326621
-0.351314 -2.276438
-0.353568 -2.227295
-0.355773 -2.179250
-0.357931 -2.132193
-0.360042 -2.086165
-0.362108 -2.041199
-0.364129 -1.997238
-0.366107 -1.954336
-0.368042 -1.912527
-0.369936 -1.871693
-0.371789 -1.831913
-0.373604 -1.793488
-0.375381 -1.756644
-0.377122 -1.722850
-0.378831 -1.693220
-0.380513 -1.667596
-0.382171 -1.645464
-0.383808 -1.626036
-0.385427 -1.608685
-0.387029 -1.592662
-0.388616 -1.577428
-0.390187 -1.562681
-0.391744 -1.548317
-0.393287 -1.534170
-0.394816 -1.520148
-0.396330 -1.506350
-0.397831 -1.492734
-0.399319 -1.479228
-0.400793 -1.465809
-0.402254 -1.452539
-0.403701 -1.439401
-0.405135 -1.426534
-0.406557 -1.413919
-0.407966 -1.401451
-0.409363 -1.389200
-0.410747 -1.377034
-0.412120 -1.364939
-0.413480 -1.353043
-0.414828 -1.341192
-0.416165 -1.329409
-0.417490 -1.317798
-0.418803 -1.306174
-0.420105 -1.294693
-0.421395 -1.283192
-0.422674 -1.271569
-0.423941 -1.260132
-0.425197 -1.248953
-0.426441 -1.238099
-0.427676 -1.227797
-0.428900 -1.217984
-0.430114 -1.208544
-0.431319 -1.199499
-0.432516 -1.190783
-0.433703 -1.182466
-0.434883 -1.174419
-0.436055 -1.166648
-0.437219 -1.159236
-0.438376 -1.152098
-0.439525 -1.145265
-0.440668 -1.138763
-0.441805 -1.132550
-0.442936 -1.126622
-0.444061 -1.121027
-0.445180 -1.115749
-0.446295 -1.110719
-0.447404 -1.106026
-0.448509 -1.101807
-0.449610 -1.097985
-0.450707 -1.094364
-0.451801 -1.090885
-0.452891 -1.087786
-0.453979 -1.084893
-0.455063 -1.082085
-0.456145 -1.079649
-0.457225 -1.077499
-0.458303 -1.075626
-0.459378 -1.073982
-0.460453 -1.072684
-0.461526 -1.071740
-0.462598 -1.070943
-0.463670 -1.070436
-0.464742 -1.070274
-0.465813 -1.070333
-0.466885 -1.070665
-0.467957 -1.071379
-0.469029 -1.072336
-0.470103 -1.073512
-0.471179 -1.074831
-0.472255 -1.076226
-0.473333 -1.077741
-0.474413 -1.079304
-0.475494 -1.081032
-0.476577 -1.082901
-0.477662 -1.084838
-0.478749 -1.086974
-0.479838 -1.089264
-0.480930 -1.091552
-0.482024 -1.093917
-0.483120 -1.096414
-0.484219 -1.098876
-0.485320 -1.101419
-0.486424 -1.103986
-0.487530 -1.106499
-0.488639 -1.109065
-0.489750 -1.111599
-0.490864 -1.114124
-0.491981 -1.116635
-0.493100 -1.119039
-0.494221 -1.121302
-0.495345 -1.123285
-0.496470 -1.124996
-0.497597 -1.126499
-0.498725 -1.127771
-0.499855 -1.128880
-0.500985 -1.129653
-0.502116 -1.130236
-0.503248 -1.130649
-0.504379 -1.130678
-0.505511 -1.130504
-0.506643 -1.129984
-0.507773 -1.129185
-0.508903 -1.128131
-0.510032 -1.126591
-0.511159 -1.124825
-0.512283 -1.122724
-0.513406 -1.120182
-0.514526 -1.117360
-0.515643 -1.114192
-0.516756 -1.110602
-0.517866 -1.106645
-0.518972 -1.102369
-0.520073 -1.097730
-0.521169 -1.092743
-0.522261 -1.087425
-0.523346 -1.081700
-0.524426 -1.075679
-0.525500 -1.069414
-0.526567 -1.062706
-0.527627 -1.055614
-0.528680 -1.048289
-0.529726 -1.040656
-0.530763 -1.032582
-0.531793 -1.024279
-0.532814 -1.015762
-0.533826 -1.006961
-0.534830 -0.997920
-0.535824 -0.988662
-0.536809 -0.979239
-0.537784 -0.969625
-0.538750 -0.959902
-0.539706 -0.950074
-0.540652 -0.940107
-0.541588 -0.930066
-0.542514 -0.920002
-0.543430 -0.909846
-0.544336 -0.899687
-0.545231 -0.889544
-0.546117 -0.879447
-0.546992 -0.869385
-0.547857 -0.859299
-0.548712 -0.849385
-0.549558 -0.839435
-0.550393 -0.829354
-0.551218 -0.819202
-0.552033 -0.809079
-0.552838 -0.798479
-0.553632 -0.788648
-0.554416 -0.777895
-0.555188 -0.764368
-0.555954 -0.775180
-0.556745 -0.800068
-0.557537 -0.768257
-0.558288 -0.751962
-0.559051 -0.759402
-0.559820 -0.800986
-0.560674 -0.902110
-0.561686 -1.185601
-0.563085 -1.581374
-0.564771 -1.733945
-0.566412 -1.454753
-0.567604 -0.937841
-0.568391 -0.725104
-0.569123 -0.713167
-0.569796 -0.632552
-0.570400 -0.583015
-0.570973 -0.563104
-0.571527 -0.544256
-0.572063 -0.525584
-0.572580 -0.509334
-0.573081 -0.488539
-0.573563 -0.480913
-0.574037 -0.451825
-0.574473 -0.438508
-0.574949 -0.528069
-0.575240 0.251050
-0.564655 -0.472479
