-0.074436 0.005947 0.035582
-0.093530 0.000000
-0.093530 -0.000000
-0.093530 0.000000
-0.093530 -0.000000
-0.093530 0.000000
-0.093530 -0.000000
-0.093530 0.000000
-0.093530 -0.000000
-0.093530 0.000000
-0.093530 -0.000000
-0.093530 0.000000
-0.093530 -0.000000
-0.093530 0.000000
-0.093530 -0.000000
-0.093530 0.000000
-0.093530 -0.000000
-0.093530 0.000000
-0.093530 -0.000000
-0.093530 0.000000
-0.093530 -0.000000
-0.093530 0.000000
-0.093530 -0.000000
-0.093530 0.000000
-0.093530 -0.000000
-0.093530 0.000000
-0.093530 -0.000000
-0.093530 0.000000
-0.093530 -0.000000
-0.093530 0.000000
-0.093530 -0.000000
-0.093530 0.000000
-0.093530 -0.000000
-0.093530 0.000000
-0.093530 -0.000000
-0.093530 0.000000
-0.093530 -0.000000
-0.093530 0.000000
-0.093530 -0.000000
-0.093530 0.000000
-0.093530 -0.000000
-0.093530 0.000000
-0.093530 -0.000000
-0.093530 0.000000
-0.093530 -0.000000
-0.093530 0.000000
-0.093530 -0.000000
-0.093530 0.000000
-0.093530 -0.000000
-0.093530 0.000000
-0.093530 -0.000000
-0.093530 0.000000
-0.093530 -0.000000
-0.093530 0.000000
-0.093530 -0.000000
-0.093530 0.000000
-0.093530 -0.000000
-0.093530 0.000000
-0.093530 -0.000000
-0.093530 0.000000
-0.093530 -0.000000
-0.093530 0.000000
-0.093530 -0.000000
-0.093530 0.000000
-0.093530 -0.000000
-0.093530 0.000000
-0.093530 -0.000000
-0.093530 0.000000
-0.093530 -0.000000
-0.093530 0.000000
-0.093530 0.000000
-0.093530 -0.000000
-0.093530 0.000000
-0.093530 -0.000000
-0.093530 0.000000
-0.093530 -0.000000
-0.093530 0.000000
-0.093530 -0.000002
-0.093530 0.000007
-0.093530 -0.000024
-0.093530 0.000085
-0.093530 -0.000295
-0.093530 0.000999
-0.093530 -0.003315
-0.093530 0.010759
-0.093528 -0.034063
-0.093537 0.104730
-0.093503 -0.310598
-0.093624 0.878524
-0.093209 -2.321964
-0.094597 5.492837
-0.090091 -10.305841
-0.104197 6.957492
-0.062033 66.566568
-0.184574 -514.113411
-0.803489 -232.255965
-0.549594 349.173196
-0.403326 34.851246
-0.362541 72.018413
-0.265163 91.149193
-0.189696 81.403100
-0.114596 34.487596
-0.095582 62.704717
-0.000794 55.757887
-0.006792 -19.632654
-0.006471 5.760280
-0.006128 -1.418669
-0.006354 0.264110
-0.006254 -0.015044
-0.006292 -0.017799
-0.006279 0.012445
-0.006283 -0.005847
-0.006282 0.002346
-0.006282 -0.000859
-0.006282 0.000296
-0.006282 -0.000097
-0.006282 0.000031
-0.006282 -0.000009
-0.006282 0.000003
-0.006282 -0.000001
-0.006282 0.000000
-0.006282 -0.000000
-0.006282 0.000000
-0.006282 -0.000000
-0.006282 0.000000
-0.006282 -0.000000
-0.006282 -0.000000
-0.006282 0.000000
-0.006282 -0.000000
-0.006282 0.000000
-0.006282 -0.000000
-0.006282 0.000000
-0.006282 -0.000000
-0.006282 0.000000
-0.006282 -0.000000
-0.006282 0.000000
-0.006282 -0.000000
-0.006282 0.000000
-0.006282 -0.000000
-0.006282 0.000000
-0.006282 -0.000000
-0.006282 0.000000
-0.006282 -0.000000
-0.006282 0.000000
-0.006282 -0.000000
-0.006282 0.000000
-0.006282 -0.000000
-0.006282 0.000000
-0.006282 -0.000000
-0.006282 0.000000
-0.006282 -0.000000
-0.006282 0.000000
-0.006282 -0.000000
-0.006282 0.000000
-0.006282 -0.000000
-0.006282 0.000000
-0.006282 -0.000000
-0.006282 0.000000
-0.006282 -0.000000
-0.006282 0.000000
-0.006282 -0.000000
-0.006282 0.000000
-0.006282 -0.000000
-0.006282 0.000000
-0.006282 -0.000000
-0.006282 0.000000
-0.006282 -0.000000
-0.006282 0.000000
-0.006282 -0.000000
-0.006282 0.000000
-0.006282 -0.000000
-0.006282 0.000000
-0.006282 -0.000000
-0.006282 0.000000
-0.006282 -0.000000
-0.006282 0.000000
-0.006282 -0.000000
-0.006282 0.000000
-0.006282 -0.000000
-0.006282 0.000000
-0.006282 -0.000000
-0.006282 0.000000
-0.006282 -0.000000
-0.006282 0.000000
-0.006282 -0.000000
-0.006282 0.000000
-0.006282 -0.000000
-0.006282 0.000000
-0.006282 -0.000000
-0.006282 0.000000
-0.006282 -0.000000
-0.006282 0.000000
-0.006282 -0.000000
-0.006282 0.000000
-0.006282 -0.000000
-0.006282 0.000000
-0.006282 -0.000000
-0.006282 0.000000
-0.006282 -0.000000
-0.006282 0.000000
-0.006282 -0.000000
-0.006282 0.000000
-0.006282 -0.000000
-0.006282 0.000000
-0.006282 -0.000000
-0.006282 0.000000
-0.006282 -0.000000
-0.006282 0.000000
-0.006282 -0.000000
-0.006282 0.000000
-0.006282 -0.000000
-0.006282 0.000000
-0.006282 -0.000000
-0.006282 0.000000
-0.006282 -0.000000
-0.006282 0.000000
-0.006282 -0.000000
-0.006282 0.000000
-0.006282 -0.000000
-0.006282 0.000000
-0.006282 -0.000000
-0.006282 0.000000
-0.006282 -0.000000
-0.006282 0.000000
-0.006282 -0.000000
-0.006282 0.000000
-0.006282 -0.000000
-0.006282 0.000000
-0.006282 -0.000000
-0.006282 0.000000
-0.006282 -0.000000
-0.006282 0.000000
-0.006282 -0.000000
-0.006282 0.000000
-0.006282 -0.000000
-0.006282 0.000000
-0.006282 -0.000000
-0.006282 0.000000
-0.006282 -0.000000
-0.006282 0.000000
-0.006282 -0.000000
-0.006282 0.000000
-0.006282 -0.000000
-0.006282 0.000000
-0.006282 -0.000000
-0.006282 0.000000
-0.006282 -0.000000
-0.006282 0.000000
-0.006282 -0.000000
-0.006282 0.000000
-0.006282 -0.000000
-0.006282 0.000000
-0.006282 -0.000000
-0.006282 0.000000
-0.006282 -0.000000
-0.006282 0.000000
-0.006282 -0.000000
-0.006282 0.000000
-0.006282 -0.000000
-0.006282 0.000000
-0.006282 -0.000000
-0.006282 0.000000
-0.006282 -0.000000
-0.006282 0.000000
-0.006282 -0.000000
-0.006282 0.000000
-0.006282 -0.000000
-0.006282 0.000000
-0.006282 -0.000000
-0.006282 0.000000
-0.006282 -0.000000
-0.006282 0.000000
-0.006282 -0.000000
-0.006282 0.000000
-0.006282 -0.000000
-0.006282 0.000000
-0.006282 -0.000000
-0.006282 0.000000
-0.006282 -0.000000
-0.006282 0.000000
-0.006282 -0.000000
-0.006282 0.000000
-0.006282 -0.000000
-0.006282 0.000000
-0.006282 -0.000000
-0.006282 0.000000
-0.006282 -0.000000
-0.006282 0.000000
-0.006282 -0.000000
-0.006282 0.000000
-0.006282 -0.000000
-0.006282 0.000000
-0.006282 -0.000000
-0.006282 0.000000
-0.006282 -0.000000
-0.006282 0.000000
-0.006282 -0.000000
-0.006282 0.000000
-0.006282 -0.000000
-0.006282 0.000000
-0.006282 -0.000000
-0.006282 0.000000
-0.006282 -0.000000
-0.006282 0.000000
-0.006282 -0.000000
-0.006282 0.000000
-0.006282 -0.000000
-0.006282 0.000000
-0.006282 -0.000000
-0.006282 0.000000
-0.006282 -0.000000
-0.006282 0.000000
-0.006282 -0.000000
-0.006282 0.000000
-0.006282 -0.000000
-0.006282 0.000000
-0.006282 -0.000000
-0.006282 0.000000
-0.006282 -0.000000
-0.006282 0.000000
-0.006282 -0.000000
-0.006282 0.000000
-0.006282 -0.000000
-0.006282 0.000000
-0.006282 -0.000000
-0.006282 0.000000
-0.006282 -0.000000
-0.006282 0.000000
-0.006282 -0.000000
-0.006282 0.000000
-0.006282 -0.000000
-0.006282 0.000000
-0.006282 -0.000000
-0.006282 0.000000
-0.006282 -0.000000
-0.006282 0.000000
-0.006282 -0.000000
-0.006282 0.000000
-0.006282 -0.000000
-0.006282 0.000000
-0.006282 -0.000000
-0.006282 0.000000
-0.006282 -0.000000
-0.006282 0.000000
-0.006282 -0.000000
-0.006282 0.000000
-0.006282 -0.000000
-0.006282 0.000000
-0.006282 -0.000000
-0.006282 0.000000
-0.006282 -0.000000
-0.006282 0.000000
-0.006282 -0.000000
-0.006282 0.000000
-0.006282 -0.000000
-0.006282 0.000000
-0.006282 -0.000000
-0.006282 0.000000
-0.006282 -0.000000
-0.006282 0.000000
-0.006282 -0.000000
-0.006282 0.000000
-0.006282 -0.000000
-0.006282 0.000000
-0.006282 -0.000000
-0.006282 0.000000
-0.006282 -0.000000
-0.006282 0.000000
-0.006282 -0.000000
-0.006282 0.000000
-0.006282 -0.000000
-0.006282 0.000000
-0.006282 -0.000000
-0.006282 0.000000
-0.006282 -0.000000
-0.006282 0.000000
-0.006282 -0.000000
-0.006282 0.000000
-0.006282 -0.000000
-0.006282 0.000000
-0.006282 -0.000000
-0.006282 0.000000
-0.006282 -0.000000
-0.006282 0.000000
-0.006282 -0.000000
-0.006282 0.000000
-0.006282 -0.000000
-0.006282 0.000000
-0.006282 -0.000000
-0.006282 0.000000
-0.006282 -0.000000
-0.006282 0.000000
-0.006282 -0.000000
-0.006282 0.000000
-0.006282 -0.000000
-0.006282 0.000000
-0.006282 -0.000000
-0.006282 0.000000
-0.006282 -0.000000
-0.006282 0.000000
-0.006282 -0.000000
-0.006282 0.000000
-0.006282 -0.000000
-0.006282 0.000000
-0.006282 -0.000000
-0.006282 0.000000
-0.006282 -0.000000
-0.006282 0.000000
-0.006282 -0.000000
-0.006282 0.000000
-0.006282 -0.000000
-0.006282 0.000000
-0.006282 -0.000000
-0.006282 0.000000
-0.006282 -0.000000
-0.006282 0.000000
-0.006282 -0.000000
-0.006282 0.000000
-0.006282 -0.000000
-0.006282 0.000000
-0.006282 -0.000000
-0.006282 0.000000
-0.006282 -0.000000
-0.006282 0.000000
-0.006282 -0.000000
-0.006282 0.000000
-0.006282 -0.000000
-0.006282 0.000000
-0.006282 -0.000000
-0.006282 0.000000
-0.006282 -0.000000
-0.006282 0.000000
-0.006282 -0.000000
-0.006282 0.000000
-0.006282 -0.000000
-0.006282 0.000000
-0.006282 -0.000000
-0.006282 0.000000
-0.006282 -0.000000
-0.006282 0.000000
-0.006282 -0.000000
-0.006282 0.000000
-0.006282 -0.000000
-0.006282 0.000000
-0.006282 -0.000000
-0.006282 0.000000
-0.006282 -0.000000
-0.006282 0.000000
-0.006282 -0.000000
-0.006282 0.000000
-0.006282 -0.000000
-0.006282 0.000000
-0.006282 -0.000000
-0.006282 0.000000
-0.006282 -0.000000
-0.006282 0.000000
-0.006282 -0.000000
-0.006282 0.000000
-0.006282 -0.000000
-0.006282 0.000000
-0.006282 -0.000000
-0.006282 0.000000
-0.006282 -0.000000
-0.006282 0.000000
-0.006282 -0.000000
-0.006282 0.000000
-0.006282 -0.000000
-0.006282 0.000000
-0.006282 -0.000000
-0.006282 0.000000
-0.006282 -0.000000
-0.006282 0.000000
-0.006282 -0.000000
-0.006282 0.000000
-0.006282 -0.000000
-0.006282 0.000000
-0.006282 -0.000000
-0.006282 0.000000
-0.006282 -0.000000
-0.006282 0.000000
-0.006282 -0.000000
-0.006282 0.000000
-0.006282 -0.000000
-0.006282 0.000000
-0.006282 -0.000000
-0.006282 0.000000
-0.006282 -0.000000
-0.006282 0.000000
-0.006282 -0.000000
-0.006282 0.000000
-0.006282 -0.000000
-0.006282 0.000000
-0.006282 -0.000000
-0.006282 0.000000
-0.006282 -0.000000
-0.006282 0.000000
-0.006282 -0.000000
-0.006282 0.000000
-0.006282 -0.000000
-0.006282 0.000000
-0.006282 -0.000000
-0.006282 0.000000
-0.006282 -0.000000
-0.006282 0.000000
-0.006282 -0.000000
-0.006282 0.000000
-0.006282 -0.000000
-0.006282 0.000000
-0.006282 -0.000000
-0.006282 0.000000
-0.006282 -0.000000
-0.006282 0.000000
-0.006282 -0.000000
-0.006282 0.000000
-0.006282 -0.000000
-0.006282 0.000000
-0.006282 -0.000000
-0.006282 0.000000
-0.006282 -0.000000
-0.006282 0.000000
-0.006282 -0.000000
-0.006282 0.000000
-0.006282 -0.000000
-0.006282 0.000000
-0.006282 -0.000000
-0.006282 0.000000
-0.006282 -0.000000
-0.006282 0.000000
-0.006282 -0.000000
-0.006282 0.000000
-0.006282 -0.000000
-0.006282 0.000000
-0.006282 -0.000000
-0.006282 0.000000
-0.006282 -0.000000
-0.006282 0.000000
-0.006282 -0.000000
-0.006282 0.000000
-0.006282 -0.000000
-0.006282 0.000000
-0.006282 -0.000000
-0.006282 0.000000
-0.006282 -0.000000
-0.006282 0.000000
-0.006282 -0.000000
-0.006282 0.000000
-0.006282 -0.000000
-0.006282 0.000000
-0.006282 -0.000000
-0.006282 0.000000
-0.006282 -0.000000
-0.006282 0.000000
-0.006282 -0.000000
-0.006282 0.000000
-0.006282 -0.000000
-0.006282 0.000000
-0.006282 -0.000000
-0.006282 0.000000
-0.006282 -0.000000
-0.006282 0.000000
-0.006282 -0.000000
-0.006282 0.000000
-0.006282 -0.000000
-0.006282 -0.000000
-0.006282 0.000000
-0.006282 -0.000000
-0.006282 0.000000
-0.006282 -0.000000
-0.006282 0.000000
-0.006282 -0.000000
-0.006282 0.000000
-0.006282 -0.000000
-0.006282 0.000000
-0.006282 -0.000001
-0.006282 0.000002
-0.006282 -0.000007
-0.006282 0.000024
-0.006282 -0.000078
-0.006282 0.000253
-0.006282 -0.000803
-0.006282 0.002481
-0.006281 -0.007430
-0.006284 0.021377
-0.006275 -0.058166
-0.006306 0.145230
-0.006204 -0.309478
-0.006529 0.426377
-0.005538 0.598356
-0.008403 -8.438055
-0.000511 48.220940
0.060915 23.302165
0.035935 -32.201124
0.049030 69.881705
0.154279 107.350803
0.242274 79.866722
0.328683 95.870122
0.414886 53.972338
0.416582 -48.324756
0.355421 -38.889582
0.346524 -6.081788
0.331833 -7.478991
0.335487 2.921907
0.333273 0.107542
0.337934 3.981021
0.323850 -44.271639
0.271155 -27.033049
0.276575 10.719686
0.275538 -2.709935
0.275743 -2.372023
0.274970 10.496867
0.279620 -27.995786
0.226799 -42.881128
0.214655 4.819521
0.218291 -1.896422
0.217833 12.290721
0.218236 -47.431792
0.131846 -80.265179
0.094587 -2.083006
0.103258 2.918361
0.098834 3.136359
0.106836 -4.740133
0.077574 -47.891405
0.036724 -13.821610
0.045081 5.796273
0.040978 3.385787
0.049190 -7.024126
0.016603 -48.341231
-0.022048 -13.111846
-0.014073 8.852487
-0.016060 -4.351860
-0.015899 3.084249
-0.014758 -4.082902
-0.019130 3.563987
-0.001844 28.531583
0.023337 9.580862
0.018586 -5.626745
0.019789 2.295158
0.019503 -0.806838
0.019565 0.259311
0.019554 -0.077876
0.019555 0.021990
0.019555 -0.005808
0.019555 0.001410
0.019555 -0.000301
0.019555 0.000050
0.019555 -0.000002
0.019555 -0.000003
0.019555 0.000002
0.019555 -0.000001
0.019555 0.000000
0.019555 -0.000000
0.019555 0.000000
0.019555 -0.000000
0.019555 0.000000
0.019555 -0.000000
0.019555 0.000000
0.019555 -0.000000
0.019555 0.000000
0.019555 -0.000000
0.019555 0.000000
0.019555 -0.000000
0.019555 0.000000
0.019555 -0.000000
0.019555 0.000000
0.019555 -0.000000
0.019555 0.000000
0.019555 -0.000000
0.019555 0.000000
0.019555 -0.000000
0.019555 0.000000
0.019555 -0.000000
0.019555 0.000000
0.019555 -0.000000
0.019555 0.000000
0.019555 -0.000000
0.019555 0.000000
0.019555 -0.000000
0.019555 0.000000
0.019555 -0.000000
0.019555 0.000000
0.019555 -0.000000
0.019555 0.000000
0.019555 -0.000000
0.019555 0.000000
0.019555 -0.000000
0.019555 0.000000
0.019555 -0.000000
0.019555 0.000000
0.019555 -0.000000
0.019555 0.000000
0.019555 -0.000000
0.019555 0.000000
0.019555 -0.000000
0.019555 0.000000
0.019555 -0.000000
0.019555 0.000000
0.019555 -0.000000
0.019555 0.000000
0.019555 -0.000000
0.019555 0.000000
0.019555 -0.000000
0.019555 0.000000
0.019555 -0.000000
0.019555 0.000000
0.019555 -0.000000
0.019555 0.000000
0.019555 -0.000000
0.019555 0.000000
0.019555 -0.000000
0.019555 0.000000
0.019555 -0.000000
0.019555 0.000000
0.019555 -0.000000
0.019555 0.000000
0.019555 -0.000000
0.019555 0.000000
0.019555 -0.000000
0.019555 0.000000
0.019555 -0.000000
0.019555 0.000000
0.019555 -0.000000
0.019555 0.000000
0.019555 -0.000000
0.019555 0.000000
0.019555 -0.000000
0.019555 0.000000
0.019555 -0.000000
0.019555 0.000000
0.019555 -0.000000
0.019555 0.000000
0.019555 -0.000000
0.019555 0.000000
0.019555 -0.000000
0.019555 0.000000
0.019555 -0.000000
0.019555 0.000000
0.019555 -0.000000
0.019555 0.000000
0.019555 -0.000000
0.019555 0.000000
0.019555 -0.000000
0.019555 0.000000
0.019555 -0.000000
0.019555 0.000000
0.019555 -0.000000
0.019555 0.000000
0.019555 -0.000000
0.019555 0.000000
0.019555 -0.000000
0.019555 0.000000
0.019555 -0.000000
0.019555 0.000000
0.019555 -0.000000
0.019555 0.000000
0.019555 -0.000000
0.019555 0.000000
0.019555 -0.000000
0.019555 0.000000
0.019555 -0.000000
0.019555 0.000000
0.019555 -0.000000
0.019555 0.000000
0.019555 -0.000000
0.019555 0.000000
0.019555 -0.000000
0.019555 0.000000
0.019555 -0.000000
0.019555 0.000000
0.019555 -0.000000
0.019555 0.000000
0.019555 -0.000000
0.019555 0.000000
0.019555 -0.000000
0.019555 0.000000
0.019555 -0.000000
0.019555 0.000000
0.019555 -0.000000
0.019555 0.000000
0.019555 -0.000000
0.019555 0.000000
0.019555 -0.000000
0.019555 0.000000
0.019555 -0.000000
0.019555 0.000000
0.019555 -0.000000
0.019555 0.000000
0.019555 -0.000000
0.019555 0.000000
0.019555 -0.000000
0.019555 0.000000
0.019555 -0.000000
0.019555 0.000000
0.019555 -0.000000
0.019555 0.000000
0.019555 -0.000000
0.019555 0.000000
0.019555 -0.000000
0.019555 0.000000
0.019555 -0.000000
0.019555 0.000000
0.019555 -0.000000
0.019555 0.000000
0.019555 -0.000000
0.019555 0.000000
0.019555 -0.000000
0.019555 0.000000
0.019555 -0.000000
0.019555 0.000000
0.019555 -0.000000
0.019555 0.000000
0.019555 -0.000000
0.019555 0.000000
0.019555 -0.000000
0.019555 0.000000
0.019555 -0.000000
0.019555 0.000000
0.019555 -0.000000
0.019555 0.000000
0.019555 -0.000000
0.019555 0.000000
0.019555 -0.000000
0.019555 0.000000
0.019555 -0.000000
0.019555 0.000000
0.019555 -0.000000
0.019555 0.000000
0.019555 -0.000000
0.019555 0.000000
0.019555 -0.000000
0.019555 0.000000
0.019555 -0.000000
0.019555 0.000000
0.019555 -0.000000
0.019555 0.000000
0.019555 -0.000000
0.019555 0.000000
0.019555 -0.000000
0.019555 0.000000
0.019555 -0.000000
0.019555 0.000000
0.019555 -0.000000
0.019555 0.000000
0.019555 -0.000000
0.019555 0.000000
0.019555 -0.000000
0.019555 0.000000
0.019555 -0.000000
0.019555 0.000000
0.019555 -0.000000
0.019555 0.000000
0.019555 -0.000000
0.019555 0.000000
0.019555 -0.000000
0.019555 0.000000
0.019555 -0.000000
0.019555 0.000000
0.019555 -0.000000
0.019555 0.000000
0.019555 -0.000000
0.019555 0.000000
0.019555 -0.000000
0.019555 0.000000
0.019555 -0.000000
0.019555 0.000000
0.019555 -0.000000
0.019555 0.000000
0.019555 -0.000000
0.019555 0.000000
0.019555 -0.000000
0.019555 0.000000
0.019555 -0.000000
0.019555 0.000000
0.019555 -0.000000
0.019555 0.000000
0.019555 -0.000000
0.019555 0.000000
0.019555 -0.000000
0.019555 0.000000
0.019555 -0.000000
0.019555 0.000000
0.019555 -0.000000
0.019555 0.000000
0.019555 -0.000000
0.019555 0.000000
0.019555 -0.000000
0.019555 0.000000
0.019555 -0.000000
0.019555 0.000000
0.019555 -0.000000
0.019555 0.000000
0.019555 -0.000000
0.019555 0.000000
0.019555 -0.000000
0.019555 0.000000
0.019555 -0.000000
0.019555 0.000000
0.019555 -0.000000
0.019555 0.000000
0.019555 -0.000000
0.019555 0.000000
0.019555 -0.000000
0.019555 0.000000
0.019555 -0.000000
0.019555 0.000000
0.019555 -0.000000
0.019555 0.000000
0.019555 -0.000000
0.019555 0.000000
0.019555 -0.000000
0.019555 0.000000
0.019555 -0.000000
0.019555 0.000000
0.019555 -0.000000
0.019555 0.000000
0.019555 -0.000000
0.019555 0.000000
0.019555 -0.000000
0.019555 0.000000
0.019555 -0.000000
0.019555 0.000000
0.019555 -0.000000
0.019555 0.000000
0.019555 -0.000000
0.019555 0.000000
0.019555 -0.000000
0.019555 0.000000
0.019555 -0.000000
0.019555 0.000000
0.019555 -0.000000
0.019555 0.000000
0.019555 -0.000000
0.019555 0.000000
0.019555 -0.000000
0.019555 0.000000
0.019555 -0.000000
0.019555 0.000000
0.019555 -0.000000
0.019555 0.000000
0.019555 -0.000000
0.019555 0.000000
0.019555 -0.000000
0.019555 0.000000
0.019555 -0.000000
0.019555 0.000000
0.019555 -0.000000
0.019555 0.000000
0.019555 -0.000000
0.019555 0.000000
0.019555 -0.000000
0.019555 0.000000
0.019555 -0.000000
0.019555 0.000000
0.019555 -0.000000
0.019555 0.000000
0.019555 -0.000000
0.019555 0.000000
0.019555 -0.000000
0.019555 0.000000
0.019555 -0.000000
0.019555 0.000000
0.019555 -0.000000
0.019555 0.000000
0.019555 -0.000000
0.019555 0.000000
0.019555 -0.000000
0.019555 0.000000
0.019555 -0.000000
0.019555 0.000000
0.019555 -0.000000
0.019555 0.000000
0.019555 -0.000000
0.019555 0.000000
0.019555 -0.000000
0.019555 0.000000
0.019555 -0.000000
0.019555 0.000000
0.019555 -0.000000
0.019555 0.000000
0.019555 -0.000000
0.019555 0.000000
0.019555 -0.000000
0.019555 0.000000
0.019555 -0.000000
0.019555 0.000000
0.019555 -0.000000
0.019555 0.000000
0.019555 -0.000000
0.019555 0.000000
0.019555 -0.000000
0.019555 0.000000
0.019555 -0.000000
0.019555 0.000000
0.019555 -0.000000
0.019555 0.000000
0.019555 -0.000000
0.019555 0.000000
0.019555 -0.000000
0.019555 0.000000
0.019555 -0.000000
0.019555 0.000000
-0.093530 0.000000
