-0.035963 0.034798 -0.651870
0.956413 22.170405
0.969145 4.552735
0.968099 -5.357940
0.959234 -12.823965
0.942467 -20.164913
0.919404 -25.885844
0.891031 -30.444979
0.861127 -26.991235
0.838614 -18.683695
0.822114 -15.196042
0.807876 -12.654922
0.797289 -8.584193
0.789989 -6.616727
0.783567 -6.074621
0.777878 -5.381348
0.772707 -4.946545
0.767974 -4.512645
0.763653 -4.138563
0.759684 -3.779194
0.756048 -3.537905
0.752705 -2.984907
0.750473 -1.229659
0.750461 1.176665
0.752585 2.851565
0.755663 3.010042
0.758171 1.850094
0.759078 -0.176813
0.757691 -2.581766
0.753966 -4.818247
0.748221 -6.526872
0.741021 -7.868109
0.732426 -9.337995
0.722474 -10.366220
0.711985 -10.459441
0.701699 -10.057692
0.691904 -9.490261
0.682720 -8.861259
0.674153 -8.266048
0.666151 -7.733021
0.658648 -7.270936
0.651571 -6.878194
0.644856 -6.548146
0.638444 -6.272839
0.632283 -6.043426
0.626333 -5.848694
0.620565 -5.679305
0.614956 -5.531933
0.609483 -5.406121
0.604125 -5.305146
0.598853 -5.233165
0.593635 -5.200625
0.588431 -5.196887
0.583211 -5.251924
0.577909 -5.332454
0.572547 -5.376838
0.567544 -4.223141
0.565323 0.619205
0.568320 4.073098
0.571677 2.130756
0.571827 -2.084886
0.567173 -7.291267
0.556987 -13.226074
0.540822 -18.777620
0.520046 -22.376113
0.496688 -23.986928
0.472462 -24.284352
0.448409 -23.568927
0.425431 -22.392212
0.403621 -21.091572
0.383389 -19.241748
0.365122 -17.322345
0.348503 -16.021549
0.332842 -15.334985
0.317773 -14.736507
0.303332 -14.159708
0.289283 -14.011121
0.275208 -14.085083
0.261105 -14.096698
0.247059 -13.888325
0.233446 -13.243837
0.220665 -12.240031
0.208997 -11.069539
0.198461 -10.026938
0.188798 -9.358601
0.179561 -9.181385
0.170268 -9.451427
0.160541 -10.018410
0.150173 -10.700032
0.139129 -11.351147
0.127483 -11.898678
0.115344 -12.337631
0.102810 -12.692867
0.089958 -12.972209
0.076865 -13.176156
0.063599 -13.322731
0.050204 -13.436468
0.036707 -13.526589
0.023133 -13.588215
0.009513 -13.621901
-0.004130 -13.631351
-0.017770 -13.619382
-0.031388 -13.585287
-0.044959 -13.523145
-0.058451 -13.429849
-0.071834 -13.304202
-0.085077 -13.150140
-0.098153 -12.973452
-0.111044 -12.779046
-0.123733 -12.573411
-0.136213 -12.360427
-0.148478 -12.143841
-0.160525 -11.926158
-0.172354 -11.707623
-0.183964 -11.489496
-0.195356 -11.271449
-0.206529 -11.053417
-0.217485 -10.835563
-0.228222 -10.617473
-0.238741 -10.398447
-0.249039 -10.177352
-0.259115 -9.953515
-0.268965 -9.726246
-0.278586 -9.495281
-0.287973 -9.259363
-0.297121 -9.018545
-0.306026 -8.772722
-0.314683 -8.522496
-0.323087 -8.268677
-0.331235 -8.011447
-0.339125 -7.751768
-0.346753 -7.488623
-0.354116 -7.222343
-0.361212 -6.954030
-0.368038 -6.683333
-0.374592 -6.411803
-0.380877 -6.147830
-0.386907 -5.906558
-0.392711 -5.694943
-0.398314 -5.501239
-0.403727 -5.312740
-0.408952 -5.127277
-0.413992 -4.942523
-0.418847 -4.759270
-0.423521 -4.579803
-0.428017 -4.402778
-0.432336 -4.227710
-0.436482 -4.057000
-0.440460 -3.890656
-0.444273 -3.729526
-0.447929 -3.575810
-0.451434 -3.428937
-0.454796 -3.289515
-0.458022 -3.157131
-0.461119 -3.031675
-0.464094 -2.913703
-0.466955 -2.804146
-0.469710 -2.701289
-0.472365 -2.603846
-0.474925 -2.513899
-0.477400 -2.431929
-0.479796 -2.355919
-0.482118 -2.284817
-0.484372 -2.219198
-0.486563 -2.157846
-0.488693 -2.100807
-0.490770 -2.048047
-0.492795 -1.999235
-0.494774 -1.954326
-0.496709 -1.912421
-0.498603 -1.873993
-0.500461 -1.838236
-0.502284 -1.805254
-0.504076 -1.775619
-0.505840 -1.747866
-0.507576 -1.722517
-0.509289 -1.700482
-0.510982 -1.680575
-0.512655 -1.662598
-0.514311 -1.646687
-0.515952 -1.631930
-0.517578 -1.618092
-0.519191 -1.604163
-0.520790 -1.590337
-0.522375 -1.576152
-0.523945 -1.561017
-0.525500 -1.546366
-0.527040 -1.530889
-0.528565 -1.515294
-0.530074 -1.500114
-0.531568 -1.485544
-0.533049 -1.472099
-0.534516 -1.459768
-0.535972 -1.449119
-0.537418 -1.440402
-0.538856 -1.434653
-0.540291 -1.431892
-0.541724 -1.431664
-0.543158 -1.434934
-0.544598 -1.443536
-0.546049 -1.455005
-0.547512 -1.467990
-0.548989 -1.484627
-0.550485 -1.504628
-0.552003 -1.529204
-0.553549 -1.559872
-0.555127 -1.595017
-0.556743 -1.634841
-0.558401 -1.678010
-0.560103 -1.722002
-0.561849 -1.767026
-0.563640 -1.810675
-0.565473 -1.851868
-0.567347 -1.890742
-0.569258 -1.926434
-0.571203 -1.959719
-0.573180 -1.990239
-0.575187 -2.019299
-0.577222 -2.047644
-0.579286 -2.074584
-0.581376 -2.101826
-0.583493 -2.128752
-0.585638 -2.156000
-0.587810 -2.183609
-0.590010 -2.211674
-0.592238 -2.240424
-0.594495 -2.269581
-0.596782 -2.299068
-0.599098 -2.328610
-0.601444 -2.358498
-0.603819 -2.387980
-0.606225 -2.417705
-0.608659 -2.447077
-0.611123 -2.475261
-0.613615 -2.503488
-0.616135 -2.530593
-0.618681 -2.556350
-0.621252 -2.581509
-0.623848 -2.604890
-0.626467 -2.627247
-0.629108 -2.647975
-0.631768 -2.666933
-0.634446 -2.684858
-0.637142 -2.701043
-0.639853 -2.715587
-0.642578 -2.728191
-0.645315 -2.739557
-0.648062 -2.749553
-0.650819 -2.757918
-0.653583 -2.764214
-0.656352 -2.769466
-0.659127 -2.774321
-0.661906 -2.777005
-0.664687 -2.778528
-0.667468 -2.779533
-0.670251 -2.779420
-0.673033 -2.778545
-0.675813 -2.776961
-0.678592 -2.774408
-0.681368 -2.772163
-0.684141 -2.769531
-0.686912 -2.766592
-0.689680 -2.764582
-0.692447 -2.763806
-0.695214 -2.764390
-0.697982 -2.766704
-0.700754 -2.771724
-0.703532 -2.778201
-0.706317 -2.787107
-0.709112 -2.798468
-0.711920 -2.812355
-0.714743 -2.828646
-0.717584 -2.846947
-0.720444 -2.868438
-0.723327 -2.892367
-0.726235 -2.918941
-0.729172 -2.948596
-0.732140 -2.981698
-0.735142 -3.018190
-0.738183 -3.058723
-0.741267 -3.103812
-0.744399 -3.152902
-0.747581 -3.206248
-0.750819 -3.264460
-0.754117 -3.324950
-0.757478 -3.393536
-0.760916 -3.476514
-0.764449 -3.590495
-0.768125 -3.768032
-0.772022 -4.034033
-0.776248 -4.439181
-0.780952 -4.973712
-0.786228 -5.576443
-0.792121 -6.192661
-0.798613 -6.769501
-0.805654 -7.288351
-0.813177 -7.728171
-0.821095 -8.075141
-0.829318 -8.343036
-0.837776 -8.546143
-0.846410 -8.698807
-0.855182 -8.823106
-0.864068 -8.928596
-0.873053 -9.022511
-0.882130 -9.114059
-0.891300 -9.207905
-0.900567 -9.309000
-0.909942 -9.426378
-0.919444 -9.561377
-0.929089 -9.710241
-0.938888 -9.871562
-0.948856 -10.045116
-0.959003 -10.231036
-0.969343 -10.433033
-0.979899 -10.661565
-0.990697 -10.916824
-1.001757 -11.179932
-1.013074 -11.427466
-1.024625 -11.645313
-1.036376 -11.828163
-1.048293 -11.977444
-1.060346 -12.100834
-1.072512 -12.201355
-1.084767 -12.280939
-1.097092 -12.343452
-1.109474 -12.393771
-1.121902 -12.434648
-1.134366 -12.467879
-1.146860 -12.495128
-1.159379 -12.515100
-1.171913 -12.527727
-1.184457 -12.532826
-1.197001 -12.530501
-1.209541 -12.523390
-1.222072 -12.511177
-1.234586 -12.491208
-1.247076 -12.462617
-1.259533 -12.424309
-1.271947 -12.377611
-1.284310 -12.322865
-1.296615 -12.260462
-1.308853 -12.191380
-1.321019 -12.115324
-1.333106 -12.033381
-1.345108 -11.944970
-1.357019 -11.851750
-1.368834 -11.754554
-1.380549 -11.651226
-1.392159 -11.544273
-1.403660 -11.433330
-1.415047 -11.318071
-1.426317 -11.199514
-1.437467 -11.076793
-1.448492 -10.950108
-1.459388 -10.819399
-1.470151 -10.684789
-1.480777 -10.545905
-1.491262 -10.402419
-1.501602 -10.255137
-1.511791 -10.103272
-1.521827 -9.947125
-1.531705 -9.787824
-1.541421 -9.624635
-1.550972 -9.458429
-1.560356 -9.289767
-1.569569 -9.118083
-1.578609 -8.943839
-1.587474 -8.767610
-1.596162 -8.590283
-1.604672 -8.412998
-1.613005 -8.236147
-1.621161 -8.061037
-1.629144 -7.888304
-1.636955 -7.719478
-1.644600 -7.557368
-1.652087 -7.402249
-1.659422 -7.255247
-1.666616 -7.119399
-1.673679 -6.995143
-1.680624 -6.881358
-1.687459 -6.777709
-1.694195 -6.681907
-1.700838 -6.590044
-1.707389 -6.499860
-1.713850 -6.407583
-1.720216 -6.310399
-1.726482 -6.209991
-1.732664 -6.157054
-1.738843 -6.207730
-1.745128 -6.368564
-1.751620 -6.610564
-1.758372 -6.878827
-1.765384 -7.124464
-1.772614 -7.306965
-1.779984 -7.403397
-1.787404 -7.406341
-1.794781 -7.319765
-1.802032 -7.154174
-1.809083 -6.926291
-1.815884 -6.656722
-1.822401 -6.359676
-1.828612 -6.049068
-1.834511 -5.736895
-1.840099 -5.429046
-1.845382 -5.128279
-1.850368 -4.833516
-1.855061 -4.546012
-1.859472 -4.268513
-1.863606 -3.987806
-1.867458 -3.715358
-1.871045 -3.446734
-1.874355 -3.166305
-1.877383 -2.882183
-1.880123 -2.593258
-1.882571 -2.292902
-1.884711 -1.984628
-1.886543 -1.674025
-1.888059 -1.352913
-1.889252 -1.033097
-1.890127 -0.711473
-1.890674 -0.381618
-1.890891 -0.053137
-1.890781 0.273709
-1.890343 0.601828
-1.889575 0.933080
-1.888478 1.255009
-1.887065 1.569434
-1.885335 1.885209
-1.883294 2.190001
-1.880955 2.481965
-1.878327 2.767226
-1.875420 3.038100
-1.872250 3.295227
-1.868827 3.540747
-1.865166 3.771654
-1.861278 3.995411
-1.857173 4.200769
-1.852872 4.396764
-1.848370 4.596590
-1.843674 4.782967
-1.838796 4.963315
-1.833736 5.147418
-1.828492 5.328874
-1.823068 5.509575
-1.817461 5.694209
-1.811668 5.877044
-1.805695 6.058857
-1.799538 6.243896
-1.793195 6.428754
-1.786667 6.613731
-1.779954 6.797844
-1.773058 6.982901
-1.765974 7.170775
-1.758701 7.359230
-1.751239 7.552431
-1.743580 7.750434
-1.735721 7.951557
-1.727659 8.157028
-1.719390 8.365296
-1.710911 8.577330
-1.702218 8.791605
-1.693310 9.006926
-1.684185 9.224955
-1.674841 9.443476
-1.665280 9.658920
-1.655505 9.871033
-1.645519 10.079070
-1.635328 10.282528
-1.624936 10.480820
-1.614347 10.673831
-1.603568 10.862793
-1.592601 11.047352
-1.581452 11.228853
-1.570122 11.408536
-1.558613 11.586185
-1.546927 11.763086
-1.535063 11.939206
-1.523025 12.114050
-1.510811 12.288229
-1.498424 12.461137
-1.485865 12.632385
-1.473135 12.800775
-1.460239 12.965689
-1.447179 13.127404
-1.433959 13.283496
-1.420587 13.435336
-1.407063 13.583834
-1.393393 13.726863
-1.379583 13.867079
-1.365633 14.004456
-1.351547 14.137733
-1.337330 14.268354
-1.322982 14.397184
-1.308507 14.523786
-1.293904 14.656801
-1.279161 14.799272
-1.264277 14.935803
-1.249264 15.059625
-1.234119 15.210446
-1.218799 15.402534
-1.203282 15.597522
-1.187574 15.787688
-1.171668 16.000343
-1.155529 16.248730
-1.139129 16.523681
-1.122453 16.787229
-1.105530 17.021532
-1.088387 17.221881
-1.071078 17.344500
-1.053691 17.382771
-1.036300 17.354452
-1.018966 17.270038
-1.001737 17.151231
-0.984638 17.008736
-0.967688 16.859781
-0.950880 16.724675
-0.934199 16.605156
-0.917628 16.510744
-0.901137 16.439116
-0.884708 16.392333
-0.868310 16.375291
-0.851920 16.373564
-0.835523 16.392858
-0.819093 16.438233
-0.802610 16.493385
-0.786069 16.560308
-0.769451 16.644634
-0.752743 16.737641
-0.735940 16.836787
-0.719033 16.945489
-0.702012 17.063395
-0.684870 17.187344
-0.667598 17.324859
-0.650177 17.488084
-0.632577 17.680897
-0.614770 17.902735
-0.596726 18.155572
-0.578411 18.443984
-0.559788 18.771144
-0.540818 19.136784
-0.521464 19.537508
-0.501695 19.964357
-0.481487 20.417992
-0.460809 20.900788
-0.439636 21.405314
-0.417949 21.927045
-0.395735 22.458557
-0.372986 22.993271
-0.349703 23.524949
-0.325892 24.046793
-0.301567 24.553226
-0.276743 25.042531
-0.251436 25.516432
-0.225663 25.977117
-0.199433 26.430745
-0.172752 26.875007
-0.145632 27.309337
-0.118077 27.746868
-0.090080 28.193393
-0.061632 28.645498
-0.032730 29.102115
-0.003370 29.558795
0.026443 30.003191
0.056689 30.423220
0.087338 30.807139
0.118349 31.144711
0.149672 31.430302
0.181253 31.658464
0.213031 31.821499
0.244939 31.919995
0.276910 31.944921
0.308870 31.902530
0.340776 31.849290
0.372633 31.797764
0.404443 31.770519
0.436250 31.779277
0.468113 31.931154
0.500233 32.255581
0.532672 32.531102
0.565284 32.577329
0.597806 32.365477
0.629966 31.811237
0.661306 30.697700
0.691220 28.976204
0.719176 26.836370
0.744863 24.447226
0.768075 21.924700
0.788761 19.417276
0.806985 17.019065
0.822894 14.800983
0.836689 12.799795
0.848593 11.020129
0.858820 9.445563
0.867559 8.039384
0.874959 6.766831
0.881143 5.604629
0.886214 4.545013
0.890290 3.628287
0.893517 2.827756
0.895958 2.047222
0.897616 1.269155
0.898503 0.504390
0.898624 -0.264671
0.897957 -1.081389
0.896438 -1.962874
0.894011 -2.893888
0.890636 -3.848299
0.886313 -4.783062
0.881063 -5.711156
0.874952 -6.422562
0.868479 -6.313611
0.862422 -5.875338
0.856757 -5.316145
0.852063 -3.906563
0.849273 -1.484678
0.849443 1.993239
0.852842 4.207875
0.857240 4.543221
0.862039 5.180079
0.867569 5.693703
0.873165 5.389657
0.878221 4.671004
0.882500 3.904461
0.886079 3.262262
0.889138 2.941647
0.891980 2.655859
0.894365 2.099045
0.896180 1.536465
0.897463 1.041386
0.898272 0.567202
0.898708 0.421259
0.899167 0.429814
0.899465 0.126289
0.899399 -0.239504
0.899006 -0.542669
0.898492 -0.307312
0.898478 0.188936
0.898676 0.100794
0.898610 -0.196010
0.898313 -0.402842
0.897816 -0.574371
0.897283 -0.387477
0.897028 -0.235241
0.896706 -0.401516
0.896235 -0.536701
0.895664 -0.574490
0.895194 -0.285361
0.895047 -0.132638
0.894832 -0.266782
0.894538 -0.325931
0.894173 -0.406601
0.893769 -0.352768
0.893567 0.003082
0.893711 0.168671
0.893818 0.073433
0.893882 0.048467
0.893907 -0.000925
0.893884 -0.037220
0.893836 -0.063546
0.893757 -0.089112
0.893660 -0.106754
0.893544 -0.123475
0.893416 -0.131662
0.893282 -0.136106
0.893142 -0.144920
0.892994 -0.146774
0.892850 -0.142665
0.892707 -0.143245
0.892563 -0.142455
0.892422 -0.139174
0.892286 -0.133458
0.892155 -0.129516
0.892026 -0.126383
0.891903 -0.118582
0.891789 -0.111006
0.891681 -0.103681
0.891582 -0.093135
0.891492 -0.088085
0.891406 -0.082439
0.891330 -0.068927
0.891266 -0.060018
0.891210 -0.051135
0.891165 -0.040452
0.891128 -0.032293
0.891100 -0.023471
0.891081 -0.015713
0.891069 -0.005807
0.891068 0.001810
0.891075 0.013847
0.891099 0.035658
0.891147 0.060042
0.891226 0.103311
0.891361 0.167775
0.891574 0.269329
0.891914 0.412921
0.892411 0.587598
0.893104 0.804641
0.894035 1.060847
0.895240 1.352147
0.896752 1.671770
0.898594 2.014139
0.900789 2.371344
0.903343 2.732195
0.906254 3.079985
0.909501 3.402151
0.913054 3.691177
0.916874 3.932209
0.920906 4.110952
0.925077 4.208469
0.929304 4.224074
0.933512 4.174810
0.937644 4.071141
0.941646 3.916541
0.945470 3.719331
0.949084 3.498499
0.952471 3.268462
0.955626 3.035106
0.958548 2.803017
0.961239 2.575163
0.963706 2.354585
0.965958 2.149294
0.968015 1.963667
0.969896 1.797171
0.971620 1.651179
0.973208 1.522657
0.974673 1.407447
0.976030 1.307479
0.977296 1.222770
0.978483 1.151250
0.979605 1.093000
0.980673 1.040552
0.981688 0.988297
0.982654 0.942127
0.983577 0.902969
0.984463 0.868478
0.985317 0.839808
0.986145 0.814215
0.986947 0.787869
0.987723 0.762245
0.988474 0.738630
0.989202 0.717995
0.989911 0.697580
0.990598 0.673323
0.991259 0.647691
0.991894 0.622222
0.992505 0.596965
0.993089 0.571209
0.993647 0.541161
0.994171 0.505575
0.994658 0.466525
0.995104 0.424162
0.995505 0.377580
0.995858 0.326835
0.996158 0.271961
0.996401 0.213010
0.996584 0.150434
0.996702 0.084551
0.996752 0.015567
0.996732 -0.056210
0.996638 -0.130582
0.996470 -0.207408
0.996222 -0.286611
0.995895 -0.368107
0.995485 -0.451892
0.994990 -0.537845
0.994407 -0.625870
0.993736 -0.715821
0.992974 -0.807256
0.992119 -0.899624
0.991173 -0.992199
0.990133 -1.084256
0.989002 -1.174881
0.987782 -1.262880
0.986475 -1.346963
0.985087 -1.425627
0.983624 -1.497203
0.982093 -1.560102
0.980504 -1.612689
0.978868 -1.653289
0.977198 -1.680602
0.975508 -1.693425
0.973813 -1.690868
0.972129 -1.672429
0.970470 -1.637731
0.968855 -1.586924
0.967299 -1.520433
0.965816 -1.438966
0.964422 -1.343561
0.963131 -1.235637
0.961952 -1.117088
0.960897 -0.990163
0.959972 -0.857256
0.959182 -0.720873
0.958529 -0.583717
0.958013 -0.448375
0.957630 -0.317224
0.957376 -0.192458
0.957242 -0.076202
0.957220 0.030054
0.957298 0.125079
0.957466 0.207958
0.957710 0.278371
0.958019 0.336314
0.958380 0.382025
0.958780 0.416082
0.959209 0.439479
0.959657 0.453266
0.960114 0.458506
0.960572 0.456459
0.961025 0.448342
0.961468 0.435353
0.961896 0.418831
0.962306 0.400030
0.962696 0.380158
0.963067 0.360393
0.963418 0.341867
0.963752 0.325475
0.964071 0.312200
0.964378 0.302782
0.964679 0.297740
0.964976 0.297618
0.965276 0.302709
0.965584 0.313222
0.965905 0.329193
0.966245 0.350396
0.966608 0.376562
0.967000 0.407272
0.967425 0.441988
0.967886 0.480121
0.968387 0.520796
0.968929 0.563259
0.969515 0.606584
0.970144 0.649818
0.970816 0.692136
0.971529 0.732718
0.972282 0.770789
0.973071 0.805721
0.973893 0.836985
0.974745 0.864116
0.975622 0.886823
0.976519 0.904887
0.977432 0.918317
0.978356 0.927137
0.979287 0.931302
0.980219 0.931121
0.981149 0.926867
0.982073 0.918766
0.982987 0.907169
0.983888 0.892398
0.984773 0.874853
0.985639 0.854779
0.986484 0.832521
0.987305 0.808455
0.988102 0.782769
0.988872 0.755672
0.989614 0.727458
0.990328 0.698262
0.991012 0.668226
0.991665 0.637485
0.992288 0.606108
0.992879 0.574090
0.993437 0.541499
0.993962 0.508388
0.994455 0.474680
0.994913 0.440298
0.995336 0.405322
0.995724 0.369675
0.996076 0.333151
0.996390 0.295765
0.996667 0.257483
0.996906 0.218271
0.997104 0.177944
0.997261 0.136418
0.997377 0.093789
0.997449 0.049890
0.997476 0.004775
0.997458 -0.041657
0.997393 -0.089164
0.997279 -0.138330
0.997116 -0.187553
0.996903 -0.239184
0.996633 -0.303182
0.996290 -0.385168
0.995854 -0.489449
0.995299 -0.626787
0.994583 -0.811397
0.993649 -1.070768
0.992406 -1.429828
0.990761 -1.864935
0.988653 -2.358707
0.986023 -2.900216
0.982850 -3.433933
0.979171 -3.901422
0.975077 -4.254020
0.970706 -4.450105
0.966228 -4.466809
0.961825 -4.301282
0.957680 -3.947305
0.953984 -3.407792
0.950901 -2.736102
0.948540 -1.964893
0.946989 -1.128734
0.946281 -0.290611
0.946393 0.504885
0.947262 1.213299
0.948778 1.788056
0.950789 2.205013
0.953138 2.458986
0.955657 2.546701
0.958186 2.483728
0.960586 2.290242
0.962732 1.978250
0.964512 1.564198
0.965839 1.077366
0.966649 0.532018
0.966894 -0.044056
0.966562 -0.617570
0.965664 -1.172574
0.964225 -1.695161
0.962284 -2.174703
0.959890 -2.599312
0.957102 -2.959983
0.953987 -3.250907
0.950622 -3.456805
0.947107 -3.540571
0.943575 -3.500400
0.940142 -3.332690
0.936945 -3.039128
0.934089 -2.652863
0.931656 -2.200940
0.929690 -1.725294
0.928195 -1.270939
0.927130 -0.864197
0.926445 -0.515080
0.926076 -0.235210
0.925951 -0.024583
0.926007 0.126053
0.926191 0.238611
0.926479 0.335253
0.926857 0.415500
0.927303 0.471944
0.927791 0.498204
0.928290 0.492932
0.928769 0.460404
0.929202 0.399709
0.929559 0.308113
0.929811 0.193737
0.929943 0.068683
0.929946 -0.065247
0.929808 -0.213245
0.929515 -0.373823
0.929062 -0.526598
0.928469 -0.654353
0.927763 -0.749915
0.926982 -0.802488
0.926171 -0.809819
0.925372 -0.784230
0.924607 -0.742822
0.923885 -0.698624
0.923208 -0.654639
0.922576 -0.605901
0.921997 -0.550563
0.921476 -0.488346
0.921021 -0.421517
0.920633 -0.352428
0.920317 -0.278581
0.920075 -0.206562
0.919900 -0.145858
0.919781 -0.091301
0.919718 -0.033457
0.919716 0.030000
0.919778 0.093725
0.919902 0.151592
0.920079 0.201403
0.920301 0.238717
0.920551 0.259208
0.920815 0.265165
0.921079 0.261824
0.921337 0.252444
0.921583 0.238638
0.921813 0.221491
0.922026 0.201919
0.922217 0.180778
0.922387 0.158867
0.922535 0.136650
0.922661 0.114464
0.922764 0.092737
0.922847 0.071671
0.922908 0.051943
0.922951 0.034192
0.922978 0.019931
0.922992 0.008297
0.922997 0.005331
0.923001 -0.002649
0.923002 0.019666
0.923026 -0.000907
0.923018 0.032232
0.923155 0.257427
0.922991 -1.142710
0.923529 5.436289
0.956413 22.170405
