-0.051296 0.067853 -0.000021
0.470712 4.793495
0.489594 28.576854
0.519201 26.222084
0.539990 17.571591
0.557632 18.668459
0.577560 20.351573
0.598469 22.314589
0.621997 23.567980
0.645045 22.999649
0.668282 23.149200
0.690171 19.648512
0.707591 16.065040
0.723115 14.822202
0.736689 11.855159
0.746416 7.592922
0.752324 4.630888
0.755581 1.349978
0.755533 -0.414402
0.755514 0.105846
0.755529 -0.020772
0.755522 0.001680
0.755525 0.001116
0.755524 -0.000861
0.755524 0.000418
0.755524 -0.000172
0.755524 0.000064
0.755524 -0.000022
0.755524 0.000008
0.755524 -0.000002
0.755524 0.000001
0.755524 -0.000000
0.755524 0.000000
0.755524 -0.000000
0.755524 0.000000
0.755524 -0.000000
0.755524 0.000000
0.755524 -0.000000
0.755524 0.000000
0.755524 -0.000000
0.755524 0.000000
0.755524 -0.000000
0.755524 0.000000
0.755524 -0.000000
0.755524 0.000000
0.755524 -0.000000
0.755524 0.000000
0.755524 -0.000000
0.755524 0.000000
0.755524 -0.000000
0.755524 0.000000
0.755524 -0.000000
0.755524 0.000000
0.755524 -0.000000
0.755524 0.000000
0.755524 -0.000000
0.755524 0.000000
0.755524 -0.000000
0.755524 0.000000
0.755524 -0.000000
0.755524 0.000000
0.755524 -0.000000
0.755524 0.000000
0.755524 -0.000000
0.755524 0.000000
0.755524 -0.000000
0.755524 0.000000
0.755524 -0.000000
0.755524 0.000000
0.755524 -0.000000
0.755524 0.000000
0.755524 -0.000000
0.755524 0.000000
0.755524 -0.000000
0.755524 0.000000
0.755524 -0.000000
0.755524 0.000000
0.755524 -0.000000
0.755524 0.000000
0.755524 -0.000000
0.755524 0.000000
0.755524 -0.000000
0.755524 0.000000
0.755524 -0.000000
0.755524 0.000000
0.755524 -0.000000
0.755524 0.000000
0.755524 -0.000000
0.755524 0.000000
0.755524 -0.000000
0.755524 0.000000
0.755524 -0.000000
0.755524 0.000000
0.755524 -0.000000
0.755524 0.000000
0.755524 -0.000000
0.755524 0.000000
0.755524 -0.000000
0.755524 0.000000
0.755524 -0.000000
0.755524 0.000000
0.755524 -0.000000
0.755524 0.000000
0.755524 -0.000000
0.755524 0.000000
0.755524 -0.000000
0.755524 0.000000
0.755524 -0.000000
0.755524 0.000000
0.755524 -0.000000
0.755524 0.000000
0.755524 -0.000000
0.755524 0.000000
0.755524 -0.000000
0.755524 0.000000
0.755524 -0.000000
0.755524 0.000000
0.755524 -0.000000
0.755524 0.000000
0.755524 -0.000000
0.755524 0.000000
0.755524 -0.000000
0.755524 0.000000
0.755524 -0.000000
0.755524 0.000000
0.755524 -0.000000
0.755524 0.000000
0.755524 -0.000000
0.755524 0.000000
0.755524 -0.000000
0.755524 -0.000000
0.755524 0.000000
0.755524 -0.000000
0.755524 0.000000
0.755524 -0.000000
0.755524 0.000000
0.755524 -0.000000
0.755524 0.000000
0.755524 -0.000000
0.755524 0.000000
0.755524 -0.000000
0.755524 0.000000
0.755524 -0.000000
0.755524 0.000000
0.755524 -0.000000
0.755524 0.000000
0.755524 -0.000000
0.755524 0.000000
0.755524 -0.000000
0.755524 0.000000
0.755524 -0.000000
0.755524 0.000000
0.755524 -0.000000
0.755524 0.000000
0.755524 -0.000000
0.755524 0.000000
0.755524 -0.000000
0.755524 0.000000
0.755524 -0.000000
0.755524 0.000000
0.755524 -0.000000
0.755524 0.000000
0.755524 -0.000000
0.755524 0.000000
0.755524 -0.000000
0.755524 0.000000
0.755524 -0.000000
0.755524 0.000000
0.755524 -0.000000
0.755524 0.000000
0.755524 -0.000000
0.755524 0.000000
0.755524 -0.000000
0.755524 0.000000
0.755524 -0.000000
0.755524 0.000000
0.755524 -0.000000
0.755524 0.000000
0.755524 -0.000000
0.755524 0.000000
0.755524 -0.000000
0.755524 0.000000
0.755524 -0.000000
0.755524 0.000000
0.755524 -0.000000
0.755524 0.000000
0.755524 -0.000000
0.755524 0.000000
0.755524 -0.000000
0.755524 0.000000
0.755524 -0.000000
0.755524 0.000000
0.755524 -0.000000
0.755524 0.000000
0.755524 -0.000000
0.755524 0.000000
0.755524 -0.000000
0.755524 0.000000
0.755524 -0.000000
0.755524 0.000000
0.755524 -0.000000
0.755524 0.000000
0.755524 -0.000000
0.755524 0.000000
0.755524 -0.000000
0.755524 0.000000
0.755524 -0.000000
0.755524 0.000000
0.755524 -0.000000
0.755524 0.000000
0.755524 -0.000000
0.755524 0.000000
0.755524 -0.000000
0.755524 0.000000
0.755524 -0.000000
0.755524 0.000000
0.755524 -0.000000
0.755524 0.000000
0.755524 -0.000000
0.755524 0.000000
0.755524 -0.000000
0.755524 0.000000
0.755524 -0.000000
0.755524 0.000000
0.755524 -0.000000
0.755524 -0.000000
0.755524 0.000000
0.755524 -0.000000
0.755524 0.000000
0.755524 -0.000000
0.755524 0.000000
0.755524 -0.000000
0.755524 0.000001
0.755524 -0.000002
0.755524 0.000007
0.755524 -0.000024
0.755524 0.000080
0.755524 -0.000258
0.755524 0.000805
0.755524 -0.002387
0.755523 0.006570
0.755527 -0.015875
0.755513 0.028041
0.755561 0.005589
0.755285 -0.735337
0.754193 -1.162044
0.752214 -3.820834
0.743960 -14.224138
0.721947 -29.991863
0.685020 -42.451716
0.639966 -45.899059
0.594595 -44.955928
0.549434 -45.600280
0.503209 -46.525590
0.456311 -47.386643
0.408258 -48.498441
0.359138 -49.846994
0.308411 -51.353617
0.256691 -51.773681
0.204970 -51.563828
0.153156 -52.264138
0.100376 -52.849022
0.047630 -52.603683
-0.004981 -52.490014
-0.057437 -52.321708
-0.109729 -52.153588
-0.161844 -51.969229
-0.213767 -51.771788
-0.265486 -51.558669
-0.316982 -51.329187
-0.368241 -51.082297
-0.419243 -50.816424
-0.469969 -50.530904
-0.520399 -50.224591
-0.570511 -49.895977
-0.620283 -49.544827
-0.669692 -49.170810
-0.718715 -48.770788
-0.767323 -48.344930
-0.815492 -47.890498
-0.863191 -47.408090
-0.910394 -46.898863
-0.957073 -46.362254
-1.003202 -45.797646
-1.048753 -45.211658
-1.093705 -44.594003
-1.138018 -43.941387
-1.181658 -43.236575
-1.224544 -42.430569
-1.266559 -41.488438
-1.307531 -40.325538
-1.347207 -38.912349
-1.385363 -37.289285
-1.421804 -35.497084
-1.456388 -33.584040
-1.489010 -31.582165
-1.519599 -29.530113
-1.548127 -27.470765
-1.574597 -25.415456
-1.599015 -23.380766
-1.621418 -21.384072
-1.641838 -19.422992
-1.660320 -17.512518
-1.676918 -15.661698
-1.691697 -13.877249
-1.704726 -12.168235
-1.716082 -10.533915
-1.725839 -8.973112
-1.734073 -7.491458
-1.740863 -6.086574
-1.746284 -4.758597
-1.750415 -3.508711
-1.753333 -2.332098
-1.755105 -1.218135
-1.755786 -0.148879
-1.755414 0.889241
-1.754020 1.886594
-1.751656 2.825700
-1.748385 3.697346
-1.744279 4.492751
-1.739414 5.217472
-1.733856 5.877136
-1.727670 6.472302
-1.720919 7.004567
-1.713665 7.481583
-1.705958 7.906408
-1.697851 8.286990
-1.689382 8.624407
-1.680599 8.921049
-1.671533 9.184553
-1.662224 9.409086
-1.652707 9.600935
-1.643013 9.762110
-1.633174 9.892568
-1.623217 9.996915
-1.613169 10.073889
-1.603059 10.121441
-1.592915 10.142363
-1.582763 10.136735
-1.572630 10.104303
-1.562542 10.047471
-1.552523 9.966624
-1.542597 9.860638
-1.532790 9.731026
-1.523122 9.582912
-1.513611 9.415773
-1.504279 9.226484
-1.495145 9.020432
-1.486226 8.797100
-1.477540 8.555293
-1.469102 8.300297
-1.460927 8.030158
-1.453032 7.743617
-1.445428 7.446022
-1.438129 7.135988
-1.431147 6.812893
-1.424492 6.480506
-1.418176 6.136810
-1.412210 5.781618
-1.406604 5.420350
-1.401361 5.052010
-1.396493 4.673581
-1.392007 4.287049
-1.387911 3.897786
-1.384206 3.502305
-1.380901 3.102867
-1.377995 2.700495
-1.375495 2.295634
-1.373398 1.892872
-1.371707 1.487177
-1.370419 1.086815
-1.369528 0.693600
-1.369028 0.309415
-1.368905 -0.062835
-1.369148 -0.419716
-1.369738 -0.755520
-1.370653 -1.067457
-1.371866 -1.351125
-1.373347 -1.600737
-1.375057 -1.810571
-1.376958 -1.981082
-1.379009 -2.109170
-1.381167 -2.195166
-1.383390 -2.239541
-1.385638 -2.247445
-1.387877 -2.219231
-1.390067 -2.148529
-1.392132 -1.937880
-1.393862 -1.474588
-1.394998 -0.752404
-1.395303 0.165320
-1.394638 1.169029
-1.392964 2.168119
-1.390323 3.090110
-1.386819 3.889770
-1.382583 4.549468
-1.377759 5.064932
-1.372488 5.445525
-1.366897 5.706158
-1.361095 5.872212
-1.355165 5.966917
-1.349169 6.003290
-1.343160 5.998845
-1.337170 5.963579
-1.331228 5.906031
-1.325353 5.825739
-1.319575 5.716193
-1.313914 5.593851
-1.308381 5.456531
-1.302996 5.301357
-1.297772 5.131375
-1.292730 4.938833
-1.287894 4.718166
-1.283292 4.474935
-1.278943 4.209445
-1.274872 3.921117
-1.271099 3.615211
-1.267640 3.292916
-1.264510 2.958223
-1.261722 2.611455
-1.259285 2.256283
-1.257207 1.893330
-1.255495 1.530118
-1.254145 1.163822
-1.253165 0.795150
-1.252550 0.435553
-1.252292 0.081408
-1.252385 -0.265664
-1.252818 -0.595029
-1.253570 -0.906941
-1.254626 -1.198591
-1.255961 -1.464365
-1.257548 -1.701187
-1.259355 -1.902538
-1.261347 -2.071562
-1.263490 -2.204601
-1.265746 -2.295175
-1.268073 -2.347294
-1.270433 -2.362002
-1.272788 -2.337945
-1.275100 -2.273804
-1.277330 -2.177807
-1.279450 -2.050850
-1.281425 -1.890629
-1.283226 -1.705725
-1.284830 -1.493442
-1.286209 -1.258794
-1.287344 -1.005235
-1.288215 -0.732854
-1.288807 -0.448475
-1.289108 -0.150676
-1.289106 0.156010
-1.288795 0.465550
-1.288173 0.777492
-1.287241 1.081961
-1.286008 1.382400
-1.284477 1.674003
-1.282663 1.946924
-1.280583 2.207842
-1.278249 2.450175
-1.275684 2.672770
-1.272905 2.874518
-1.269937 3.053405
-1.266801 3.207203
-1.263523 3.341340
-1.260117 3.458006
-1.256607 3.552696
-1.253011 3.628316
-1.249348 3.689714
-1.245629 3.738746
-1.241870 3.768036
-1.238088 3.789438
-1.234287 3.799992
-1.230485 3.794907
-1.226692 3.781865
-1.222917 3.758958
-1.219169 3.727913
-1.215456 3.689608
-1.211785 3.645174
-1.208162 3.591450
-1.204595 3.536666
-1.201081 3.481388
-1.197626 3.422565
-1.194230 3.363465
-1.190892 3.305703
-1.187609 3.254308
-1.184376 3.205227
-1.181192 3.157090
-1.178053 3.116084
-1.174953 3.078254
-1.171889 3.046961
-1.168852 3.018405
-1.165846 2.988473
-1.162854 3.003328
-1.159820 3.058103
-1.156738 3.094818
-1.153609 3.179051
-1.150288 3.519476
-1.146497 4.056757
-1.142133 4.693291
-1.137002 5.627448
-1.130733 6.963674
-1.122958 8.605249
-1.113445 10.425848
-1.102061 12.320372
-1.088726 14.376838
-1.073211 16.635481
-1.055389 18.990666
-1.035130 21.530179
-1.012219 24.269268
-0.986497 27.147852
-0.957814 30.190818
-0.926011 33.363162
-0.890980 36.658417
-0.852586 40.060632
-0.810768 43.495792
-0.765494 46.969066
-0.716736 50.441280
-0.664510 53.914512
-0.608805 57.369182
-0.549675 60.770596
-0.487139 64.181087
-0.421191 67.570766
-0.351913 70.809457
-0.279403 74.131784
-0.203586 77.198566
-0.125483 78.369463
-0.047949 75.767496
0.027175 76.077390
0.104140 75.735732
0.176957 69.878308
0.243849 63.458909
0.300943 47.871899
0.338593 28.999985
0.363288 22.976122
0.385963 21.064564
0.404660 16.756540
0.420042 14.043310
0.433219 12.661689
0.445505 11.623388
0.456453 10.477558
0.467023 10.954810
0.478521 11.840366
0.490621 12.407761
0.503403 13.100174
0.516855 13.814001
0.530903 14.062196
0.544412 12.525096
0.556327 12.031988
0.568967 12.938024
0.582065 13.351697
0.595872 14.290554
0.609747 12.449557
0.621009 11.246695
0.632957 12.125162
0.645193 12.731875
0.658304 12.912407
0.669700 9.064633
0.676986 6.818497
0.684393 7.695966
0.692098 7.687018
0.699950 8.182054
0.708369 8.348784
0.715950 6.374769
0.721419 5.263033
0.727070 5.899765
0.732997 5.837100
0.738342 4.533992
0.742006 3.029186
0.744870 2.913735
0.747960 3.157361
0.751164 3.319355
0.754231 2.361552
0.755561 0.412447
0.755522 -0.142702
0.755522 0.040429
0.755525 -0.009276
0.755523 0.001403
0.755524 0.000108
0.755524 -0.000212
0.755524 0.000120
0.755524 -0.000053
0.755524 0.000021
0.755524 -0.000007
0.755524 0.000003
0.755524 -0.000001
0.755524 0.000000
0.755524 -0.000000
0.755524 0.000000
0.755524 -0.000000
0.755524 0.000000
0.755524 -0.000000
0.755524 0.000000
0.755524 -0.000000
0.755524 0.000000
0.755524 -0.000000
0.755524 0.000000
0.755524 0.000000
0.755524 -0.000000
0.755524 0.000000
0.755524 -0.000000
0.755524 0.000000
0.755524 -0.000000
0.755524 0.000000
0.755524 -0.000000
0.755524 0.000000
0.755524 -0.000000
0.755524 0.000000
0.755524 -0.000000
0.755524 0.000000
0.755524 -0.000000
0.755524 0.000000
0.755524 -0.000000
0.755524 0.000000
0.755524 -0.000000
0.755524 0.000000
0.755524 -0.000000
0.755524 0.000000
0.755524 -0.000000
0.755524 0.000000
0.755524 -0.000000
0.755524 0.000000
0.755524 -0.000000
0.755524 0.000000
0.755524 -0.000000
0.755524 0.000000
0.755524 -0.000000
0.755524 0.000000
0.755524 -0.000000
0.755524 0.000000
0.755524 -0.000000
0.755524 0.000000
0.755524 -0.000000
0.755524 0.000000
0.755524 -0.000000
0.755524 0.000000
0.755524 -0.000000
0.755524 0.000000
0.755524 -0.000000
0.755524 0.000000
0.755524 -0.000000
0.755524 0.000000
0.755524 -0.000000
0.755524 0.000000
0.755524 -0.000000
0.755524 0.000000
0.755524 -0.000000
0.755524 0.000000
0.755524 -0.000000
0.755524 0.000000
0.755524 -0.000000
0.755524 0.000000
0.755524 -0.000000
0.755524 0.000000
0.755524 -0.000000
0.755524 0.000000
0.755524 -0.000000
0.755524 0.000000
0.755524 -0.000000
0.755524 0.000000
0.755524 -0.000000
0.755524 0.000000
0.755524 -0.000000
0.755524 0.000000
0.755524 -0.000000
0.755524 0.000000
0.755524 -0.000000
0.755524 0.000000
0.755524 -0.000000
0.755524 0.000000
0.755524 -0.000000
0.755524 0.000000
0.755524 -0.000000
0.755524 0.000000
0.755524 -0.000000
0.755524 0.000000
0.755524 -0.000000
0.755524 0.000000
0.755524 -0.000000
0.755524 0.000000
0.755524 -0.000000
0.755524 0.000000
0.755524 -0.000000
0.755524 0.000000
0.755524 -0.000000
0.755524 0.000000
0.755524 -0.000000
0.755524 0.000000
0.755524 -0.000000
0.755524 0.000000
0.755524 -0.000000
0.755524 0.000000
0.755524 -0.000000
0.755524 0.000000
0.755524 -0.000000
0.755524 0.000000
0.755524 -0.000000
0.755524 0.000000
0.755524 -0.000000
0.755524 0.000000
0.755524 -0.000000
0.755524 0.000000
0.755524 -0.000000
0.755524 0.000000
0.755524 -0.000000
0.755524 0.000000
0.755524 -0.000000
0.755524 0.000000
0.755524 -0.000000
0.755524 0.000000
0.755524 -0.000000
0.755524 0.000000
0.755524 -0.000000
0.755524 0.000000
0.755524 -0.000000
0.755524 0.000000
0.755524 -0.000000
0.755524 0.000000
0.755524 0.000000
0.755524 -0.000000
0.755524 0.000000
0.755524 -0.000000
0.755524 0.000000
0.755524 -0.000000
0.755524 0.000000
0.755524 -0.000000
0.755524 0.000000
0.755524 -0.000000
0.755524 0.000000
0.755524 -0.000000
0.755524 0.000000
0.755524 -0.000000
0.755524 0.000000
0.755524 -0.000000
0.755524 0.000000
0.755524 -0.000000
0.755524 0.000000
0.755524 -0.000000
0.755524 0.000000
0.755524 -0.000000
0.755524 0.000000
0.755524 -0.000000
0.755524 0.000000
0.755524 -0.000000
0.755524 0.000000
0.755524 -0.000000
0.755524 0.000000
0.755524 -0.000000
0.755524 0.000000
0.755524 -0.000000
0.755524 0.000000
0.755524 -0.000000
0.755524 0.000000
0.755524 -0.000000
0.755524 0.000000
0.755524 -0.000000
0.755524 0.000000
0.755524 -0.000000
0.755524 0.000000
0.755524 -0.000000
0.755524 0.000000
0.755524 -0.000000
0.755524 0.000000
0.755524 -0.000000
0.755524 0.000000
0.755524 -0.000000
0.755524 0.000000
0.755524 -0.000000
0.755524 0.000000
0.755524 -0.000000
0.755524 0.000000
0.755524 -0.000000
0.755524 0.000000
0.755524 -0.000000
0.755524 0.000000
0.755524 -0.000000
0.755524 0.000000
0.755524 -0.000000
0.755524 0.000000
0.755524 -0.000000
0.755524 0.000000
0.755524 -0.000000
0.755524 0.000000
0.755524 -0.000000
0.755524 0.000000
0.755524 -0.000000
0.755524 0.000000
0.755524 -0.000000
0.755524 0.000000
0.755524 -0.000000
0.755524 0.000000
0.755524 -0.000000
0.755524 0.000000
0.755524 -0.000000
0.755524 0.000000
0.755524 -0.000000
0.755524 0.000000
0.755524 -0.000000
0.755524 0.000000
0.755524 -0.000000
0.755524 0.000000
0.755524 -0.000000
0.755524 0.000000
0.755524 -0.000000
0.755524 0.000000
0.755524 -0.000000
0.755524 0.000000
0.755524 -0.000000
0.755524 0.000000
0.755524 -0.000000
0.755524 0.000000
0.755524 -0.000000
0.755524 0.000000
0.755524 -0.000000
0.755524 0.000000
0.755524 -0.000000
0.755524 0.000000
0.755524 -0.000000
0.755524 0.000000
0.755524 -0.000000
0.755524 0.000000
0.755524 -0.000000
0.755524 0.000000
0.755524 -0.000000
0.755524 0.000000
0.755524 -0.000000
0.755524 0.000000
0.755524 -0.000000
0.755524 0.000000
0.755524 -0.000000
0.755524 0.000000
0.755524 -0.000000
0.755524 0.000000
0.755524 -0.000000
0.755524 0.000000
0.755524 -0.000000
0.755524 0.000000
0.755524 -0.000000
0.755524 0.000000
0.755524 -0.000000
0.755524 0.000000
0.755524 -0.000000
0.755524 0.000000
0.755524 -0.000000
0.755524 0.000000
0.755524 -0.000000
0.755524 0.000000
0.755524 -0.000000
0.755524 0.000000
0.755524 -0.000000
0.755524 0.000000
0.755524 -0.000000
0.755524 -0.000000
0.755524 0.000000
0.755524 -0.000000
0.755524 0.000002
0.755524 -0.000009
0.755524 0.000036
0.755524 -0.000130
0.755524 0.000451
0.755524 -0.001474
0.755524 0.004495
0.755525 -0.012373
0.755518 0.027989
0.755548 -0.032425
0.755390 -0.282238
0.753755 -4.210692
0.746677 -8.985966
0.735894 -13.374270
0.719671 -18.454118
0.696502 -30.869303
0.655375 -50.765388
0.595430 -68.982590
0.519296 -81.131791
0.432984 -93.338237
0.330933 -110.039161
0.216123 -116.440175
0.099451 -117.953012
-0.020230 -120.095291
-0.139852 -118.856161
-0.258108 -117.400595
-0.375204 -116.892277
-0.492587 -117.765670
-0.610350 -116.777576
-0.725683 -113.712430
-0.837872 -110.254084
-0.945949 -105.408788
-1.048336 -98.872059
-1.143404 -90.873289
-1.229800 -81.481823
-1.306546 -72.136728
-1.374618 -63.992289
-1.434167 -54.374049
-1.483247 -44.071593
-1.522947 -35.412858
-1.554544 -27.956250
-1.579356 -21.820695
-1.598658 -16.968823
-1.614442 -15.457476
-1.630400 -16.332099
-1.646460 -15.172346
-1.660363 -12.779367
-1.672227 -10.931954
-1.682327 -9.317609
-1.690927 -7.843685
-1.698075 -6.503127
-1.703851 -4.875651
-1.707738 -2.956280
-1.710883 -4.373592
-1.716148 -4.752409
-1.719502 -2.450368
-1.721371 -1.101711
-1.721805 -0.042372
-1.722144 -1.042880
-1.723475 -0.791280
-1.722933 1.843324
-1.720759 1.555754
-1.719888 1.058018
-1.717832 2.986172
-1.713995 4.659898
-1.708556 6.174064
-1.701694 7.509893
-1.693556 8.740946
-1.684188 9.991723
-1.673538 11.286275
-1.661594 12.575368
-1.648388 13.785961
-1.633998 14.988122
-1.618354 16.274165
-1.601411 17.576080
-1.583159 18.900153
-1.563543 20.315814
-1.542470 21.782141
-1.519951 23.200510
-1.496057 24.516073
-1.470919 25.684651
-1.444689 26.694780
-1.417527 27.550512
-1.389575 28.278799
-1.360948 28.901065
-1.331745 29.433959
-1.302045 29.897413
-1.271908 30.307955
-1.241379 30.685268
-1.210487 31.031486
-1.179264 31.349457
-1.147729 31.654406
-1.115897 31.942497
-1.083787 32.210582
-1.051417 32.462303
-1.018804 32.693194
-0.985971 32.904812
-0.952935 33.096743
-0.919719 33.266173
-0.886344 33.412984
-0.852834 33.536397
-0.819212 33.635989
-0.785503 33.711777
-0.751729 33.763835
-0.717916 33.791552
-0.684086 33.796563
-0.650262 33.778881
-0.616468 33.738029
-0.582726 33.674367
-0.549058 33.591683
-0.515483 33.488476
-0.482021 33.364671
-0.448692 33.222901
-0.415514 33.064246
-0.382503 32.888588
-0.349677 32.696771
-0.317049 32.490358
-0.284636 32.269541
-0.252450 32.035382
-0.220505 31.789059
-0.188812 31.530480
-0.157385 31.259991
-0.126233 30.980119
-0.095366 30.689660
-0.064795 30.389903
-0.034529 30.081037
-0.004576 29.762854
0.025054 29.437977
0.054356 29.105466
0.083321 28.764477
0.111940 28.415657
0.140207 28.060377
0.168115 27.699305
0.195658 27.329885
0.222829 26.957713
0.249623 26.572492
0.276029 26.193908
0.302063 25.813680
0.327634 25.212293
0.352483 24.447689
0.376675 23.970469
0.400502 23.580880
0.423727 22.720636
0.445866 21.494060
0.467387 22.153656
0.470712 4.793495
