-0.489861 0.454432 0.000008
-1.096784 7.045058
-1.089876 6.767949
-1.083215 6.549595
-1.076856 6.053573
-1.071281 5.003174
-1.066953 3.612611
-1.064172 1.852506
-1.062873 1.205612
-1.061023 2.762752
-1.056966 5.448094
-1.050091 8.208631
-1.040353 11.505027
-1.026389 16.805584
-1.006831 21.738549
-0.983728 24.093482
-0.959149 24.791846
-0.934563 24.086405
-0.911293 22.284475
-0.890109 20.004721
-0.871255 17.690857
-0.854608 15.628940
-0.839830 13.973687
-0.826481 12.773047
-0.814116 11.999820
-0.802333 11.599123
-0.790802 11.477231
-0.779295 11.537672
-0.767661 11.723894
-0.755794 11.999363
-0.743619 12.333560
-0.731095 12.688798
-0.718221 13.029470
-0.705020 13.339456
-0.691526 13.615863
-0.677771 13.862167
-0.663782 14.085053
-0.649581 14.284416
-0.635192 14.463057
-0.620604 14.707099
-0.605688 15.129702
-0.590262 15.709567
-0.574218 16.348002
-0.557537 16.973483
-0.540254 17.547858
-0.522429 18.055986
-0.504129 18.494755
-0.485422 18.874953
-0.466355 19.213595
-0.446963 19.529499
-0.427261 19.834833
-0.407251 20.149766
-0.386929 20.441006
-0.366408 20.492919
-0.346025 20.176059
-0.326076 19.677728
-0.306615 19.226142
-0.287533 18.930638
-0.268648 18.836589
-0.249754 18.945418
-0.230661 19.229098
-0.211213 19.646288
-0.191300 20.152393
-0.170852 20.707444
-0.149841 21.270530
-0.128284 21.784546
-0.106257 22.211391
-0.083854 22.527661
-0.061180 22.774014
-0.038183 23.251718
-0.014433 24.319241
0.010686 25.933839
0.037548 27.731754
0.066160 29.394397
0.096295 30.756293
0.127615 31.759022
0.159759 32.409144
0.192393 32.746433
0.225232 32.827116
0.258047 32.708709
0.290666 32.444561
0.322969 32.083871
0.354879 31.666342
0.386350 31.202826
0.417332 30.694995
0.447794 30.165410
0.477717 29.616040
0.507071 29.024160
0.535805 28.376109
0.563897 27.779326
0.591378 27.061142
0.618517 27.670977
0.646389 27.121398
0.673891 29.801210
0.705376 30.456666
0.737595 39.293460
0.823567 166.590076
1.022737 148.914813
1.079382 4.426835
1.077559 -2.319314
1.078079 0.946011
1.077933 -0.344922
1.077974 0.118042
1.077962 -0.038773
1.077965 0.012372
1.077965 -0.003864
1.077965 0.001186
1.077965 -0.000359
1.077965 0.000108
1.077965 -0.000032
1.077965 0.000009
1.077965 -0.000003
1.077965 0.000001
1.077965 -0.000000
1.077965 0.000000
1.077965 -0.000000
1.077965 0.000000
1.077965 -0.000000
1.077965 0.000000
1.077965 -0.000000
1.077965 0.000000
1.077965 -0.000000
1.077965 0.000000
1.077965 -0.000000
1.077965 0.000000
1.077965 -0.000000
1.077965 0.000000
1.077965 -0.000000
1.077965 0.000000
1.077965 -0.000000
1.077965 0.000000
1.077965 -0.000000
1.077965 0.000000
1.077965 -0.000000
1.077965 0.000000
1.077965 -0.000000
1.077965 0.000000
1.077965 -0.000000
1.077965 0.000000
1.077965 -0.000000
1.077965 0.000000
1.077965 -0.000000
1.077965 0.000000
1.077965 -0.000000
1.077965 0.000000
1.077965 -0.000000
1.077965 0.000000
1.077965 -0.000000
1.077965 0.000000
1.077965 -0.000000
1.077965 0.000000
1.077965 -0.000000
1.077965 0.000000
1.077965 -0.000000
1.077965 0.000000
1.077965 -0.000000
1.077965 0.000000
1.077965 -0.000000
1.077965 0.000000
1.077965 -0.000000
1.077965 0.000000
1.077965 -0.000000
1.077965 0.000000
1.077965 -0.000000
1.077965 0.000000
1.077965 -0.000000
1.077965 0.000000
1.077965 -0.000000
1.077965 0.000000
1.077965 -0.000000
1.077965 0.000000
1.077965 -0.000000
1.077965 0.000000
1.077965 -0.000000
1.077965 0.000000
1.077965 -0.000000
1.077965 0.000000
1.077965 -0.000000
1.077965 0.000000
1.077965 -0.000000
1.077965 0.000000
1.077965 -0.000000
1.077965 0.000000
1.077965 -0.000000
1.077965 0.000000
1.077965 -0.000000
1.077965 0.000000
1.077965 -0.000000
1.077965 0.000000
1.077965 -0.000000
1.077965 0.000000
1.077965 -0.000000
1.077965 0.000000
1.077965 -0.000000
1.077965 0.000000
1.077965 -0.000000
1.077965 0.000000
1.077965 -0.000000
1.077965 0.000000
1.077965 -0.000000
1.077965 0.000000
1.077965 -0.000000
1.077965 0.000000
1.077965 -0.000000
1.077965 0.000000
1.077965 -0.000000
1.077965 0.000000
1.077965 -0.000000
1.077965 0.000000
1.077965 -0.000000
1.077965 0.000000
1.077965 -0.000000
1.077965 0.000000
1.077965 -0.000000
1.077965 0.000000
1.077965 -0.000000
1.077965 0.000000
1.077965 -0.000000
1.077965 0.000000
1.077965 -0.000000
1.077965 0.000000
1.077965 -0.000000
1.077965 0.000000
1.077965 -0.000000
1.077965 0.000000
1.077965 -0.000000
1.077965 0.000000
1.077965 -0.000000
1.077965 0.000000
1.077965 -0.000000
1.077965 0.000000
1.077965 -0.000000
1.077965 0.000000
1.077965 -0.000000
1.077965 0.000000
1.077965 -0.000000
1.077965 0.000000
1.077965 -0.000000
1.077965 0.000000
1.077965 -0.000000
1.077965 0.000000
1.077965 -0.000000
1.077965 0.000000
1.077965 -0.000000
1.077965 0.000000
1.077965 -0.000000
1.077965 0.000000
1.077965 -0.000000
1.077965 0.000000
1.077965 -0.000000
1.077965 0.000000
1.077965 -0.000000
1.077965 0.000000
1.077965 -0.000000
1.077965 0.000000
1.077965 -0.000000
1.077965 0.000000
1.077965 -0.000000
1.077965 0.000000
1.077965 -0.000000
1.077965 0.000000
1.077965 -0.000000
1.077965 0.000000
1.077965 -0.000000
1.077965 0.000000
1.077965 -0.000000
1.077965 0.000000
1.077965 -0.000000
1.077965 0.000000
1.077965 -0.000000
1.077965 0.000000
1.077965 -0.000000
1.077965 0.000000
1.077965 -0.000000
1.077965 0.000000
1.077965 -0.000000
1.077965 0.000000
1.077965 -0.000000
1.077965 0.000000
1.077965 -0.000000
1.077965 0.000000
1.077965 -0.000000
1.077965 0.000000
1.077965 -0.000000
1.077965 0.000000
1.077965 -0.000000
1.077965 0.000000
1.077965 -0.000000
1.077965 0.000000
1.077965 -0.000000
1.077965 0.000000
1.077965 -0.000000
1.077965 0.000000
1.077965 -0.000000
1.077965 0.000000
1.077965 -0.000000
1.077965 0.000000
1.077965 -0.000000
1.077965 -0.000000
1.077965 0.000000
1.077965 -0.000000
1.077965 0.000000
1.077965 -0.000000
1.077965 0.000000
1.077965 -0.000000
1.077965 0.000000
1.077965 -0.000000
1.077965 0.000000
1.077965 -0.000000
1.077965 0.000000
1.077965 -0.000000
1.077965 0.000000
1.077965 -0.000000
1.077965 0.000000
1.077965 -0.000000
1.077965 0.000000
1.077965 -0.000000
1.077965 0.000000
1.077965 -0.000000
1.077965 0.000000
1.077965 -0.000000
1.077965 0.000000
1.077965 -0.000000
1.077965 0.000000
1.077965 -0.000000
1.077965 0.000000
1.077965 -0.000000
1.077965 0.000000
1.077965 -0.000000
1.077965 0.000000
1.077965 -0.000000
1.077965 0.000000
1.077965 -0.000000
1.077965 0.000000
1.077965 -0.000000
1.077965 0.000000
1.077965 -0.000000
1.077965 0.000000
1.077965 -0.000000
1.077965 0.000000
1.077965 -0.000000
1.077965 0.000000
1.077965 -0.000000
1.077965 0.000000
1.077965 -0.000000
1.077965 0.000000
1.077965 -0.000000
1.077965 0.000000
1.077965 -0.000000
1.077965 0.000000
1.077965 -0.000000
1.077965 0.000000
1.077965 -0.000000
1.077965 0.000000
1.077965 -0.000000
1.077965 0.000000
1.077965 -0.000000
1.077965 0.000000
1.077965 -0.000000
1.077965 0.000000
1.077965 -0.000000
1.077965 0.000000
1.077965 -0.000000
1.077965 0.000000
1.077965 -0.000000
1.077965 0.000000
1.077965 -0.000000
1.077965 0.000000
1.077965 -0.000000
1.077965 0.000000
1.077965 -0.000000
1.077965 0.000000
1.077965 -0.000000
1.077965 0.000000
1.077965 -0.000000
1.077965 0.000000
1.077965 -0.000000
1.077965 0.000000
1.077965 -0.000000
1.077965 0.000000
1.077965 -0.000000
1.077965 0.000000
1.077965 -0.000000
1.077965 0.000000
1.077965 -0.000000
1.077965 0.000000
1.077965 -0.000000
1.077965 0.000000
1.077965 -0.000000
1.077965 0.000000
1.077965 -0.000000
1.077965 0.000000
1.077965 -0.000000
1.077965 0.000000
1.077965 -0.000000
1.077965 0.000000
1.077965 -0.000000
1.077965 0.000000
1.077965 -0.000000
1.077965 0.000000
1.077965 -0.000000
1.077965 0.000000
1.077965 -0.000000
1.077965 0.000000
1.077965 -0.000000
1.077965 0.000000
1.077965 -0.000000
1.077965 0.000000
1.077965 -0.000000
1.077965 0.000000
1.077965 -0.000000
1.077965 0.000000
1.077965 -0.000000
1.077965 0.000000
1.077965 -0.000000
1.077965 0.000000
1.077965 -0.000000
1.077965 0.000000
1.077965 -0.000000
1.077965 0.000000
1.077965 -0.000000
1.077965 0.000000
1.077965 -0.000000
1.077965 0.000000
1.077965 -0.000000
1.077965 0.000000
1.077965 -0.000000
1.077965 0.000000
1.077965 -0.000000
1.077965 0.000000
1.077965 -0.000000
1.077965 0.000000
1.077965 -0.000000
1.077965 0.000000
1.077965 -0.000000
1.077965 0.000000
1.077965 -0.000000
1.077965 0.000000
1.077965 -0.000000
1.077965 0.000000
1.077965 -0.000000
1.077965 0.000000
1.077965 -0.000000
1.077965 0.000000
1.077965 -0.000000
1.077965 0.000000
1.077965 -0.000000
1.077965 0.000000
1.077965 -0.000000
1.077965 0.000000
1.077965 -0.000000
1.077965 0.000000
1.077965 -0.000000
1.077965 0.000000
1.077965 -0.000000
1.077965 0.000000
1.077965 -0.000000
1.077965 0.000000
1.077965 -0.000000
1.077965 0.000000
1.077965 -0.000000
1.077965 0.000000
1.077965 -0.000000
1.077965 0.000000
1.077965 -0.000000
1.077965 0.000000
1.077965 -0.000000
1.077965 0.000000
1.077965 -0.000000
1.077965 0.000000
1.077965 -0.000000
1.077965 0.000000
1.077965 -0.000000
1.077965 0.000000
1.077965 -0.000000
1.077965 0.000000
1.077965 -0.000000
1.077965 0.000000
1.077965 -0.000000
1.077965 0.000000
1.077965 -0.000000
1.077965 0.000000
1.077965 -0.000000
1.077965 0.000001
1.077965 -0.000004
1.077965 0.000012
1.077965 -0.000042
1.077965 0.000142
1.077965 -0.000479
1.077965 0.001600
1.077965 -0.005268
1.077964 0.017035
1.077968 -0.053802
1.077953 0.164505
1.078010 -0.479451
1.077799 1.291858
1.078578 -2.984966
1.074830 1.751728
1.061884 -54.055157
0.942517 -182.073249
0.711904 -266.541228
0.434086 -275.531128
0.184709 -211.337757
0.013916 -138.366814
-0.104853 -103.011330
-0.196880 -81.342564
-0.268455 -61.934314
-0.320237 -40.621103
-0.351631 -24.859557
-0.365478 4.472521
-0.352231 5.172301
-0.360564 -10.435995
-0.414006 -148.567388
-0.649189 -260.301839
-0.880896 -209.494617
-1.058317 -127.877295
-1.127245 -17.306610
-1.121291 8.370750
-1.122942 -3.279742
-1.122486 1.165411
-1.122612 -0.391173
-1.122577 0.126457
-1.122587 -0.039806
-1.122584 0.012299
-1.122585 -0.003795
-1.122585 0.001310
-1.122585 -0.000872
-1.122585 0.001642
-1.122584 -0.004765
-1.122585 0.016681
-1.122587 -0.069306
-1.122261 1.232643
-1.116752 12.624721
-1.080188 74.360057
-0.959388 161.557199
-0.760634 237.114119
-0.494101 284.448988
-0.205234 289.623338
0.079413 275.879203
0.345222 256.577555
0.597981 251.960260
0.827728 181.652410
0.962724 114.564226
1.061341 60.228609
1.080412 -2.768485
1.077332 -1.230012
1.078126 0.839643
1.077924 -0.355254
1.077975 0.128381
1.077962 -0.042830
1.077965 0.013596
1.077965 -0.004124
1.077965 0.001040
1.077965 0.000364
1.077965 -0.002372
1.077965 0.008363
1.077966 -0.028587
1.077962 0.098379
1.077973 -0.343195
1.077943 1.218905
1.078009 -4.425241
1.064168 -24.802839
1.018836 -73.704127
0.916722 -122.275659
0.803495 -82.569509
0.753982 -35.178343
0.720614 -25.110922
0.703235 -16.465984
0.683181 -21.212461
0.662364 -21.177160
0.640249 -22.745956
0.617010 -23.763611
0.592627 -24.923392
0.567142 -25.997811
0.540587 -27.049652
0.513003 -28.056194
0.484433 -29.020087
0.454926 -29.922011
0.424567 -30.708821
0.393507 -31.314233
0.361956 -31.679869
0.330297 -31.406380
0.299336 -30.367073
0.271211 -24.207220
0.253797 -9.283536
0.253062 6.950239
0.265793 17.433285
0.285008 19.058629
0.303465 19.236346
0.319702 7.972081
0.291917 -85.734870
0.111943 -287.686945
-0.244878 -372.292143
-0.577350 -288.953243
-0.823565 -206.218661
-0.992812 -131.312032
-1.086357 -56.121499
-1.115698 -12.493463
-1.122479 -2.162180
-1.122588 0.493585
-1.122585 -0.129198
-1.122584 0.034702
-1.122585 -0.009554
-1.122585 0.002689
-1.122585 -0.000771
-1.122585 0.000224
-1.122585 -0.000066
-1.122585 0.000019
-1.122585 -0.000006
-1.122585 0.000002
-1.122585 -0.000001
-1.122585 0.000000
-1.122585 -0.000000
-1.122585 0.000000
-1.122585 -0.000000
-1.122585 0.000000
-1.122585 -0.000000
-1.122585 0.000000
-1.122585 -0.000000
-1.122585 0.000000
-1.122585 -0.000000
-1.122585 0.000000
-1.122585 -0.000000
-1.122585 0.000000
-1.122585 -0.000000
-1.122585 0.000000
-1.122585 -0.000000
-1.122585 0.000000
-1.122585 -0.000000
-1.122585 0.000000
-1.122585 -0.000000
-1.122585 0.000000
-1.122585 -0.000000
-1.122585 0.000000
-1.122585 -0.000000
-1.122585 0.000000
-1.122585 -0.000000
-1.122585 0.000000
-1.122585 -0.000000
-1.122585 0.000000
-1.122585 -0.000000
-1.122585 0.000000
-1.122585 -0.000000
-1.122585 0.000000
-1.122585 -0.000000
-1.122585 0.000000
-1.122585 -0.000000
-1.122585 0.000000
-1.122585 -0.000000
-1.122585 0.000000
-1.122585 -0.000000
-1.122585 0.000000
-1.122585 -0.000000
-1.122585 -0.000000
-1.122585 0.000000
-1.122585 -0.000000
-1.122585 0.000000
-1.122585 -0.000000
-1.122585 0.000000
-1.122585 -0.000000
-1.122585 0.000000
-1.122585 -0.000000
-1.122585 0.000000
-1.122585 -0.000000
-1.122585 0.000000
-1.122585 -0.000000
-1.122585 0.000000
-1.122585 -0.000000
-1.122585 0.000000
-1.122585 -0.000000
-1.122585 0.000000
-1.122585 -0.000000
-1.122585 0.000000
-1.122585 -0.000000
-1.122585 0.000000
-1.122585 -0.000000
-1.122585 0.000000
-1.122585 -0.000000
-1.122585 0.000000
-1.122585 -0.000000
-1.122585 0.000000
-1.122585 -0.000000
-1.122585 0.000000
-1.122585 -0.000000
-1.122585 0.000000
-1.122585 -0.000000
-1.122585 0.000000
-1.122585 -0.000000
-1.122585 0.000000
-1.122585 -0.000000
-1.122585 0.000000
-1.122585 -0.000000
-1.122585 0.000000
-1.122585 -0.000000
-1.122585 0.000000
-1.122585 -0.000001
-1.122585 0.000002
-1.122585 -0.000008
-1.122585 0.000030
-1.122585 -0.000108
-1.122585 0.000403
-1.122585 -0.001528
-1.122585 0.005885
-1.122585 -0.023042
-1.122580 0.101208
-1.122388 0.208593
-1.121679 1.763147
-1.118294 5.007910
-1.111656 8.245188
-1.102012 10.808698
-1.090532 11.826944
-1.078732 11.655321
-1.067270 11.267828
-1.056149 10.953779
-1.045333 10.664836
-1.034786 10.412866
-1.024476 10.191478
-1.014372 10.000430
-1.004445 9.838598
-0.994665 9.706541
-0.985003 9.602701
-0.975432 9.524883
-0.965927 9.469476
-0.956468 9.432129
-0.947039 9.409572
-0.937626 9.398730
-0.928219 9.397601
-0.918809 9.404570
-0.909389 9.418142
-0.899952 9.437481
-0.890494 9.460849
-0.881011 9.487043
-0.871500 9.514920
-0.861962 9.543159
-0.852395 9.571050
-0.842800 9.599074
-0.833177 9.629345
-0.823521 9.664547
-0.813826 9.706786
-0.804086 9.755894
-0.794293 9.810177
-0.784445 9.867055
-0.774539 9.924442
-0.764577 9.979298
-0.754564 10.023381
-0.744517 10.046498
-0.734460 10.043620
-0.724411 10.035502
-0.714376 10.004504
-0.704381 9.976374
-0.694452 9.802548
-0.685047 8.759517
-0.677327 6.482548
-0.672260 3.632752
-0.669925 1.170249
-0.669653 -0.501621
-0.670702 -1.491513
-0.672487 -2.025156
-0.674678 -2.324194
-0.677097 -2.494751
-0.679651 -2.600946
-0.682293 -2.674547
-0.685000 -2.731750
-0.687759 -2.779506
-0.690562 -2.820498
-0.693404 -2.856122
-0.696278 -2.886411
-0.699181 -2.911339
-0.702105 -2.930921
-0.705047 -2.945636
-0.708001 -2.955781
-0.710963 -2.961588
-0.713929 -2.963662
-0.716895 -2.962047
-0.719858 -2.957211
-0.722814 -2.949525
-0.725762 -2.938674
-0.728696 -2.924645
-0.731616 -2.907886
-0.734517 -2.888198
-0.737397 -2.864971
-0.740252 -2.838679
-0.743079 -2.809264
-0.745875 -2.775880
-0.748635 -2.739878
-0.751358 -2.697542
-0.754037 -2.657869
-0.756675 -2.606174
-0.759240 -2.511674
-0.761590 -2.079803
-0.763053 -0.596666
-0.762031 3.145526
-0.755718 9.997774
-0.741395 18.711328
-0.718451 26.844402
-0.688482 32.488689
-0.654577 34.631734
-0.620335 33.223797
-0.589053 28.848887
-0.563276 22.384815
-0.544625 14.762097
-0.533831 6.814285
-0.530870 -0.794583
-0.535152 -7.596310
-0.545714 -13.308286
-0.561390 -17.804707
-0.580952 -21.080101
-0.603211 -23.212525
-0.627086 -24.333353
-0.651641 -24.600313
-0.676106 -24.179860
-0.699874 -23.232799
-0.722492 -21.907075
-0.743649 -20.332017
-0.763150 -18.617397
-0.780904 -16.853734
-0.796899 -15.112690
-0.811186 -13.449524
-0.823864 -11.904739
-0.835068 -10.505456
-0.844950 -9.267803
-0.853678 -8.198894
-0.861420 -7.297494
-0.868342 -6.558095
-0.874600 -5.970335
-0.880341 -5.521039
-0.885695 -5.195595
-0.890779 -4.978720
-0.895693 -4.855172
-0.900525 -4.809452
-0.905343 -4.827146
-0.910205 -4.895081
-0.915156 -5.001449
-0.920228 -5.135724
-0.925444 -5.288133
-0.930818 -5.449945
-0.936355 -5.613511
-0.942054 -5.772843
-0.947909 -5.922945
-0.953908 -6.061172
-0.960039 -6.185808
-0.966287 -6.294865
-0.972636 -6.388540
-0.979072 -6.467456
-0.985579 -6.531963
-0.992144 -6.582034
-0.998751 -6.615621
-1.005382 -6.629290
-1.012015 -6.620647
-1.018629 -6.588173
-1.025197 -6.532776
-1.031700 -6.456883
-1.038118 -6.364014
-1.044437 -6.257745
-1.050643 -6.141789
-1.056731 -6.020037
-1.062694 -5.895226
-1.068533 -5.770520
-1.074247 -5.647380
-1.079840 -5.528140
-1.085316 -5.414014
-1.090681 -5.306054
-1.095941 -5.203084
-1.101101 -5.110399
-1.106170 -5.010679
-1.111128 -4.896228
-1.115809 -4.292998
-1.119474 -2.944318
-1.121648 -1.429524
-1.122474 -0.330959
-1.122566 0.000528
-1.122589 -0.014884
-1.122584 0.007471
-1.122585 -0.002924
-1.122585 0.001027
-1.122585 -0.000339
-1.122585 0.000108
-1.122585 -0.000033
-1.122585 0.000010
-1.122585 -0.000003
-1.122585 0.000001
-1.122585 -0.000000
-1.122585 0.000000
-1.122585 -0.000000
-1.122585 0.000000
-1.122585 -0.000000
-1.122585 0.000000
-1.122585 -0.000000
-1.122585 0.000000
-1.122585 -0.000000
-1.122585 0.000000
-1.122585 -0.000000
-1.122585 0.000000
-1.122585 -0.000000
-1.122585 0.000000
-1.122585 -0.000000
-1.122585 0.000000
-1.122585 -0.000000
-1.122585 0.000000
-1.122585 -0.000000
-1.122585 0.000000
-1.122585 -0.000000
-1.122585 0.000000
-1.122585 -0.000000
-1.122585 0.000000
-1.122585 -0.000000
-1.122585 0.000000
-1.122585 -0.000000
-1.122585 0.000000
-1.122585 -0.000000
-1.122585 0.000000
-1.122585 -0.000000
-1.122585 0.000000
-1.122585 -0.000000
-1.122585 0.000000
-1.122585 -0.000000
-1.122585 0.000000
-1.122585 -0.000000
-1.122585 0.000000
-1.122585 -0.000000
-1.122585 0.000000
-1.122585 -0.000000
-1.122585 0.000000
-1.122585 -0.000000
-1.122585 0.000000
-1.122585 -0.000000
-1.122585 0.000000
-1.122585 -0.000000
-1.122585 0.000000
-1.122585 -0.000000
-1.122585 0.000000
-1.122585 0.000000
-1.122585 -0.000000
-1.122585 0.000000
-1.122585 -0.000000
-1.122585 0.000000
-1.122585 -0.000000
-1.122585 0.000000
-1.122585 -0.000000
-1.122585 0.000000
-1.122585 -0.000000
-1.122585 0.000000
-1.122585 -0.000000
-1.122585 0.000000
-1.122585 -0.000000
-1.122585 0.000000
-1.122585 -0.000000
-1.122585 0.000000
-1.122585 -0.000000
-1.122585 0.000000
-1.122585 -0.000000
-1.122585 0.000000
-1.122585 -0.000000
-1.122585 0.000000
-1.122585 -0.000000
-1.122585 0.000000
-1.122585 -0.000000
-1.122585 0.000000
-1.122585 -0.000000
-1.122585 0.000000
-1.122585 -0.000000
-1.122585 0.000000
-1.122585 -0.000000
-1.122585 0.000000
-1.122585 -0.000000
-1.122585 0.000000
-1.122585 -0.000000
-1.122585 0.000000
-1.122585 -0.000000
-1.122585 0.000000
-1.122585 -0.000000
-1.122585 0.000000
-1.122585 -0.000000
-1.122585 0.000000
-1.122585 -0.000000
-1.122585 0.000000
-1.122585 -0.000000
-1.122585 0.000000
-1.122585 -0.000000
-1.122585 0.000000
-1.122585 -0.000000
-1.122585 0.000000
-1.122585 -0.000001
-1.122585 0.000003
-1.122585 -0.000011
-1.122585 0.000038
-1.122585 -0.000123
-1.122585 0.000399
-1.122585 -0.001273
-1.122585 0.004004
-1.122584 -0.012365
-1.122588 0.037354
-1.122504 0.103562
-1.122373 0.191443
-1.122121 0.277503
-1.121751 0.562304
-1.120816 1.382515
-1.118866 2.555237
-1.115715 3.685273
-1.111303 5.369781
-1.096784 7.045058
