solsol_wf 1.52189153389
solta_wf 0.79135762859
gasgas_wf 0.847534259378
vasvas_wf 1.23293659342
hamham_wf 0.692355917882
gluglu_wf 0.306664423263
tata_wl 2.4018281288
hfhf_wl 0.337090334087
hamhf_wl 1.48009834199
ta_bl 0.699172368125
hf_bl 0.530320615438
ham_bl 0.724632329631
kbodyweight 1.32223937113
kp 2.79172552593
kd 0.312058966223
kref 0.116019065576
deltas 0.445776037824
sol_activitybasal 0.0231766033787
ta_activitybasal 0.0514143021512
gas_activitybasal 0.0279845252813
vas_activitybasal 0.0363906445142
ham_activitybasal 0.0197426011137
glu_activitybasal 0.0672191438458
hf_activitybasal 0.0881125520366
vas_activitybasal_stance 0.258331815559
bal_activitybasal_stance 0.0809467925324
kphiknee 2.24244557859
klean 0.376651134129
