solsol_wf 1.35322775066
solta_wf 0.676228563623
gasgas_wf 0.421406202196
vasvas_wf 1.01718979775
hamham_wf 0.506779965285
gluglu_wf 0.540462528289
tata_wl 1.47832462473
hfhf_wl 0.309227738298
hamhf_wl 1.24037936277
ta_bl 0.730333723901
hf_bl 0.525839135625
ham_bl 0.879528096449
kbodyweight 1.0513620364
kp 1.94003641342
kd 0.477899811253
kref 0.0824058890373
deltas 0.442776928668
sol_activitybasal 0.011439361503
ta_activitybasal 0.0906932685344
gas_activitybasal 0.0210049170427
vas_activitybasal 0.0530750526339
ham_activitybasal 0.0483973488941
glu_activitybasal 0.0138753057786
hf_activitybasal 0.020726879231
vas_activitybasal_stance 0.160124253344
bal_activitybasal_stance 0.0827285559921
kphiknee 2.53018334254
klean 1.02158605694
