0.113809 0.039269 0.000000
0.406526 0.116402
0.406932 0.759847
0.408177 1.792236
0.410709 3.390430
0.415290 5.965997
0.423378 10.715119
0.437955 19.101075
0.464765 36.917120
0.515937 66.941014
0.595914 88.372606
0.676906 61.992777
0.717298 27.446052
0.740056 17.484699
0.752859 9.189085
0.759732 4.727099
0.762840 1.817833
0.763419 -0.949165
0.760388 -5.369607
0.752552 -10.140717
0.740333 -14.172418
0.724404 -17.528492
0.705491 -20.137302
0.684317 -22.064722
0.661508 -23.420052
0.637574 -24.342095
0.612867 -24.988315
0.587598 -25.484066
0.561893 -25.844537
0.535941 -25.952361
0.510039 -25.752516
0.484485 -25.251956
0.459581 -24.462895
0.435589 -23.437139
0.412726 -22.211828
0.391173 -20.829674
0.371052 -19.367254
0.352418 -17.851856
0.335342 -16.248013
0.319923 -14.541815
0.306237 -12.811510
0.294249 -11.156900
0.283866 -9.608732
0.274968 -8.194667
0.267410 -6.930193
0.261049 -5.799610
0.255759 -4.790039
0.251423 -3.890387
0.247937 -3.088578
0.245211 -2.371314
0.243164 -1.730836
0.241726 -1.149861
0.240835 -0.651213
0.240383 -0.271140
0.240256 -0.000706
0.240348 0.168910
0.240568 0.262101
0.240858 0.310349
0.241179 0.327459
0.241497 0.297485
0.241759 0.221026
0.241917 0.074840
0.241858 -0.225319
0.241403 -0.712002
0.240371 -1.381752
0.238580 -2.222022
0.235890 -3.160782
0.232214 -4.213866
0.227398 -5.433107
0.221287 -6.803638
0.213704 -8.393114
0.204410 -10.204160
0.193293 -11.962377
0.180570 -13.393844
0.166589 -14.493855
0.151642 -15.328261
0.135984 -15.915742
0.119850 -16.287820
0.103436 -16.480789
0.086906 -16.523801
0.070396 -16.443348
0.054019 -16.264450
0.037867 -15.989270
0.022037 -15.628896
0.006604 -15.190266
-0.008345 -14.664093
-0.022726 -14.055197
-0.036455 -13.360581
-0.049439 -12.560763
-0.061572 -11.671783
-0.072782 -10.711886
-0.083000 -9.700795
-0.092198 -8.673675
-0.100363 -7.640679
-0.107501 -6.629473
-0.113643 -5.642654
-0.118810 -4.691076
-0.123052 -3.791495
-0.126413 -2.929843
-0.128934 -2.117114
-0.130668 -1.353148
-0.131662 -0.646542
-0.132014 -0.094685
-0.131923 0.242515
-0.131562 0.478173
-0.130961 0.727453
-0.130101 0.989875
-0.128974 1.268483
-0.127557 1.561231
-0.125847 1.858613
-0.123833 2.165153
-0.121511 2.474474
-0.118882 2.774721
-0.115957 3.072896
-0.112735 3.358286
-0.109244 3.613573
-0.105507 3.848309
-0.101550 4.052521
-0.097407 4.217227
-0.093119 4.345001
-0.088721 4.434199
-0.084257 4.478229
-0.079767 4.489618
-0.075282 4.461478
-0.070847 4.396111
-0.066489 4.306462
-0.062235 4.190130
-0.058108 4.050347
-0.054132 3.893005
-0.050319 3.720261
-0.046689 3.532734
-0.043248 3.342341
-0.040000 3.143102
-0.036958 2.937068
-0.034121 2.728620
-0.031496 2.517350
-0.029080 2.310148
-0.026872 2.099887
-0.024878 1.884813
-0.023099 1.668033
-0.021540 1.444725
-0.020212 1.205938
-0.019127 0.965619
-0.018284 0.708478
-0.017715 0.431246
-0.017444 0.084501
-0.017604 -0.436669
-0.018357 -1.074827
-0.019761 -1.727278
-0.021805 -2.346909
-0.024436 -2.896294
-0.027582 -3.384124
-0.031194 -3.820747
-0.035215 -4.207388
-0.039603 -4.553100
-0.044319 -4.864995
-0.049333 -5.147757
-0.054615 -5.400806
-0.060137 -5.629623
-0.065878 -5.835705
-0.071814 -6.022377
-0.077924 -6.178854
-0.084178 -6.316550
-0.090564 -6.435962
-0.097051 -6.520894
-0.103614 -6.590053
-0.110237 -6.637366
-0.116892 -6.656514
-0.123554 -6.647595
-0.130191 -6.607863
-0.136773 -6.536274
-0.143269 -6.444258
-0.149667 -6.330142
-0.155930 -6.179663
-0.162029 -6.002698
-0.167940 -5.803964
-0.173642 -5.584646
-0.179119 -5.359202
-0.184366 -5.118436
-0.189366 -4.877048
-0.194132 -4.641833
-0.198658 -4.403771
-0.202952 -4.177514
-0.207020 -3.949071
-0.210858 -3.719575
-0.214464 -3.482220
-0.217826 -3.234705
-0.220936 -2.975779
-0.223778 -2.701441
-0.226342 -2.419041
-0.228616 -2.121172
-0.230588 -1.820713
-0.232260 -1.516278
-0.233624 -1.215214
-0.234698 -0.930776
-0.235495 -0.666658
-0.236044 -0.436016
-0.236373 -0.222983
-0.236498 -0.032848
-0.236442 0.150056
-0.236197 0.336063
-0.235763 0.540339
-0.235105 0.773920
-0.234203 1.038080
-0.233014 1.342677
-0.231502 1.686916
-0.229618 2.084746
-0.227310 2.536690
-0.224519 3.050663
-0.221179 3.634140
-0.217211 4.315639
-0.212521 5.051916
-0.207088 5.813995
-0.200883 6.573151
-0.193992 7.143313
-0.186661 7.476547
-0.179632 5.987786
-0.175213 2.881056
-0.173579 0.628426
-0.173797 -1.150918
-0.176045 -3.414933
-0.180577 -5.507990
-0.186909 -7.112669
-0.194691 -8.342896
-0.203466 -9.137539
-0.212915 -9.722218
-0.222883 -10.165046
-0.233217 -10.463988
-0.243798 -10.661817
-0.254539 -10.791826
-0.265388 -10.877207
-0.276304 -10.929096
-0.287260 -10.956394
-0.298233 -10.966585
-0.309214 -10.974346
-0.320201 -10.971878
-0.331177 -10.959780
-0.342145 -10.954810
-0.353107 -10.944580
-0.364055 -10.932491
-0.374995 -10.923186
-0.385923 -10.912375
-0.396842 -10.903763
-0.407752 -10.895563
-0.418655 -10.888536
-0.429551 -10.882612
-0.440443 -10.878147
-0.451330 -10.874397
-0.462214 -10.872800
-0.473097 -10.872088
-0.483980 -10.872155
-0.494864 -10.874309
-0.505751 -10.877979
-0.516643 -10.883948
-0.527541 -10.891465
-0.538448 -10.901470
-0.549367 -10.912968
-0.560296 -10.925612
-0.571240 -10.940151
-0.582199 -10.955066
-0.593173 -10.971285
-0.604164 -10.988594
-0.615172 -11.006327
-0.626199 -11.025439
-0.637245 -11.045657
-0.648313 -11.067171
-0.659402 -11.089968
-0.670515 -11.114153
-0.681653 -11.139849
-0.692818 -11.166272
-0.704009 -11.194930
-0.715230 -11.224090
-0.726480 -11.254041
-0.737761 -11.285299
-0.749073 -11.316512
-0.760417 -11.348436
-0.771793 -11.380805
-0.783201 -11.413075
-0.794642 -11.445580
-0.806115 -11.478016
-0.817621 -11.509992
-0.829159 -11.542573
-0.840729 -11.574410
-0.852330 -11.605553
-0.863963 -11.636741
-0.875627 -11.667122
-0.887320 -11.696528
-0.899043 -11.725047
-0.910794 -11.752356
-0.922571 -11.778852
-0.934374 -11.803994
-0.946202 -11.827931
-0.958054 -11.850712
-0.969927 -11.871454
-0.981820 -11.891279
-0.993732 -11.909278
-1.005662 -11.925413
-1.017607 -11.940155
-1.029565 -11.953529
-1.041537 -11.964350
-1.053518 -11.973536
-1.065507 -11.980798
-1.077502 -11.985744
-1.089502 -11.989163
-1.101504 -11.989829
-1.113505 -11.989261
-1.125506 -11.986682
-1.137502 -11.981977
-1.149493 -11.976295
-1.161478 -11.968827
-1.173454 -11.960120
-1.185422 -11.950790
-1.197380 -11.940134
-1.209326 -11.928833
-1.221261 -11.916678
-1.233183 -11.903538
-1.245091 -11.889234
-1.256985 -11.874088
-1.268863 -11.857440
-1.280723 -11.839223
-1.292564 -11.819677
-1.304386 -11.798982
-1.316185 -11.776225
-1.327961 -11.751239
-1.339711 -11.724439
-1.351432 -11.694745
-1.363123 -11.662274
-1.374779 -11.626273
-1.386398 -11.587784
-1.397977 -11.546368
-1.409512 -11.501342
-1.421001 -11.452495
-1.432439 -11.401073
-1.443825 -11.346358
-1.455154 -11.287744
-1.466422 -11.226263
-1.477627 -11.161103
-1.488766 -11.092348
-1.499833 -11.020205
-1.510827 -10.944927
-1.521744 -10.865480
-1.532579 -10.782989
-1.543330 -10.696535
-1.553992 -10.606528
-1.564563 -10.513298
-1.575038 -10.415827
-1.585414 -10.314966
-1.595688 -10.210311
-1.605854 -10.102093
-1.615912 -9.992565
-1.625859 -9.881349
-1.635696 -9.774922
-1.645445 -9.718380
-1.655179 -9.742352
-1.664962 -9.805187
-1.674801 -9.845583
-1.684657 -9.838579
-1.694487 -9.797173
-1.704269 -9.750838
-1.714013 -9.720556
-1.723736 -9.709666
-1.733455 -9.706920
-1.743166 -9.693029
-1.752850 -9.649577
-1.762470 -9.562328
-1.771977 -9.424088
-1.781320 -9.234454
-1.790449 -8.998107
-1.799321 -8.721973
-1.807900 -8.416184
-1.816163 -8.090022
-1.824093 -7.752742
-1.831683 -7.411389
-1.838931 -7.070643
-1.845840 -6.735074
-1.852417 -6.407391
-1.858671 -6.088764
-1.864610 -5.778802
-1.870243 -5.478323
-1.875580 -5.185315
-1.880626 -4.898350
-1.885388 -4.617136
-1.889870 -4.338834
-1.894075 -4.063124
-1.898005 -3.788330
-1.901659 -3.513224
-1.905038 -3.237560
-1.908140 -2.960126
-1.910964 -2.682256
-1.913511 -2.406339
-1.915782 -2.129815
-1.917774 -1.851018
-1.919487 -1.571380
-1.920920 -1.290377
-1.922070 -1.008964
-1.922939 -0.727266
-1.923527 -0.446509
-1.923833 -0.165706
-1.923878 0.056975
-1.923749 0.189897
-1.923501 0.313268
-1.923113 0.462521
-1.922569 0.628236
-1.921849 0.812913
-1.920937 1.013735
-1.919814 1.231012
-1.918467 1.463580
-1.916879 1.710486
-1.915038 1.970843
-1.912930 2.243734
-1.910543 2.527296
-1.907867 2.820785
-1.904892 3.123226
-1.901612 3.432086
-1.898020 3.746167
-1.894111 4.064106
-1.889882 4.384295
-1.885333 4.704490
-1.880464 5.023699
-1.875277 5.340376
-1.869774 5.653583
-1.863960 5.962726
-1.857838 6.266705
-1.851415 6.565393
-1.844696 6.858223
-1.837687 7.145277
-1.830394 7.425709
-1.822823 7.700251
-1.814980 7.968653
-1.806871 8.231371
-1.798503 8.488186
-1.789880 8.739324
-1.781008 8.985495
-1.771893 9.226457
-1.762538 9.462671
-1.752950 9.694670
-1.743131 9.922467
-1.733086 10.146246
-1.722820 10.366032
-1.712335 10.581132
-1.701637 10.792559
-1.690730 10.999847
-1.679617 11.202401
-1.668304 11.401012
-1.656794 11.594659
-1.645093 11.783840
-1.633204 11.968802
-1.621133 12.148653
-1.608884 12.324103
-1.596462 12.494474
-1.583872 12.660185
-1.571118 12.821499
-1.558204 12.978454
-1.545136 13.130682
-1.531918 13.278368
-1.518554 13.422347
-1.505048 13.561785
-1.491405 13.697662
-1.477627 13.829395
-1.463720 13.956626
-1.449687 14.080873
-1.435531 14.201096
-1.421257 14.316905
-1.406870 14.428998
-1.392372 14.537110
-1.377768 14.641288
-1.363061 14.741351
-1.348257 14.836729
-1.333360 14.928225
-1.318372 15.015637
-1.303300 15.098040
-1.288147 15.175837
-1.272919 15.249941
-1.257619 15.319357
-1.242251 15.383524
-1.226822 15.443758
-1.211334 15.499786
-1.195793 15.551200
-1.180202 15.598346
-1.164566 15.641417
-1.148890 15.680014
-1.133176 15.714891
-1.117430 15.745574
-1.101655 15.773513
-1.085850 15.803787
-1.070015 15.834310
-1.054152 15.859305
-1.038267 15.878435
-1.022365 15.890941
-1.006456 15.895719
-0.990543 15.897684
-0.974628 15.900604
-0.958709 15.906941
-0.942783 15.912351
-0.926854 15.914218
-0.910923 15.915512
-0.894988 15.924209
-0.879036 15.951257
-0.863045 16.004724
-0.846976 16.114510
-0.830737 16.364086
-0.814172 16.743009
-0.797217 17.124202
-0.779914 17.429738
-0.762356 17.634927
-0.744647 17.726933
-0.726905 17.703313
-0.709238 17.580720
-0.691737 17.372588
-0.674474 17.118086
-0.657480 16.823636
-0.640778 16.571913
-0.624242 16.503096
-0.607675 16.625092
-0.590908 16.899438
-0.573804 17.288518
-0.556268 17.760276
-0.538231 18.284037
-0.519656 18.830660
-0.500531 19.380629
-0.480860 19.919706
-0.460658 20.439519
-0.439947 20.936846
-0.418750 21.409982
-0.397092 21.861220
-0.374991 22.291584
-0.352469 22.705311
-0.329542 23.099257
-0.306231 23.474555
-0.282549 23.838180
-0.258510 24.191114
-0.234123 24.532580
-0.209402 24.856831
-0.184359 25.181159
-0.158986 25.516026
-0.133274 25.855870
-0.107218 26.207015
-0.080799 26.584112
-0.053983 27.001827
-0.026733 27.444117
0.000925 27.782857
0.028888 28.121656
0.057257 28.557408
0.086095 29.099508
0.115558 29.771277
0.145718 30.503400
0.176651 31.311295
0.208421 32.174072
0.241079 33.084193
0.274668 34.031072
0.309225 35.024367
0.344800 36.055927
0.381418 37.113155
0.419113 38.206472
0.457912 39.315407
0.497811 40.389787
0.538627 41.025879
0.579794 41.212464
0.621039 41.113530
0.661697 39.794800
0.699845 35.889286
0.733033 30.443693
0.761137 26.027790
0.785624 23.059841
0.807598 20.977849
0.827850 19.578426
0.846970 18.704462
0.865443 18.272616
0.883664 18.177042
0.901937 18.389097
0.920573 18.884632
0.939823 19.619291
0.959951 20.654029
0.981276 21.997144
1.004042 23.497524
1.028462 25.428480
1.055169 28.016803
1.084694 31.032926
1.117486 34.614169
1.154182 38.764867
1.195258 43.409224
1.241245 48.528036
1.292853 54.972021
1.351589 62.284216
1.417446 69.296410
1.490249 76.092812
1.569244 81.270626
1.652143 84.022554
1.736746 84.641767
1.820825 82.950058
1.902243 79.552940
1.979747 75.128678
2.052303 69.662527
2.118886 63.219815
2.178600 55.968955
2.230728 48.093294
2.273869 37.181022
2.305362 26.860862
2.329301 21.503409
2.349018 17.963868
2.365388 14.793765
2.378733 11.915082
2.389308 9.234434
2.397280 6.733997
2.402878 4.498883
2.406368 2.505797
2.407949 0.676182
2.407767 -1.015944
2.405895 -2.767408
2.401987 -5.236193
2.395235 -8.235685
2.385561 -11.049713
2.373208 -13.582015
2.358489 -15.757631
2.341792 -17.539648
2.323497 -18.955991
2.303951 -20.045588
2.283455 -20.867681
2.262249 -21.465449
2.240539 -21.890557
2.218466 -22.191404
2.196143 -22.398450
2.173640 -22.556172
2.150996 -22.681344
2.128231 -22.808619
2.105328 -22.951523
2.082275 -23.116053
2.059036 -23.320932
2.035575 -23.561942
2.011852 -23.842403
1.987830 -24.160315
1.963471 -24.514029
1.938741 -24.901554
1.913610 -25.312315
1.888060 -25.741363
1.862071 -26.184102
1.835639 -26.626794
1.808767 -27.061890
1.781467 -27.479782
1.753761 -27.871271
1.725680 -28.227972
1.697265 -28.535419
1.668570 -28.789683
1.639648 -28.984525
1.610566 -29.109679
1.581395 -29.161492
1.552210 -29.136475
1.523089 -29.035307
1.494110 -28.849827
1.465358 -28.584965
1.436907 -28.248471
1.408832 -27.830078
1.381213 -27.343994
1.354112 -26.789731
1.327600 -26.174661
1.301727 -25.509651
1.276547 -24.793439
1.252101 -24.044575
1.228421 -23.261549
1.205539 -22.456024
1.183468 -21.639497
1.162219 -20.814779
1.141798 -19.987796
1.122201 -19.168100
1.103417 -18.365046
1.085429 -17.578674
1.068218 -16.813815
1.051757 -16.079542
1.036017 -15.373907
1.020968 -14.701776
1.006573 -14.061286
0.992804 -13.458732
0.979615 -12.897955
0.966974 -12.363224
0.954851 -11.867535
0.943204 -11.405450
0.932007 -10.971925
0.921227 -10.572720
0.910832 -10.199480
0.900800 -9.849176
0.891107 -9.520484
0.881731 -9.216123
0.872652 -8.925103
0.863858 -8.649922
0.855329 -8.390905
0.847057 -8.140348
0.839029 -7.898800
0.831240 -7.666452
0.823679 -7.441105
0.816342 -7.220188
0.809222 -7.005723
0.802314 -6.798460
0.795612 -6.589411
0.789118 -6.391623
0.782813 -6.200401
0.776705 -6.007144
0.770784 -5.824600
0.765042 -5.649820
0.759471 -5.478803
0.754071 -5.314223
0.748829 -5.160035
0.743739 -5.011445
0.738793 -4.870884
0.733984 -4.741460
0.729299 -4.617072
0.724738 -4.498203
0.720289 -4.393800
0.715941 -4.293396
0.711692 -4.197783
0.707534 -4.110897
0.703459 -4.031212
0.699462 -3.954119
0.695542 -3.880707
0.691691 -3.814978
0.687904 -3.750371
0.684182 -3.686384
0.680522 -3.629693
0.676915 -3.573939
0.673367 -3.516359
0.669873 -3.465975
0.666430 -3.410713
0.663044 -3.357516
0.659706 -3.309988
0.656419 -3.258257
0.653182 -3.210568
0.649992 -3.162473
0.646850 -3.116388
0.643752 -3.070631
0.640702 -3.027173
0.637692 -2.983475
0.634728 -2.941656
0.631801 -2.904178
0.628915 -2.862255
0.626071 -2.821094
0.623264 -2.789392
0.620488 -2.752722
0.617754 -2.714976
0.615050 -2.685577
0.612379 -2.650683
0.609744 -2.615218
0.607142 -2.585418
0.604569 -2.550773
0.602034 -2.518596
0.599526 -2.488554
0.597053 -2.455663
0.594609 -2.426821
0.592196 -2.392938
0.589817 -2.362019
0.587467 -2.331209
0.585151 -2.296642
0.582868 -2.266895
0.580613 -2.236400
0.578392 -2.201701
0.576205 -2.166968
0.574054 -2.132129
0.571938 -2.093145
0.569862 -2.058574
0.567820 -2.014194
0.565832 -1.961769
0.563894 -1.904171
0.562022 -1.840694
0.560211 -1.772309
0.558477 -1.693611
0.556817 -1.624020
0.555228 -1.547951
0.553719 -1.470751
0.552280 -1.402860
0.550909 -1.337588
0.549601 -1.277017
0.548352 -1.218032
0.547160 -1.165405
0.546015 -1.124180
0.544910 -1.082956
0.543846 -1.046103
0.542813 -1.015951
0.541813 -0.983136
0.540844 -0.953781
0.539904 -0.923390
0.538995 -0.893219
0.538116 -0.862393
0.537272 -0.822558
0.536468 -0.783555
0.535704 -0.741740
0.534985 -0.694710
0.534315 -0.643170
0.533699 -0.588366
0.533137 -0.533155
0.532633 -0.471675
0.532193 -0.409476
0.531814 -0.346613
0.531500 -0.281413
0.531249 -0.219709
0.531060 -0.157790
0.530931 -0.103937
0.530853 -0.044993
0.530836 0.001263
0.530852 0.035111
0.530905 0.062567
0.530973 0.078392
0.531063 0.098422
0.531168 0.112877
0.531291 0.133116
0.531434 0.151281
0.531594 0.169161
0.531774 0.190342
0.531973 0.206298
0.532190 0.230180
0.532432 0.248079
0.532687 0.267336
0.532969 0.293243
0.533271 0.310119
0.533593 0.336089
0.533944 0.363205
0.534319 0.385463
0.534717 0.410732
0.535141 0.435729
0.535590 0.463948
0.536068 0.488067
0.536567 0.510572
0.537091 0.535954
0.537640 0.562497
0.538215 0.581451
0.538806 0.605296
0.539426 0.627377
0.540058 0.636976
0.540701 0.644711
0.541334 0.608762
0.541906 0.533456
0.542399 0.451044
0.542810 0.371071
0.543146 0.302326
0.543421 0.250659
0.543657 0.225332
0.543880 0.223047
0.544111 0.245542
0.544378 0.288792
0.544695 0.349073
0.545083 0.425479
0.545549 0.506808
0.546099 0.593069
0.546736 0.679089
0.547456 0.758632
0.548251 0.827622
0.549109 0.883539
0.550005 0.893217
0.550879 0.848615
0.551688 0.757880
0.552375 0.603559
0.552880 0.400538
0.553156 0.136073
0.553102 -0.279439
0.552531 -0.891955
0.551210 -1.823520
0.548696 -3.309036
0.544326 -5.573136
0.537364 -8.359228
0.527599 -11.121019
0.515207 -13.562343
0.500630 -15.455082
0.484494 -16.661968
0.467522 -17.120591
0.450466 -16.839687
0.434030 -15.897306
0.418822 -14.407620
0.405324 -12.504306
0.393881 -10.323841
0.384696 -8.020812
0.377810 -5.755869
0.373120 -3.649804
0.370425 -1.779863
0.369431 -0.287609
0.369667 0.658986
0.370595 1.140374
0.371895 1.457278
0.373486 1.696307
0.375242 1.787663
0.377020 1.744179
0.378689 1.566522
0.380126 1.298830
0.381266 0.962072
0.382029 0.556095
0.382376 0.141469
0.382302 -0.305838
0.381741 -0.822283
0.380618 -1.451461
0.378849 -2.039764
0.376614 -2.389920
0.374139 -2.514841
0.371657 -2.405100
0.369395 -2.084343
0.367536 -1.607485
0.366213 -1.021615
0.365506 -0.391843
0.365409 0.178487
0.365806 0.576259
0.366523 0.855565
0.367515 1.123287
0.368763 1.364129
0.370231 1.561060
0.371868 1.698568
0.373608 1.767248
0.375382 1.764309
0.377118 1.692215
0.378750 1.558531
0.380222 1.378671
0.381499 1.165933
0.382552 0.940155
0.383380 0.712863
0.383986 0.505568
0.384398 0.313879
0.384621 0.140834
0.384689 -0.003095
0.384618 -0.136255
0.384424 -0.247995
0.384145 -0.290411
0.383879 -0.224380
0.383722 -0.078618
0.383732 0.099912
0.383914 0.253174
0.384230 0.380929
0.384678 0.514059
0.385261 0.652237
0.385979 0.775927
0.386808 0.881034
0.387735 0.962960
0.388725 1.009739
0.389747 1.028684
0.390772 1.011001
0.391760 0.959252
0.392685 0.886497
0.393527 0.790851
0.394263 0.679198
0.394884 0.558479
0.395382 0.439222
0.395766 0.328755
0.396042 0.225993
0.396222 0.134295
0.396317 0.061078
0.396350 0.004208
0.396329 -0.042643
0.396271 -0.071254
0.396202 -0.053476
0.396178 0.007909
0.396222 0.082893
0.396342 0.151944
0.396525 0.215481
0.396775 0.282551
0.397091 0.352359
0.397478 0.415232
0.397918 0.463266
0.398403 0.503207
0.398919 0.526046
0.399449 0.529652
0.399975 0.518585
0.400482 0.490320
0.400952 0.449601
0.401379 0.399187
0.401748 0.337706
0.402054 0.273163
0.402295 0.210474
0.402477 0.153282
0.402602 0.094408
0.402669 0.045604
0.402696 0.006744
0.402684 -0.029084
0.402640 -0.059865
0.402571 -0.069528
0.402512 -0.046131
0.402486 -0.000733
0.402511 0.047266
0.402577 0.085857
0.402683 0.125134
0.402827 0.162092
0.403008 0.199796
0.403226 0.233464
0.403472 0.258446
0.403742 0.279082
0.404027 0.287589
0.404315 0.288636
0.404601 0.279102
0.404871 0.262123
0.405124 0.238180
0.405345 0.204196
0.405533 0.172686
0.405689 0.137888
0.405809 0.101441
0.405893 0.066762
0.405945 0.038688
0.405971 0.012833
0.405971 -0.012554
0.405948 -0.033821
0.405904 -0.050386
0.405854 -0.045851
0.405818 -0.024930
0.405806 0.003957
0.405826 0.033218
0.405872 0.059802
0.405942 0.075228
0.406030 0.113519
0.406149 0.090983
0.406526 0.116402
