0.015977 0.026482 -0.349798
-0.410099 -0.121493
-0.411891 -3.153942
-0.415804 -4.360701
-0.420241 -4.428688
-0.424549 -4.133041
-0.428451 -3.646260
-0.431824 -3.084146
-0.434627 -2.524730
-0.436888 -1.995663
-0.438637 -1.510610
-0.440021 -1.351010
-0.440687 0.770299
-0.437788 4.961256
-0.430608 9.589974
-0.419403 11.780308
-0.409210 7.420811
-0.405455 0.338368
-0.406805 -1.567410
-0.407907 -1.417081
-0.409838 -1.853942
-0.411037 -0.548960
-0.411393 -0.612182
-0.412561 -1.569185
-0.413523 0.507420
-0.408365 12.116029
-0.384519 37.952236
-0.330591 69.163612
-0.246936 97.730943
-0.135227 125.417884
0.002069 146.864417
0.157389 164.093707
0.330380 180.708369
0.517975 193.750871
0.717368 204.090660
0.925535 211.343687
1.139498 215.658986
1.356303 217.029663
1.573040 215.549147
1.786974 211.495113
1.995683 205.131362
2.196909 196.556402
2.388492 185.890218
2.568423 173.308863
2.734883 159.009639
2.886313 143.369513
3.021688 127.066249
3.140680 110.702536
3.243394 94.576670
3.330146 78.820910
3.401338 63.496769
3.457423 48.640965
3.498870 34.241955
3.526120 20.277485
3.539613 6.755758
3.539798 -6.309020
3.527146 -18.883349
3.502165 -30.941708
3.465379 -42.463908
3.417334 -53.442176
3.358566 -63.886524
3.289617 -73.781060
3.211049 -83.098289
3.123458 -91.804616
3.027473 -99.861038
2.923764 -107.232914
2.813033 -113.883026
2.696026 -119.764800
2.573536 -124.831450
2.446407 -129.017078
2.315555 -132.267433
2.181922 -134.575542
2.046444 -135.956803
1.910041 -136.426478
1.773609 -136.022874
1.638018 -134.732170
1.504083 -132.817691
1.373450 -126.909999
1.251585 -116.279399
1.140801 -105.221490
1.040663 -94.969558
0.950413 -85.491970
0.869264 -76.743851
0.796463 -68.920215
0.730966 -62.055380
0.672020 -55.814072
0.619145 -49.814403
0.572314 -43.747775
0.531642 -37.441335
0.497473 -30.786387
0.470390 -22.987298
0.451559 -14.866338
0.440227 -7.944040
0.435425 -1.711470
0.436718 4.273682
0.443974 10.237389
0.457316 16.508430
0.477221 23.370993
0.504273 30.736167
0.538845 38.372213
0.581143 46.156469
0.631276 54.015272
0.689284 61.879271
0.755136 69.676694
0.828730 77.335747
0.909890 84.777677
0.998356 91.920653
1.093787 98.679833
1.195755 104.966370
1.303742 110.691010
1.417142 115.764816
1.535259 120.105292
1.657324 123.640421
1.782494 126.297272
1.909857 128.013108
2.038447 128.740960
2.167256 128.445649
2.295246 127.102870
2.421365 124.708527
2.544569 121.282244
2.663837 116.852439
2.778190 111.470691
2.886705 105.197713
2.988522 98.103867
3.082860 90.263635
3.169011 81.767729
3.246370 72.704873
3.314409 63.169439
3.372722 53.294432
3.421036 43.215477
3.459225 33.093474
3.487326 23.079714
3.505552 13.429028
3.514395 4.331293
3.514397 -4.243340
3.506084 -12.265312
3.490038 -19.702099
3.466840 -26.542449
3.437111 -32.747459
3.401497 -38.299210
3.360656 -43.193984
3.315240 -47.436893
3.265898 -51.045797
3.213248 -54.050258
3.157881 -56.481029
3.100352 -58.375457
3.041176 -59.781641
2.980814 -60.753115
2.919677 -61.339863
2.858122 -61.594369
2.796460 -61.563817
2.734952 -61.292231
2.673820 -60.819150
2.613246 -60.183217
2.553376 -59.418794
2.494323 -58.555478
2.436171 -57.620839
2.378981 -56.638988
2.322789 -55.630504
2.267612 -54.613226
2.213451 -53.601943
2.160295 -52.609119
2.108118 -51.645409
2.056888 -50.718658
2.006565 -49.834324
1.957104 -48.996816
1.908457 -48.208621
1.860573 -47.470549
1.813404 -46.783133
1.766897 -46.143899
1.721008 -45.552042
1.675687 -45.005752
1.630892 -44.501496
1.586582 -44.036489
1.542719 -43.605920
1.499273 -43.205431
1.456213 -42.830646
1.413519 -42.475854
1.371171 -42.136973
1.329157 -41.809914
1.287465 -41.490651
1.246091 -41.175332
1.205033 -40.858768
1.164293 -40.538785
1.123876 -40.212216
1.083791 -39.874961
1.044050 -39.525306
1.004667 -39.161033
0.965655 -38.780458
0.927034 -38.382213
0.888820 -37.965647
0.851033 -37.531041
0.813689 -37.077188
0.776811 -36.603800
0.740415 -36.111992
0.704521 -35.601024
0.669147 -35.072220
0.634311 -34.527462
0.600028 -33.967650
0.566312 -33.394675
0.533176 -32.808877
0.500633 -32.211660
0.468692 -31.605383
0.437362 -30.990090
0.406652 -30.367208
0.376568 -29.738716
0.347117 -29.105575
0.318300 -28.469824
0.290120 -27.832306
0.262580 -27.194606
0.235676 -26.558226
0.209409 -25.924056
0.183775 -25.293278
0.158770 -24.667730
0.134388 -24.048286
0.110623 -23.435251
0.087468 -22.830380
0.064914 -22.234582
0.042951 -21.648269
0.021570 -21.073137
0.000759 -20.510337
-0.019495 -19.959776
-0.039205 -19.422251
-0.058384 -18.898854
-0.077045 -18.388937
-0.095203 -17.892537
-0.112871 -17.410316
-0.130063 -16.941397
-0.146792 -16.487004
-0.163074 -16.046934
-0.178923 -15.621003
-0.194353 -15.210319
-0.209379 -14.814817
-0.224017 -14.434096
-0.238281 -14.068476
-0.252187 -13.718235
-0.265749 -13.378458
-0.278973 -13.044836
-0.291868 -12.720357
-0.304444 -12.409531
-0.316716 -12.112441
-0.328696 -11.823173
-0.340384 -11.527337
-0.351769 -11.217469
-0.362839 -10.899370
-0.373585 -10.567876
-0.383984 -10.201775
-0.393990 -9.779318
-0.403538 -9.286125
-0.412551 -8.703327
-0.420932 -8.028221
-0.428610 -7.311650
-0.435578 -6.619103
-0.441879 -5.981515
-0.447573 -5.403859
-0.452717 -4.883671
-0.457367 -4.415999
-0.461574 -3.995770
-0.465381 -3.618057
-0.468830 -3.278445
-0.471956 -2.973088
-0.474792 -2.698405
-0.477367 -2.451281
-0.479708 -2.229016
-0.481837 -2.029170
-0.483777 -1.849301
-0.485546 -1.687590
-0.487161 -1.542270
-0.488638 -1.411664
-0.489992 -1.294439
-0.491234 -1.189266
-0.492376 -1.095055
-0.493429 -1.010757
-0.494403 -0.935277
-0.495305 -0.868473
-0.496143 -0.806579
-0.496921 -0.749306
-0.497645 -0.698726
-0.498321 -0.651336
-0.498948 -0.601127
-0.499524 -0.548971
-0.500048 -0.498985
-0.500523 -0.450077
-0.500949 -0.400343
-0.501323 -0.345681
-0.501639 -0.284716
-0.501894 -0.227652
-0.502096 -0.173688
-0.502233 -0.093549
-0.502276 0.006587
-0.502220 0.107773
-0.502048 0.246218
-0.501700 0.465107
-0.501097 0.744105
-0.500205 1.038404
-0.499012 1.350612
-0.497496 1.676779
-0.495650 2.018414
-0.493436 2.419541
-0.490792 2.863124
-0.487711 3.286091
-0.484227 3.666607
-0.480381 4.013222
-0.476205 4.324404
-0.471741 4.585333
-0.467048 4.777303
-0.462197 4.908668
-0.457221 5.039862
-0.452099 5.195292
-0.446826 5.331984
-0.441451 5.387178
-0.436087 5.303025
-0.430889 5.055586
-0.426017 4.655442
-0.421613 4.122707
-0.417801 3.476720
-0.414683 2.740252
-0.412336 1.941533
-0.410810 1.100258
-0.410145 0.224322
-0.410367 -0.668363
-0.411473 -1.530586
-0.413409 -2.327145
-0.416112 -3.065702
-0.419531 -3.757323
-0.423606 -4.365516
-0.428227 -4.841839
-0.433261 -5.203066
-0.438608 -5.459583
-0.444141 -5.565260
-0.449683 -5.470433
-0.455026 -5.175631
-0.460006 -4.765664
-0.464561 -4.336921
-0.468697 -3.932126
-0.472445 -3.561918
-0.475840 -3.227454
-0.478917 -2.926552
-0.481709 -2.656317
-0.484244 -2.413646
-0.486549 -2.195807
-0.488648 -2.000238
-0.490561 -1.824669
-0.492307 -1.667122
-0.493903 -1.525723
-0.495366 -1.398997
-0.496709 -1.285314
-0.497943 -1.183308
-0.499081 -1.091827
-0.500132 -1.009729
-0.501105 -0.936013
-0.502009 -0.869854
-0.502849 -0.810452
-0.503633 -0.757146
-0.504367 -0.709303
-0.505055 -0.666311
-0.505702 -0.627765
-0.506313 -0.593195
-0.506891 -0.562113
-0.507439 -0.534194
-0.507961 -0.509225
-0.508460 -0.486781
-0.508937 -0.466708
-0.509395 -0.448755
-0.509836 -0.432640
-0.510261 -0.418318
-0.510674 -0.405501
-0.511074 -0.394082
-0.511463 -0.383965
-0.511843 -0.375011
-0.512214 -0.367006
-0.512578 -0.359891
-0.512935 -0.353696
-0.513286 -0.348242
-0.513632 -0.343429
-0.513974 -0.339252
-0.514312 -0.335639
-0.514646 -0.332458
-0.514977 -0.329798
-0.515306 -0.327533
-0.515633 -0.325560
-0.515958 -0.324004
-0.516282 -0.322625
-0.516604 -0.321521
-0.516926 -0.320659
-0.517246 -0.319948
-0.517566 -0.319482
-0.517886 -0.319128
-0.518205 -0.318965
-0.518525 -0.318944
-0.518844 -0.318977
-0.519163 -0.319164
-0.519483 -0.319417
-0.519803 -0.319775
-0.520123 -0.320176
-0.520444 -0.320711
-0.520765 -0.321351
-0.521087 -0.320464
-0.521406 -0.317638
-0.521723 -0.315410
-0.522038 -0.315097
-0.522354 -0.316448
-0.522672 -0.318677
-0.522992 -0.321660
-0.523316 -0.323617
-0.523639 -0.322608
-0.523961 -0.321410
-0.524283 -0.320029
-0.524601 -0.315761
-0.524915 -0.311724
-0.525225 -0.308244
-0.525531 -0.300875
-0.525825 -0.285039
-0.526094 -0.247134
-0.526309 -0.178223
-0.526449 -0.105197
-0.526530 -0.062837
-0.526588 -0.057784
-0.526656 -0.083771
-0.526762 -0.129698
-0.526918 -0.182224
-0.527126 -0.231080
-0.527378 -0.270841
-0.527664 -0.299874
-0.527975 -0.318879
-0.528300 -0.329941
-0.528633 -0.335056
-0.528969 -0.336140
-0.529305 -0.334771
-0.529639 -0.332063
-0.529970 -0.328755
-0.530297 -0.325333
-0.530621 -0.322211
-0.530943 -0.319552
-0.531261 -0.317381
-0.531578 -0.315737
-0.531894 -0.314689
-0.532208 -0.314052
-0.532522 -0.313704
-0.532836 -0.313754
-0.533151 -0.313998
-0.533465 -0.314421
-0.533780 -0.315096
-0.534096 -0.315842
-0.534413 -0.316658
-0.534730 -0.317519
-0.535048 -0.318359
-0.535367 -0.319187
-0.535687 -0.320052
-0.536008 -0.320793
-0.536329 -0.321452
-0.536652 -0.322142
-0.536974 -0.322769
-0.537298 -0.323282
-0.537622 -0.323763
-0.537946 -0.324293
-0.538271 -0.324771
-0.538596 -0.325226
-0.538922 -0.325611
-0.539248 -0.326052
-0.539575 -0.326500
-0.539902 -0.326856
-0.540229 -0.327288
-0.540557 -0.327769
-0.540885 -0.328152
-0.541214 -0.328550
-0.541543 -0.329015
-0.541873 -0.329412
-0.542202 -0.329846
-0.542533 -0.330279
-0.542864 -0.330668
-0.543195 -0.331095
-0.543526 -0.331476
-0.543858 -0.331815
-0.544191 -0.332189
-0.544523 -0.332496
-0.544856 -0.332794
-0.545190 -0.333074
-0.545523 -0.333316
-0.545857 -0.333551
-0.546191 -0.333769
-0.546525 -0.333969
-0.546860 -0.333972
-0.547194 -0.334429
-0.547529 -0.333735
-0.547863 -0.336587
-0.548198 -0.326510
-0.548530 -0.356503
-0.548929 -0.437287
-0.549403 -0.510206
-0.549915 -0.477610
-0.550340 -0.386010
-0.550731 -0.423393
-0.551224 -0.572076
-0.551859 -0.669743
-0.552505 -0.585989
-0.553029 -0.492648
-0.553479 -0.362553
-0.553786 -0.324881
-0.554181 -0.441429
-0.554727 -0.731238
-0.555527 -0.668629
-0.555931 -0.200770
-0.556031 -0.040198
-0.556045 0.017810
-0.555989 0.096316
-0.555843 0.204582
-0.555556 0.382016
-0.555075 0.567650
-0.554445 0.678123
-0.553753 0.683525
-0.553067 0.717600
-0.552246 0.962968
-0.551113 1.287732
-0.549783 1.264816
-0.548666 0.986042
-0.547748 0.892245
-0.546801 1.033031
-0.545621 1.349861
-0.544194 1.380172
-0.543030 0.895294
-0.542382 0.470949
-0.541962 0.421588
-0.541486 0.527660
-0.540989 0.381574
-0.540713 0.261588
-0.540293 0.658806
-0.539452 0.884719
-0.538686 0.617924
-0.538185 0.439809
-0.537659 0.702845
-0.536802 0.893862
-0.535991 0.720155
-0.535316 0.678966
-0.534673 0.514253
-0.534281 0.366277
-0.533809 0.608267
-0.533125 0.664071
-0.532519 0.601901
-0.531868 0.695333
-0.531145 0.734454
-0.530417 0.716924
-0.529699 0.732485
-0.528964 0.705797
-0.528278 0.703358
-0.527571 0.656537
-0.526932 0.702826
-0.526197 0.650623
-0.525581 0.744351
-0.524773 0.638707
-0.524237 0.730004
-0.523337 0.744946
-0.522775 0.671023
-0.521930 0.789797
-0.521273 0.670356
-0.520532 0.715864
-0.519884 0.631346
-0.519248 0.609570
-0.518657 0.606212
-0.518039 0.587618
-0.517478 0.577695
-0.516872 0.598243
-0.516302 0.553147
-0.515740 0.581903
-0.515142 0.595151
-0.514550 0.604716
-0.513924 0.636014
-0.513283 0.648044
-0.512625 0.665654
-0.511951 0.682204
-0.511259 0.699465
-0.510557 0.698682
-0.509875 0.655276
-0.509231 0.653810
-0.508536 0.740032
-0.507764 0.780487
-0.506996 0.755566
-0.506275 0.661776
-0.505662 0.593801
-0.505042 0.657838
-0.504352 0.702372
-0.503629 0.768471
-0.502866 0.677384
-0.502301 0.502018
-0.501724 0.735790
-0.500820 0.992192
-0.499813 1.021624
-0.498815 0.929836
-0.497958 0.820630
-0.497134 0.825457
-0.496290 0.874395
-0.495344 1.042294
-0.494282 0.974413
-0.493446 0.747639
-0.492680 0.837899
-0.491731 1.039911
-0.490650 1.085202
-0.489566 1.109906
-0.488421 1.156121
-0.487343 0.926947
-0.486535 0.788963
-0.485635 1.036391
-0.484490 1.192414
-0.483296 1.202355
-0.482119 1.104660
-0.481088 0.997030
-0.480063 1.069747
-0.479011 0.948263
-0.478159 0.842914
-0.477186 1.150785
-0.475834 1.523021
-0.474169 1.799526
-0.472272 1.953739
-0.470263 2.090850
-0.468017 2.436276
-0.465275 3.112002
-0.461690 4.077255
-0.457127 5.001144
-0.451817 5.505832
-0.446324 5.351022
-0.441157 5.039400
-0.436194 4.851099
-0.431483 4.548531
-0.427049 4.361395
-0.422679 4.392338
-0.418271 4.378791
-0.413964 4.212051
-0.409838 4.045970
-0.405833 3.971288
-0.401801 4.156185
-0.397596 4.091606
-0.393695 3.771023
-0.389998 3.593515
-0.386491 3.443315
-0.383123 3.237374
-0.379977 3.130804
-0.376832 3.096016
-0.373761 3.113372
-0.370591 3.153263
-0.367542 2.911886
-0.364708 2.830844
-0.361757 3.105065
-0.358588 3.089388
-0.355663 2.798723
-0.352937 2.651432
-0.350362 2.483828
-0.347938 2.395596
-0.345590 2.234764
-0.343418 2.214221
-0.341145 2.231273
-0.338962 2.214956
-0.336685 2.275162
-0.334471 2.143391
-0.332389 2.026154
-0.330314 2.210835
-0.327984 2.333570
-0.325767 2.080648
-0.323793 1.901998
-0.321910 1.871749
-0.320083 1.730428
-0.318413 1.685775
-0.316707 1.644656
-0.315145 1.531740
-0.313605 1.526087
-0.312132 1.393124
-0.310759 1.429993
-0.309274 1.451087
-0.307867 1.432725
-0.306385 1.476370
-0.304952 1.399497
-0.303582 1.327198
-0.302235 1.434399
-0.300685 1.616512
-0.299120 1.434395
-0.297807 1.273927
-0.296536 1.213631
-0.295396 1.095009
-0.294332 1.010850
-0.293348 1.001400
-0.292337 0.962918
-0.291419 0.927246
-0.290474 0.913371
-0.289613 0.831532
-0.288798 0.780977
-0.288046 0.742405
-0.287272 0.824827
-0.286417 0.837957
-0.285594 0.851773
-0.284706 0.883971
-0.283850 0.840062
-0.282942 1.043346
-0.281823 1.060801
-0.280891 0.860238
-0.280054 0.799455
-0.279301 0.706720
-0.278631 0.639021
-0.278014 0.593226
-0.277441 0.555058
-0.276902 0.519988
-0.276401 0.480421
-0.275939 0.443993
-0.275517 0.394666
-0.275135 0.387414
-0.274739 0.387022
-0.274362 0.380164
-0.273990 0.336406
-0.273685 0.303341
-0.273360 0.338145
-0.273011 0.363975
-0.272619 0.427655
-0.272154 0.494337
-0.271621 0.584644
-0.270972 0.710776
-0.270265 0.635755
-0.269708 0.533843
-0.269179 0.485278
-0.268748 0.402102
-0.268356 0.372600
-0.268004 0.335787
-0.267678 0.314948
-0.267375 0.291409
-0.267095 0.268565
-0.266837 0.245263
-0.266604 0.221363
-0.266394 0.197595
-0.266208 0.173886
-0.266046 0.150392
-0.265907 0.126675
-0.265792 0.103140
-0.265701 0.078569
-0.265634 0.056722
-0.265592 0.021714
-0.265569 0.049846
-0.265499 0.058071
-0.265457 0.054370
-0.265398 0.026235
-0.265387 0.051014
-0.265278 0.127959
-0.265156 0.130170
-0.264959 0.309727
-0.264569 0.389517
-0.264191 0.432914
-0.263743 0.354089
-0.263482 0.276362
-0.263169 0.260730
-0.262983 0.175793
-0.262786 0.183395
-0.262631 0.143878
-0.262487 0.137983
-0.262360 0.118163
-0.262248 0.104185
-0.262152 0.088517
-0.262071 0.073012
-0.262005 0.058086
-0.261955 0.042955
-0.261919 0.027968
-0.261899 0.012758
-0.261894 -0.002747
-0.261905 -0.018687
-0.261932 -0.035041
-0.261975 -0.052048
-0.262036 -0.069660
-0.262115 -0.087980
-0.262212 -0.107171
-0.262330 -0.127274
-0.262467 -0.148368
-0.262627 -0.170623
-0.262809 -0.194159
-0.263016 -0.219084
-0.263249 -0.245636
-0.263509 -0.273919
-0.263798 -0.304082
-0.264118 -0.336299
-0.264472 -0.370692
-0.264861 -0.407472
-0.265288 -0.446739
-0.265756 -0.488762
-0.266268 -0.533762
-0.266826 -0.581829
-0.267434 -0.633137
-0.268095 -0.687954
-0.268812 -0.746441
-0.269590 -0.808875
-0.270433 -0.875504
-0.271344 -0.946230
-0.272329 -1.021382
-0.273391 -1.100911
-0.274534 -1.184651
-0.275764 -1.273355
-0.277085 -1.366857
-0.278499 -1.457181
-0.279997 -1.530264
-0.281551 -1.566237
-0.283116 -1.554317
-0.284650 -1.505360
-0.286123 -1.434640
-0.287520 -1.356848
-0.288840 -1.283012
-0.290092 -1.219376
-0.291283 -1.161319
-0.292423 -1.121652
-0.293539 -1.111651
-0.294656 -1.124678
-0.295797 -1.157930
-0.296977 -1.200250
-0.298206 -1.259840
-0.299507 -1.341743
-0.300898 -1.441779
-0.302396 -1.549710
-0.303999 -1.653917
-0.305711 -1.771254
-0.307552 -1.906876
-0.309530 -2.044986
-0.311652 -2.202890
-0.313940 -2.361384
-0.316376 -2.508984
-0.318972 -2.682740
-0.321755 -2.880149
-0.324736 -3.070257
-0.327887 -3.217831
-0.331154 -3.293543
-0.334468 -3.328846
-0.337830 -3.400500
-0.341263 -3.434356
-0.344687 -3.411450
-0.348068 -3.316633
-0.351294 -3.123582
-0.354296 -2.853248
-0.356995 -2.549777
-0.359437 -2.355641
-0.361745 -2.261805
-0.363978 -2.206320
-0.366169 -2.171742
-0.368327 -2.141562
-0.370455 -2.109020
-0.372548 -2.071544
-0.374601 -2.030117
-0.376612 -1.986515
-0.378578 -1.942204
-0.380500 -1.898176
-0.382378 -1.854806
-0.384214 -1.812275
-0.386007 -1.770674
-0.387759 -1.729959
-0.389471 -1.690178
-0.391143 -1.651599
-0.392777 -1.614217
-0.394375 -1.577917
-0.395937 -1.542716
-0.397464 -1.508589
-0.398957 -1.475386
-0.400418 -1.443016
-0.401846 -1.411437
-0.403244 -1.380646
-0.404611 -1.350535
-0.405948 -1.321106
-0.407256 -1.292360
-0.408535 -1.264098
-0.409787 -1.236453
-0.411011 -1.209285
-0.412208 -1.182562
-0.413379 -1.156485
-0.414523 -1.130861
-0.415643 -1.105743
-0.416737 -1.081193
-0.417807 -1.057115
-0.418854 -1.033534
-0.419877 -1.010340
-0.420877 -0.987613
-0.421854 -0.965392
-0.422809 -0.943581
-0.423743 -0.922204
-0.424656 -0.901252
-0.425548 -0.880741
-0.426419 -0.860516
-0.427271 -0.840716
-0.428102 -0.821313
-0.428915 -0.802254
-0.429709 -0.783558
-0.430484 -0.765162
-0.431241 -0.747163
-0.431980 -0.729449
-0.432701 -0.711954
-0.433405 -0.694782
-0.434092 -0.677927
-0.434762 -0.661412
-0.435416 -0.645209
-0.436054 -0.629269
-0.436676 -0.613799
-0.437283 -0.598297
-0.437875 -0.584249
-0.438451 -0.566067
-0.438998 -0.517206
-0.439480 -0.448835
-0.439901 -0.394091
-0.440272 -0.346309
-0.440590 -0.286916
-0.440849 -0.236949
-0.441068 -0.198351
-0.441234 -0.122817
-0.441297 0.005161
-0.441215 0.158310
-0.440987 0.290756
-0.440652 0.367750
-0.440269 0.389484
-0.439869 0.421077
-0.439410 0.501389
-0.438835 0.671262
-0.438018 0.985168
-0.436833 1.388742
-0.435233 1.805428
-0.433207 2.257060
-0.430694 2.768702
-0.427647 3.331483
-0.424011 3.935760
-0.419778 4.507763
-0.415050 4.888832
-0.410084 4.988957
-0.405151 4.822947
-0.400509 4.415229
-0.396360 3.862778
-0.392773 3.319242
-0.389689 2.852936
-0.387039 2.452599
-0.384753 2.129120
-0.382753 1.876800
-0.381004 1.601896
-0.379559 1.287974
-0.378419 0.991593
-0.377569 0.710991
-0.376982 0.472935
-0.376607 0.279350
-0.376415 0.108245
-0.376381 -0.036118
-0.376478 -0.151851
-0.376671 -0.222860
-0.376912 -0.257897
-0.377185 -0.287431
-0.377491 -0.327055
-0.377845 -0.383400
-0.378246 -0.403399
-0.378632 -0.360315
-0.378961 -0.298057
-0.379231 -0.242725
-0.379459 -0.222316
-0.379688 -0.238726
-0.379940 -0.266270
-0.380223 -0.299750
-0.380540 -0.333028
-0.380889 -0.364086
-0.381268 -0.392241
-0.381674 -0.417959
-0.382104 -0.441772
-0.382558 -0.464033
-0.383033 -0.485105
-0.383528 -0.504930
-0.384043 -0.523430
-0.384576 -0.540639
-0.385125 -0.556398
-0.385689 -0.570689
-0.386267 -0.583517
-0.386857 -0.594888
-0.387458 -0.604798
-0.388067 -0.613307
-0.388685 -0.620509
-0.389309 -0.626493
-0.389939 -0.631449
-0.390573 -0.635371
-0.391211 -0.638421
-0.391851 -0.640776
-0.392493 -0.642500
-0.393137 -0.643738
-0.393782 -0.644577
-0.394427 -0.645135
-0.395073 -0.645538
-0.395720 -0.645782
-0.396366 -0.645894
-0.397013 -0.645964
-0.397660 -0.646044
-0.398306 -0.646053
-0.398953 -0.645998
-0.399599 -0.645894
-0.400246 -0.645707
-0.400892 -0.645433
-0.401538 -0.645013
-0.402183 -0.644352
-0.402828 -0.643553
-0.403472 -0.642587
-0.404114 -0.641248
-0.404755 -0.639645
-0.405395 -0.637853
-0.406032 -0.635647
-0.406667 -0.633241
-0.407300 -0.630160
-0.407929 -0.628027
-0.408555 -0.620028
-0.409176 -0.627246
-0.409792 -0.578783
-0.410397 -0.717121
-0.411006 -0.189308
-0.410099 -0.121493
