0.038459 0.032875 -0.000905
-0.905228 0.110273
-0.907532 -4.081214
-0.912130 -4.473084
-0.916106 -3.723602
-0.919777 -3.550477
-0.923162 -3.221833
-0.926303 -3.118353
-0.929398 -2.992414
-0.932200 -2.586629
-0.934578 -2.184937
-0.936588 -1.825612
-0.938260 -1.548587
-0.939755 -1.470031
-0.941199 -1.380409
-0.942453 -1.094316
-0.943377 -0.768430
-0.944013 -0.508462
-0.944391 -0.236157
-0.944475 0.069262
-0.944300 0.232316
-0.944073 0.205344
-0.943866 0.246801
-0.943517 0.475420
-0.942902 0.740139
-0.942053 0.952263
-0.940999 1.153815
-0.939745 1.348202
-0.938304 1.530660
-0.936683 1.705442
-0.934893 1.869602
-0.932943 2.024211
-0.930843 2.171659
-0.928598 2.310998
-0.926219 2.443197
-0.923707 2.576253
-0.921064 2.699086
-0.918294 2.851279
-0.915344 3.039382
-0.912231 3.160121
-0.909027 3.252261
-0.905712 3.369653
-0.902289 3.464518
-0.898780 3.547020
-0.895187 3.629980
-0.891513 3.711421
-0.887758 3.789835
-0.883927 3.863963
-0.880023 3.936204
-0.876048 4.005320
-0.872004 4.075103
-0.867890 4.143398
-0.863710 4.207999
-0.859465 4.273752
-0.855157 4.332227
-0.850794 4.384759
-0.846378 4.438631
-0.841909 4.489216
-0.837391 4.538075
-0.832824 4.585725
-0.828212 4.628878
-0.823555 4.680516
-0.818853 4.698170
-0.814125 4.788274
-0.809238 4.964811
-0.804225 5.022968
-0.799198 5.033174
-0.794135 5.082161
-0.789028 5.117042
-0.783894 5.142625
-0.778732 5.169457
-0.773545 5.195908
-0.768329 5.225700
-0.763083 5.255928
-0.757807 5.285362
-0.752499 5.323058
-0.747149 5.364842
-0.741760 5.400203
-0.736339 5.431690
-0.730886 5.463141
-0.725400 5.499942
-0.719876 5.534674
-0.714320 5.567181
-0.708730 5.602292
-0.703104 5.638345
-0.697441 5.677125
-0.691737 5.718738
-0.685991 5.762727
-0.680199 5.809473
-0.674360 5.856168
-0.668473 5.909336
-0.662529 5.966219
-0.656531 6.017681
-0.650480 6.073924
-0.644368 6.136850
-0.638195 6.196106
-0.631964 6.254266
-0.625673 6.316622
-0.619318 6.380433
-0.612899 6.444952
-0.606414 6.511261
-0.599862 6.579840
-0.593241 6.649465
-0.586550 6.719881
-0.579787 6.791899
-0.572952 6.865478
-0.566042 6.940092
-0.559057 7.015759
-0.551996 7.092736
-0.544857 7.170907
-0.537640 7.250080
-0.530342 7.330138
-0.522964 7.411739
-0.515504 7.494274
-0.507961 7.577239
-0.500334 7.661451
-0.492622 7.746626
-0.484825 7.833111
-0.476940 7.920259
-0.468968 8.007967
-0.460907 8.097224
-0.452757 8.187099
-0.444517 8.277484
-0.436185 8.369181
-0.427761 8.461599
-0.419245 8.554747
-0.410634 8.648607
-0.401930 8.742909
-0.393131 8.838553
-0.384235 8.934656
-0.375243 9.031206
-0.366154 9.129033
-0.356967 9.227302
-0.347681 9.326027
-0.338296 9.425360
-0.328811 9.525467
-0.319226 9.626362
-0.309539 9.728053
-0.299750 9.829990
-0.289859 9.932625
-0.279865 10.035878
-0.269767 10.139351
-0.259565 10.243595
-0.249259 10.348518
-0.238848 10.453871
-0.228330 10.560016
-0.217706 10.666570
-0.206976 10.773114
-0.196138 10.880860
-0.185192 10.988487
-0.174139 11.096394
-0.162977 11.205236
-0.151706 11.313962
-0.140326 11.422957
-0.128837 11.532617
-0.117238 11.642584
-0.105529 11.752171
-0.093710 11.861835
-0.081781 11.972078
-0.069742 12.082725
-0.057592 12.192531
-0.045332 12.302486
-0.032962 12.413326
-0.020481 12.523130
-0.007891 12.632559
0.004810 12.742460
0.017620 12.851821
0.030539 12.960815
0.043567 13.069359
0.056704 13.177443
0.069948 13.285093
0.083300 13.393116
0.096761 13.501742
0.110331 13.610929
0.124011 13.720404
0.137799 13.829140
0.151696 13.937155
0.165701 14.044466
0.179813 14.151009
0.194031 14.256105
0.208354 14.360245
0.222780 14.463207
0.237308 14.564744
0.251938 14.664708
0.266667 14.763127
0.281493 14.859969
0.296415 14.954148
0.311431 15.046153
0.326537 15.136458
0.341733 15.224170
0.357015 15.309263
0.372381 15.391880
0.387829 15.471702
0.403355 15.548226
0.418956 15.622136
0.434629 15.692806
0.450371 15.759709
0.466179 15.823600
0.482049 15.883788
0.497977 15.940088
0.513960 15.992765
0.529994 16.041546
0.546073 16.084867
0.562196 16.129702
0.578358 16.153382
0.594547 16.211777
0.610838 16.343385
0.627251 16.430126
0.643708 16.446644
0.660178 16.466047
0.676675 16.491061
0.693188 16.499359
0.709705 16.501558
0.726226 16.508349
0.742753 16.510581
0.759278 16.508260
0.775804 16.508971
0.792327 16.502262
0.808838 16.486545
0.825331 16.466190
0.841801 16.438412
0.858239 16.403175
0.874639 16.363482
0.890996 16.317959
0.907306 16.268579
0.923564 16.211477
0.939760 16.151345
0.955899 16.091661
0.971974 16.026462
0.987981 15.953877
1.003910 15.869282
1.019749 15.776592
1.035493 15.678844
1.051136 15.574969
1.066672 15.464776
1.082094 15.348422
1.097397 15.225830
1.112574 15.096303
1.127618 14.959859
1.142522 14.816627
1.157278 14.665604
1.171880 14.507786
1.186321 14.343504
1.200590 14.161626
1.214665 13.956692
1.228526 13.735716
1.242160 13.503876
1.255558 13.265784
1.268717 13.025071
1.281635 12.784871
1.294313 12.545096
1.306750 12.303809
1.318944 12.059767
1.330888 11.800675
1.342563 11.524314
1.353945 11.202993
1.364919 10.662737
1.375168 9.751033
1.384326 8.496941
1.392118 7.059840
1.398451 5.595509
1.403342 4.197537
1.406903 2.945337
1.409297 1.867910
1.410702 0.970843
1.411298 0.247159
1.411246 -0.329065
1.410676 -0.796089
1.409675 -1.196601
1.408294 -1.557878
1.406564 -1.895787
1.404500 -2.227975
1.402099 -2.572946
1.399333 -2.967009
1.396134 -3.436350
1.392431 -3.971688
1.388166 -4.556725
1.383295 -5.182337
1.377780 -5.841288
1.371592 -6.525946
1.364708 -7.233062
1.357105 -7.958797
1.348770 -8.697610
1.339689 -9.446802
1.329854 -10.205515
1.319255 -10.971591
1.307888 -11.741174
1.295749 -12.510820
1.282842 -13.278181
1.269168 -14.040318
1.254736 -14.794320
1.239553 -15.538575
1.223631 -16.271063
1.206983 -16.989763
1.189623 -17.694091
1.171565 -18.383281
1.152824 -19.056881
1.133418 -19.714870
1.113360 -20.358013
1.092666 -20.986730
1.071349 -21.601495
1.049424 -22.203565
1.026902 -22.793562
1.003795 -23.371992
0.980115 -23.939508
0.955872 -24.495684
0.931078 -25.041709
0.905742 -25.575061
0.879879 -26.100482
0.853495 -26.608351
0.826615 -27.097947
0.799250 -27.572937
0.771503 -27.779873
0.743777 -27.559793
0.716396 -27.137977
0.689457 -26.685340
0.662972 -26.231926
0.636940 -25.780511
0.611354 -25.345496
0.586193 -24.926664
0.561452 -24.505100
0.537138 -24.069366
0.513266 -23.628880
0.489829 -23.201133
0.466815 -22.780397
0.444227 -22.345259
0.422083 -21.902215
0.400376 -21.468312
0.379102 -21.038782
0.358255 -20.614519
0.337830 -20.195378
0.317821 -19.782682
0.298223 -19.376235
0.279028 -18.975238
0.260232 -18.581298
0.241826 -18.194924
0.223803 -17.815571
0.206156 -17.444103
0.188877 -17.080686
0.171958 -16.724365
0.155393 -16.375687
0.139172 -16.034767
0.123289 -15.700983
0.107736 -15.373758
0.092508 -15.053273
0.077597 -14.739002
0.062999 -14.430114
0.048707 -14.126184
0.034717 -13.826870
0.021024 -13.532481
0.007623 -13.241712
-0.005488 -12.954343
-0.018313 -12.671271
-0.030857 -12.391551
-0.043122 -12.114971
-0.055112 -11.842019
-0.066831 -11.572772
-0.078282 -11.306654
-0.089464 -11.031923
-0.100365 -10.750159
-0.110988 -10.474640
-0.121338 -10.205672
-0.131422 -9.942934
-0.141246 -9.686568
-0.150816 -9.437011
-0.160141 -9.194176
-0.169226 -8.958567
-0.178078 -8.730159
-0.186706 -8.508266
-0.195114 -8.293629
-0.203312 -8.086050
-0.211305 -7.884675
-0.219099 -7.689510
-0.226701 -7.501352
-0.234119 -7.318959
-0.241356 -7.141811
-0.248418 -6.970593
-0.255313 -6.804559
-0.262043 -6.642931
-0.268613 -6.485816
-0.275029 -6.333369
-0.281294 -6.184360
-0.287411 -6.039381
-0.293386 -5.897564
-0.299219 -5.759283
-0.304917 -5.624494
-0.310480 -5.492160
-0.315913 -5.362992
-0.321218 -5.236424
-0.326398 -5.113284
-0.331456 -4.993236
-0.336395 -4.875602
-0.341218 -4.760152
-0.345927 -4.651564
-0.350527 -4.534798
-0.355020 -4.460639
-0.359409 -4.241825
-0.363696 -4.575279
-0.367891 -2.877165
-0.371980 -8.741459
-0.375999 13.544070
-0.379938 -69.284052
-0.383486 241.154657
0.000000 243.338448
0.000000 -65.202341
0.000000 17.470914
0.000000 -4.681317
0.000000 1.254355
0.000000 -0.336103
0.000000 0.090059
0.000000 -0.024131
0.000000 0.006466
0.000000 -0.001733
0.000000 0.000464
0.000000 -0.000124
0.000000 0.000033
0.000000 -0.000009
0.000000 0.000002
0.000000 -0.000001
0.000000 0.000000
0.000000 -0.000000
0.000000 0.000000
0.000000 -0.000000
0.000000 0.000000
0.000000 -0.000000
0.000000 0.000000
0.000000 -0.000000
0.000000 0.000000
0.000000 -0.000000
0.000000 0.000000
0.000000 -0.000000
0.000000 0.000000
0.000000 -0.000000
0.000000 0.000000
0.000000 -0.000000
0.000000 0.000000
0.000000 -0.000000
0.000000 0.000000
0.000000 -0.000000
0.000000 0.000000
0.000000 -0.000000
0.000000 0.000000
0.000000 -0.000000
0.000000 0.000000
0.000000 -0.000000
0.000000 0.000000
0.000000 -0.000000
0.000000 0.000000
0.000000 -0.000000
0.000000 0.000000
0.000000 -0.000000
0.000000 0.000000
0.000000 -0.000000
0.000000 0.000000
0.000000 -0.000000
0.000000 0.000000
0.000000 -0.000000
0.000000 0.000000
0.000000 -0.000000
0.000000 0.000000
0.000000 -0.000000
0.000000 0.000000
0.000000 -0.000000
0.000000 0.000000
0.000000 -0.000000
0.000000 0.000000
0.000000 -0.000000
0.000000 0.000000
0.000000 -0.000000
0.000000 0.000000
0.000000 -0.000000
0.000000 0.000000
0.000000 -0.000000
0.000000 0.000000
0.000000 -0.000000
0.000000 0.000000
0.000000 -0.000000
0.000000 0.000000
0.000000 -0.000000
0.000000 0.000000
0.000000 -0.000000
0.000000 0.000000
0.000000 -0.000000
0.000000 0.000000
0.000000 -0.000000
0.000000 0.000000
0.000000 -0.000000
0.000000 0.000000
0.000000 -0.000000
0.000000 0.000000
0.000000 -0.000000
0.000000 0.000000
0.000000 -0.000000
0.000000 0.000000
0.000000 -0.000000
0.000000 0.000000
0.000000 -0.000000
0.000000 0.000000
0.000000 -0.000000
0.000000 0.000000
0.000000 -0.000000
0.000000 0.000000
0.000000 -0.000000
0.000000 0.000000
0.000000 -0.000000
0.000000 0.000000
0.000000 -0.000000
0.000000 0.000000
0.000000 -0.000000
0.000000 0.000000
0.000000 -0.000000
0.000000 0.000000
0.000000 -0.000000
0.000000 0.000000
0.000000 -0.000000
0.000000 0.000000
0.000000 -0.000000
0.000000 0.000000
0.000000 -0.000000
0.000000 0.000000
0.000000 -0.000000
0.000000 0.000000
0.000000 -0.000000
0.000000 0.000000
0.000000 -0.000000
0.000000 0.000000
0.000000 -0.000000
0.000000 0.000000
0.000000 -0.000000
0.000000 0.000000
0.000000 -0.000000
0.000000 0.000000
0.000000 -0.000000
0.000000 0.000000
0.000000 -0.000000
0.000000 0.000000
0.000000 -0.000000
0.000000 0.000000
0.000000 -0.000000
0.000000 0.000000
0.000000 -0.000000
0.000000 0.000000
0.000000 -0.000000
0.000000 0.000000
0.000000 -0.000000
0.000000 0.000000
0.000000 -0.000000
0.000000 0.000000
0.000000 -0.000000
0.000000 0.000000
0.000000 -0.000000
0.000000 0.000000
0.000000 -0.000000
0.000000 0.000000
0.000000 -0.000000
0.000000 0.000000
0.000000 -0.000000
0.000000 0.000000
0.000000 -0.000000
0.000000 0.000000
0.000000 -0.000000
0.000000 0.000000
0.000000 -0.000000
0.000000 0.000000
0.000000 -0.000000
0.000000 0.000000
0.000000 -0.000000
0.000000 0.000000
0.000000 -0.000000
0.000000 0.000000
0.000000 -0.000000
0.000000 0.000000
0.000000 -0.000000
0.000000 0.000000
0.000000 -0.000000
0.000000 0.000000
0.000000 -0.000000
0.000000 0.000000
0.000000 -0.000000
0.000000 0.000000
0.000000 -0.000000
0.000000 0.000000
0.000000 -0.000000
0.000000 0.000000
0.000000 -0.000000
0.000000 0.000000
0.000000 -0.000000
0.000000 0.000000
0.000000 -0.000000
0.000000 0.000000
0.000000 -0.000000
0.000000 0.000000
0.000000 -0.000000
0.000000 0.000000
0.000000 -0.000000
0.000000 0.000000
0.000000 -0.000000
0.000000 0.000000
0.000000 -0.000000
0.000000 0.000000
0.000000 -0.000000
0.000000 0.000000
0.000000 -0.000000
0.000000 0.000000
0.000000 -0.000000
0.000000 0.000000
0.000000 -0.000000
0.000000 0.000000
0.000000 -0.000000
0.000000 0.000000
0.000000 -0.000000
0.000000 0.000000
0.000000 -0.000000
0.000000 0.000000
0.000000 -0.000000
0.000000 0.000000
0.000000 -0.000000
0.000000 0.000000
0.000000 -0.000000
0.000000 0.000000
0.000000 -0.000000
0.000000 0.000000
0.000000 -0.000000
0.000000 0.000000
0.000000 -0.000000
0.000000 0.000000
0.000000 -0.000000
0.000000 0.000000
0.000000 -0.000000
0.000000 0.000000
0.000000 -0.000000
0.000000 0.000000
0.000000 -0.000000
0.000000 0.000000
0.000000 -0.000000
0.000000 0.000000
0.000000 -0.000000
0.000000 0.000000
0.000000 -0.000000
0.000000 0.000000
0.000000 -0.000000
0.000000 0.000000
0.000000 -0.000000
0.000000 0.000000
0.000000 -0.000000
0.000000 0.000000
0.000000 -0.000000
0.000000 0.000000
0.000000 -0.000000
0.000000 0.000000
0.000000 -0.000000
0.000000 0.000000
0.000000 -0.000000
0.000000 0.000000
0.000000 -0.000000
0.000000 0.000000
0.000000 -0.000000
0.000000 0.000000
0.000000 -0.000000
0.000000 0.000000
0.000000 -0.000000
0.000000 0.000000
0.000000 -0.000000
0.000000 0.000000
0.000000 -0.000000
0.000000 0.000000
0.000000 -0.000000
0.000000 0.000000
0.000000 -0.000000
0.000000 0.000000
0.000000 -0.000000
0.000000 0.000000
0.000000 -0.000000
0.000000 0.000000
0.000000 -0.000000
0.000000 0.000000
0.000000 -0.000000
0.000000 0.000000
0.000000 -0.000000
0.000000 0.000000
0.000000 -0.000000
0.000000 0.000000
0.000000 -0.000000
0.000000 0.000000
0.000000 -0.000000
0.000000 0.000000
0.000000 -0.000000
0.000000 0.000000
0.000000 -0.000000
0.000000 0.000000
0.000000 -0.000000
0.000000 0.000000
0.000000 -0.000000
0.000000 0.000000
0.000000 -0.000000
0.000000 0.000000
0.000000 -0.000000
0.000000 0.000000
0.000000 -0.000000
0.000000 0.000000
0.000000 -0.000000
0.000000 0.000000
0.000000 -0.000000
0.000000 0.000000
0.000000 -0.000000
0.000000 0.000000
0.000000 -0.000000
0.000000 0.000000
0.000000 -0.000000
0.000000 0.000000
0.000000 -0.000000
0.000000 0.000000
0.000000 -0.000000
0.000000 0.000000
0.000000 -0.000000
0.000000 0.000000
0.000000 -0.000000
0.000000 0.000000
0.000000 -0.000000
0.000000 0.000000
0.000000 -0.000000
0.000000 0.000000
0.000000 -0.000000
0.000000 0.000000
0.000000 -0.000000
0.000000 0.000000
0.000000 -0.000000
0.000000 0.000000
0.000000 -0.000000
0.000000 0.000000
0.000000 -0.000000
0.000000 0.000000
0.000000 -0.000000
0.000000 0.000000
0.000000 -0.000000
0.000000 0.000000
0.000000 -0.000000
0.000000 0.000000
0.000000 -0.000000
0.000000 0.000000
0.000000 -0.000000
0.000000 0.000000
0.000000 -0.000000
0.000000 0.000000
0.000000 -0.000000
0.000000 0.000000
0.000000 -0.000000
0.000000 0.000000
0.000000 -0.000000
0.000000 0.000000
0.000000 -0.000000
0.000000 0.000000
0.000000 -0.000000
0.000000 0.000000
0.000000 -0.000000
0.000000 0.000000
0.000000 -0.000000
0.000000 0.000000
0.000000 -0.000000
0.000000 0.000000
0.000000 -0.000000
0.000000 0.000000
0.000000 -0.000000
0.000000 0.000000
0.000000 -0.000000
0.000000 0.000000
0.000000 -0.000000
0.000000 0.000000
0.000000 -0.000000
0.000000 0.000000
0.000000 -0.000000
0.000000 0.000000
0.000000 -0.000000
0.000000 0.000000
0.000000 -0.000000
0.000000 0.000000
0.000000 -0.000000
0.000000 0.000000
0.000000 -0.000000
0.000000 0.000000
0.000000 -0.000000
0.000000 0.000000
0.000000 -0.000000
0.000000 0.000000
0.000000 -0.000000
0.000000 0.000000
0.000000 -0.000000
0.000000 0.000000
0.000000 -0.000000
0.000000 0.000000
0.000000 -0.000000
0.000000 0.000000
0.000000 -0.000000
0.000000 0.000000
0.000000 -0.000000
0.000000 0.000000
0.000000 -0.000000
0.000000 0.000000
0.000000 -0.000000
0.000000 0.000000
0.000000 -0.000000
0.000000 0.000000
0.000000 -0.000000
0.000000 0.000000
0.000000 -0.000000
0.000000 0.000000
0.000000 -0.000000
0.000000 0.000000
0.000000 -0.000000
0.000000 0.000000
0.000000 -0.000000
0.000000 0.000000
0.000000 -0.000000
0.000000 0.000000
0.000000 -0.000000
0.000000 0.000000
0.000000 -0.000000
0.000000 0.000000
0.000000 -0.000000
0.000000 0.000000
0.000000 -0.000000
0.000000 0.000000
0.000000 -0.000000
0.000000 0.000000
0.000000 -0.000000
0.000000 0.000000
0.000000 -0.000000
0.000000 0.000000
0.000000 -0.000000
0.000000 0.000000
0.000000 -0.000000
0.000000 0.000000
0.000000 -0.000000
0.000000 0.000000
0.000000 -0.000000
0.000000 0.000000
0.000000 -0.000000
0.000000 0.000000
0.000000 -0.000000
0.000000 0.000000
0.000000 -0.000000
0.000000 0.000000
0.000000 -0.000000
0.000000 0.000000
0.000000 -0.000000
0.000000 0.000000
0.000000 -0.000000
0.000000 0.000000
0.000000 -0.000000
0.000000 0.000000
0.000000 -0.000000
0.000000 0.000000
0.000000 -0.000000
0.000000 0.000000
0.000000 -0.000000
0.000000 0.000000
0.000000 -0.000000
0.000000 0.000000
0.000000 -0.000000
0.000000 0.000000
0.000000 -0.000000
0.000000 0.000000
0.000000 -0.000000
0.000000 0.000000
0.000000 -0.000000
0.000000 0.000000
0.000000 -0.000000
0.000000 0.000000
0.000000 -0.000000
0.000000 0.000000
0.000000 -0.000000
0.000000 0.000000
0.000000 -0.000000
0.000000 0.000000
0.000000 -0.000000
0.000000 0.000000
0.000000 -0.000000
0.000000 0.000000
0.000000 -0.000000
0.000000 0.000000
0.000000 -0.000000
0.000000 0.000000
0.000000 -0.000000
0.000000 0.000000
0.000000 -0.000000
0.000000 0.000000
0.000000 -0.000000
0.000000 0.000000
0.000000 -0.000000
0.000000 0.000000
0.000000 -0.000000
0.000000 0.000000
0.000000 -0.000000
0.000000 0.000000
0.000000 -0.000000
0.000000 0.000000
0.000000 -0.000000
0.000000 0.000000
0.000000 -0.000000
0.000000 0.000000
0.000000 -0.000000
0.000000 0.000000
0.000000 -0.000000
0.000000 0.000000
0.000000 -0.000000
0.000000 0.000000
0.000000 -0.000000
0.000000 0.000000
0.000000 -0.000000
0.000000 0.000000
0.000000 -0.000000
0.000000 0.000000
0.000000 -0.000000
0.000000 0.000000
0.000000 -0.000000
0.000000 0.000000
0.000000 -0.000000
0.000000 0.000000
0.000000 -0.000000
0.000000 0.000000
0.000000 -0.000000
0.000000 0.000000
0.000000 -0.000000
0.000000 0.000000
0.000000 -0.000000
0.000000 0.000000
0.000000 -0.000000
0.000000 0.000000
0.000000 -0.000000
0.000000 0.000000
0.000000 -0.000000
0.000000 0.000000
0.000000 -0.000000
0.000000 0.000000
0.000000 -0.000000
0.000000 0.000000
0.000000 -0.000000
0.000000 0.000000
0.000000 -0.000000
0.000000 0.000000
0.000000 -0.000000
0.000000 0.000000
0.000000 -0.000000
0.000000 0.000000
0.000000 -0.000000
0.000000 0.000000
0.000000 -0.000000
0.000000 0.000000
0.000000 -0.000000
0.000000 0.000000
0.000000 -0.000000
0.000000 0.000000
0.000000 -0.000000
0.000000 0.000000
0.000000 -0.000000
0.000000 0.000000
0.000000 -0.000000
0.000000 0.000000
0.000000 -0.000000
0.000000 0.000000
0.000000 -0.000000
0.000000 0.000000
0.000000 -0.000000
0.000000 0.000000
0.000000 -0.000000
0.000000 0.000000
0.000000 -0.000000
0.000000 0.000000
0.000000 -0.000000
0.000000 0.000000
0.000000 0.000000
0.000000 0.000000
0.000000 0.000000
0.000000 0.000000
0.000000 0.000000
0.000000 0.000000
0.000000 0.000000
0.000000 0.000000
0.000000 0.000000
0.000000 0.000000
0.000000 0.000000
0.000000 0.000000
0.000000 0.000000
0.000000 0.000000
0.000000 0.000000
0.000000 0.000000
0.000000 0.000000
0.000000 0.000000
0.000000 0.000000
0.000000 0.000000
0.000000 0.000000
0.000000 0.000000
0.000000 0.000000
0.000000 0.000000
0.000000 0.000000
0.000000 0.000000
0.000000 0.000000
0.000000 0.000000
0.000000 0.000000
0.000000 0.000000
-0.905228 0.110273
