-0.040565 0.087312 -0.017937
0.457471 0.409456
0.457860 0.361075
0.458183 0.280140
0.458411 0.171310
0.458522 0.048433
0.458506 -0.080210
0.458354 -0.229173
0.458042 -0.394329
0.457565 -0.557602
0.456927 -0.716935
0.456132 -0.869523
0.455189 -1.013372
0.454107 -1.146923
0.452897 -1.268999
0.451571 -1.378648
0.450141 -1.475164
0.448622 -1.558064
0.447027 -1.627091
0.445369 -1.682210
0.443663 -1.723629
0.441923 -1.751774
0.440160 -1.767267
0.438389 -1.771156
0.436618 -1.763770
0.434861 -1.744689
0.433129 -1.714444
0.431433 -1.673599
0.429782 -1.622914
0.428187 -1.563444
0.426655 -1.495777
0.425194 -1.420654
0.423813 -1.339086
0.422515 -1.252314
0.421307 -1.161123
0.420192 -1.066765
0.419172 -0.970612
0.418249 -0.873145
0.417424 -0.775306
0.416697 -0.678537
0.416065 -0.583174
0.415529 -0.489350
0.415085 -0.397173
0.414733 -0.307474
0.414469 -0.220197
0.414292 -0.133586
0.414196 -0.061921
0.414183 0.056816
0.414254 0.007210
0.414047 -0.495135
0.413321 -0.822765
0.412553 -0.690254
0.411858 -0.799640
0.411086 -0.506461
0.410611 -0.911854
0.408822 -2.631609
0.405776 -3.053879
0.402965 -2.707680
0.400331 -2.433397
0.397358 -4.361491
0.392078 -4.855661
0.386420 -8.997301
0.365647 -38.367689
0.307582 -73.811679
0.226727 -82.727763
0.144508 -84.007912
0.057245 -89.178404
-0.033041 -91.392872
-0.125870 -94.045731
-0.221230 -96.426734
-0.318810 -98.488209
-0.418366 -100.437445
-0.519537 -101.341074
-0.621910 -104.219295
-0.728239 -107.261468
-0.835619 -107.220637
-0.942860 -107.077227
-1.049876 -106.600503
-1.156099 -105.595838
-1.261134 -104.154236
-1.364510 -102.397248
-1.466104 -100.553153
-1.565726 -98.433325
-1.663096 -96.096918
-1.758082 -93.669397
-1.850584 -91.127643
-1.940465 -88.423660
-2.027566 -85.594352
-2.111800 -82.687283
-2.193078 -79.693752
-2.271320 -76.621737
-2.346452 -73.483153
-2.418417 -70.295060
-2.487166 -67.056903
-2.552654 -63.784563
-2.614861 -60.506691
-2.673782 -57.208112
-2.729422 -53.999722
-2.781821 -50.586970
-2.830358 -46.157718
-2.873856 -40.611574
-2.911505 -34.592822
-2.943118 -28.595108
-2.968808 -22.763403
-2.988747 -17.102289
-3.003134 -11.702132
-3.012278 -6.611338
-3.016460 -1.792454
-3.015959 2.749018
-3.011047 7.020749
-3.001991 11.030802
-2.989045 14.795081
-2.972451 18.320670
-2.952444 21.616067
-2.929248 24.694576
-2.903071 27.577369
-2.874102 30.268056
-2.842537 32.770344
-2.808554 35.099399
-2.772319 37.274482
-2.733965 39.345045
-2.693585 41.312350
-2.651306 43.135018
-2.607268 44.837765
-2.561574 46.438489
-2.514337 47.923918
-2.465669 49.295788
-2.415675 50.581741
-2.364435 51.775041
-2.312048 52.888510
-2.258563 53.967098
-2.204036 54.954970
-2.148577 55.842429
-2.092266 56.650463
-2.035191 57.372201
-1.977430 58.024260
-1.919045 58.620705
-1.860096 59.143726
-1.800654 59.622757
-1.740737 60.082525
-1.680392 60.473892
-1.619689 60.803392
-1.558684 61.069458
-1.497451 61.267569
-1.436026 61.467773
-1.374438 61.529011
-1.312784 61.771685
-1.250922 61.563494
-1.189766 60.660575
-1.129254 60.431987
-1.068680 60.506038
-1.008208 60.320151
-0.947924 60.117910
-0.887863 59.882436
-0.828046 59.626925
-0.768498 59.345920
-0.709231 59.077730
-0.650224 58.808845
-0.591505 58.511489
-0.533087 58.207215
-0.474983 57.876025
-0.417218 57.545835
-0.359776 57.216334
-0.302683 56.849926
-0.245981 56.427018
-0.189742 55.926616
-0.134057 55.303304
-0.079069 54.547850
-0.024964 53.457532
0.028039 52.624695
0.080133 51.017801
0.129838 48.397302
0.177380 46.843087
0.223783 45.781266
0.268228 42.303933
0.309109 40.725943
0.348421 35.131946
0.375051 16.374767
0.382264 0.796275
0.381365 -0.637368
0.381949 0.808086
0.382350 0.355863
0.382916 0.667750
0.383605 0.734845
0.384410 0.869390
0.385340 0.988214
0.386388 1.106435
0.387555 1.223135
0.388836 1.337374
0.390231 1.449392
0.391737 1.558261
0.393350 1.663640
0.395066 1.765010
0.396882 1.862114
0.398792 1.954292
0.400792 2.040654
0.402876 2.121794
0.405038 2.197541
0.407273 2.266804
0.409574 2.329674
0.411935 2.386212
0.414349 2.436280
0.416811 2.480169
0.419313 2.517964
0.421850 2.549669
0.424415 2.575567
0.427004 2.594753
0.429607 2.606391
0.432219 2.611122
0.434833 2.609368
0.437441 2.602081
0.440041 2.590967
0.442627 2.574803
0.445193 2.551680
0.447733 2.522756
0.450243 2.491986
0.452717 2.443904
0.455152 2.443133
0.457547 2.260123
0.459791 2.420174
0.462272 2.220578
0.463702 0.419193
0.463483 -0.267396
0.463520 0.104776
0.463524 -0.029152
0.463518 0.004663
0.463521 0.000648
0.463520 -0.000922
0.463520 0.000480
0.463520 -0.000185
0.463520 0.000058
0.463520 -0.000014
0.463520 0.000002
0.463520 0.000000
0.463520 -0.000000
0.463520 0.000000
0.463520 -0.000000
0.463520 0.000000
0.463520 -0.000000
0.463520 0.000000
0.463520 0.000000
0.463520 -0.000000
0.463520 0.000000
0.463520 -0.000000
0.463520 0.000000
0.463520 -0.000000
0.463520 -0.000000
0.463520 0.000000
0.463520 -0.000000
0.463520 0.000000
0.463520 -0.000000
0.463520 0.000000
0.463520 -0.000000
0.463520 0.000000
0.463520 -0.000000
0.463520 0.000000
0.463520 -0.000000
0.463520 0.000000
0.463520 -0.000000
0.463520 0.000000
0.463520 -0.000000
0.463520 0.000000
0.463520 -0.000000
0.463520 0.000000
0.463520 -0.000000
0.463520 0.000000
0.463520 -0.000000
0.463520 0.000000
0.463520 -0.000000
0.463520 0.000000
0.463520 -0.000000
0.463520 0.000000
0.463520 -0.000000
0.463520 0.000000
0.463520 -0.000000
0.463520 0.000000
0.463520 -0.000000
0.463520 0.000000
0.463520 -0.000000
0.463520 0.000000
0.463520 -0.000000
0.463520 0.000000
0.463520 -0.000000
0.463520 0.000000
0.463520 -0.000000
0.463520 0.000000
0.463520 -0.000000
0.463520 0.000000
0.463520 -0.000000
0.463520 0.000000
0.463520 -0.000000
0.463520 0.000000
0.463520 -0.000000
0.463520 0.000000
0.463520 -0.000000
0.463520 0.000000
0.463520 -0.000000
0.463520 0.000000
0.463520 -0.000000
0.463520 0.000000
0.463520 -0.000000
0.463520 0.000000
0.463520 -0.000000
0.463520 0.000000
0.463520 -0.000000
0.463520 0.000000
0.463520 -0.000000
0.463520 0.000000
0.463520 -0.000000
0.463520 0.000000
0.463520 -0.000000
0.463520 0.000000
0.463520 -0.000000
0.463520 0.000000
0.463520 -0.000000
0.463520 0.000000
0.463520 -0.000000
0.463520 0.000000
0.463520 -0.000000
0.463520 0.000000
0.463520 -0.000000
0.463520 0.000000
0.463520 -0.000000
0.463520 0.000000
0.463520 -0.000000
0.463520 0.000000
0.463520 -0.000000
0.463520 0.000000
0.463520 -0.000000
0.463520 0.000000
0.463520 -0.000000
0.463520 0.000000
0.463520 -0.000000
0.463520 0.000000
0.463520 -0.000000
0.463520 0.000000
0.463520 -0.000000
0.463520 0.000000
0.463520 -0.000000
0.463520 0.000000
0.463520 -0.000000
0.463520 0.000000
0.463520 -0.000000
0.463520 0.000000
0.463520 -0.000000
0.463520 0.000000
0.463520 -0.000000
0.463520 0.000000
0.463520 -0.000000
0.463520 0.000000
0.463520 -0.000000
0.463520 0.000000
0.463520 -0.000000
0.463520 0.000000
0.463520 -0.000000
0.463520 0.000000
0.463520 -0.000000
0.463520 0.000000
0.463520 -0.000000
0.463520 0.000000
0.463520 -0.000000
0.463520 0.000000
0.463520 -0.000000
0.463520 0.000000
0.463520 -0.000000
0.463520 0.000000
0.463520 -0.000000
0.463520 0.000000
0.463520 -0.000000
0.463520 0.000000
0.463520 -0.000000
0.463520 0.000000
0.463520 -0.000000
0.463520 0.000000
0.463520 -0.000000
0.463520 0.000000
0.463520 -0.000000
0.463520 0.000000
0.463520 -0.000000
0.463520 0.000000
0.463520 -0.000000
0.463520 0.000000
0.463520 -0.000000
0.463520 0.000000
0.463520 -0.000000
0.463520 0.000000
0.463520 0.000000
0.463520 -0.000000
0.463520 0.000000
0.463520 -0.000000
0.463520 0.000000
0.463520 -0.000000
0.463520 0.000000
0.463520 -0.000000
0.463520 0.000000
0.463520 -0.000000
0.463520 0.000000
0.463520 -0.000000
0.463520 0.000000
0.463520 -0.000000
0.463520 0.000000
0.463520 -0.000000
0.463520 0.000000
0.463520 -0.000000
0.463520 0.000000
0.463520 -0.000000
0.463520 0.000000
0.463520 -0.000000
0.463520 0.000000
0.463520 -0.000000
0.463520 0.000000
0.463520 -0.000000
0.463520 0.000000
0.463520 -0.000000
0.463520 0.000000
0.463520 -0.000000
0.463520 0.000000
0.463520 -0.000000
0.463520 0.000000
0.463520 -0.000000
0.463520 0.000000
0.463520 -0.000000
0.463520 0.000000
0.463520 -0.000000
0.463520 0.000000
0.463520 -0.000000
0.463520 0.000000
0.463520 -0.000000
0.463520 0.000000
0.463520 -0.000000
0.463520 0.000000
0.463520 -0.000000
0.463520 0.000000
0.463520 -0.000000
0.463520 0.000000
0.463520 -0.000000
0.463520 0.000000
0.463520 -0.000000
0.463520 0.000000
0.463520 -0.000000
0.463520 0.000000
0.463520 -0.000000
0.463520 0.000000
0.463520 -0.000000
0.463520 0.000000
0.463520 -0.000000
0.463520 0.000000
0.463520 -0.000000
0.463520 0.000000
0.463520 -0.000000
0.463520 0.000000
0.463520 -0.000000
0.463520 0.000000
0.463520 -0.000000
0.463520 0.000000
0.463520 -0.000000
0.463520 0.000000
0.463520 -0.000000
0.463520 0.000000
0.463520 -0.000000
0.463520 0.000000
0.463520 -0.000000
0.463520 0.000000
0.463520 -0.000000
0.463520 0.000000
0.463520 -0.000000
0.463520 0.000000
0.463520 -0.000000
0.463520 0.000000
0.463520 -0.000000
0.463520 0.000000
0.463520 -0.000000
0.463520 0.000000
0.463520 -0.000000
0.463520 0.000000
0.463520 -0.000000
0.463520 0.000000
0.463520 -0.000000
0.463520 0.000000
0.463520 -0.000000
0.463520 0.000000
0.463520 -0.000000
0.463520 0.000000
0.463520 -0.000000
0.463520 0.000000
0.463520 -0.000000
0.463520 0.000000
0.463520 -0.000000
0.463520 0.000000
0.463520 -0.000000
0.463520 0.000000
0.463520 -0.000000
0.463520 0.000000
0.463520 -0.000000
0.463520 0.000000
0.463520 -0.000000
0.463520 0.000000
0.463520 -0.000000
0.463520 0.000000
0.463520 -0.000000
0.463520 0.000000
0.463520 -0.000000
0.463520 0.000000
0.463520 -0.000000
0.463520 0.000000
0.463520 -0.000000
0.463520 0.000000
0.463520 -0.000000
0.463520 0.000000
0.463520 -0.000000
0.463520 0.000000
0.463520 -0.000000
0.463520 0.000000
0.463520 -0.000000
0.463520 0.000000
0.463520 -0.000000
0.463520 0.000000
0.463520 -0.000000
0.463520 0.000000
0.463520 -0.000000
0.463520 0.000000
0.463520 -0.000000
0.463520 -0.000000
0.463520 0.000000
0.463520 -0.000000
0.463520 0.000000
0.463520 -0.000000
0.463520 -0.000000
0.463520 0.000000
0.463520 -0.000000
0.463520 0.000000
0.463520 -0.000000
0.463520 0.000000
0.463520 -0.000000
0.463520 -0.000000
0.463520 0.000000
0.463520 -0.000002
0.463520 0.000006
0.463520 -0.000015
0.463520 0.000023
0.463520 0.000011
0.463520 -0.000286
0.463520 0.001460
0.463520 -0.005221
0.463519 0.014914
0.463527 -0.033340
0.463494 0.044680
0.463596 0.061084
0.463339 -0.753695
0.462191 -1.258080
0.461025 -1.150564
0.459825 -1.229087
0.458576 -1.270004
0.457283 -1.309137
0.455969 -1.308762
0.454667 -1.296959
0.453372 -1.285493
0.452066 -1.355743
0.450734 -1.196944
0.449442 -1.720832
0.447784 -0.762411
0.447423 -1.279054
0.438292 -22.568346
0.398184 -56.017856
0.334279 -65.088101
0.269842 -68.270670
0.195184 -78.694595
0.115015 -80.967415
0.033013 -83.462402
-0.052513 -87.264003
-0.141355 -90.063655
-0.232383 -91.551214
-0.324672 -93.132897
-0.419129 -95.597391
-0.516130 -98.276282
-0.616238 -102.032730
-0.719929 -104.378462
-0.824326 -104.091860
-0.928170 -103.354082
-1.031109 -102.220416
-1.132701 -100.742637
-1.232751 -99.131947
-1.331077 -97.260758
-1.427378 -95.120841
-1.521460 -92.834629
-1.613189 -90.415916
-1.702414 -87.820599
-1.788975 -85.132997
-1.872788 -82.259404
-1.953749 -79.658299
-2.031803 -75.674769
-2.106872 -76.551761
-2.181106 -65.580809
-2.253677 -101.097584
-2.322377 46.584668
-2.389428 -492.087841
-2.455675 1522.269950
0.000000 1564.123717
0.000000 -419.105687
0.000000 112.299030
0.000000 -30.090434
0.000000 8.062708
0.000000 -2.160396
0.000000 0.578876
0.000000 -0.155109
0.000000 0.041561
0.000000 -0.011136
0.000000 0.002984
0.000000 -0.000800
0.000000 0.000214
0.000000 -0.000057
0.000000 0.000015
0.000000 -0.000004
0.000000 0.000001
0.000000 -0.000000
0.000000 0.000000
0.000000 -0.000000
0.000000 0.000000
0.000000 -0.000000
0.000000 0.000000
0.000000 -0.000000
0.000000 0.000000
0.000000 -0.000000
0.000000 0.000000
0.000000 -0.000000
0.000000 0.000000
0.000000 -0.000000
0.000000 0.000000
0.000000 -0.000000
0.000000 0.000000
0.000000 -0.000000
0.000000 0.000000
0.000000 -0.000000
0.000000 0.000000
0.000000 -0.000000
0.000000 0.000000
0.000000 -0.000000
0.000000 0.000000
0.000000 -0.000000
0.000000 0.000000
0.000000 -0.000000
0.000000 0.000000
0.000000 -0.000000
0.000000 0.000000
0.000000 -0.000000
0.000000 0.000000
0.000000 -0.000000
0.000000 0.000000
0.000000 -0.000000
0.000000 0.000000
0.000000 -0.000000
0.000000 0.000000
0.000000 -0.000000
0.000000 0.000000
0.000000 -0.000000
0.000000 0.000000
0.000000 -0.000000
0.000000 0.000000
0.000000 -0.000000
0.000000 0.000000
0.000000 -0.000000
0.000000 0.000000
0.000000 -0.000000
0.000000 0.000000
0.000000 -0.000000
0.000000 0.000000
0.000000 -0.000000
0.000000 0.000000
0.000000 -0.000000
0.000000 0.000000
0.000000 -0.000000
0.000000 0.000000
0.000000 -0.000000
0.000000 0.000000
0.000000 -0.000000
0.000000 0.000000
0.000000 -0.000000
0.000000 0.000000
0.000000 -0.000000
0.000000 0.000000
0.000000 -0.000000
0.000000 0.000000
0.000000 -0.000000
0.000000 0.000000
0.000000 -0.000000
0.000000 0.000000
0.000000 -0.000000
0.000000 0.000000
0.000000 -0.000000
0.000000 0.000000
0.000000 -0.000000
0.000000 0.000000
0.000000 -0.000000
0.000000 0.000000
0.000000 -0.000000
0.000000 0.000000
0.000000 -0.000000
0.000000 0.000000
0.000000 -0.000000
0.000000 0.000000
0.000000 -0.000000
0.000000 0.000000
0.000000 -0.000000
0.000000 0.000000
0.000000 -0.000000
0.000000 0.000000
0.000000 -0.000000
0.000000 0.000000
0.000000 -0.000000
0.000000 0.000000
0.000000 -0.000000
0.000000 0.000000
0.000000 -0.000000
0.000000 0.000000
0.000000 -0.000000
0.000000 0.000000
0.000000 -0.000000
0.000000 0.000000
0.000000 -0.000000
0.000000 0.000000
0.000000 -0.000000
0.000000 0.000000
0.000000 -0.000000
0.000000 0.000000
0.000000 -0.000000
0.000000 0.000000
0.000000 -0.000000
0.000000 0.000000
0.000000 -0.000000
0.000000 0.000000
0.000000 -0.000000
0.000000 0.000000
0.000000 -0.000000
0.000000 0.000000
0.000000 -0.000000
0.000000 0.000000
0.000000 -0.000000
0.000000 0.000000
0.000000 -0.000000
0.000000 0.000000
0.000000 -0.000000
0.000000 0.000000
0.000000 -0.000000
0.000000 0.000000
0.000000 -0.000000
0.000000 0.000000
0.000000 -0.000000
0.000000 0.000000
0.000000 -0.000000
0.000000 0.000000
0.000000 -0.000000
0.000000 0.000000
0.000000 -0.000000
0.000000 0.000000
0.000000 -0.000000
0.000000 0.000000
0.000000 -0.000000
0.000000 0.000000
0.000000 -0.000000
0.000000 0.000000
0.000000 -0.000000
0.000000 0.000000
0.000000 -0.000000
0.000000 0.000000
0.000000 -0.000000
0.000000 0.000000
0.000000 -0.000000
0.000000 0.000000
0.000000 -0.000000
0.000000 0.000000
0.000000 -0.000000
0.000000 0.000000
0.000000 -0.000000
0.000000 0.000000
0.000000 -0.000000
0.000000 0.000000
0.000000 -0.000000
0.000000 0.000000
0.000000 -0.000000
0.000000 0.000000
0.000000 -0.000000
0.000000 0.000000
0.000000 -0.000000
0.000000 0.000000
0.000000 -0.000000
0.000000 0.000000
0.000000 -0.000000
0.000000 0.000000
0.000000 -0.000000
0.000000 0.000000
0.000000 -0.000000
0.000000 0.000000
0.000000 -0.000000
0.000000 0.000000
0.000000 -0.000000
0.000000 0.000000
0.000000 -0.000000
0.000000 0.000000
0.000000 -0.000000
0.000000 0.000000
0.000000 -0.000000
0.000000 0.000000
0.000000 -0.000000
0.000000 0.000000
0.000000 -0.000000
0.000000 0.000000
0.000000 -0.000000
0.000000 0.000000
0.000000 -0.000000
0.000000 0.000000
0.000000 -0.000000
0.000000 0.000000
0.000000 -0.000000
0.000000 0.000000
0.000000 -0.000000
0.000000 0.000000
0.000000 -0.000000
0.000000 0.000000
0.000000 -0.000000
0.000000 0.000000
0.000000 -0.000000
0.000000 0.000000
0.000000 -0.000000
0.000000 0.000000
0.000000 -0.000000
0.000000 0.000000
0.000000 -0.000000
0.000000 0.000000
0.000000 -0.000000
0.000000 0.000000
0.000000 -0.000000
0.000000 0.000000
0.000000 -0.000000
0.000000 0.000000
0.000000 -0.000000
0.000000 0.000000
0.000000 -0.000000
0.000000 0.000000
0.000000 -0.000000
0.000000 0.000000
0.000000 -0.000000
0.000000 0.000000
0.000000 -0.000000
0.000000 0.000000
0.000000 -0.000000
0.000000 0.000000
0.000000 -0.000000
0.000000 0.000000
0.000000 -0.000000
0.000000 0.000000
0.000000 -0.000000
0.000000 0.000000
0.000000 -0.000000
0.000000 0.000000
0.000000 -0.000000
0.000000 0.000000
0.000000 -0.000000
0.000000 0.000000
0.000000 -0.000000
0.000000 0.000000
0.000000 -0.000000
0.000000 0.000000
0.000000 -0.000000
0.000000 0.000000
0.000000 -0.000000
0.000000 0.000000
0.000000 -0.000000
0.000000 0.000000
0.000000 -0.000000
0.000000 0.000000
0.000000 -0.000000
0.000000 0.000000
0.000000 -0.000000
0.000000 0.000000
0.000000 -0.000000
0.000000 0.000000
0.000000 -0.000000
0.000000 0.000000
0.000000 -0.000000
0.000000 0.000000
0.000000 -0.000000
0.000000 0.000000
0.000000 -0.000000
0.000000 0.000000
0.000000 -0.000000
0.000000 0.000000
0.000000 -0.000000
0.000000 0.000000
0.000000 -0.000000
0.000000 0.000000
0.000000 -0.000000
0.000000 0.000000
0.000000 -0.000000
0.000000 0.000000
0.000000 -0.000000
0.000000 0.000000
0.000000 -0.000000
0.000000 0.000000
0.000000 -0.000000
0.000000 0.000000
0.000000 -0.000000
0.000000 0.000000
0.000000 -0.000000
0.000000 0.000000
0.000000 -0.000000
0.000000 0.000000
0.000000 -0.000000
0.000000 0.000000
0.000000 -0.000000
0.000000 0.000000
0.000000 -0.000000
0.000000 0.000000
0.000000 -0.000000
0.000000 0.000000
0.000000 -0.000000
0.000000 0.000000
0.000000 -0.000000
0.000000 0.000000
0.000000 -0.000000
0.000000 0.000000
0.000000 -0.000000
0.000000 0.000000
0.000000 -0.000000
0.000000 0.000000
0.000000 -0.000000
0.000000 0.000000
0.000000 -0.000000
0.000000 0.000000
0.000000 -0.000000
0.000000 0.000000
0.000000 -0.000000
0.000000 0.000000
0.000000 -0.000000
0.000000 0.000000
0.000000 -0.000000
0.000000 0.000000
0.000000 -0.000000
0.000000 0.000000
0.000000 -0.000000
0.000000 0.000000
0.000000 -0.000000
0.000000 0.000000
0.000000 -0.000000
0.000000 0.000000
0.000000 -0.000000
0.000000 0.000000
0.000000 -0.000000
0.000000 0.000000
0.000000 -0.000000
0.000000 0.000000
0.000000 -0.000000
0.000000 0.000000
0.000000 -0.000000
0.000000 0.000000
0.000000 -0.000000
0.000000 0.000000
0.000000 -0.000000
0.000000 0.000000
0.000000 -0.000000
0.000000 0.000000
0.000000 -0.000000
0.000000 0.000000
0.000000 -0.000000
0.000000 0.000000
0.000000 -0.000000
0.000000 0.000000
0.000000 -0.000000
0.000000 0.000000
0.000000 -0.000000
0.000000 0.000000
0.000000 -0.000000
0.000000 0.000000
0.000000 -0.000000
0.000000 0.000000
0.000000 -0.000000
0.000000 0.000000
0.000000 -0.000000
0.000000 0.000000
0.000000 -0.000000
0.000000 0.000000
0.000000 -0.000000
0.000000 0.000000
0.000000 -0.000000
0.000000 0.000000
0.000000 -0.000000
0.000000 0.000000
0.000000 -0.000000
0.000000 0.000000
0.000000 -0.000000
0.000000 0.000000
0.000000 -0.000000
0.000000 0.000000
0.000000 -0.000000
0.000000 0.000000
0.000000 -0.000000
0.000000 0.000000
0.000000 -0.000000
0.000000 0.000000
0.000000 -0.000000
0.000000 0.000000
0.457471 0.409456
