-0.026225 0.002141 0.000124
0.123736 92.132317
0.114922 -76.425297
0.037431 -45.085862
0.028232 -3.042984
-0.001318 -58.874207
-0.073652 -66.804453
-0.114379 -12.752094
-0.111858 3.306604
-0.113573 1.941384
-0.106953 3.629764
-0.123224 -45.385218
-0.181667 -46.008284
-0.199533 0.721419
-0.195358 2.091584
-0.196543 -0.125820
-0.195466 -1.910781
-0.198126 3.022778
-0.191530 1.613978
-0.210584 -46.814274
-0.272738 -57.735536
-0.306546 -9.840642
-0.303133 6.003084
-0.302316 -1.494688
-0.303128 -0.010220
-0.302753 0.225011
-0.302880 -0.143893
-0.302850 0.061290
-0.302852 -0.019973
-0.302854 0.004848
-0.302853 -0.000599
-0.302854 -0.000205
-0.302853 0.000199
-0.302853 -0.000099
-0.302853 0.000037
-0.302853 -0.000011
-0.302853 0.000003
-0.302853 -0.000000
-0.302853 -0.000000
-0.302853 0.000000
-0.302853 -0.000000
-0.302853 0.000000
-0.302853 -0.000000
-0.302853 0.000000
-0.302853 -0.000000
-0.302853 -0.000000
-0.302853 0.000000
-0.302853 -0.000000
-0.302853 0.000000
-0.302853 -0.000000
-0.302853 0.000000
-0.302853 0.000000
-0.302853 -0.000000
-0.302853 0.000000
-0.302853 -0.000000
-0.302853 0.000000
-0.302853 -0.000000
-0.302853 0.000000
-0.302853 -0.000000
-0.302853 0.000000
-0.302853 -0.000000
-0.302853 0.000000
-0.302853 -0.000000
-0.302853 0.000000
-0.302853 -0.000000
-0.302853 0.000000
-0.302853 -0.000000
-0.302853 0.000000
-0.302853 -0.000000
-0.302853 0.000000
-0.302853 -0.000000
-0.302853 0.000000
-0.302853 -0.000000
-0.302853 0.000000
-0.302853 -0.000000
-0.302853 0.000000
-0.302853 -0.000000
-0.302853 0.000000
-0.302853 -0.000000
-0.302853 0.000000
-0.302853 -0.000000
-0.302853 0.000000
-0.302853 -0.000000
-0.302853 0.000000
-0.302853 -0.000000
-0.302853 0.000000
-0.302853 -0.000000
-0.302853 0.000000
-0.302853 -0.000000
-0.302853 0.000000
-0.302853 -0.000000
-0.302853 0.000000
-0.302853 -0.000000
-0.302853 0.000000
-0.302853 -0.000000
-0.302853 0.000000
-0.302853 -0.000000
-0.302853 0.000000
-0.302853 -0.000000
-0.302853 0.000000
-0.302853 -0.000000
-0.302853 0.000000
-0.302853 -0.000000
-0.302853 0.000000
-0.302853 -0.000000
-0.302853 0.000000
-0.302853 -0.000000
-0.302853 0.000000
-0.302853 -0.000000
-0.302853 0.000000
-0.302853 -0.000000
-0.302853 0.000000
-0.302853 -0.000000
-0.302853 0.000000
-0.302853 -0.000000
-0.302853 0.000000
-0.302853 -0.000000
-0.302853 0.000000
-0.302853 -0.000000
-0.302853 0.000000
-0.302853 -0.000000
-0.302853 0.000000
-0.302853 -0.000000
-0.302853 0.000000
-0.302853 -0.000000
-0.302853 0.000000
-0.302853 -0.000000
-0.302853 0.000000
-0.302853 -0.000000
-0.302853 0.000000
-0.302853 -0.000000
-0.302853 0.000000
-0.302853 -0.000000
-0.302853 0.000000
-0.302853 -0.000000
-0.302853 0.000000
-0.302853 -0.000000
-0.302853 0.000000
-0.302853 -0.000000
-0.302853 0.000000
-0.302853 -0.000000
-0.302853 0.000000
-0.302853 -0.000000
-0.302853 0.000000
-0.302853 -0.000000
-0.302853 0.000000
-0.302853 -0.000000
-0.302853 0.000000
-0.302853 -0.000000
-0.302853 0.000000
-0.302853 -0.000000
-0.302853 0.000000
-0.302853 -0.000000
-0.302853 0.000000
-0.302853 -0.000000
-0.302853 0.000000
-0.302853 -0.000000
-0.302853 0.000000
-0.302853 -0.000000
-0.302853 0.000000
-0.302853 -0.000000
-0.302853 0.000000
-0.302853 -0.000000
-0.302853 0.000000
-0.302853 -0.000000
-0.302853 0.000000
-0.302853 -0.000000
-0.302853 0.000000
-0.302853 -0.000000
-0.302853 0.000000
-0.302853 -0.000000
-0.302853 0.000000
-0.302853 -0.000000
-0.302853 0.000000
-0.302853 -0.000000
-0.302853 0.000000
-0.302853 -0.000000
-0.302853 0.000000
-0.302853 -0.000000
-0.302853 0.000000
-0.302853 -0.000000
-0.302853 0.000000
-0.302853 -0.000000
-0.302853 0.000000
-0.302853 -0.000000
-0.302853 0.000000
-0.302853 -0.000000
-0.302853 0.000000
-0.302853 -0.000000
-0.302853 0.000000
-0.302853 -0.000000
-0.302853 0.000000
-0.302853 -0.000000
-0.302853 0.000000
-0.302853 -0.000000
-0.302853 0.000000
-0.302853 -0.000000
-0.302853 0.000000
-0.302853 -0.000000
-0.302853 0.000000
-0.302853 -0.000000
-0.302853 0.000000
-0.302853 -0.000000
-0.302853 0.000000
-0.302853 -0.000000
-0.302853 0.000000
-0.302853 -0.000000
-0.302853 0.000000
-0.302853 -0.000000
-0.302853 0.000000
-0.302853 -0.000000
-0.302853 0.000000
-0.302853 -0.000000
-0.302853 -0.000000
-0.302853 0.000000
-0.302853 -0.000000
-0.302853 0.000000
-0.302853 -0.000000
-0.302853 0.000000
-0.302853 -0.000000
-0.302853 0.000000
-0.302853 -0.000000
-0.302853 0.000000
-0.302853 -0.000000
-0.302853 0.000000
-0.302853 -0.000000
-0.302853 0.000000
-0.302853 -0.000000
-0.302853 0.000000
-0.302853 -0.000000
-0.302853 0.000000
-0.302853 -0.000000
-0.302853 0.000000
-0.302853 -0.000000
-0.302853 0.000000
-0.302853 -0.000000
-0.302853 0.000000
-0.302853 -0.000000
-0.302853 0.000000
-0.302853 -0.000000
-0.302853 0.000000
-0.302853 -0.000000
-0.302853 0.000000
-0.302853 -0.000000
-0.302853 0.000000
-0.302853 -0.000000
-0.302853 0.000000
-0.302853 -0.000000
-0.302853 0.000000
-0.302853 -0.000000
-0.302853 0.000000
-0.302853 -0.000000
-0.302853 0.000000
-0.302853 -0.000000
-0.302853 0.000000
-0.302853 -0.000000
-0.302853 0.000000
-0.302853 -0.000000
-0.302853 0.000000
-0.302853 -0.000000
-0.302853 0.000000
-0.302853 -0.000000
-0.302853 0.000000
-0.302853 -0.000000
-0.302853 0.000000
-0.302853 -0.000000
-0.302853 0.000000
-0.302853 -0.000000
-0.302853 0.000000
-0.302853 -0.000000
-0.302853 0.000000
-0.302853 -0.000000
-0.302853 0.000000
-0.302853 -0.000000
-0.302853 0.000000
-0.302853 -0.000000
-0.302853 0.000000
-0.302853 -0.000000
-0.302853 0.000000
-0.302853 -0.000000
-0.302853 0.000000
-0.302853 -0.000000
-0.302853 0.000000
-0.302853 -0.000000
-0.302853 0.000000
-0.302853 -0.000000
-0.302853 0.000000
-0.302853 -0.000000
-0.302853 0.000000
-0.302853 -0.000000
-0.302853 0.000000
-0.302853 -0.000000
-0.302853 0.000000
-0.302853 -0.000000
-0.302853 0.000000
-0.302853 -0.000000
-0.302853 0.000000
-0.302853 -0.000000
-0.302853 0.000000
-0.302853 -0.000000
-0.302853 0.000000
-0.302853 -0.000000
-0.302853 0.000000
-0.302853 -0.000000
-0.302853 0.000000
-0.302853 -0.000000
-0.302853 0.000000
-0.302853 -0.000000
-0.302853 0.000000
-0.302853 -0.000000
-0.302853 0.000000
-0.302853 -0.000000
-0.302853 0.000000
-0.302853 -0.000000
-0.302853 0.000000
-0.302853 -0.000000
-0.302853 0.000000
-0.302853 -0.000000
-0.302853 0.000000
-0.302853 -0.000000
-0.302853 0.000000
-0.302853 -0.000000
-0.302853 0.000000
-0.302853 -0.000000
-0.302853 0.000000
-0.302853 -0.000000
-0.302853 0.000000
-0.302853 -0.000000
-0.302853 0.000000
-0.302853 -0.000000
-0.302853 0.000000
-0.302853 -0.000000
-0.302853 0.000000
-0.302853 -0.000000
-0.302853 0.000000
-0.302853 -0.000000
-0.302853 0.000000
-0.302853 -0.000000
-0.302853 0.000000
-0.302853 -0.000000
-0.302853 0.000000
-0.302853 -0.000000
-0.302853 0.000000
-0.302853 -0.000000
-0.302853 0.000000
-0.302853 -0.000000
-0.302853 0.000000
-0.302853 -0.000000
-0.302853 0.000000
-0.302853 -0.000000
-0.302853 0.000000
-0.302853 -0.000000
-0.302853 0.000000
-0.302853 -0.000000
-0.302853 0.000000
-0.302853 -0.000000
-0.302853 0.000000
-0.302853 -0.000000
-0.302853 0.000000
-0.302853 -0.000000
-0.302853 0.000000
-0.302853 -0.000000
-0.302853 0.000000
-0.302853 -0.000000
-0.302853 0.000000
-0.302853 -0.000000
-0.302853 0.000000
-0.302853 -0.000000
-0.302853 0.000000
-0.302853 -0.000000
-0.302853 0.000000
-0.302853 -0.000000
-0.302853 0.000000
-0.302853 -0.000000
-0.302853 0.000000
-0.302853 -0.000000
-0.302853 0.000000
-0.302853 -0.000000
-0.302853 0.000000
-0.302853 -0.000000
-0.302853 0.000000
-0.302853 -0.000000
-0.302853 0.000000
-0.302853 -0.000000
-0.302853 0.000000
-0.302853 -0.000000
-0.302853 0.000000
-0.302853 -0.000001
-0.302853 0.000003
-0.302853 -0.000009
-0.302853 0.000034
-0.302853 -0.000126
-0.302853 0.000460
-0.302853 -0.001682
-0.302853 0.006143
-0.302853 -0.022425
-0.302854 0.081834
-0.302851 -0.298507
-0.302862 1.088382
-0.302821 -3.966518
-0.302972 14.448715
-0.302413 -52.605563
-0.304488 191.428668
0.000000 193.224130
0.000000 -51.774250
0.000000 13.872868
0.000000 -3.717224
0.000000 0.996027
0.000000 -0.266885
0.000000 0.071512
0.000000 -0.019161
0.000000 0.005134
0.000000 -0.001376
0.000000 0.000369
0.000000 -0.000099
0.000000 0.000026
0.000000 -0.000007
0.000000 0.000002
0.000000 -0.000001
0.000000 0.000000
0.000000 -0.000000
0.000000 0.000000
0.000000 -0.000000
0.000000 0.000000
0.000000 -0.000000
0.000000 0.000000
0.000000 -0.000000
0.000000 0.000000
0.000000 -0.000000
0.000000 0.000000
0.000000 -0.000000
0.000000 0.000000
0.000000 -0.000000
0.000000 0.000000
0.000000 -0.000000
0.000000 0.000000
0.000000 -0.000000
0.000000 0.000000
0.000000 -0.000000
0.000000 0.000000
0.000000 -0.000000
0.000000 0.000000
0.000000 -0.000000
0.000000 0.000000
0.000000 -0.000000
0.000000 0.000000
0.000000 -0.000000
0.000000 0.000000
0.000000 -0.000000
0.000000 0.000000
0.000000 -0.000000
0.000000 0.000000
0.000000 -0.000000
0.000000 0.000000
0.000000 -0.000000
0.000000 0.000000
0.000000 -0.000000
0.000000 0.000000
0.000000 -0.000000
0.000000 0.000000
0.000000 -0.000000
0.000000 0.000000
0.000000 -0.000000
0.000000 0.000000
0.000000 -0.000000
0.000000 0.000000
0.000000 -0.000000
0.000000 0.000000
0.000000 -0.000000
0.000000 0.000000
0.000000 -0.000000
0.000000 0.000000
0.000000 -0.000000
0.000000 0.000000
0.000000 -0.000000
0.000000 0.000000
0.000000 -0.000000
0.000000 0.000000
0.000000 -0.000000
0.000000 0.000000
0.000000 -0.000000
0.000000 0.000000
0.000000 -0.000000
0.000000 0.000000
0.000000 -0.000000
0.000000 0.000000
0.000000 -0.000000
0.000000 0.000000
0.000000 -0.000000
0.000000 0.000000
0.000000 -0.000000
0.000000 0.000000
0.000000 -0.000000
0.000000 0.000000
0.000000 -0.000000
0.000000 0.000000
0.000000 -0.000000
0.000000 0.000000
0.000000 -0.000000
0.000000 0.000000
0.000000 -0.000000
0.000000 0.000000
0.000000 -0.000000
0.000000 0.000000
0.000000 -0.000000
0.000000 0.000000
0.000000 -0.000000
0.000000 0.000000
0.000000 -0.000000
0.000000 0.000000
0.000000 -0.000000
0.000000 0.000000
0.000000 -0.000000
0.000000 0.000000
0.000000 -0.000000
0.000000 0.000000
0.000000 -0.000000
0.000000 0.000000
0.000000 -0.000000
0.000000 0.000000
0.000000 -0.000000
0.000000 0.000000
0.000000 -0.000000
0.000000 0.000000
0.000000 -0.000000
0.000000 0.000000
0.000000 -0.000000
0.000000 0.000000
0.000000 -0.000000
0.000000 0.000000
0.000000 -0.000000
0.000000 0.000000
0.000000 -0.000000
0.000000 0.000000
0.000000 -0.000000
0.000000 0.000000
0.000000 -0.000000
0.000000 0.000000
0.000000 -0.000000
0.000000 0.000000
0.000000 -0.000000
0.000000 0.000000
0.000000 -0.000000
0.000000 0.000000
0.000000 -0.000000
0.000000 0.000000
0.000000 -0.000000
0.000000 0.000000
0.000000 -0.000000
0.000000 0.000000
0.000000 -0.000000
0.000000 0.000000
0.000000 -0.000000
0.000000 0.000000
0.000000 -0.000000
0.000000 0.000000
0.000000 -0.000000
0.000000 0.000000
0.000000 -0.000000
0.000000 0.000000
0.000000 -0.000000
0.000000 0.000000
0.000000 -0.000000
0.000000 0.000000
0.000000 -0.000000
0.000000 0.000000
0.000000 -0.000000
0.000000 0.000000
0.000000 -0.000000
0.000000 0.000000
0.000000 -0.000000
0.000000 0.000000
0.000000 -0.000000
0.000000 0.000000
0.000000 -0.000000
0.000000 0.000000
0.000000 -0.000000
0.000000 0.000000
0.000000 -0.000000
0.000000 0.000000
0.000000 -0.000000
0.000000 0.000000
0.000000 -0.000000
0.000000 0.000000
0.000000 -0.000000
0.000000 0.000000
0.000000 -0.000000
0.000000 0.000000
0.000000 -0.000000
0.000000 0.000000
0.000000 -0.000000
0.000000 0.000000
0.000000 -0.000000
0.000000 0.000000
0.000000 -0.000000
0.000000 0.000000
0.000000 -0.000000
0.000000 0.000000
0.000000 -0.000000
0.000000 0.000000
0.000000 -0.000000
0.000000 0.000000
0.000000 -0.000000
0.000000 0.000000
0.000000 -0.000000
0.000000 0.000000
0.000000 -0.000000
0.000000 0.000000
0.000000 -0.000000
0.000000 0.000000
0.000000 -0.000000
0.000000 0.000000
0.000000 -0.000000
0.000000 0.000000
0.000000 -0.000000
0.000000 0.000000
0.000000 -0.000000
0.000000 0.000000
0.000000 -0.000000
0.000000 0.000000
0.000000 -0.000000
0.000000 0.000000
0.000000 -0.000000
0.000000 0.000000
0.000000 -0.000000
0.000000 0.000000
0.000000 -0.000000
0.000000 0.000000
0.000000 -0.000000
0.000000 0.000000
0.000000 -0.000000
0.000000 0.000000
0.000000 -0.000000
0.000000 0.000000
0.000000 -0.000000
0.000000 0.000000
0.000000 -0.000000
0.000000 0.000000
0.000000 -0.000000
0.000000 0.000000
0.000000 -0.000000
0.000000 0.000000
0.000000 -0.000000
0.000000 0.000000
0.000000 -0.000000
0.000000 0.000000
0.000000 -0.000000
0.000000 0.000000
0.000000 -0.000000
0.000000 0.000000
0.000000 -0.000000
0.000000 0.000000
0.000000 -0.000000
0.000000 0.000000
0.000000 -0.000000
0.000000 0.000000
0.000000 -0.000000
0.000000 0.000000
0.000000 -0.000000
0.000000 0.000000
0.000000 -0.000000
0.000000 0.000000
0.000000 -0.000000
0.000000 0.000000
0.000000 -0.000000
0.000000 0.000000
0.000000 -0.000000
0.000000 0.000000
0.000000 -0.000000
0.000000 0.000000
0.000000 -0.000000
0.000000 0.000000
0.000000 -0.000000
0.000000 0.000000
0.000000 -0.000000
0.000000 0.000000
0.000000 -0.000000
0.000000 0.000000
0.000000 -0.000000
0.000000 0.000000
0.000000 -0.000000
0.000000 0.000000
0.000000 -0.000000
0.000000 0.000000
0.000000 -0.000000
0.000000 0.000000
0.000000 -0.000000
0.000000 0.000000
0.000000 -0.000000
0.000000 0.000000
0.000000 -0.000000
0.000000 0.000000
0.000000 -0.000000
0.000000 0.000000
0.000000 -0.000000
0.000000 0.000000
0.000000 -0.000000
0.000000 0.000000
0.000000 -0.000000
0.000000 0.000000
0.000000 -0.000000
0.000000 0.000000
0.000000 -0.000000
0.000000 0.000000
0.000000 -0.000000
0.000000 0.000000
0.000000 -0.000000
0.000000 0.000000
0.000000 -0.000000
0.000000 0.000000
0.000000 -0.000000
0.000000 0.000000
0.000000 -0.000000
0.000000 0.000000
0.000000 -0.000000
0.000000 0.000000
0.000000 -0.000000
0.000000 0.000000
0.000000 -0.000000
0.000000 0.000000
0.000000 -0.000000
0.000000 0.000000
0.000000 -0.000000
0.000000 0.000000
0.000000 -0.000000
0.000000 0.000000
0.000000 -0.000000
0.000000 0.000000
0.000000 -0.000000
0.000000 0.000000
0.000000 -0.000000
0.000000 0.000000
0.000000 -0.000000
0.000000 0.000000
0.000000 -0.000000
0.000000 0.000000
0.000000 -0.000000
0.000000 0.000000
0.000000 -0.000000
0.000000 0.000000
0.000000 -0.000000
0.000000 0.000000
0.000000 -0.000000
0.000000 0.000000
0.000000 -0.000000
0.000000 0.000000
0.000000 -0.000000
0.000000 0.000000
0.000000 -0.000000
0.000000 0.000000
0.000000 -0.000000
0.000000 0.000000
0.000000 -0.000000
0.000000 0.000000
0.000000 -0.000000
0.000000 0.000000
0.000000 -0.000000
0.000000 0.000000
0.000000 -0.000000
0.000000 0.000000
0.000000 -0.000000
0.000000 0.000000
0.000000 -0.000000
0.000000 0.000000
0.000000 -0.000000
0.000000 0.000000
0.000000 -0.000000
0.000000 0.000000
0.000000 -0.000000
0.000000 0.000000
0.000000 -0.000000
0.000000 0.000000
0.000000 -0.000000
0.000000 0.000000
0.000000 -0.000000
0.000000 0.000000
0.000000 -0.000000
0.000000 0.000000
0.000000 -0.000000
0.000000 0.000000
0.000000 -0.000000
0.000000 0.000000
0.000000 -0.000000
0.000000 0.000000
0.000000 -0.000000
0.000000 0.000000
0.000000 -0.000000
0.000000 0.000000
0.000000 -0.000000
0.000000 0.000000
0.000000 -0.000000
0.000000 0.000000
0.000000 -0.000000
0.000000 0.000000
0.000000 -0.000000
0.000000 0.000000
0.000000 -0.000000
0.000000 0.000000
0.000000 -0.000000
0.000000 0.000000
0.000000 -0.000000
0.000000 0.000000
0.000000 -0.000000
0.000000 0.000000
0.000000 -0.000000
0.000000 0.000000
0.000000 -0.000000
0.000000 0.000000
0.000000 -0.000000
0.000000 0.000000
0.000000 -0.000000
0.000000 0.000000
0.000000 -0.000000
0.000000 0.000000
0.000000 -0.000000
0.000000 0.000000
0.000000 -0.000000
0.000000 0.000000
0.000000 -0.000000
0.000000 0.000000
0.000000 -0.000000
0.000000 0.000000
0.000000 -0.000000
0.000000 0.000000
0.000000 -0.000000
0.000000 0.000000
0.000000 -0.000000
0.000000 0.000000
0.000000 -0.000000
0.000000 0.000000
0.000000 -0.000000
0.000000 0.000000
0.000000 -0.000000
0.000000 0.000000
0.000000 -0.000000
0.000000 0.000000
0.000000 -0.000000
0.000000 0.000000
0.000000 -0.000000
0.000000 0.000000
0.000000 -0.000000
0.000000 0.000000
0.000000 -0.000000
0.000000 0.000000
0.000000 -0.000000
0.000000 0.000000
0.000000 -0.000000
0.000000 0.000000
0.000000 -0.000000
0.000000 0.000000
0.000000 -0.000000
0.000000 0.000000
0.000000 -0.000000
0.000000 0.000000
0.000000 -0.000000
0.000000 0.000000
0.000000 -0.000000
0.000000 0.000000
0.000000 -0.000000
0.000000 0.000000
0.000000 -0.000000
0.000000 0.000000
0.000000 -0.000000
0.000000 0.000000
0.000000 -0.000000
0.000000 0.000000
0.000000 -0.000000
0.000000 0.000000
0.000000 -0.000000
0.000000 0.000000
0.000000 -0.000000
0.000000 0.000000
0.000000 -0.000000
0.000000 0.000000
0.000000 -0.000000
0.000000 0.000000
0.000000 -0.000000
0.000000 0.000000
0.000000 -0.000000
0.000000 0.000000
0.000000 -0.000000
0.000000 0.000000
0.000000 -0.000000
0.000000 0.000000
0.000000 -0.000000
0.000000 0.000000
0.000000 -0.000000
0.000000 0.000000
0.000000 -0.000000
0.000000 0.000000
0.000000 -0.000000
0.000000 0.000000
0.000000 -0.000000
0.000000 0.000000
0.000000 -0.000000
0.000000 0.000000
0.000000 -0.000000
0.000000 0.000000
0.000000 -0.000000
0.000000 0.000000
0.000000 -0.000000
0.000000 0.000000
0.000000 -0.000000
0.000000 0.000000
0.000000 -0.000000
0.000000 0.000000
0.000000 -0.000000
0.000000 0.000000
0.000000 -0.000000
0.000000 0.000000
0.000000 -0.000000
0.000000 0.000000
0.000000 -0.000000
0.000000 0.000000
0.000000 -0.000000
0.000000 0.000000
0.000000 -0.000000
0.000000 0.000000
0.000000 -0.000000
0.000000 0.000000
0.000000 -0.000000
0.000000 0.000000
0.000000 -0.000000
0.000000 0.000000
0.000000 -0.000000
0.000000 0.000000
0.000000 -0.000000
0.000000 0.000000
0.000000 -0.000000
0.000000 0.000000
0.000000 -0.000000
0.000000 0.000000
0.000000 -0.000000
0.000000 0.000000
0.000000 -0.000000
0.000000 0.000000
0.000000 -0.000000
0.000000 0.000000
0.000000 -0.000000
0.000000 0.000000
0.000000 -0.000000
0.000000 0.000000
0.000000 -0.000000
0.000000 0.000000
0.000000 -0.000000
0.000000 0.000000
0.000000 -0.000000
0.000000 0.000000
0.000000 -0.000000
0.000000 0.000000
0.000000 -0.000000
0.000000 0.000000
0.000000 -0.000000
0.000000 0.000000
0.000000 -0.000000
0.000000 0.000000
0.000000 -0.000000
0.000000 0.000000
0.000000 -0.000000
0.000000 0.000000
0.000000 -0.000000
0.000000 0.000000
0.000000 -0.000000
0.000000 0.000000
0.000000 -0.000000
0.000000 0.000000
0.000000 -0.000000
0.000000 0.000000
0.000000 -0.000000
0.000000 0.000000
0.000000 0.000000
0.000000 0.000000
0.000000 0.000000
0.000000 0.000000
0.000000 0.000000
0.000000 0.000000
0.000000 0.000000
0.000000 0.000000
0.000000 0.000000
0.000000 0.000000
0.000000 0.000000
0.000000 0.000000
0.000000 0.000000
0.000000 0.000000
0.000000 0.000000
0.000000 0.000000
0.000000 0.000000
0.000000 0.000000
0.000000 0.000000
0.000000 0.000000
0.000000 0.000000
0.000000 0.000000
0.000000 0.000000
0.000000 0.000000
0.000000 0.000000
0.000000 0.000000
0.000000 0.000000
0.000000 0.000000
0.000000 0.000000
0.000000 0.000000
0.123736 92.132317
