-0.085765 0.067371 -0.696539
1.107673 28.308941
1.133138 22.839991
1.153937 18.984310
1.170862 14.279315
1.183697 13.088738
1.196158 9.178941
1.197782 -7.590748
1.182610 -19.419449
1.160601 -26.161776
1.129497 -35.114354
1.091118 -41.622117
1.046459 -47.260129
0.997115 -51.064530
0.944847 -53.012396
0.891530 -53.324862
0.838446 -52.574224
0.786729 -50.466521
0.737947 -46.753632
0.693728 -41.242887
0.656538 -32.256514
0.630005 -20.708469
0.614232 -11.701253
0.605784 -5.078423
0.603945 1.184573
0.607609 5.809967
0.615098 9.001230
0.625312 11.240593
0.637319 12.633024
0.650461 13.599781
0.664174 13.450002
0.676708 11.262443
0.686237 7.624527
0.691730 3.259955
0.692607 -1.572688
0.688592 -6.374371
0.680134 -10.313284
0.668368 -12.983294
0.654497 -14.587167
0.639402 -15.478836
0.623654 -15.932238
0.607584 -16.150719
0.591357 -16.260910
0.575040 -16.339933
0.558644 -16.419451
0.542151 -16.550430
0.525504 -16.698779
0.508685 -16.951436
0.491518 -17.353149
0.475409 -13.364406
0.464923 -8.894549
0.455892 -9.548826
0.445357 -11.549475
0.432336 -14.850380
0.415085 -19.772523
0.393011 -23.918412
0.367507 -27.144396
0.338827 -29.891616
0.308021 -31.570388
0.275955 -32.256668
0.243605 -32.458179
0.210967 -32.677381
0.178344 -32.419241
0.146111 -32.020259
0.114377 -31.209190
0.083776 -29.960902
0.054235 -29.192221
0.025215 -28.777271
-0.003354 -28.293386
-0.031406 -27.743125
-0.058879 -27.142150
-0.085738 -26.520246
-0.111968 -25.884496
-0.137548 -25.217804
-0.162440 -24.509345
-0.186606 -23.770961
-0.210028 -23.026340
-0.232711 -22.300194
-0.254688 -21.620500
-0.276017 -21.007210
-0.296768 -20.464301
-0.317008 -19.985493
-0.336798 -19.561871
-0.356186 -19.182068
-0.375212 -18.837275
-0.393907 -18.517998
-0.412289 -18.211399
-0.430369 -17.913240
-0.448153 -17.619512
-0.465643 -17.326747
-0.482842 -17.036066
-0.499751 -16.748875
-0.516375 -16.466166
-0.532717 -16.186472
-0.548783 -15.915039
-0.564584 -15.657226
-0.580131 -15.407600
-0.595431 -15.162587
-0.610488 -14.920490
-0.625304 -14.684746
-0.639889 -14.457032
-0.654247 -14.230089
-0.668390 -14.038737
-0.682389 -13.956239
-0.696354 -13.946223
-0.710273 -13.827072
-0.723989 -13.564745
-0.737454 -13.374131
-0.750803 -13.302339
-0.764084 -13.227559
-0.777278 -13.133117
-0.790372 -13.024816
-0.803347 -12.896318
-0.816184 -12.748206
-0.828862 -12.579559
-0.841361 -12.388864
-0.853658 -12.178675
-0.865737 -11.951146
-0.877578 -11.704953
-0.889164 -11.439245
-0.900474 -11.157357
-0.911497 -10.864861
-0.922223 -10.563234
-0.932641 -10.250440
-0.942741 -9.928308
-0.952516 -9.601517
-0.961959 -9.263127
-0.971058 -8.917268
-0.979812 -8.571559
-0.988216 -8.217278
-0.996261 -7.857612
-1.003945 -7.491428
-1.011255 -7.113692
-1.018184 -6.729502
-1.024726 -6.339986
-1.030876 -5.948954
-1.036636 -5.559434
-1.042008 -5.174719
-1.046998 -4.795614
-1.051610 -4.421187
-1.055853 -4.058164
-1.059738 -3.705774
-1.063275 -3.363240
-1.066475 -3.031490
-1.069347 -2.709117
-1.071903 -2.399350
-1.074156 -2.106727
-1.076121 -1.815473
-1.077790 -1.519843
-1.079171 -1.245035
-1.080288 -0.988330
-1.081152 -0.740876
-1.081774 -0.502186
-1.082159 -0.268800
-1.082317 -0.048544
-1.082259 0.163546
-1.081991 0.371539
-1.081518 0.572018
-1.080847 0.767899
-1.079982 0.958860
-1.078929 1.144417
-1.077692 1.326425
-1.076275 1.503466
-1.074684 1.675882
-1.072921 1.845624
-1.070990 2.013163
-1.068893 2.174068
-1.066640 2.328254
-1.064232 2.481822
-1.061672 2.631628
-1.058964 2.779774
-1.056107 2.928575
-1.053101 3.076729
-1.049946 3.227470
-1.046640 3.378732
-1.043182 3.529336
-1.039573 3.684415
-1.035807 3.837439
-1.031892 3.985224
-1.027824 4.146782
-1.023585 4.321927
-1.019172 4.496338
-1.014584 4.670493
-1.009823 4.838703
-1.004901 4.993934
-0.999824 5.152474
-0.994581 5.326055
-0.989157 5.514231
-0.983535 5.719676
-0.977699 5.944299
-0.971631 6.181685
-0.965322 6.423173
-0.958769 6.671183
-0.951968 6.914198
-0.944928 7.153165
-0.937648 7.391501
-0.930135 7.615635
-0.922406 7.825090
-0.914474 8.022299
-0.906352 8.201565
-0.898060 8.363472
-0.889613 8.509413
-0.881030 8.636366
-0.872329 8.746943
-0.863524 8.842211
-0.854632 8.922354
-0.845667 8.986767
-0.836645 9.037491
-0.827578 9.074527
-0.818482 9.098621
-0.809366 9.113661
-0.800241 9.115230
-0.791122 9.102707
-0.782019 9.084957
-0.772936 9.059177
-0.763886 9.020753
-0.754879 8.975346
-0.745920 8.924461
-0.737015 8.864184
-0.728176 8.796661
-0.719406 8.723888
-0.710713 8.644024
-0.702102 8.560263
-0.693577 8.473167
-0.685141 8.380819
-0.676800 8.283002
-0.668559 8.183214
-0.660418 8.081881
-0.652381 7.974155
-0.644455 7.862592
-0.636641 7.748770
-0.628942 7.632878
-0.621361 7.511994
-0.613904 7.387917
-0.606571 7.263558
-0.599364 7.134467
-0.592289 7.000945
-0.585349 6.866124
-0.578544 6.729570
-0.571878 6.588823
-0.565354 6.445051
-0.558975 6.299515
-0.552743 6.151422
-0.546661 6.000618
-0.540730 5.847927
-0.534954 5.692899
-0.529333 5.538586
-0.523867 5.381115
-0.518561 5.222029
-0.513412 5.063963
-0.508424 4.902682
-0.503597 4.739438
-0.498935 4.577341
-0.494434 4.414121
-0.490102 4.238644
-0.485952 4.052455
-0.481989 3.866509
-0.478212 3.678503
-0.474624 3.492522
-0.471218 3.311414
-0.467994 3.132077
-0.464946 2.957605
-0.462072 2.784829
-0.459369 2.616618
-0.456833 2.449672
-0.454465 2.283242
-0.452262 2.116731
-0.450232 1.934637
-0.448406 1.700470
-0.446855 1.386175
-0.445653 1.006495
-0.444853 0.588468
-0.444477 0.162452
-0.444521 -0.244541
-0.444957 -0.620713
-0.445749 -0.953711
-0.446850 -1.239663
-0.448219 -1.488283
-0.449817 -1.697403
-0.451606 -1.874001
-0.453561 -2.028591
-0.455662 -2.166211
-0.457895 -2.293691
-0.460252 -2.417002
-0.462734 -2.542340
-0.465342 -2.668998
-0.468079 -2.799576
-0.470950 -2.938114
-0.473964 -3.087646
-0.477133 -3.242913
-0.480458 -3.402725
-0.483948 -3.571293
-0.487610 -3.744938
-0.491447 -3.923956
-0.495465 -4.102730
-0.499662 -4.283837
-0.504043 -4.469038
-0.508608 -4.652586
-0.513358 -4.838610
-0.518294 -5.019927
-0.523408 -5.200038
-0.528704 -5.380007
-0.534178 -5.557073
-0.539834 -5.747082
-0.545683 -5.936334
-0.551716 -6.119848
-0.557936 -6.305758
-0.564339 -6.487294
-0.570923 -6.666154
-0.577683 -6.840019
-0.584614 -7.006762
-0.591707 -7.163649
-0.598952 -7.311047
-0.606340 -7.446976
-0.613859 -7.575418
-0.621503 -7.694950
-0.629260 -7.803710
-0.637125 -7.908425
-0.645091 -8.006365
-0.653152 -8.098406
-0.661303 -8.186746
-0.669540 -8.270610
-0.677860 -8.354355
-0.686265 -8.436416
-0.694749 -8.516126
-0.703315 -8.596858
-0.711959 -8.673321
-0.720678 -8.748768
-0.729474 -8.823887
-0.738343 -8.896787
-0.747284 -8.966877
-0.756293 -9.032324
-0.765367 -9.097321
-0.774508 -9.167855
-0.783721 -9.238076
-0.793002 -9.306941
-0.802353 -9.374045
-0.811767 -9.435670
-0.821242 -9.495633
-0.830777 -9.553620
-0.840368 -9.609195
-0.850014 -9.663254
-0.859713 -9.713661
-0.869458 -9.757735
-0.879247 -9.798903
-0.889074 -9.834730
-0.898934 -9.864321
-0.908823 -9.894353
-0.918741 -9.920703
-0.928682 -9.942306
-0.938645 -9.963262
-0.948627 -9.978002
-0.958621 -9.991274
-0.968637 -10.026432
-0.978707 -10.101062
-0.988871 -10.212699
-0.999159 -10.343038
-1.009577 -10.471165
-1.020116 -10.580209
-1.030752 -10.667068
-1.041463 -10.728325
-1.052220 -10.760967
-1.062998 -10.770098
-1.073774 -10.755759
-1.084526 -10.725056
-1.095243 -10.685994
-1.105916 -10.637412
-1.116535 -10.578100
-1.127091 -10.512138
-1.137579 -10.440267
-1.147990 -10.359886
-1.158319 -10.279495
-1.168568 -10.193113
-1.178722 -10.096630
-1.188780 -9.998080
-1.198736 -9.890776
-1.208579 -9.776382
-1.218308 -9.660876
-1.227918 -9.538675
-1.237403 -9.413651
-1.246764 -9.288470
-1.255997 -9.159115
-1.265101 -9.030200
-1.274076 -8.902773
-1.282924 -8.773418
-1.291641 -8.644152
-1.300229 -8.515276
-1.308688 -8.385903
-1.317018 -8.256602
-1.325217 -8.125153
-1.333284 -7.993280
-1.341219 -7.860272
-1.349020 -7.725465
-1.356685 -7.588219
-1.364212 -7.451481
-1.371602 -7.311814
-1.378850 -7.169921
-1.385957 -7.030125
-1.392922 -6.885719
-1.399742 -6.741016
-1.406417 -6.595072
-1.412944 -6.446505
-1.419324 -6.299800
-1.425556 -6.152054
-1.431640 -6.002245
-1.437572 -5.850705
-1.443354 -5.701365
-1.448986 -5.552415
-1.454468 -5.400416
-1.459798 -5.246882
-1.464973 -5.093025
-1.469994 -4.940170
-1.474862 -4.786168
-1.479575 -4.629420
-1.484131 -4.472898
-1.488529 -4.313878
-1.492766 -4.152305
-1.496842 -3.990355
-1.500753 -3.823472
-1.504497 -3.658461
-1.508077 -3.491300
-1.511485 -3.317693
-1.514719 -3.145738
-1.517782 -2.971992
-1.520668 -2.792903
-1.523373 -2.613593
-1.525900 -2.433403
-1.528243 -2.249463
-1.530403 -2.066484
-1.532380 -1.881426
-1.534169 -1.692910
-1.535769 -1.504771
-1.537182 -1.318929
-1.538409 -1.129795
-1.539444 -0.940372
-1.540292 -0.752238
-1.540949 -0.562581
-1.541419 -0.377311
-1.541704 -0.188739
-1.541797 0.000209
-1.541704 0.186282
-1.541424 0.372601
-1.540959 0.557428
-1.540308 0.741877
-1.539473 0.926890
-1.538453 1.110512
-1.537250 1.293404
-1.535863 1.477384
-1.534293 1.659318
-1.532541 1.841001
-1.530607 2.023327
-1.528491 2.205530
-1.526192 2.386792
-1.523713 2.567838
-1.521051 2.748756
-1.518210 2.929115
-1.515187 3.110187
-1.511984 3.289072
-1.508602 3.468656
-1.505039 3.648809
-1.501298 3.826090
-1.497380 4.002719
-1.493285 4.179682
-1.489013 4.355175
-1.484567 4.527826
-1.479948 4.701173
-1.475156 4.871944
-1.470194 5.042565
-1.465062 5.209086
-1.459766 5.373095
-1.454304 5.538793
-1.448679 5.700087
-1.442893 5.860664
-1.436947 6.017533
-1.430847 6.172084
-1.424591 6.325772
-1.418183 6.476836
-1.411625 6.625539
-1.404920 6.770124
-1.398071 6.914846
-1.391077 7.058418
-1.383941 7.198868
-1.376666 7.336507
-1.369254 7.472454
-1.361706 7.607225
-1.354026 7.737646
-1.346216 7.866965
-1.338277 7.995109
-1.330211 8.119866
-1.322022 8.241781
-1.313712 8.359940
-1.305285 8.477540
-1.296742 8.588846
-1.288092 8.696427
-1.279332 8.802842
-1.270471 8.902226
-1.261512 8.996515
-1.252459 9.092715
-1.243310 9.181685
-1.234098 9.209563
-1.224858 9.281566
-1.215494 9.419631
-1.206022 9.491612
-1.196517 9.488727
-1.187057 9.390658
-1.177730 9.253359
-1.168565 9.016269
-1.159767 8.514230
-1.151513 8.034246
-1.143634 7.699513
-1.136107 7.339693
-1.128947 6.958753
-1.122189 6.535347
-1.115872 6.087218
-1.110003 5.637512
-1.104586 5.185851
-1.099614 4.754297
-1.095059 4.351070
-1.090897 3.968659
-1.087102 3.620856
-1.083631 3.323804
-1.080431 3.077356
-1.077455 2.874871
-1.074658 2.724980
-1.071982 2.629159
-1.069379 2.578974
-1.066799 2.587070
-1.064184 2.640397
-1.061499 2.734586
-1.058691 2.884155
-1.055708 3.085310
-1.052496 3.341871
-1.049000 3.650384
-1.045172 4.006761
-1.040963 4.410922
-1.036323 4.868857
-1.031197 5.382295
-1.025531 5.947674
-1.019270 6.572848
-1.012352 7.257921
-1.004719 8.003970
-0.996307 8.812942
-0.987052 9.692946
-0.976877 10.647591
-0.965713 11.669424
-0.953493 12.755873
-0.940157 13.897411
-0.925652 15.091717
-0.909931 16.324805
-0.892967 17.567940
-0.874752 18.833026
-0.855246 20.149850
-0.834395 21.516852
-0.812151 22.937453
-0.788455 24.416307
-0.763254 25.941664
-0.736507 27.504722
-0.708178 29.101234
-0.678241 30.714269
-0.646685 32.338083
-0.613497 33.972512
-0.578673 35.603194
-0.542222 37.224899
-0.504153 38.832768
-0.464485 40.420288
-0.423242 41.976539
-0.380462 43.492078
-0.336187 44.960384
-0.290471 46.369801
-0.243377 47.712443
-0.194977 48.975471
-0.145358 50.147346
-0.094615 51.219068
-0.042855 52.178391
0.009805 53.015695
0.063237 53.717335
0.117302 54.281409
0.171848 54.664173
0.226714 54.972116
0.281767 54.874746
0.336653 55.016198
0.392408 56.651700
0.450333 59.075798
0.510673 61.484855
0.573409 63.841557
0.638278 65.580259
0.703981 65.162160
0.767886 62.206822
0.827959 57.573167
0.882820 51.958442
0.931697 45.495481
0.974438 40.637311
1.011171 30.140316
1.042269 42.090105
1.068338 -27.171651
1.089996 209.634337
1.107794 -693.115983
0.000000 -703.887394
0.000000 188.606059
0.000000 -50.536841
0.000000 13.541306
0.000000 -3.628382
0.000000 0.972222
0.000000 -0.260506
0.000000 0.069802
0.000000 -0.018703
0.000000 0.005012
0.000000 -0.001343
0.000000 0.000360
0.000000 -0.000096
0.000000 0.000026
0.000000 -0.000007
0.000000 0.000002
0.000000 -0.000000
0.000000 0.000000
0.000000 -0.000000
0.000000 0.000000
0.000000 -0.000000
0.000000 0.000000
0.000000 -0.000000
0.000000 0.000000
0.000000 -0.000000
0.000000 0.000000
0.000000 -0.000000
0.000000 0.000000
0.000000 -0.000000
0.000000 0.000000
0.000000 -0.000000
0.000000 0.000000
0.000000 -0.000000
0.000000 0.000000
0.000000 -0.000000
0.000000 0.000000
0.000000 -0.000000
0.000000 0.000000
0.000000 -0.000000
0.000000 0.000000
0.000000 -0.000000
0.000000 0.000000
0.000000 -0.000000
0.000000 0.000000
0.000000 -0.000000
0.000000 0.000000
0.000000 -0.000000
0.000000 0.000000
0.000000 -0.000000
0.000000 0.000000
0.000000 -0.000000
0.000000 0.000000
0.000000 -0.000000
0.000000 0.000000
0.000000 -0.000000
0.000000 0.000000
0.000000 -0.000000
0.000000 0.000000
0.000000 -0.000000
0.000000 0.000000
0.000000 -0.000000
0.000000 0.000000
0.000000 -0.000000
0.000000 0.000000
0.000000 -0.000000
0.000000 0.000000
0.000000 -0.000000
0.000000 0.000000
0.000000 -0.000000
0.000000 0.000000
0.000000 -0.000000
0.000000 0.000000
0.000000 -0.000000
0.000000 0.000000
0.000000 -0.000000
0.000000 0.000000
0.000000 -0.000000
0.000000 0.000000
0.000000 -0.000000
0.000000 0.000000
0.000000 -0.000000
0.000000 0.000000
0.000000 -0.000000
0.000000 0.000000
0.000000 -0.000000
0.000000 0.000000
0.000000 -0.000000
0.000000 0.000000
0.000000 -0.000000
0.000000 0.000000
0.000000 -0.000000
0.000000 0.000000
0.000000 -0.000000
0.000000 0.000000
0.000000 -0.000000
0.000000 0.000000
0.000000 -0.000000
0.000000 0.000000
0.000000 -0.000000
0.000000 0.000000
0.000000 -0.000000
0.000000 0.000000
0.000000 -0.000000
0.000000 0.000000
0.000000 -0.000000
0.000000 0.000000
0.000000 -0.000000
0.000000 0.000000
0.000000 -0.000000
0.000000 0.000000
0.000000 -0.000000
0.000000 0.000000
0.000000 -0.000000
0.000000 0.000000
0.000000 -0.000000
0.000000 0.000000
0.000000 -0.000000
0.000000 0.000000
0.000000 -0.000000
0.000000 0.000000
0.000000 -0.000000
0.000000 0.000000
0.000000 -0.000000
0.000000 0.000000
0.000000 -0.000000
0.000000 0.000000
0.000000 -0.000000
0.000000 0.000000
0.000000 -0.000000
0.000000 0.000000
0.000000 -0.000000
0.000000 0.000000
0.000000 -0.000000
0.000000 0.000000
0.000000 -0.000000
0.000000 0.000000
0.000000 -0.000000
0.000000 0.000000
0.000000 -0.000000
0.000000 0.000000
0.000000 -0.000000
0.000000 0.000000
0.000000 -0.000000
0.000000 0.000000
0.000000 -0.000000
0.000000 0.000000
0.000000 -0.000000
0.000000 0.000000
0.000000 -0.000000
0.000000 0.000000
0.000000 -0.000000
0.000000 0.000000
0.000000 -0.000000
0.000000 0.000000
0.000000 -0.000000
0.000000 0.000000
0.000000 -0.000000
0.000000 0.000000
0.000000 -0.000000
0.000000 0.000000
0.000000 -0.000000
0.000000 0.000000
0.000000 -0.000000
0.000000 0.000000
0.000000 -0.000000
0.000000 0.000000
0.000000 -0.000000
0.000000 0.000000
0.000000 -0.000000
0.000000 0.000000
0.000000 -0.000000
0.000000 0.000000
0.000000 -0.000000
0.000000 0.000000
0.000000 -0.000000
0.000000 0.000000
0.000000 -0.000000
0.000000 0.000000
0.000000 -0.000000
0.000000 0.000000
0.000000 -0.000000
0.000000 0.000000
0.000000 -0.000000
0.000000 0.000000
0.000000 -0.000000
0.000000 0.000000
0.000000 -0.000000
0.000000 0.000000
0.000000 -0.000000
0.000000 0.000000
0.000000 -0.000000
0.000000 0.000000
0.000000 -0.000000
0.000000 0.000000
0.000000 -0.000000
0.000000 0.000000
0.000000 -0.000000
0.000000 0.000000
0.000000 -0.000000
0.000000 0.000000
0.000000 -0.000000
0.000000 0.000000
0.000000 -0.000000
0.000000 0.000000
0.000000 -0.000000
0.000000 0.000000
0.000000 -0.000000
0.000000 0.000000
0.000000 -0.000000
0.000000 0.000000
0.000000 -0.000000
0.000000 0.000000
0.000000 -0.000000
0.000000 0.000000
0.000000 -0.000000
0.000000 0.000000
0.000000 -0.000000
0.000000 0.000000
0.000000 -0.000000
0.000000 0.000000
0.000000 -0.000000
0.000000 0.000000
0.000000 -0.000000
0.000000 0.000000
0.000000 -0.000000
0.000000 0.000000
0.000000 -0.000000
0.000000 0.000000
0.000000 -0.000000
0.000000 0.000000
0.000000 -0.000000
0.000000 0.000000
0.000000 -0.000000
0.000000 0.000000
0.000000 -0.000000
0.000000 0.000000
0.000000 -0.000000
0.000000 0.000000
0.000000 -0.000000
0.000000 0.000000
0.000000 -0.000000
0.000000 0.000000
0.000000 -0.000000
0.000000 0.000000
0.000000 -0.000000
0.000000 0.000000
0.000000 -0.000000
0.000000 0.000000
0.000000 -0.000000
0.000000 0.000000
0.000000 -0.000000
0.000000 0.000000
0.000000 -0.000000
0.000000 0.000000
0.000000 -0.000000
0.000000 0.000000
0.000000 -0.000000
0.000000 0.000000
0.000000 -0.000000
0.000000 0.000000
0.000000 -0.000000
0.000000 0.000000
0.000000 -0.000000
0.000000 0.000000
0.000000 -0.000000
0.000000 0.000000
0.000000 -0.000000
0.000000 0.000000
0.000000 -0.000000
0.000000 0.000000
0.000000 -0.000000
0.000000 0.000000
0.000000 -0.000000
0.000000 0.000000
0.000000 -0.000000
0.000000 0.000000
0.000000 -0.000000
0.000000 0.000000
0.000000 -0.000000
0.000000 0.000000
0.000000 -0.000000
0.000000 0.000000
0.000000 -0.000000
0.000000 0.000000
0.000000 -0.000000
0.000000 0.000000
0.000000 -0.000000
0.000000 0.000000
0.000000 -0.000000
0.000000 0.000000
0.000000 -0.000000
0.000000 0.000000
0.000000 -0.000000
0.000000 0.000000
0.000000 -0.000000
0.000000 0.000000
0.000000 -0.000000
0.000000 0.000000
0.000000 -0.000000
0.000000 0.000000
0.000000 -0.000000
0.000000 0.000000
0.000000 -0.000000
0.000000 0.000000
0.000000 -0.000000
0.000000 0.000000
0.000000 -0.000000
0.000000 0.000000
0.000000 -0.000000
0.000000 0.000000
0.000000 -0.000000
0.000000 0.000000
0.000000 -0.000000
0.000000 0.000000
0.000000 -0.000000
0.000000 0.000000
0.000000 -0.000000
0.000000 0.000000
0.000000 -0.000000
0.000000 0.000000
0.000000 -0.000000
0.000000 0.000000
0.000000 -0.000000
0.000000 0.000000
0.000000 -0.000000
0.000000 0.000000
0.000000 -0.000000
0.000000 0.000000
0.000000 -0.000000
0.000000 0.000000
0.000000 -0.000000
0.000000 0.000000
0.000000 -0.000000
0.000000 0.000000
0.000000 -0.000000
0.000000 0.000000
0.000000 -0.000000
0.000000 0.000000
0.000000 -0.000000
0.000000 0.000000
0.000000 -0.000000
0.000000 0.000000
0.000000 -0.000000
0.000000 0.000000
0.000000 -0.000000
0.000000 0.000000
0.000000 -0.000000
0.000000 0.000000
0.000000 -0.000000
0.000000 0.000000
0.000000 -0.000000
0.000000 0.000000
0.000000 -0.000000
0.000000 0.000000
0.000000 -0.000000
0.000000 0.000000
0.000000 -0.000000
0.000000 0.000000
0.000000 -0.000000
0.000000 0.000000
0.000000 -0.000000
0.000000 0.000000
0.000000 -0.000000
0.000000 0.000000
0.000000 -0.000000
0.000000 0.000000
0.000000 -0.000000
0.000000 0.000000
0.000000 -0.000000
0.000000 0.000000
0.000000 -0.000000
0.000000 0.000000
0.000000 -0.000000
0.000000 0.000000
0.000000 -0.000000
0.000000 0.000000
0.000000 -0.000000
0.000000 0.000000
0.000000 -0.000000
0.000000 0.000000
0.000000 -0.000000
0.000000 0.000000
0.000000 -0.000000
0.000000 0.000000
0.000000 -0.000000
0.000000 0.000000
0.000000 -0.000000
0.000000 0.000000
0.000000 -0.000000
0.000000 0.000000
0.000000 -0.000000
0.000000 0.000000
0.000000 -0.000000
0.000000 0.000000
0.000000 -0.000000
0.000000 0.000000
0.000000 -0.000000
0.000000 0.000000
0.000000 -0.000000
0.000000 0.000000
0.000000 -0.000000
0.000000 0.000000
0.000000 -0.000000
1.107673 28.308941
