0.080778 0.076852 0.000015
-0.342336 45.214568
-0.279404 77.120725
-0.194753 88.608519
-0.105441 89.810299
-0.014844 91.338035
0.077511 93.145236
0.171665 95.048228
0.267901 97.262375
0.366449 99.669049
0.467484 102.210132
0.571120 104.888626
0.677508 107.677024
0.786669 110.406271
0.898594 113.292773
1.013226 115.413114
1.130292 119.455758
1.250781 118.715143
1.357815 87.569458
1.420384 39.308485
1.445788 18.850025
1.463109 13.337714
1.472031 6.451033
1.477663 4.477132
1.480919 2.276552
1.482480 0.852028
1.482325 -1.470348
1.479092 -5.125008
1.471836 -9.464723
1.460023 -14.165889
1.443469 -18.887986
1.422297 -23.347144
1.396892 -27.313955
1.367825 -30.649863
1.335762 -33.294069
1.301388 -35.283017
1.265309 -36.720211
1.228015 -37.735225
1.189880 -38.399285
1.151252 -38.726133
1.112450 -38.755236
1.073755 -38.512817
1.035437 -38.000704
0.997760 -37.241174
0.960943 -36.294827
0.925141 -35.219864
0.890464 -34.049950
0.856996 -32.810805
0.824793 -31.523285
0.793896 -30.204863
0.764329 -28.867637
0.736107 -27.517607
0.709269 -26.078280
0.683925 -24.559415
0.660162 -22.857727
0.638211 -21.014392
0.618040 -19.324011
0.599478 -17.774386
0.582384 -16.439324
0.566456 -15.435312
0.551377 -14.747574
0.536816 -14.405080
0.522404 -14.464459
0.507727 -14.916368
0.492444 -15.657770
0.476317 -16.588865
0.459211 -17.588588
0.441118 -18.546758
0.422119 -19.387262
0.402359 -20.064586
0.382009 -20.563996
0.361252 -20.878034
0.340268 -21.022315
0.319214 -21.019355
0.298230 -20.887813
0.277431 -20.654835
0.256905 -20.344789
0.236720 -19.977111
0.216923 -19.572265
0.197544 -19.142240
0.178606 -18.695067
0.160120 -18.238113
0.142096 -17.773946
0.124539 -17.302057
0.107460 -16.821313
0.090867 -16.329511
0.074773 -15.822085
0.059197 -15.295587
0.044158 -14.748040
0.029678 -14.180097
0.015775 -13.596529
0.002460 -13.005740
-0.010263 -12.417170
-0.022402 -11.838825
-0.033969 -11.274856
-0.044980 -10.728685
-0.055454 -10.201345
-0.065410 -9.692199
-0.074864 -9.200982
-0.083836 -8.727088
-0.092342 -8.270694
-0.100400 -7.832427
-0.108028 -7.412213
-0.115245 -7.010546
-0.122070 -6.627917
-0.128520 -6.263000
-0.134614 -5.915022
-0.140368 -5.583554
-0.145797 -5.266451
-0.150915 -4.961888
-0.155734 -4.668158
-0.160264 -4.384104
-0.164514 -4.108699
-0.168492 -3.840800
-0.172206 -3.580209
-0.175662 -3.326361
-0.178868 -3.079471
-0.181830 -2.839606
-0.184555 -2.607421
-0.187052 -2.383268
-0.189329 -2.167632
-0.191395 -1.961066
-0.193258 -1.763165
-0.194928 -1.573864
-0.196412 -1.393123
-0.197719 -1.220474
-0.198858 -1.056005
-0.199836 -0.900300
-0.200664 -0.754668
-0.201352 -0.621669
-0.201913 -0.502967
-0.202363 -0.397980
-0.202713 -0.303544
-0.202973 -0.217207
-0.203151 -0.139318
-0.203255 -0.070481
-0.203295 -0.009594
-0.203277 0.045338
-0.203206 0.095690
-0.203086 0.142676
-0.202921 0.186189
-0.202715 0.226097
-0.202469 0.263348
-0.202188 0.298801
-0.201872 0.333215
-0.201521 0.366951
-0.201137 0.400501
-0.200719 0.433790
-0.200269 0.467037
-0.199784 0.500584
-0.199266 0.534205
-0.198715 0.568207
-0.198129 0.602521
-0.197508 0.637464
-0.196852 0.673239
-0.196160 0.709982
-0.195430 0.747815
-0.194663 0.786115
-0.193856 0.825556
-0.193010 0.866185
-0.192122 0.908295
-0.191191 0.952382
-0.190215 0.997974
-0.189192 1.044851
-0.188122 1.092864
-0.187004 1.142471
-0.185835 1.193824
-0.184613 1.247016
-0.183337 1.302174
-0.182006 1.358971
-0.180616 1.417377
-0.179168 1.476977
-0.177659 1.537666
-0.176089 1.599421
-0.174457 1.661568
-0.172762 1.723993
-0.171005 1.786358
-0.169186 1.848196
-0.167305 1.909129
-0.165364 1.968821
-0.163364 2.026883
-0.161307 2.082700
-0.159196 2.136533
-0.157031 2.187910
-0.154816 2.235981
-0.152555 2.281500
-0.150250 2.323546
-0.147905 2.362128
-0.145522 2.397306
-0.143107 2.428052
-0.140662 2.455088
-0.138193 2.477623
-0.135704 2.495651
-0.133199 2.508130
-0.130685 2.512982
-0.128170 2.510879
-0.125660 2.502855
-0.123161 2.488969
-0.120679 2.468667
-0.118221 2.442591
-0.115791 2.410263
-0.113398 2.371451
-0.111046 2.327292
-0.108740 2.277328
-0.106488 2.222150
-0.104293 2.162694
-0.102160 2.098997
-0.100093 2.029382
-0.098099 1.952954
-0.096184 1.873000
-0.094350 1.791215
-0.092599 1.707331
-0.090932 1.622059
-0.089352 1.536039
-0.087858 1.449139
-0.086452 1.359130
-0.085138 1.266478
-0.083916 1.174278
-0.082786 1.083115
-0.081747 0.992570
-0.080799 0.903057
-0.079939 0.814870
-0.079167 0.727834
-0.078481 0.642713
-0.077880 0.559479
-0.077361 0.477873
-0.076923 0.395276
-0.076569 0.312221
-0.076297 0.231903
-0.076104 0.153984
-0.075988 0.078640
-0.075947 0.003545
-0.075981 -0.071767
-0.076090 -0.145834
-0.076273 -0.219558
-0.076529 -0.291141
-0.076857 -0.367219
-0.077270 -0.460543
-0.077782 -0.560952
-0.078393 -0.662676
-0.079109 -0.766996
-0.079927 -0.865736
-0.080841 -0.959510
-0.081847 -1.051643
-0.082946 -1.142276
-0.084134 -1.230612
-0.085408 -1.315485
-0.086767 -1.400927
-0.088213 -1.486211
-0.089741 -1.565892
-0.091348 -1.645232
-0.093034 -1.722942
-0.094796 -1.796136
-0.096629 -1.866724
-0.098531 -1.932916
-0.100497 -1.995108
-0.102524 -2.052510
-0.104604 -2.103736
-0.106734 -2.149341
-0.108906 -2.190377
-0.111118 -2.227856
-0.113365 -2.261010
-0.115642 -2.288872
-0.117945 -2.309864
-0.120264 -2.323425
-0.122594 -2.329008
-0.124924 -2.327259
-0.127251 -2.318922
-0.129564 -2.302687
-0.131858 -2.277492
-0.134121 -2.242520
-0.136343 -2.196533
-0.138514 -2.138134
-0.140620 -2.067742
-0.142650 -1.987554
-0.144597 -1.901320
-0.146457 -1.815573
-0.148234 -1.737522
-0.149940 -1.673656
-0.151591 -1.626881
-0.153203 -1.597074
-0.154794 -1.584851
-0.156382 -1.591592
-0.157995 -1.643415
-0.159677 -1.708323
-0.161437 -1.838773
-0.163395 -2.079908
-0.165593 -2.296019
-0.167974 -2.460868
-0.170504 -2.578275
-0.173165 -2.782382
-0.176097 -3.055273
-0.179245 -3.219279
-0.182519 -3.315384
-0.185871 -3.375463
-0.189266 -3.403335
-0.192679 -3.416211
-0.196105 -3.427124
-0.199535 -3.423365
-0.202953 -3.402182
-0.206342 -3.367776
-0.209690 -3.319145
-0.212983 -3.259272
-0.216218 -3.208553
-0.219402 -3.144856
-0.222529 -3.124827
-0.225675 -3.153793
-0.228819 -3.111475
-0.231881 -3.000510
-0.234817 -2.863678
-0.237611 -2.718858
-0.240250 -2.543662
-0.242688 -2.322076
-0.244887 -2.064364
-0.246809 -1.770092
-0.248417 -1.434704
-0.249679 -1.093834
-0.250616 -0.778818
-0.251227 -0.429812
-0.251455 -0.018218
-0.251279 0.346969
-0.250797 0.602026
-0.250089 0.812072
-0.249213 0.897933
-0.248379 0.721559
-0.247881 0.209386
-0.248030 -0.512946
-0.248944 -1.344519
-0.250798 -2.406523
-0.253797 -3.574224
-0.257939 -4.697584
-0.263173 -5.734705
-0.269376 -6.639622
-0.276424 -7.419637
-0.284171 -8.021206
-0.292422 -8.443149
-0.301032 -8.739702
-0.309886 -8.937453
-0.318901 -9.063815
-0.328015 -9.138249
-0.337183 -9.176112
-0.346377 -9.188390
-0.355573 -9.183242
-0.364758 -9.166075
-0.373921 -9.141408
-0.383057 -9.112154
-0.392162 -9.079776
-0.401234 -9.046183
-0.410273 -9.012266
-0.419277 -8.978786
-0.428249 -8.946081
-0.437188 -8.914442
-0.446096 -8.883853
-0.454974 -8.854666
-0.463823 -8.827252
-0.472646 -8.800843
-0.481443 -8.775990
-0.490216 -8.752845
-0.498967 -8.730429
-0.507695 -8.708905
-0.516402 -8.688491
-0.525090 -8.669020
-0.533758 -8.649950
-0.542407 -8.630744
-0.551036 -8.611453
-0.559647 -8.591375
-0.568236 -8.570458
-0.576804 -8.548487
-0.585350 -8.525109
-0.593871 -8.500196
-0.602366 -8.473075
-0.610833 -8.443734
-0.619270 -8.411884
-0.627673 -8.377381
-0.636041 -8.340126
-0.644369 -8.300021
-0.652656 -8.257005
-0.660899 -8.211350
-0.669095 -8.163224
-0.677241 -8.112394
-0.685335 -8.059189
-0.693374 -8.003505
-0.701357 -7.945480
-0.709281 -7.885448
-0.717143 -7.823301
-0.724942 -7.759117
-0.732676 -7.692969
-0.740343 -7.625088
-0.747941 -7.555329
-0.755468 -7.483798
-0.762923 -7.410456
-0.770303 -7.335027
-0.777607 -7.258060
-0.784833 -7.179410
-0.791980 -7.098619
-0.799044 -7.016043
-0.806025 -6.931556
-0.812920 -6.845181
-0.819729 -6.756982
-0.826447 -6.666737
-0.833075 -6.574477
-0.839609 -6.480258
-0.846048 -6.384366
-0.852390 -6.286216
-0.858632 -6.186286
-0.864774 -6.084446
-0.870812 -5.980351
-0.876746 -5.874666
-0.882573 -5.766990
-0.888291 -5.657452
-0.893898 -5.545987
-0.899393 -5.432391
-0.904774 -5.317213
-0.910038 -5.200181
-0.915184 -5.081109
-0.920210 -4.960401
-0.925114 -4.837786
-0.929894 -4.713283
-0.934549 -4.587130
-0.939077 -4.459137
-0.943476 -4.329317
-0.947744 -4.197775
-0.951879 -4.064487
-0.955880 -3.929504
-0.959745 -3.792795
-0.963473 -3.654303
-0.967061 -3.514446
-0.970508 -3.372328
-0.973812 -3.229559
-0.976974 -3.088478
-0.979995 -2.946212
-0.982872 -2.801607
-0.985603 -2.655241
-0.988187 -2.506957
-0.990621 -2.356936
-0.992905 -2.205032
-0.995035 -2.051400
-0.997011 -1.895980
-0.998831 -1.739305
-1.000492 -1.580226
-1.001994 -1.420389
-1.003338 -1.264856
-1.004527 -1.112606
-1.005566 -0.963376
-1.006457 -0.816329
-1.007202 -0.673268
-1.007808 -0.539625
-1.008283 -0.407985
-1.008623 -0.271358
-1.008824 -0.129397
-1.008880 0.017952
-1.008786 0.172137
-1.008535 0.326544
-1.008135 0.471883
-1.007592 0.614366
-1.006904 0.759652
-1.006069 0.911287
-1.005078 1.069383
-1.003927 1.229942
-1.002616 1.389924
-1.001144 1.551471
-0.999507 1.720815
-0.997696 1.898215
-0.995704 2.082663
-0.993524 2.273679
-0.991150 2.470592
-0.988577 2.672779
-0.985798 2.879518
-0.982810 3.090065
-0.979611 3.303928
-0.976195 3.520357
-0.972562 3.738652
-0.968710 3.958244
-0.964638 4.178516
-0.960345 4.398880
-0.955831 4.618886
-0.951098 4.837966
-0.946146 5.055560
-0.940977 5.271467
-0.935593 5.485250
-0.929996 5.696706
-0.924189 5.905706
-0.918174 6.111916
-0.911954 6.315595
-0.905531 6.516612
-0.898909 6.714807
-0.892089 6.910413
-0.885075 7.103593
-0.877868 7.294384
-0.870472 7.482762
-0.862889 7.669123
-0.855119 7.853203
-0.847167 8.035305
-0.839033 8.215583
-0.830720 8.394050
-0.822229 8.570074
-0.813565 8.740531
-0.804731 8.910796
-0.795717 9.106911
-0.786493 9.319781
-0.777052 9.551810
-0.767353 9.834372
-0.757351 10.155335
-0.747015 10.497766
-0.736334 10.840474
-0.725318 11.168168
-0.713983 11.471928
-0.702366 11.728828
-0.690520 11.933613
-0.678492 12.089338
-0.666344 12.163104
-0.654178 12.126858
-0.642099 11.993217
-0.630193 11.782704
-0.618530 11.512141
-0.607165 11.184796
-0.596150 10.819177
-0.585508 10.443184
-0.575249 10.050134
-0.565398 9.626652
-0.555981 9.187649
-0.546996 8.771847
-0.538408 8.391292
-0.530186 8.044904
-0.522290 7.735811
-0.514686 7.465106
-0.507331 7.236798
-0.500183 7.051281
-0.493200 6.906842
-0.486343 6.801883
-0.479569 6.737932
-0.472841 6.712037
-0.466120 6.720022
-0.459377 6.757890
-0.452582 6.823190
-0.445709 6.912858
-0.438735 7.025290
-0.431637 7.160067
-0.424393 7.317915
-0.416979 7.499586
-0.409370 7.705785
-0.401543 7.937994
-0.393469 8.197322
-0.385122 8.486499
-0.376468 8.810434
-0.367470 9.174672
-0.358085 9.583559
-0.348268 10.039539
-0.337969 10.545284
-0.327139 11.103040
-0.315724 11.711391
-0.303680 12.358208
-0.290974 13.033593
-0.277580 13.728731
-0.263489 14.421175
-0.248715 15.095652
-0.233274 15.752575
-0.217181 16.400966
-0.200442 17.039504
-0.183069 17.673141
-0.165065 18.293657
-0.146451 18.897432
-0.127232 19.502669
-0.107413 20.088107
-0.087013 20.681687
-0.066010 21.271710
-0.044425 21.865698
-0.022220 22.501608
0.000626 23.148389
0.024135 23.832300
0.048359 24.576443
0.073351 25.362773
0.099149 26.191520
0.125793 27.039828
0.153284 27.892061
0.181661 28.827712
0.211020 29.831623
0.241393 30.861885
0.272818 31.929139
0.305314 32.992309
0.338884 34.100809
0.373607 35.280171
0.409524 36.487316
0.446659 37.706374
0.485023 38.957914
0.524665 40.246417
0.565610 41.574867
0.607916 42.958258
0.651615 44.348542
0.696705 45.746372
0.743229 47.234612
0.791287 48.778102
0.840873 50.290594
0.891943 51.724564
0.944405 53.095830
0.998234 54.446523
1.053408 55.799780
1.109999 57.314217
1.168191 58.949284
1.227995 60.522528
1.289417 62.274218
1.352580 63.762779
1.416825 64.517126
1.481550 64.692367
1.546090 64.120208
1.609841 63.313958
1.673013 63.011444
1.736303 63.648284
1.800699 65.071733
1.866544 66.395821
1.933472 67.265411
2.001085 67.763098
2.069056 68.028247
2.137191 68.032572
2.205131 67.658565
2.272674 67.376149
2.340191 67.610268
2.408190 68.325193
2.477026 69.184396
2.546591 69.724396
2.616511 69.954568
2.686484 69.714834
2.755811 68.666977
2.823721 66.917926
2.889580 64.567293
2.952767 61.563222
3.012609 57.896961
3.068449 53.547715
3.119690 48.834386
3.166226 44.153317
3.208108 39.540333
3.245563 35.457159
3.279263 31.883417
3.309355 28.194017
3.335547 24.022767
3.357333 19.507047
3.374759 15.467547
3.388609 12.356939
3.399657 9.725585
3.408151 7.305886
3.414410 5.265490
3.418810 3.578031
3.421591 1.943943
3.422651 0.157337
3.421891 -1.675269
3.419305 -3.484988
3.414908 -5.311406
3.408636 -7.243816
3.400370 -9.285494
3.390016 -11.416433
3.377473 -13.669325
3.362598 -16.079400
3.345246 -18.598639
3.325353 -21.148195
3.302907 -23.698965
3.277918 -26.218409
3.250435 -28.686435
3.220510 -31.089321
3.188219 -33.415424
3.153640 -35.658086
3.116863 -37.807867
3.077981 -39.860608
3.037095 -41.813371
2.994303 -43.668631
2.949703 -45.425709
2.903394 -47.083135
2.855474 -48.645157
2.806037 -50.113472
2.755178 -51.490879
2.702981 -52.784816
2.649530 -53.994890
2.594909 -55.125560
2.539193 -56.184593
2.482452 -57.171549
2.424758 -58.090433
2.366175 -58.947107
2.306766 -59.742020
2.246591 -60.478212
2.185707 -61.160627
2.124166 -61.787056
2.062027 -62.359119
1.999339 -62.884426
1.936148 -63.361703
1.872505 -63.788739
1.808458 -64.170567
1.744050 -64.507613
1.679330 -64.796354
1.614343 -65.040807
1.549134 -65.238446
1.483751 -65.388785
1.418241 -65.491708
1.352653 -65.545384
1.287035 -65.551369
1.221434 -65.511145
1.155897 -65.423598
1.090473 -65.285812
1.025212 -65.097147
0.960164 -64.860705
0.895378 -64.572920
0.830906 -64.235798
0.766793 -63.851462
0.703092 -63.415299
0.639851 -62.932639
0.577117 -62.403158
0.514936 -61.825620
0.453356 -61.204960
0.392419 -60.538538
0.332173 -59.825941
0.272661 -59.073219
0.213923 -58.275957
0.156006 -57.437568
0.098946 -56.559230
0.042788 -55.638206
-0.012429 -54.679021
-0.066667 -53.682625
-0.119889 -52.648385
-0.172057 -51.577306
-0.223135 -50.471721
-0.273090 -49.331884
-0.321887 -48.160407
-0.369496 -46.955719
-0.415884 -45.726776
-0.461027 -44.455011
-0.504884 -43.184722
-0.547471 -41.878645
-0.588604 -40.209335
-0.628009 -38.656464
-0.666090 -37.391193
-0.702836 -36.036229
-0.738235 -34.681997
-0.772266 -33.318554
-0.804923 -31.906512
-0.836166 -30.563872
-0.866014 -28.930331
-0.893738 -26.257554
-0.918577 -23.568346
-0.940962 -20.997909
-0.960424 -17.856078
-0.977006 -15.602181
-0.992074 -14.589505
-1.006287 -13.795697
-1.019449 -12.272622
-1.030397 -9.369679
-1.038247 -6.583869
-1.043964 -4.955461
-1.048012 -2.861287
-1.049812 -1.127348
-1.050596 -0.374461
-1.050591 0.289876
-1.050144 0.569816
-1.049525 0.627146
-1.048919 0.593636
-1.048327 0.586872
-1.047745 0.576493
-1.047173 0.568290
-1.046607 0.562848
-1.046045 0.558794
-1.045487 0.558075
-1.044928 0.556725
-1.044370 0.561798
-1.043804 0.566191
-1.043246 0.541524
-1.042605 0.861814
-1.041349 1.697433
-1.039060 2.972138
-1.035362 4.355444
-1.030398 5.565464
-1.024369 6.331495
-1.017837 6.754096
-1.010903 7.009034
-1.003737 7.466573
-0.995878 8.154979
-0.987627 8.195123
-0.979531 8.055772
-0.971493 7.937172
-0.963560 8.061289
-0.955188 8.683015
-0.945834 10.329846
-0.934349 12.451120
-0.921327 13.312342
-0.907950 13.418238
-0.894490 13.447725
-0.881043 13.432272
-0.867583 13.462594
-0.854085 13.510137
-0.840530 13.574699
-0.826905 13.647673
-0.813208 13.717025
-0.799448 13.773225
-0.785640 13.813528
-0.771798 13.839184
-0.757938 13.852538
-0.744067 13.861055
-0.730189 13.865976
-0.716310 13.864240
-0.702434 13.858752
-0.688564 13.853330
-0.674699 13.849876
-0.660837 13.846524
-0.646980 13.836919
-0.633142 13.808006
-0.619349 13.743525
-0.605640 13.639559
-0.592053 13.504460
-0.578611 13.348033
-0.565334 13.178127
-0.552232 12.997897
-0.539316 12.808533
-0.526593 12.610301
-0.514073 12.402943
-0.501765 12.186066
-0.489680 11.959089
-0.477826 11.722071
-0.466215 11.474718
-0.454857 11.217479
-0.443761 10.950739
-0.432937 10.674418
-0.422394 10.389186
-0.412141 10.095617
-0.402185 9.794695
-0.392534 9.487078
-0.383194 9.173296
-0.374170 8.854699
-0.365468 8.532176
-0.357090 8.206783
-0.349038 7.880285
-0.341314 7.553998
-0.333915 7.228865
-0.326840 6.906529
-0.320087 6.587826
-0.313650 6.273615
-0.307526 5.963440
-0.301709 5.658601
-0.296195 5.361236
-0.290974 5.071383
-0.286039 4.789452
-0.281382 4.515984
-0.276995 4.251385
-0.272869 3.994284
-0.268996 3.744308
-0.265370 3.501562
-0.261984 3.265778
-0.258829 3.037697
-0.255900 2.817674
-0.253185 2.606668
-0.250678 2.405714
-0.248366 2.214935
-0.246240 2.035275
-0.244287 1.867483
-0.242497 1.711550
-0.240857 1.567582
-0.239355 1.435099
-0.237980 1.313884
-0.236721 1.203401
-0.235568 1.102433
-0.234511 1.010413
-0.233542 0.926906
-0.232653 0.850950
-0.231836 0.781558
-0.231086 0.718260
-0.230396 0.660121
-0.229763 0.606378
-0.229181 0.556715
-0.228647 0.510438
-0.228158 0.467171
-0.227711 0.426123
-0.227304 0.387200
-0.226935 0.349921
-0.226603 0.313564
-0.226307 0.277795
-0.226047 0.241946
-0.225823 0.205273
-0.225637 0.166711
-0.225490 0.127241
-0.225382 0.087916
-0.225314 0.047105
-0.225288 0.004706
-0.225306 -0.040324
-0.225370 -0.088789
-0.225484 -0.139753
-0.225651 -0.192758
-0.225870 -0.246058
-0.226144 -0.302143
-0.226476 -0.359891
-0.226864 -0.416569
-0.227309 -0.471908
-0.227809 -0.525761
-0.228361 -0.576994
-0.228962 -0.622086
-0.229605 -0.661287
-0.230284 -0.695574
-0.230996 -0.725566
-0.231735 -0.751723
-0.232499 -0.774036
-0.233284 -0.794234
-0.234089 -0.812932
-0.234911 -0.830350
-0.235751 -0.846322
-0.236605 -0.861172
-0.237475 -0.877903
-0.238364 -0.896505
-0.239271 -0.917387
-0.240201 -0.942286
-0.241159 -0.970229
-0.242144 -0.999873
-0.243161 -1.032013
-0.244212 -1.067318
-0.245299 -1.104867
-0.246424 -1.144334
-0.247590 -1.185692
-0.248798 -1.228456
-0.250050 -1.272617
-0.251347 -1.317795
-0.252688 -1.363421
-0.254076 -1.409128
-0.255509 -1.454457
-0.256988 -1.498993
-0.258510 -1.542469
-0.260075 -1.584577
-0.261682 -1.624410
-0.263327 -1.662149
-0.265009 -1.698145
-0.266725 -1.731316
-0.268474 -1.761886
-0.270252 -1.789822
-0.272056 -1.815508
-0.273886 -1.838783
-0.275737 -1.859204
-0.277607 -1.877714
-0.279495 -1.893872
-0.281398 -1.907828
-0.283314 -1.919818
-0.285241 -1.929688
-0.287176 -1.937425
-0.289119 -1.943326
-0.291066 -1.947245
-0.293016 -1.948865
-0.294967 -1.948653
-0.296917 -1.946353
-0.298863 -1.941640
-0.300803 -1.934758
-0.302736 -1.925959
-0.304659 -1.915533
-0.306570 -1.902962
-0.308467 -1.887720
-0.310348 -1.870097
-0.312211 -1.850282
-0.314052 -1.828041
-0.315870 -1.803847
-0.317662 -1.777417
-0.319427 -1.748852
-0.321163 -1.718739
-0.322868 -1.686698
-0.324539 -1.653052
-0.326177 -1.617985
-0.327778 -1.581824
-0.329343 -1.544624
-0.330870 -1.506188
-0.332358 -1.466941
-0.333807 -1.427023
-0.335215 -1.386625
-0.336583 -1.345848
-0.337909 -1.304498
-0.339194 -1.262860
-0.340438 -1.221538
-0.341640 -1.180133
-0.342800 -1.138605
-0.343919 -1.097397
-0.344997 -1.056290
-0.346034 -1.015513
-0.347030 -0.975355
-0.347987 -0.935483
-0.348903 -0.895762
-0.349780 -0.856797
-0.350619 -0.818560
-0.351419 -0.780406
-0.352181 -0.742598
-0.352906 -0.705769
-0.353594 -0.669339
-0.354246 -0.633324
-0.354863 -0.597893
-0.355443 -0.562939
-0.355990 -0.528975
-0.356503 -0.496425
-0.356984 -0.464571
-0.357433 -0.433093
-0.357852 -0.403116
-0.358240 -0.373959
-0.358600 -0.345604
-0.358933 -0.318768
-0.359239 -0.292517
-0.359519 -0.266743
-0.359773 -0.240366
-0.360001 -0.217526
-0.360206 -0.187752
-0.360383 -0.176218
-0.360549 -0.137315
-0.360658 -0.099385
-0.360836 -0.325188
-0.360803 0.966686
-0.342336 45.214568
