0.286334 0.123228 0.000731
0.730953 -25.383263
0.705664 -25.190897
0.680425 -25.285596
0.655014 -25.465909
0.629455 -25.606299
0.603747 -25.756541
0.577900 -25.877445
0.551950 -25.968320
0.525919 -26.037401
0.499831 -26.081948
0.473709 -26.107158
0.447570 -26.115347
0.421431 -26.109557
0.395310 -26.070081
0.369248 -26.001867
0.343251 -25.944166
0.317308 -25.887456
0.291429 -25.815263
0.265630 -25.728229
0.239926 -25.628294
0.214325 -25.519309
0.188839 -25.400488
0.163476 -25.274085
0.138243 -25.138997
0.113151 -24.995105
0.088206 -24.843467
0.063417 -24.684163
0.038790 -24.517277
0.014335 -24.343440
-0.009943 -24.164100
-0.034039 -23.977302
-0.057944 -23.783609
-0.081652 -23.585356
-0.105160 -23.381948
-0.128461 -23.173492
-0.151552 -22.961739
-0.174429 -22.744939
-0.197086 -22.524763
-0.219523 -22.302694
-0.241735 -22.076874
-0.263720 -21.848197
-0.285475 -21.617415
-0.306997 -21.384317
-0.328286 -21.149582
-0.349337 -20.911003
-0.370149 -20.670815
-0.390720 -20.429229
-0.411047 -20.183684
-0.431127 -19.936986
-0.450960 -19.688294
-0.470543 -19.438301
-0.489875 -19.185348
-0.508951 -18.928808
-0.527771 -18.674297
-0.546336 -18.416857
-0.564640 -18.155830
-0.582684 -17.895163
-0.600466 -17.632111
-0.617983 -17.368506
-0.635237 -17.102483
-0.652222 -16.834792
-0.668940 -16.567316
-0.685389 -16.298220
-0.701568 -16.027564
-0.717476 -15.755742
-0.733111 -15.483373
-0.748473 -15.209790
-0.763561 -14.936499
-0.778376 -14.662198
-0.792915 -14.386328
-0.807178 -14.111510
-0.821166 -13.836335
-0.834878 -13.562009
-0.848317 -13.286309
-0.861478 -13.010735
-0.874365 -12.737632
-0.886978 -12.464158
-0.899318 -12.191435
-0.911386 -11.920010
-0.923183 -11.651286
-0.934712 -11.383534
-0.945973 -11.117095
-0.956970 -10.854986
-0.967706 -10.594606
-0.978182 -10.337214
-0.988403 -10.085310
-0.998373 -9.836241
-1.008096 -9.591793
-1.017578 -9.351799
-1.026820 -9.115955
-1.035829 -8.885421
-1.044611 -8.660184
-1.053168 -8.437763
-1.061504 -8.219599
-1.069625 -8.006347
-1.077534 -7.795595
-1.085234 -7.590881
-1.092732 -7.389683
-1.100029 -7.190193
-1.107128 -6.995039
-1.114034 -6.802960
-1.120749 -6.613328
-1.127275 -6.425603
-1.133613 -6.240231
-1.139768 -6.057111
-1.145740 -5.875232
-1.151531 -5.695217
-1.157142 -5.516279
-1.162575 -5.338518
-1.167830 -5.161434
-1.172909 -4.985957
-1.177812 -4.811104
-1.182541 -4.635865
-1.187094 -4.461996
-1.191474 -4.289431
-1.195681 -4.116352
-1.199715 -3.944487
-1.203578 -3.772417
-1.207268 -3.601004
-1.210788 -3.430882
-1.214136 -3.259213
-1.217313 -3.089051
-1.220321 -2.919481
-1.223158 -2.749843
-1.225826 -2.581160
-1.228325 -2.412323
-1.230656 -2.244477
-1.232819 -2.078318
-1.234817 -1.912631
-1.236649 -1.748214
-1.238318 -1.586277
-1.239825 -1.426143
-1.241174 -1.268655
-1.242366 -1.113758
-1.243405 -0.962810
-1.244296 -0.820502
-1.245050 -0.685329
-1.245671 -0.558864
-1.246174 -0.447661
-1.246573 -0.352097
-1.246884 -0.272412
-1.247122 -0.205588
-1.247298 -0.145573
-1.247415 -0.090090
-1.247478 -0.034251
-1.247484 0.020078
-1.247438 0.071997
-1.247339 0.128310
-1.247182 0.183365
-1.246973 0.235057
-1.246710 0.292571
-1.246385 0.356270
-1.245994 0.425384
-1.245531 0.503003
-1.244985 0.589267
-1.244347 0.685987
-1.243607 0.794449
-1.242754 0.912435
-1.241777 1.041132
-1.240665 1.181638
-1.239409 1.329652
-1.238001 1.485050
-1.236433 1.647461
-1.234702 1.812225
-1.232805 1.978755
-1.230741 2.144817
-1.228512 2.306452
-1.226125 2.463461
-1.223582 2.615820
-1.220890 2.762501
-1.218054 2.901458
-1.215083 3.035515
-1.211979 3.164721
-1.208749 3.287532
-1.205398 3.407335
-1.201929 3.522172
-1.198348 3.633821
-1.194655 3.743356
-1.190855 3.848717
-1.186951 3.950820
-1.182946 4.050770
-1.178842 4.147612
-1.174643 4.241355
-1.170351 4.333835
-1.165968 4.422762
-1.161498 4.509164
-1.156942 4.593483
-1.152303 4.674196
-1.147585 4.752710
-1.142789 4.828168
-1.137919 4.901583
-1.132977 4.972154
-1.127966 5.038692
-1.122890 5.103134
-1.117751 5.165475
-1.112550 5.224891
-1.107292 5.280007
-1.101980 5.332550
-1.096617 5.383351
-1.091204 5.430331
-1.085746 5.473883
-1.080246 5.516526
-1.074704 5.554385
-1.069127 5.587206
-1.063518 5.620088
-1.057877 5.649943
-1.052209 5.675048
-1.046517 5.696824
-1.040804 5.716498
-1.035073 5.732429
-1.029329 5.744998
-1.023573 5.755413
-1.017808 5.762442
-1.012038 5.764761
-1.006268 5.763951
-1.000499 5.761607
-0.994734 5.755725
-0.988977 5.745406
-0.983233 5.732381
-0.977502 5.716763
-0.971789 5.697647
-0.966096 5.675759
-0.960427 5.650224
-0.954786 5.620546
-0.949175 5.589380
-0.943597 5.556368
-0.938053 5.518393
-0.932550 5.477676
-0.927088 5.434560
-0.921671 5.388075
-0.916301 5.339975
-0.910981 5.288079
-0.905716 5.232912
-0.900505 5.176914
-0.895352 5.117982
-0.890260 5.055978
-0.885231 4.991699
-0.880268 4.924749
-0.875372 4.856366
-0.870546 4.785835
-0.865792 4.712657
-0.861112 4.637566
-0.856508 4.561311
-0.851980 4.485094
-0.847530 4.406241
-0.843158 4.328725
-0.838862 4.254750
-0.834640 4.180297
-0.830492 4.108260
-0.826414 4.040773
-0.822402 3.975220
-0.818456 3.909951
-0.814574 3.847086
-0.810754 3.784467
-0.806999 3.717601
-0.803312 3.649124
-0.799693 3.579473
-0.796147 3.506512
-0.792674 3.432178
-0.789276 3.357260
-0.785953 3.280907
-0.782708 3.202398
-0.779542 3.123260
-0.776455 3.044212
-0.773448 2.963505
-0.770522 2.883270
-0.767676 2.801943
-0.764913 2.720368
-0.762229 2.640336
-0.759627 2.560172
-0.757104 2.481064
-0.754660 2.400740
-0.752297 2.322797
-0.750009 2.247082
-0.747799 2.169359
-0.745665 2.094830
-0.743604 2.021760
-0.741618 1.948029
-0.739703 1.877670
-0.737858 1.807634
-0.736084 1.738327
-0.734377 1.673146
-0.732735 1.607187
-0.731159 1.542639
-0.729645 1.481077
-0.728194 1.419581
-0.726803 1.359421
-0.725471 1.301184
-0.724197 1.245069
-0.722978 1.190170
-0.721813 1.137981
-0.720700 1.086610
-0.719637 1.037613
-0.718622 0.990469
-0.717654 0.944415
-0.716730 0.902217
-0.715847 0.860958
-0.715006 0.821401
-0.714203 0.783401
-0.713437 0.747538
-0.712705 0.714542
-0.712006 0.682403
-0.711338 0.651588
-0.710700 0.623995
-0.710089 0.598047
-0.709503 0.573311
-0.708940 0.551368
-0.708398 0.530824
-0.707877 0.511573
-0.707373 0.495039
-0.706885 0.480730
-0.706411 0.466846
-0.705950 0.455093
-0.705499 0.445491
-0.705057 0.437009
-0.704623 0.431005
-0.704194 0.425618
-0.703771 0.421515
-0.703350 0.419730
-0.702930 0.418771
-0.702511 0.419546
-0.702090 0.420738
-0.701668 0.422319
-0.701244 0.426444
-0.700814 0.431262
-0.700380 0.436433
-0.699940 0.443367
-0.699492 0.450365
-0.699038 0.458478
-0.698574 0.467910
-0.698101 0.477547
-0.697618 0.488634
-0.697123 0.499235
-0.696618 0.511084
-0.696099 0.524782
-0.695567 0.537895
-0.695022 0.550984
-0.694464 0.565834
-0.693889 0.581111
-0.693300 0.595900
-0.692696 0.611610
-0.692076 0.628299
-0.691438 0.645485
-0.690784 0.660869
-0.690115 0.677313
-0.689427 0.696112
-0.688722 0.713244
-0.688000 0.729553
-0.687260 0.747399
-0.686504 0.764240
-0.685730 0.781122
-0.684940 0.798427
-0.684132 0.815117
-0.683308 0.832445
-0.682466 0.848518
-0.681609 0.864116
-0.680736 0.880376
-0.679847 0.895732
-0.678943 0.910420
-0.678024 0.924796
-0.677092 0.938594
-0.676145 0.952880
-0.675184 0.965819
-0.674212 0.977528
-0.673227 0.989195
-0.672232 0.999600
-0.671226 1.010902
-0.670208 1.021892
-0.669181 1.029659
-0.668146 1.038509
-0.667102 1.047654
-0.666050 1.054700
-0.664990 1.063351
-0.663921 1.071232
-0.662846 1.076719
-0.661765 1.084606
-0.660675 1.092372
-0.659578 1.098290
-0.658475 1.107759
-0.657360 1.119894
-0.656232 1.133992
-0.655089 1.150421
-0.653929 1.166795
-0.652753 1.184003
-0.651559 1.201018
-0.650348 1.217135
-0.649122 1.232669
-0.647881 1.246694
-0.646627 1.259542
-0.645360 1.272061
-0.644082 1.278635
-0.642795 1.300643
-0.641500 1.258415
-0.640198 1.447227
-0.638892 0.768290
-0.637577 3.335745
-0.636278 -6.279128
-0.634909 29.776379
-0.633794 -105.380189
-0.631731 401.267961
0.000000 399.788451
0.000000 -107.122993
0.000000 28.703519
0.000000 -7.691085
0.000000 2.060820
0.000000 -0.552195
0.000000 0.147960
0.000000 -0.039646
0.000000 0.010623
0.000000 -0.002846
0.000000 0.000763
0.000000 -0.000204
0.000000 0.000055
0.000000 -0.000015
0.000000 0.000004
0.000000 -0.000001
0.000000 0.000000
0.000000 -0.000000
0.000000 0.000000
0.000000 -0.000000
0.000000 0.000000
0.000000 -0.000000
0.000000 0.000000
0.000000 -0.000000
0.000000 0.000000
0.000000 -0.000000
0.000000 0.000000
0.000000 -0.000000
0.000000 0.000000
0.000000 -0.000000
0.000000 0.000000
0.000000 -0.000000
0.000000 0.000000
0.000000 -0.000000
0.000000 0.000000
0.000000 -0.000000
0.000000 0.000000
0.000000 -0.000000
0.000000 0.000000
0.000000 -0.000000
0.000000 0.000000
0.000000 -0.000000
0.000000 0.000000
0.000000 -0.000000
0.000000 0.000000
0.000000 -0.000000
0.000000 0.000000
0.000000 -0.000000
0.000000 0.000000
0.000000 -0.000000
0.000000 0.000000
0.000000 -0.000000
0.000000 0.000000
0.000000 -0.000000
0.000000 0.000000
0.000000 -0.000000
0.000000 0.000000
0.000000 -0.000000
0.000000 0.000000
0.000000 -0.000000
0.000000 0.000000
0.000000 -0.000000
0.000000 0.000000
0.000000 -0.000000
0.000000 0.000000
0.000000 -0.000000
0.000000 0.000000
0.000000 -0.000000
0.000000 0.000000
0.000000 -0.000000
0.000000 0.000000
0.000000 -0.000000
0.000000 0.000000
0.000000 -0.000000
0.000000 0.000000
0.000000 -0.000000
0.000000 0.000000
0.000000 -0.000000
0.000000 0.000000
0.000000 -0.000000
0.000000 0.000000
0.000000 -0.000000
0.000000 0.000000
0.000000 -0.000000
0.000000 0.000000
0.000000 -0.000000
0.000000 0.000000
0.000000 -0.000000
0.000000 0.000000
0.000000 -0.000000
0.000000 0.000000
0.000000 -0.000000
0.000000 0.000000
0.000000 -0.000000
0.000000 0.000000
0.000000 -0.000000
0.000000 0.000000
0.000000 -0.000000
0.000000 0.000000
0.000000 -0.000000
0.000000 0.000000
0.000000 -0.000000
0.000000 0.000000
0.000000 -0.000000
0.000000 0.000000
0.000000 -0.000000
0.000000 0.000000
0.000000 -0.000000
0.000000 0.000000
0.000000 -0.000000
0.000000 0.000000
0.000000 -0.000000
0.000000 0.000000
0.000000 -0.000000
0.000000 0.000000
0.000000 -0.000000
0.000000 0.000000
0.000000 -0.000000
0.000000 0.000000
0.000000 -0.000000
0.000000 0.000000
0.000000 -0.000000
0.000000 0.000000
0.000000 -0.000000
0.000000 0.000000
0.000000 -0.000000
0.000000 0.000000
0.000000 -0.000000
0.000000 0.000000
0.000000 -0.000000
0.000000 0.000000
0.000000 -0.000000
0.000000 0.000000
0.000000 -0.000000
0.000000 0.000000
0.000000 -0.000000
0.000000 0.000000
0.000000 -0.000000
0.000000 0.000000
0.000000 -0.000000
0.000000 0.000000
0.000000 -0.000000
0.000000 0.000000
0.000000 -0.000000
0.000000 0.000000
0.000000 -0.000000
0.000000 0.000000
0.000000 -0.000000
0.000000 0.000000
0.000000 -0.000000
0.000000 0.000000
0.000000 -0.000000
0.000000 0.000000
0.000000 -0.000000
0.000000 0.000000
0.000000 -0.000000
0.000000 0.000000
0.000000 -0.000000
0.000000 0.000000
0.000000 -0.000000
0.000000 0.000000
0.000000 -0.000000
0.000000 0.000000
0.000000 -0.000000
0.000000 0.000000
0.000000 -0.000000
0.000000 0.000000
0.000000 -0.000000
0.000000 0.000000
0.000000 -0.000000
0.000000 0.000000
0.000000 -0.000000
0.000000 0.000000
0.000000 -0.000000
0.000000 0.000000
0.000000 -0.000000
0.000000 0.000000
0.000000 -0.000000
0.000000 0.000000
0.000000 -0.000000
0.000000 0.000000
0.000000 -0.000000
0.000000 0.000000
0.000000 -0.000000
0.000000 0.000000
0.000000 -0.000000
0.000000 0.000000
0.000000 -0.000000
0.000000 0.000000
0.000000 -0.000000
0.000000 0.000000
0.000000 -0.000000
0.000000 0.000000
0.000000 -0.000000
0.000000 0.000000
0.000000 -0.000000
0.000000 0.000000
0.000000 -0.000000
0.000000 0.000000
0.000000 -0.000000
0.000000 0.000000
0.000000 -0.000000
0.000000 0.000000
0.000000 -0.000000
0.000000 0.000000
0.000000 -0.000000
0.000000 0.000000
0.000000 -0.000000
0.000000 0.000000
0.000000 -0.000000
0.000000 0.000000
0.000000 -0.000000
0.000000 0.000000
0.000000 -0.000000
0.000000 0.000000
0.000000 -0.000000
0.000000 0.000000
0.000000 -0.000000
0.000000 0.000000
0.000000 -0.000000
0.000000 0.000000
0.000000 -0.000000
0.000000 0.000000
0.000000 -0.000000
0.000000 0.000000
0.000000 -0.000000
0.000000 0.000000
0.000000 -0.000000
0.000000 0.000000
0.000000 -0.000000
0.000000 0.000000
0.000000 -0.000000
0.000000 0.000000
0.000000 -0.000000
0.000000 0.000000
0.000000 -0.000000
0.000000 0.000000
0.000000 -0.000000
0.000000 0.000000
0.000000 -0.000000
0.000000 0.000000
0.000000 -0.000000
0.000000 0.000000
0.000000 -0.000000
0.000000 0.000000
0.000000 -0.000000
0.000000 0.000000
0.000000 -0.000000
0.000000 0.000000
0.000000 -0.000000
0.000000 0.000000
0.000000 -0.000000
0.000000 0.000000
0.000000 -0.000000
0.000000 0.000000
0.000000 -0.000000
0.000000 0.000000
0.000000 -0.000000
0.000000 0.000000
0.000000 -0.000000
0.000000 0.000000
0.000000 -0.000000
0.000000 0.000000
0.000000 -0.000000
0.000000 0.000000
0.000000 -0.000000
0.000000 0.000000
0.000000 -0.000000
0.000000 0.000000
0.000000 -0.000000
0.000000 0.000000
0.000000 -0.000000
0.000000 0.000000
0.000000 -0.000000
0.000000 0.000000
0.000000 -0.000000
0.000000 0.000000
0.000000 -0.000000
0.000000 0.000000
0.000000 -0.000000
0.000000 0.000000
0.000000 -0.000000
0.000000 0.000000
0.000000 -0.000000
0.000000 0.000000
0.000000 -0.000000
0.000000 0.000000
0.000000 -0.000000
0.000000 0.000000
0.000000 -0.000000
0.000000 0.000000
0.000000 -0.000000
0.000000 0.000000
0.000000 -0.000000
0.000000 0.000000
0.000000 -0.000000
0.000000 0.000000
0.000000 -0.000000
0.000000 0.000000
0.000000 -0.000000
0.000000 0.000000
0.000000 -0.000000
0.000000 0.000000
0.000000 -0.000000
0.000000 0.000000
0.000000 -0.000000
0.000000 0.000000
0.000000 -0.000000
0.000000 0.000000
0.000000 -0.000000
0.000000 0.000000
0.000000 -0.000000
0.000000 0.000000
0.000000 -0.000000
0.000000 0.000000
0.000000 -0.000000
0.000000 0.000000
0.000000 -0.000000
0.000000 0.000000
0.000000 -0.000000
0.000000 0.000000
0.000000 -0.000000
0.000000 0.000000
0.000000 -0.000000
0.000000 0.000000
0.000000 -0.000000
0.000000 0.000000
0.000000 -0.000000
0.000000 0.000000
0.000000 -0.000000
0.000000 0.000000
0.000000 -0.000000
0.000000 0.000000
0.000000 -0.000000
0.000000 0.000000
0.000000 -0.000000
0.000000 0.000000
0.000000 -0.000000
0.000000 0.000000
0.000000 -0.000000
0.000000 0.000000
0.000000 -0.000000
0.000000 0.000000
0.000000 -0.000000
0.000000 0.000000
0.000000 -0.000000
0.000000 0.000000
0.000000 -0.000000
0.000000 0.000000
0.000000 -0.000000
0.000000 0.000000
0.000000 -0.000000
0.000000 0.000000
0.000000 -0.000000
0.000000 0.000000
0.000000 -0.000000
0.000000 0.000000
0.000000 -0.000000
0.000000 0.000000
0.000000 -0.000000
0.000000 0.000000
0.000000 -0.000000
0.000000 0.000000
0.000000 -0.000000
0.000000 0.000000
0.000000 -0.000000
0.000000 0.000000
0.000000 -0.000000
0.000000 0.000000
0.000000 -0.000000
0.000000 0.000000
0.000000 -0.000000
0.000000 0.000000
0.000000 -0.000000
0.000000 0.000000
0.000000 -0.000000
0.000000 0.000000
0.000000 -0.000000
0.000000 0.000000
0.000000 -0.000000
0.000000 0.000000
0.000000 -0.000000
0.000000 0.000000
0.000000 -0.000000
0.000000 0.000000
0.000000 -0.000000
0.000000 0.000000
0.000000 -0.000000
0.000000 0.000000
0.000000 -0.000000
0.000000 0.000000
0.000000 -0.000000
0.000000 0.000000
0.000000 -0.000000
0.000000 0.000000
0.000000 -0.000000
0.000000 0.000000
0.000000 -0.000000
0.000000 0.000000
0.000000 -0.000000
0.000000 0.000000
0.000000 -0.000000
0.000000 0.000000
0.000000 -0.000000
0.000000 0.000000
0.000000 -0.000000
0.000000 0.000000
0.000000 -0.000000
0.000000 0.000000
0.000000 -0.000000
0.000000 0.000000
0.000000 -0.000000
0.000000 0.000000
0.000000 -0.000000
0.000000 0.000000
0.000000 -0.000000
0.000000 0.000000
0.000000 -0.000000
0.000000 0.000000
0.000000 -0.000000
0.000000 0.000000
0.000000 -0.000000
0.000000 0.000000
0.000000 -0.000000
0.000000 0.000000
0.000000 -0.000000
0.000000 0.000000
0.000000 -0.000000
0.000000 0.000000
0.000000 -0.000000
0.000000 0.000000
0.000000 -0.000000
0.000000 0.000000
0.000000 -0.000000
0.000000 0.000000
0.000000 -0.000000
0.000000 0.000000
0.000000 -0.000000
0.000000 0.000000
0.000000 -0.000000
0.000000 0.000000
0.000000 -0.000000
0.000000 0.000000
0.000000 -0.000000
0.000000 0.000000
0.000000 -0.000000
0.000000 0.000000
0.000000 -0.000000
0.000000 0.000000
0.000000 -0.000000
0.000000 0.000000
0.000000 -0.000000
0.000000 0.000000
0.000000 -0.000000
0.000000 0.000000
0.000000 -0.000000
0.000000 0.000000
0.000000 -0.000000
0.000000 0.000000
0.000000 -0.000000
0.000000 0.000000
0.000000 -0.000000
0.000000 0.000000
0.000000 -0.000000
0.000000 0.000000
0.000000 -0.000000
0.000000 0.000000
0.000000 -0.000000
0.000000 0.000000
0.000000 -0.000000
0.000000 0.000000
0.000000 -0.000000
0.000000 0.000000
0.000000 -0.000000
0.000000 0.000000
0.000000 -0.000000
0.000000 0.000000
0.000000 -0.000000
0.000000 0.000000
0.000000 -0.000000
0.000000 0.000000
0.000000 -0.000000
0.000000 0.000000
0.000000 -0.000000
0.000000 0.000000
0.000000 -0.000000
0.000000 0.000000
0.000000 -0.000000
0.000000 0.000000
0.000000 -0.000000
0.000000 0.000000
0.000000 -0.000000
0.000000 0.000000
0.000000 -0.000000
0.000000 0.000000
0.000000 -0.000000
0.000000 0.000000
0.000000 -0.000000
0.000000 0.000000
0.000000 -0.000000
0.000000 0.000000
0.000000 -0.000000
0.000000 0.000000
0.000000 -0.000000
0.000000 0.000000
0.000000 -0.000000
0.000000 0.000000
0.000000 -0.000000
0.000000 0.000000
0.000000 -0.000000
0.000000 0.000000
0.000000 -0.000000
0.000000 0.000000
0.000000 -0.000000
0.000000 0.000000
0.000000 -0.000000
0.000000 0.000000
0.000000 -0.000000
0.000000 0.000000
0.000000 -0.000000
0.000000 0.000000
0.000000 -0.000000
0.000000 0.000000
0.000000 -0.000000
0.000000 0.000000
0.000000 -0.000000
0.000000 0.000000
0.000000 -0.000000
0.000000 0.000000
0.000000 -0.000000
0.000000 0.000000
0.000000 -0.000000
0.000000 0.000000
0.000000 -0.000000
0.000000 0.000000
0.000000 -0.000000
0.000000 0.000000
0.000000 -0.000000
0.000000 0.000000
0.000000 -0.000000
0.000000 0.000000
0.000000 -0.000000
0.000000 0.000000
0.000000 -0.000000
0.000000 0.000000
0.000000 -0.000000
0.000000 0.000000
0.000000 -0.000000
0.000000 0.000000
0.000000 -0.000000
0.000000 0.000000
0.000000 -0.000000
0.000000 0.000000
0.000000 -0.000000
0.000000 0.000000
0.000000 -0.000000
0.000000 0.000000
0.000000 -0.000000
0.000000 0.000000
0.000000 -0.000000
0.000000 0.000000
0.000000 -0.000000
0.000000 0.000000
0.000000 -0.000000
0.000000 0.000000
0.000000 -0.000000
0.000000 0.000000
0.000000 0.000000
0.000000 0.000000
0.000000 0.000000
0.000000 0.000000
0.000000 0.000000
0.000000 0.000000
0.000000 0.000000
0.000000 0.000000
0.000000 0.000000
0.000000 0.000000
0.000000 0.000000
0.000000 0.000000
0.000000 0.000000
0.000000 0.000000
0.000000 0.000000
0.000000 0.000000
0.000000 0.000000
0.000000 0.000000
0.000000 0.000000
0.000000 0.000000
0.000000 0.000000
0.000000 0.000000
0.000000 0.000000
0.000000 0.000000
0.000000 0.000000
0.000000 0.000000
0.000000 0.000000
0.000000 0.000000
0.000000 0.000000
0.000000 0.000000
0.000000 0.000000
0.000000 0.000000
0.730953 -25.383263
