-0.099029 0.069053 -0.687392
0.951025 -29.233784
0.920663 -30.660825
0.891181 -27.475286
0.865320 -25.300388
0.838918 -27.953861
0.809091 -31.401843
0.776145 -34.571888
0.739946 -37.538636
0.701913 -37.744742
0.665403 -34.886897
0.632239 -31.520901
0.602295 -28.164957
0.575917 -24.617773
0.552736 -21.892020
0.531896 -19.743467
0.513201 -17.619631
0.496442 -16.035007
0.480906 -15.029625
0.466355 -14.015066
0.452871 -12.931262
0.440476 -11.819344
0.429134 -10.931489
0.418314 -10.874510
0.406981 -11.961427
0.394169 -13.642945
0.379732 -15.134422
0.363974 -16.313358
0.347147 -17.267048
0.329462 -18.050538
0.311032 -18.767678
0.291891 -19.481325
0.272029 -20.199000
0.251467 -20.871942
0.230268 -21.470442
0.208507 -21.998530
0.186253 -22.448613
0.163576 -22.864337
0.140487 -23.257273
0.117034 -23.593096
0.093267 -23.888297
0.069219 -24.155490
0.044912 -24.407508
0.020357 -24.655048
-0.004447 -24.902039
-0.029498 -25.150332
-0.054801 -25.407685
-0.080362 -25.660121
-0.106171 -25.907193
-0.132235 -26.171775
-0.158574 -26.457157
-0.185204 -26.747953
-0.212127 -27.049853
-0.239362 -27.364075
-0.266904 -27.659960
-0.294726 -27.924606
-0.322800 -28.163319
-0.351092 -28.351135
-0.379530 -28.451851
-0.408022 -28.458306
-0.436473 -28.374175
-0.464796 -28.197280
-0.492894 -27.930085
-0.520686 -27.584056
-0.548099 -27.182098
-0.575090 -26.736670
-0.601612 -26.250084
-0.627634 -25.737725
-0.653131 -25.201936
-0.678081 -24.643467
-0.702461 -24.066219
-0.726256 -23.473533
-0.749449 -22.863178
-0.772023 -22.236499
-0.793962 -21.594864
-0.815251 -20.940286
-0.835882 -20.277148
-0.855842 -19.602450
-0.875123 -18.920489
-0.893722 -18.239232
-0.911638 -17.557679
-0.928873 -16.879571
-0.945435 -16.212477
-0.961333 -15.552627
-0.976576 -14.906395
-0.991181 -14.276953
-1.005164 -13.663724
-1.018544 -13.074665
-1.031348 -12.511212
-1.043603 -11.981355
-1.055344 -11.479459
-1.066586 -10.982789
-1.077334 -10.492902
-1.087600 -10.022517
-1.097408 -9.579039
-1.106788 -9.168449
-1.115773 -8.788599
-1.124394 -8.441166
-1.132684 -8.128556
-1.140678 -7.847452
-1.148407 -7.602610
-1.155910 -7.393170
-1.163219 -7.215937
-1.170369 -7.077078
-1.177399 -6.974848
-1.184343 -6.904103
-1.191232 -6.864842
-1.198095 -6.850384
-1.204954 -6.860180
-1.211835 -6.888269
-1.218747 -6.925147
-1.225702 -6.970410
-1.232703 -7.016577
-1.239748 -7.058520
-1.246829 -7.087389
-1.253931 -7.099191
-1.261036 -7.092898
-1.268123 -7.061318
-1.275164 -7.004161
-1.282138 -6.926775
-1.289022 -6.821298
-1.295784 -6.684212
-1.302397 -6.524651
-1.308838 -6.340037
-1.315080 -6.126951
-1.321094 -5.884250
-1.326848 -5.604762
-1.332305 -5.294309
-1.337436 -4.952172
-1.342207 -4.574778
-1.346585 -4.167457
-1.350541 -3.730712
-1.354045 -3.265865
-1.357071 -2.778013
-1.359598 -2.265972
-1.361600 -1.731531
-1.363060 -1.181627
-1.363960 -0.613648
-1.364283 -0.030064
-1.364017 0.561514
-1.363156 1.160315
-1.361692 1.765633
-1.359621 2.372437
-1.356943 2.978658
-1.353660 3.576799
-1.349785 4.166637
-1.345320 4.752086
-1.340275 5.324010
-1.334667 5.881253
-1.328505 6.426949
-1.321806 6.954981
-1.314586 7.467925
-1.306861 7.963345
-1.298652 8.434769
-1.289979 8.891091
-1.280858 9.327874
-1.271313 9.741644
-1.261361 10.137310
-1.251024 10.514295
-1.240318 10.871286
-1.229266 11.207457
-1.217886 11.528388
-1.206193 11.830017
-1.194209 12.112913
-1.181947 12.382426
-1.169425 12.635462
-1.156657 12.872641
-1.143658 13.095560
-1.130443 13.306818
-1.117022 13.504859
-1.103410 13.690767
-1.089616 13.870044
-1.075646 14.039184
-1.061512 14.200210
-1.047219 14.355169
-1.032776 14.500316
-1.018191 14.640440
-1.003467 14.777021
-0.988610 14.907342
-0.973623 15.034835
-0.958511 15.159403
-0.943276 15.279808
-0.927921 15.398520
-0.912450 15.512178
-0.896867 15.621850
-0.881174 15.731714
-0.865373 15.839534
-0.849463 15.948401
-0.833444 16.058865
-0.817314 16.166451
-0.801079 16.272871
-0.784733 16.387500
-0.768269 16.508182
-0.751684 16.630244
-0.734974 16.754208
-0.718143 16.872967
-0.701198 16.982548
-0.684144 17.091564
-0.666977 17.211238
-0.649685 17.338100
-0.632263 17.473752
-0.614700 17.616982
-0.596992 17.767000
-0.579128 17.923811
-0.561109 18.077419
-0.542937 18.230913
-0.524611 18.382688
-0.506138 18.526166
-0.487524 18.663382
-0.468777 18.790368
-0.449910 18.905589
-0.430931 19.013107
-0.411850 19.107281
-0.392683 19.185702
-0.373443 19.254447
-0.354140 19.311491
-0.334786 19.353989
-0.315396 19.385685
-0.295982 19.400993
-0.276560 19.404080
-0.257138 19.396465
-0.237733 19.372750
-0.218357 19.340871
-0.199017 19.295067
-0.179730 19.241652
-0.160500 19.174183
-0.141364 19.045203
-0.122402 18.825011
-0.103709 18.508652
-0.085372 18.119472
-0.067448 17.687473
-0.049969 17.234506
-0.032938 16.800331
-0.016347 16.328645
-0.000323 15.632295
0.014834 14.592153
0.028716 13.028745
0.040698 10.805697
0.050208 8.160301
0.057051 5.563386
0.061486 3.386086
0.064028 1.801659
0.065311 0.870031
0.065971 0.542628
0.066562 0.710020
0.067509 1.227836
0.069089 1.950847
0.071440 2.750127
0.074585 3.520274
0.078453 4.186287
0.082915 4.699837
0.087803 5.036565
0.092937 5.190856
0.098138 5.171712
0.103239 4.996241
0.108095 4.685830
0.112584 4.267562
0.116611 3.766192
0.120102 3.199408
0.123000 2.585253
0.125269 1.944321
0.126890 1.295741
0.127866 0.655991
0.128209 0.033228
0.127939 -0.569869
0.127074 -1.157090
0.125625 -1.735274
0.123605 -2.298478
0.121035 -2.827316
0.117962 -3.304095
0.114441 -3.719725
0.110536 -4.070858
0.106312 -4.359146
0.101829 -4.589405
0.097141 -4.769860
0.092294 -4.907786
0.087326 -5.012253
0.082267 -5.092341
0.077137 -5.155702
0.071949 -5.209633
0.066709 -5.258663
0.061421 -5.308621
0.056080 -5.362685
0.050682 -5.423529
0.045219 -5.492942
0.039682 -5.571058
0.034062 -5.659455
0.028349 -5.756756
0.022535 -5.862670
0.016609 -5.977918
0.010564 -6.100507
0.004393 -6.231975
-0.001915 -6.371486
-0.008365 -6.516410
-0.014962 -6.664010
-0.021707 -6.815369
-0.028607 -6.970902
-0.035663 -7.126699
-0.042876 -7.284595
-0.050248 -7.444622
-0.057781 -7.607529
-0.065479 -7.771941
-0.073340 -7.935895
-0.081367 -8.101319
-0.089559 -8.266577
-0.097916 -8.430848
-0.106437 -8.594855
-0.115122 -8.756990
-0.123968 -8.916507
-0.132974 -9.077869
-0.142142 -9.239488
-0.151471 -9.399269
-0.160961 -9.562550
-0.170616 -9.728310
-0.180440 -9.903019
-0.190446 -10.091329
-0.200644 -10.283019
-0.211033 -10.475077
-0.221614 -10.665098
-0.232383 -10.850517
-0.243336 -11.032566
-0.254469 -11.210618
-0.265778 -11.385784
-0.277262 -11.556202
-0.288912 -11.721648
-0.300727 -11.884306
-0.312703 -12.042068
-0.324835 -12.196643
-0.337120 -12.349153
-0.349555 -12.494606
-0.362132 -12.633960
-0.374849 -12.773421
-0.387703 -12.906492
-0.400686 -13.035439
-0.413798 -13.160403
-0.427031 -13.278514
-0.440381 -13.394289
-0.453845 -13.505049
-0.467417 -13.610945
-0.481092 -13.712946
-0.494868 -13.808709
-0.508736 -13.899113
-0.522693 -13.987480
-0.536737 -14.071115
-0.550861 -14.147885
-0.565060 -14.220002
-0.579328 -14.287343
-0.593662 -14.352633
-0.608061 -14.412831
-0.622514 -14.464937
-0.637018 -14.513950
-0.651570 -14.559251
-0.666165 -14.600578
-0.680798 -14.634443
-0.695461 -14.662710
-0.710152 -14.688912
-0.724865 -14.706269
-0.739592 -14.718930
-0.754331 -14.728294
-0.769075 -14.729364
-0.783818 -14.725496
-0.798554 -14.716242
-0.813278 -14.701893
-0.827985 -14.682013
-0.842670 -14.656212
-0.857325 -14.622293
-0.871942 -14.585001
-0.886522 -14.542862
-0.901055 -14.493439
-0.915537 -14.441185
-0.929964 -14.381727
-0.944327 -14.315859
-0.958623 -14.247634
-0.972849 -14.172780
-0.986995 -14.091052
-1.001059 -14.008870
-1.015039 -13.922610
-1.028931 -13.833267
-1.042733 -13.742503
-1.056442 -13.647520
-1.070056 -13.553349
-1.083577 -13.463642
-1.097010 -13.373966
-1.110352 -13.283205
-1.123601 -13.187518
-1.136751 -13.086701
-1.149800 -12.982960
-1.162741 -12.870777
-1.175564 -12.749462
-1.188264 -12.624657
-1.200837 -12.495443
-1.213276 -12.353749
-1.225569 -12.209191
-1.237717 -12.061244
-1.249713 -11.906309
-1.261553 -11.748126
-1.273231 -11.584562
-1.284744 -11.417194
-1.296087 -11.245694
-1.307257 -11.070983
-1.318250 -10.893673
-1.329064 -10.711170
-1.339693 -10.525052
-1.350135 -10.337932
-1.360388 -10.146056
-1.370446 -9.951258
-1.380309 -9.754161
-1.389972 -9.552069
-1.399432 -9.348027
-1.408687 -9.142837
-1.417734 -8.933184
-1.426569 -8.718575
-1.435189 -8.503632
-1.443593 -8.287798
-1.451779 -8.065991
-1.459741 -7.841809
-1.467478 -7.615941
-1.474987 -7.386153
-1.482265 -7.155294
-1.489310 -6.919656
-1.496117 -6.682073
-1.502687 -6.444174
-1.509017 -6.201552
-1.515103 -5.958062
-1.520945 -5.716060
-1.526544 -5.468011
-1.531892 -5.218547
-1.536992 -4.970513
-1.541841 -4.716911
-1.546434 -4.460364
-1.550771 -4.204338
-1.554851 -3.947083
-1.558672 -3.687358
-1.562234 -3.428788
-1.565535 -3.166723
-1.568573 -2.904661
-1.571351 -2.644081
-1.573866 -2.381664
-1.576119 -2.118608
-1.578108 -1.855657
-1.579834 -1.592538
-1.581295 -1.327543
-1.582491 -1.061789
-1.583422 -0.798998
-1.584091 -0.536248
-1.584495 -0.270650
-1.584634 -0.009026
-1.584512 0.254471
-1.584125 0.518164
-1.583476 0.777556
-1.582567 1.039618
-1.581395 1.300720
-1.579964 1.557542
-1.578276 1.816484
-1.576328 2.075515
-1.574123 2.329424
-1.571665 2.580838
-1.568958 2.826212
-1.566011 3.059529
-1.562837 3.280105
-1.559449 3.487749
-1.555858 3.686465
-1.552069 3.881790
-1.548087 4.075504
-1.543911 4.267401
-1.539544 4.456140
-1.534990 4.643599
-1.530248 4.830481
-1.525321 5.013883
-1.520211 5.194638
-1.514921 5.375409
-1.509451 5.552604
-1.503805 5.728236
-1.497984 5.901332
-1.491992 6.070716
-1.485831 6.237889
-1.479505 6.400321
-1.473018 6.560184
-1.466374 6.711811
-1.459586 6.848506
-1.452667 6.975309
-1.445625 7.093031
-1.438470 7.201301
-1.431209 7.304012
-1.423849 7.400790
-1.416394 7.494863
-1.408845 7.588417
-1.401203 7.677696
-1.393474 7.765530
-1.385657 7.851369
-1.377756 7.935397
-1.369771 8.019068
-1.361704 8.096627
-1.353563 8.170612
-1.345347 8.243669
-1.337060 8.313591
-1.328705 8.378522
-1.320287 8.440153
-1.311812 8.488809
-1.303300 8.515200
-1.294762 8.548197
-1.286190 8.571027
-1.277633 8.503856
-1.269204 8.320896
-1.261006 8.044787
-1.253117 7.710476
-1.245578 7.351218
-1.238409 6.966189
-1.231642 6.549355
-1.225304 6.110706
-1.219414 5.655224
-1.213987 5.185304
-1.209039 4.696039
-1.204602 4.159885
-1.200732 3.560850
-1.197487 2.917731
-1.194901 2.244715
-1.192998 1.559070
-1.191775 0.888374
-1.191209 0.249071
-1.191262 -0.348398
-1.191887 -0.889276
-1.193021 -1.367020
-1.194602 -1.777887
-1.196554 -2.108800
-1.198798 -2.362137
-1.201257 -2.536775
-1.203849 -2.628710
-1.206492 -2.637585
-1.209101 -2.562358
-1.211594 -2.403014
-1.213882 -2.154955
-1.215878 -1.818727
-1.217493 -1.392533
-1.218635 -0.873909
-1.219211 -0.259737
-1.219124 0.448804
-1.218282 1.250195
-1.216588 2.149681
-1.213946 3.143767
-1.210264 4.228183
-1.205450 5.405982
-1.199411 6.675389
-1.192056 8.036380
-1.183290 9.493261
-1.173020 11.040552
-1.161158 12.675370
-1.147616 14.392876
-1.132318 16.184689
-1.115192 18.044393
-1.096172 19.966965
-1.075199 21.945874
-1.052221 23.973262
-1.027190 26.045098
-1.000067 28.151830
-0.970821 30.286391
-0.939424 32.449230
-0.905850 34.633957
-0.870081 36.834939
-0.832102 39.047503
-0.791906 41.265579
-0.749489 43.483431
-0.704856 45.689110
-0.658025 47.875463
-0.609020 50.029576
-0.557881 52.139989
-0.504654 54.195185
-0.449406 56.176860
-0.392218 58.069641
-0.333185 59.858929
-0.272421 61.526351
-0.210056 63.054371
-0.146238 64.426675
-0.081132 65.625499
-0.014918 66.637801
0.052210 67.449180
0.120044 68.045306
0.188361 68.412119
0.256928 68.547929
0.325508 68.426072
0.393832 68.048373
0.461688 67.512659
0.529031 67.091982
0.596301 67.554367
0.664639 69.107615
0.734669 70.702807
0.805986 71.697560
0.877842 71.596151
0.948523 69.103086
1.015305 63.970754
1.076028 57.145256
1.129470 49.600187
1.175078 41.306935
1.212874 35.131987
1.243321 22.691294
1.267107 36.640355
1.284984 -44.389729
1.297659 232.483044
1.305714 -823.413657
0.000000 -827.912754
0.000000 221.838554
0.000000 -59.441461
0.000000 15.927292
0.000000 -4.267705
0.000000 1.143528
0.000000 -0.306407
0.000000 0.082102
0.000000 -0.021999
0.000000 0.005895
0.000000 -0.001579
0.000000 0.000423
0.000000 -0.000113
0.000000 0.000030
0.000000 -0.000008
0.000000 0.000002
0.000000 -0.000001
0.000000 0.000000
0.000000 -0.000000
0.000000 0.000000
0.000000 -0.000000
0.000000 0.000000
0.000000 -0.000000
0.000000 0.000000
0.000000 -0.000000
0.000000 0.000000
0.000000 -0.000000
0.000000 0.000000
0.000000 -0.000000
0.000000 0.000000
0.000000 -0.000000
0.000000 0.000000
0.000000 -0.000000
0.000000 0.000000
0.000000 -0.000000
0.000000 0.000000
0.000000 -0.000000
0.000000 0.000000
0.000000 -0.000000
0.000000 0.000000
0.000000 -0.000000
0.000000 0.000000
0.000000 -0.000000
0.000000 0.000000
0.000000 -0.000000
0.000000 0.000000
0.000000 -0.000000
0.000000 0.000000
0.000000 -0.000000
0.000000 0.000000
0.000000 -0.000000
0.000000 0.000000
0.000000 -0.000000
0.000000 0.000000
0.000000 -0.000000
0.000000 0.000000
0.000000 -0.000000
0.000000 0.000000
0.000000 -0.000000
0.000000 0.000000
0.000000 -0.000000
0.000000 0.000000
0.000000 -0.000000
0.000000 0.000000
0.000000 -0.000000
0.000000 0.000000
0.000000 -0.000000
0.000000 0.000000
0.000000 -0.000000
0.000000 0.000000
0.000000 -0.000000
0.000000 0.000000
0.000000 -0.000000
0.000000 0.000000
0.000000 -0.000000
0.000000 0.000000
0.000000 -0.000000
0.000000 0.000000
0.000000 -0.000000
0.000000 0.000000
0.000000 -0.000000
0.000000 0.000000
0.000000 -0.000000
0.000000 0.000000
0.000000 -0.000000
0.000000 0.000000
0.000000 -0.000000
0.000000 0.000000
0.000000 -0.000000
0.000000 0.000000
0.000000 -0.000000
0.000000 0.000000
0.000000 -0.000000
0.000000 0.000000
0.000000 -0.000000
0.000000 0.000000
0.000000 -0.000000
0.000000 0.000000
0.000000 -0.000000
0.000000 0.000000
0.000000 -0.000000
0.000000 0.000000
0.000000 -0.000000
0.000000 0.000000
0.000000 -0.000000
0.000000 0.000000
0.000000 -0.000000
0.000000 0.000000
0.000000 -0.000000
0.000000 0.000000
0.000000 -0.000000
0.000000 0.000000
0.000000 -0.000000
0.000000 0.000000
0.000000 -0.000000
0.000000 0.000000
0.000000 -0.000000
0.000000 0.000000
0.000000 -0.000000
0.000000 0.000000
0.000000 -0.000000
0.000000 0.000000
0.000000 -0.000000
0.000000 0.000000
0.000000 -0.000000
0.000000 0.000000
0.000000 -0.000000
0.000000 0.000000
0.000000 -0.000000
0.000000 0.000000
0.000000 -0.000000
0.000000 0.000000
0.000000 -0.000000
0.000000 0.000000
0.000000 -0.000000
0.000000 0.000000
0.000000 -0.000000
0.000000 0.000000
0.000000 -0.000000
0.000000 0.000000
0.000000 -0.000000
0.000000 0.000000
0.000000 -0.000000
0.000000 0.000000
0.000000 -0.000000
0.000000 0.000000
0.000000 -0.000000
0.000000 0.000000
0.000000 -0.000000
0.000000 0.000000
0.000000 -0.000000
0.000000 0.000000
0.000000 -0.000000
0.000000 0.000000
0.000000 -0.000000
0.000000 0.000000
0.000000 -0.000000
0.000000 0.000000
0.000000 -0.000000
0.000000 0.000000
0.000000 -0.000000
0.000000 0.000000
0.000000 -0.000000
0.000000 0.000000
0.000000 -0.000000
0.000000 0.000000
0.000000 -0.000000
0.000000 0.000000
0.000000 -0.000000
0.000000 0.000000
0.000000 -0.000000
0.000000 0.000000
0.000000 -0.000000
0.000000 0.000000
0.000000 -0.000000
0.000000 0.000000
0.000000 -0.000000
0.000000 0.000000
0.000000 -0.000000
0.000000 0.000000
0.000000 -0.000000
0.000000 0.000000
0.000000 -0.000000
0.000000 0.000000
0.000000 -0.000000
0.000000 0.000000
0.000000 -0.000000
0.000000 0.000000
0.000000 -0.000000
0.000000 0.000000
0.000000 -0.000000
0.000000 0.000000
0.000000 -0.000000
0.000000 0.000000
0.000000 -0.000000
0.000000 0.000000
0.000000 -0.000000
0.000000 0.000000
0.000000 -0.000000
0.000000 0.000000
0.000000 -0.000000
0.000000 0.000000
0.000000 -0.000000
0.000000 0.000000
0.000000 -0.000000
0.000000 0.000000
0.000000 -0.000000
0.000000 0.000000
0.000000 -0.000000
0.000000 0.000000
0.000000 -0.000000
0.000000 0.000000
0.000000 -0.000000
0.000000 0.000000
0.000000 -0.000000
0.000000 0.000000
0.000000 -0.000000
0.000000 0.000000
0.000000 -0.000000
0.000000 0.000000
0.000000 -0.000000
0.000000 0.000000
0.000000 -0.000000
0.000000 0.000000
0.000000 -0.000000
0.000000 0.000000
0.000000 -0.000000
0.000000 0.000000
0.000000 -0.000000
0.000000 0.000000
0.000000 -0.000000
0.000000 0.000000
0.000000 -0.000000
0.000000 0.000000
0.000000 -0.000000
0.000000 0.000000
0.000000 -0.000000
0.000000 0.000000
0.000000 -0.000000
0.000000 0.000000
0.000000 -0.000000
0.000000 0.000000
0.000000 -0.000000
0.000000 0.000000
0.000000 -0.000000
0.000000 0.000000
0.000000 -0.000000
0.000000 0.000000
0.000000 -0.000000
0.000000 0.000000
0.000000 -0.000000
0.000000 0.000000
0.000000 -0.000000
0.000000 0.000000
0.000000 -0.000000
0.000000 0.000000
0.000000 -0.000000
0.000000 0.000000
0.000000 -0.000000
0.000000 0.000000
0.000000 -0.000000
0.000000 0.000000
0.000000 -0.000000
0.000000 0.000000
0.000000 -0.000000
0.000000 0.000000
0.000000 -0.000000
0.000000 0.000000
0.000000 -0.000000
0.000000 0.000000
0.000000 -0.000000
0.000000 0.000000
0.000000 -0.000000
0.000000 0.000000
0.000000 -0.000000
0.000000 0.000000
0.000000 -0.000000
0.000000 0.000000
0.000000 -0.000000
0.000000 0.000000
0.000000 -0.000000
0.000000 0.000000
0.000000 -0.000000
0.000000 0.000000
0.000000 -0.000000
0.000000 0.000000
0.000000 -0.000000
0.000000 0.000000
0.000000 -0.000000
0.000000 0.000000
0.000000 -0.000000
0.000000 0.000000
0.000000 -0.000000
0.000000 0.000000
0.000000 -0.000000
0.000000 0.000000
0.000000 -0.000000
0.000000 0.000000
0.000000 -0.000000
0.000000 0.000000
0.000000 -0.000000
0.000000 0.000000
0.000000 -0.000000
0.000000 0.000000
0.000000 -0.000000
0.000000 0.000000
0.000000 -0.000000
0.000000 0.000000
0.000000 -0.000000
0.000000 0.000000
0.000000 -0.000000
0.000000 0.000000
0.000000 -0.000000
0.000000 0.000000
0.000000 -0.000000
0.000000 0.000000
0.000000 -0.000000
0.000000 0.000000
0.000000 -0.000000
0.000000 0.000000
0.000000 -0.000000
0.000000 0.000000
0.000000 -0.000000
0.000000 0.000000
0.000000 -0.000000
0.000000 0.000000
0.000000 -0.000000
0.000000 0.000000
0.000000 -0.000000
0.000000 0.000000
0.000000 -0.000000
0.000000 0.000000
0.000000 -0.000000
0.000000 0.000000
0.000000 -0.000000
0.000000 0.000000
0.000000 -0.000000
0.000000 0.000000
0.000000 -0.000000
0.000000 0.000000
0.000000 -0.000000
0.000000 0.000000
0.000000 -0.000000
0.000000 0.000000
0.000000 -0.000000
0.000000 0.000000
0.000000 -0.000000
0.000000 0.000000
0.000000 -0.000000
0.000000 0.000000
0.000000 -0.000000
0.000000 0.000000
0.000000 -0.000000
0.000000 0.000000
0.000000 -0.000000
0.000000 0.000000
0.000000 -0.000000
0.000000 0.000000
0.000000 -0.000000
0.000000 0.000000
0.000000 -0.000000
0.000000 0.000000
0.000000 -0.000000
0.000000 0.000000
0.000000 -0.000000
0.000000 0.000000
0.000000 -0.000000
0.000000 0.000000
0.000000 -0.000000
0.000000 0.000000
0.000000 -0.000000
0.000000 0.000000
0.000000 -0.000000
0.000000 0.000000
0.000000 -0.000000
0.000000 0.000000
0.000000 -0.000000
0.000000 0.000000
0.000000 -0.000000
0.000000 0.000000
0.000000 -0.000000
0.000000 0.000000
0.000000 -0.000000
0.000000 0.000000
0.000000 -0.000000
0.000000 0.000000
0.000000 -0.000000
0.000000 0.000000
0.000000 -0.000000
0.000000 0.000000
0.000000 -0.000000
0.000000 0.000000
0.000000 -0.000000
0.000000 0.000000
0.000000 -0.000000
0.000000 0.000000
0.000000 -0.000000
0.000000 0.000000
0.000000 -0.000000
0.000000 0.000000
0.000000 -0.000000
0.951025 -29.233784
