0.093060 0.103577 0.593437
-0.810094 -6.862083
-0.814782 -2.770116
-0.816169 -0.264953
-0.815722 1.014357
-0.814389 1.543207
-0.812807 1.549528
-0.811401 1.213567
-0.810452 0.654273
-0.810135 -0.036037
-0.810544 -0.786785
-0.811710 -1.537196
-0.813611 -2.256398
-0.816214 -2.936446
-0.819468 -3.551157
-0.823291 -4.069074
-0.827575 -4.468294
-0.832193 -4.735718
-0.837012 -4.873978
-0.841913 -4.900880
-0.846791 -4.828446
-0.851545 -4.651846
-0.856079 -4.402034
-0.860309 -4.006558
-0.864161 -3.791142
-0.867626 -2.756079
-0.870345 -3.719754
-0.873953 -1.329319
-0.868885 13.413614
-0.849318 21.505725
-0.828861 20.514631
-0.807792 20.892082
-0.787616 19.529073
-0.768661 18.264540
-0.751130 16.760640
-0.735113 15.236561
-0.720616 13.744298
-0.707595 12.257198
-0.695574 12.276504
-0.682399 14.151439
-0.667442 15.430725
-0.651896 15.543664
-0.636537 15.018030
-0.622008 13.956401
-0.608676 12.654407
-0.596697 11.284361
-0.586057 9.995915
-0.576619 8.904375
-0.568134 8.103437
-0.560290 7.620259
-0.552778 7.435931
-0.545316 7.513227
-0.537666 7.801716
-0.529644 8.248931
-0.521118 8.799541
-0.512010 9.401875
-0.502292 10.012183
-0.491974 10.596428
-0.481094 11.133760
-0.469704 11.612405
-0.457869 12.022390
-0.445661 12.354447
-0.433163 12.601940
-0.420462 12.761610
-0.407644 12.832119
-0.394800 12.816694
-0.382013 12.718200
-0.369365 12.539844
-0.356935 12.281432
-0.344791 11.983265
-0.332934 11.717485
-0.321339 11.433361
-0.310071 11.069388
-0.299200 10.637909
-0.288796 10.139827
-0.278920 9.582945
-0.269628 8.974701
-0.260966 8.324660
-0.252972 7.642987
-0.245672 6.940912
-0.239080 6.230146
-0.233198 5.522173
-0.228020 4.828041
-0.223524 4.158421
-0.219683 3.522724
-0.216457 2.931861
-0.213794 2.400376
-0.211628 1.939892
-0.209884 1.558291
-0.208481 1.258583
-0.207329 1.062937
-0.206301 1.022166
-0.205237 1.118976
-0.204034 1.295659
-0.202622 1.535002
-0.200944 1.826514
-0.198951 2.160211
-0.196607 2.528513
-0.193880 2.923519
-0.190748 3.337419
-0.187195 3.763775
-0.183211 4.195855
-0.178795 4.627772
-0.173948 5.055141
-0.168677 5.473623
-0.162994 5.879104
-0.156913 6.268150
-0.150452 6.637474
-0.143632 6.984286
-0.136478 7.305927
-0.129015 7.600503
-0.121271 7.865611
-0.113279 8.097011
-0.105052 8.354738
-0.096532 8.673005
-0.087691 8.983915
-0.078560 9.253763
-0.069178 9.485403
-0.059584 9.675573
-0.049821 9.823690
-0.039932 9.929143
-0.029957 9.992183
-0.019941 10.013623
-0.009923 9.995056
0.000056 9.938403
0.009961 9.846329
0.019758 9.721682
0.029415 9.568007
0.038905 9.389072
0.048204 9.188181
0.057294 8.970985
0.066160 8.740739
0.074790 8.501451
0.083178 8.257538
0.091321 8.011414
0.099217 7.766051
0.106869 7.521567
0.114277 7.281150
0.121448 7.047512
0.128389 6.822346
0.135109 6.606248
0.141619 6.402319
0.147931 6.212673
0.154061 6.036108
0.160022 5.879746
0.165838 5.740810
0.171522 5.621722
0.177100 5.525372
0.182591 5.450942
0.188021 5.402325
0.193415 5.377302
0.198795 5.378116
0.204190 5.405315
0.209626 5.458297
0.215127 5.538174
0.220721 5.642335
0.226432 5.772414
0.232286 5.927690
0.238306 6.104093
0.244514 6.302606
0.250930 6.520943
0.257574 6.755590
0.264460 7.005719
0.271604 7.268512
0.279015 7.539845
0.286701 7.819474
0.294670 8.102576
0.302922 8.384518
0.311457 8.667450
0.320273 8.945085
0.329361 9.210867
0.338710 9.467160
0.348310 9.710768
0.358144 9.934657
0.368192 10.138731
0.378435 10.321059
0.388846 10.477413
0.399402 10.609936
0.410078 10.713500
0.420842 10.788926
0.431669 10.840143
0.442534 10.863945
0.453412 10.865984
0.464280 10.844360
0.475116 10.803567
0.485903 10.744190
0.496620 10.668666
0.507257 10.581116
0.517800 10.481844
0.528240 10.375434
0.538569 10.261168
0.548782 10.145406
0.558879 10.028716
0.568859 9.910988
0.578722 9.794799
0.588471 9.685020
0.598113 9.579670
0.607650 9.477976
0.617091 9.384966
0.626441 9.299072
0.635709 9.218709
0.644900 9.146602
0.654023 9.082342
0.663085 9.023513
0.672091 8.971247
0.681048 8.927921
0.689966 8.888632
0.698845 8.853389
0.707693 8.827032
0.716517 8.803121
0.725318 8.783786
0.734104 8.768969
0.742876 8.758822
0.751640 8.751074
0.760396 8.744834
0.769149 8.744998
0.777904 8.747035
0.786662 8.754151
0.795432 8.768993
0.804220 8.790599
0.813033 8.819321
0.821878 8.853370
0.830759 8.890254
0.839677 8.927555
0.848633 8.967787
0.857630 9.007756
0.866666 9.046880
0.875742 9.087406
0.884859 9.127022
0.894015 9.165876
0.903209 9.204402
0.912441 9.241577
0.921710 9.278457
0.931017 9.316019
0.940361 9.352958
0.949742 9.389717
0.959159 9.425905
0.968612 9.462380
0.978102 9.498763
0.987629 9.535272
0.997192 9.571383
1.006791 9.607195
1.016426 9.643426
1.026097 9.681118
1.035807 9.717955
1.045553 9.754964
1.055337 9.793846
1.065160 9.832461
1.075022 9.871095
1.084923 9.912385
1.094867 9.955009
1.104852 9.995261
1.114877 10.035059
1.124942 10.074662
1.135047 10.115757
1.145195 10.158807
1.155385 10.202047
1.165621 10.249417
1.175906 10.300048
1.186242 10.352128
1.196631 10.406516
1.207076 10.460903
1.217572 10.510219
1.228115 10.553547
1.238698 10.589025
1.249312 10.616252
1.259950 10.639444
1.270610 10.658047
1.281287 10.672882
1.291977 10.685451
1.302678 10.694680
1.313388 10.704478
1.324108 10.713449
1.334836 10.723608
1.345578 10.736977
1.356332 10.750474
1.367102 10.768075
1.377891 10.790191
1.388703 10.810849
1.399537 10.837988
1.410402 10.867963
1.421293 10.895595
1.432216 10.928289
1.443171 10.959203
1.454156 10.988241
1.465170 11.017329
1.476211 11.042442
1.487275 11.061671
1.498357 11.079935
1.509455 11.091727
1.520560 11.096711
1.531670 11.099389
1.542779 11.096363
1.553883 11.088771
1.564978 11.079504
1.576064 11.068944
1.587138 11.058109
1.598203 11.049122
1.609258 11.039598
1.620305 11.034391
1.631350 11.032708
1.642393 11.030410
1.653435 11.033854
1.664484 11.040702
1.675539 11.047974
1.686604 11.061363
1.697684 11.076691
1.708780 11.094654
1.719898 11.117448
1.731038 11.142495
1.742206 11.169587
1.753400 11.199053
1.764627 11.232539
1.775888 11.265648
1.787182 11.301963
1.798515 11.341049
1.809887 11.379811
1.821299 11.421128
1.832752 11.462814
1.844247 11.504876
1.855786 11.548256
1.867367 11.590625
1.878990 11.633772
1.890658 11.677130
1.902367 11.718068
1.914118 11.761037
1.925888 11.730650
1.937539 11.508356
1.948867 11.104792
1.959748 10.632864
1.970169 10.203250
1.980214 9.891769
1.990029 9.752397
1.999793 9.778547
2.009630 9.876237
2.019553 9.934621
2.029472 9.853127
2.039207 9.558253
2.048530 9.028151
2.057208 8.276489
2.065039 7.344934
2.071869 6.284014
2.077595 5.149395
2.082171 3.993033
2.085596 2.858149
2.087914 1.784378
2.089197 0.796171
2.089540 -0.093372
2.089048 -0.870900
2.087835 -1.533097
2.086014 -2.087604
2.083691 -2.536017
2.080969 -2.888211
2.077938 -3.153383
2.074682 -3.341860
2.071268 -3.469410
2.067753 -3.546413
2.064181 -3.584500
2.060585 -3.599138
2.056980 -3.601274
2.053376 -3.599340
2.049771 -3.605862
2.046153 -3.625927
2.042506 -3.663756
2.038809 -3.726740
2.035037 -3.814534
2.031163 -3.930050
2.027159 -4.074944
2.022997 -4.246533
2.018649 -4.442517
2.014095 -4.661372
2.009310 -4.901446
2.004277 -5.158797
1.998979 -5.426697
1.993410 -5.702453
1.987562 -5.980201
1.981439 -6.253964
1.975043 -6.523291
1.968381 -6.785470
1.961462 -7.037086
1.954297 -7.277981
1.946894 -7.510096
1.939265 -7.731303
1.931419 -7.944315
1.923363 -8.150886
1.915103 -8.350568
1.906647 -8.543330
1.898000 -8.732984
1.889165 -8.919956
1.880144 -9.103588
1.870940 -9.285995
1.861553 -9.468098
1.851985 -9.649783
1.842235 -9.830488
1.832303 -10.013039
1.822189 -10.195546
1.811892 -10.377318
1.801412 -10.562362
1.790747 -10.745731
1.779899 -10.929404
1.768866 -11.113449
1.757650 -11.295972
1.746251 -11.480010
1.734668 -11.660938
1.722906 -11.841986
1.710961 -12.022683
1.698837 -12.199955
1.686537 -12.376171
1.674061 -12.549749
1.661413 -12.721693
1.648594 -12.889632
1.635608 -13.055999
1.622457 -13.219006
1.609145 -13.377239
1.595676 -13.533411
1.582052 -13.686318
1.568277 -13.834635
1.554357 -13.979489
1.540291 -14.122283
1.526085 -14.260934
1.511742 -14.396200
1.497265 -14.528081
1.482658 -14.655140
1.467926 -14.780312
1.453069 -14.903520
1.438091 -15.020400
1.422998 -15.135524
1.407791 -15.246731
1.392475 -15.355185
1.377051 -15.460092
1.361527 -15.555634
1.345916 -15.629071
1.330256 -15.646850
1.314607 -15.618224
1.298992 -15.580551
1.283415 -15.541486
1.267878 -15.501732
1.252381 -15.460731
1.236927 -15.415331
1.221519 -15.372195
1.206152 -15.328261
1.190833 -15.280016
1.175561 -15.232174
1.160339 -15.182712
1.145166 -15.132322
1.130044 -15.079882
1.114976 -15.026110
1.099962 -14.971774
1.085004 -14.915117
1.070102 -14.857342
1.055260 -14.797452
1.040478 -14.736153
1.025758 -14.674186
1.011101 -14.610130
0.996509 -14.543860
0.981985 -14.475659
0.967530 -14.405694
0.953146 -14.333364
0.938835 -14.258248
0.924601 -14.181739
0.910444 -14.103523
0.896367 -14.021104
0.882374 -13.938059
0.868464 -13.853638
0.854640 -13.764900
0.840907 -13.675099
0.827263 -13.584077
0.813712 -13.490215
0.800256 -13.394301
0.786898 -13.295804
0.773638 -13.197006
0.760478 -13.095496
0.747422 -12.991525
0.734469 -12.887218
0.721622 -12.780568
0.708883 -12.672059
0.696253 -12.562675
0.683733 -12.452439
0.671325 -12.338671
0.659031 -12.224508
0.646851 -12.110683
0.634787 -11.992798
0.622841 -11.874921
0.611013 -11.756367
0.599306 -11.635065
0.587720 -11.514321
0.576255 -11.392147
0.564913 -11.269763
0.553693 -11.145659
0.542599 -11.020770
0.531630 -10.896019
0.520786 -10.769538
0.510069 -10.643445
0.499478 -10.516270
0.489016 -10.388110
0.478681 -10.261625
0.468469 -10.142525
0.458371 -10.035473
0.448382 -9.917840
0.438460 -9.966789
0.428302 -10.393906
0.417579 -11.039848
0.406183 -11.738020
0.394059 -12.496254
0.381157 -13.279972
0.367476 -14.051759
0.353027 -14.818244
0.337802 -15.609143
0.321764 -16.441143
0.304874 -17.311789
0.287088 -18.234660
0.268350 -19.210902
0.248612 -20.233361
0.227830 -21.295186
0.205973 -22.375209
0.183036 -23.452237
0.159031 -24.501753
0.134001 -25.497805
0.108010 -26.416705
0.081148 -27.236098
0.053522 -27.939540
0.025257 -28.512198
-0.003513 -28.944757
-0.032643 -29.232774
-0.061986 -29.370181
-0.091395 -29.367671
-0.120730 -29.214279
-0.149870 -29.023955
-0.178898 -29.018515
-0.207969 -29.024966
-0.236954 -28.876326
-0.265752 -28.646834
-0.294276 -28.328995
-0.322440 -27.930796
-0.350168 -27.458091
-0.377389 -26.918238
-0.404039 -26.319862
-0.430065 -25.672067
-0.455414 -24.961796
-0.480011 -24.167952
-0.503773 -23.298072
-0.526634 -22.370692
-0.548546 -21.403369
-0.569477 -20.414457
-0.589414 -19.420171
-0.608359 -18.435051
-0.626328 -17.470946
-0.643346 -16.537261
-0.659448 -15.641692
-0.674675 -14.789526
-0.689072 -13.983635
-0.702686 -13.225398
-0.715565 -12.514465
-0.727755 -11.848530
-0.739300 -11.224701
-0.750240 -10.639140
-0.760611 -10.088114
-0.770447 -9.568014
-0.779776 -9.075602
-0.788624 -8.607520
-0.797015 -8.160568
-0.804968 -7.732340
-0.812500 -7.320132
-0.819627 -6.921809
-0.826362 -6.535589
-0.832715 -6.159883
-0.838697 -5.793766
-0.844317 -5.435660
-0.849582 -5.085509
-0.854507 -4.762714
-0.859150 -4.538474
-0.863675 -4.558051
-0.868334 -4.754593
-0.873170 -4.880507
-0.878044 -4.822445
-0.882735 -4.497700
-0.886941 -3.853577
-0.890397 -3.050265
-0.893059 -2.280196
-0.894993 -1.604040
-0.896312 -1.051198
-0.897141 -0.626899
-0.897604 -0.315524
-0.897799 -0.083485
-0.897777 0.131820
-0.897542 0.327385
-0.897122 0.521086
-0.896581 0.466514
-0.896360 -0.101460
-0.896885 -0.970079
-0.897987 -0.895803
-0.898449 -0.136211
-0.898460 0.022587
-0.898469 -0.011859
-0.898467 0.004304
-0.898467 -0.001376
-0.898467 0.000407
-0.898467 -0.000114
-0.898467 0.000030
-0.898467 -0.000008
-0.898467 0.000002
-0.898467 -0.000000
-0.898467 0.000000
-0.898467 -0.000000
-0.898467 0.000000
-0.898467 -0.000000
-0.898467 0.000000
-0.898467 -0.000000
-0.898467 0.000000
-0.898467 -0.000000
-0.898467 0.000000
-0.898467 -0.000000
-0.898467 0.000000
-0.898467 -0.000000
-0.898467 0.000000
-0.898467 0.000000
-0.898467 -0.000000
-0.898467 0.000000
-0.898467 -0.000000
-0.898467 0.000000
-0.898467 -0.000000
-0.898467 0.000000
-0.898467 -0.000000
-0.898467 0.000000
-0.898467 -0.000000
-0.898467 0.000000
-0.898467 -0.000000
-0.898467 0.000000
-0.898467 -0.000000
-0.898467 0.000002
-0.898467 -0.000006
-0.898467 0.000024
-0.898467 -0.000086
-0.898467 0.000301
-0.898467 -0.000982
-0.898468 0.002894
-0.898466 -0.007131
-0.898470 0.017245
-0.898353 0.278500
-0.897877 0.646635
-0.897114 0.847059
-0.896204 0.978833
-0.895206 0.956414
-0.894368 0.698836
-0.893823 0.393448
-0.893516 0.281587
-0.893210 0.315703
-0.892893 0.320419
-0.892566 0.333821
-0.892223 0.354070
-0.891859 0.368372
-0.891488 0.375482
-0.891106 0.386876
-0.890714 0.396811
-0.890312 0.406460
-0.889899 0.418606
-0.889472 0.434790
-0.889029 0.449555
-0.888572 0.463203
-0.888101 0.478900
-0.887617 0.485519
-0.887131 0.488242
-0.886638 0.494208
-0.886140 0.503035
-0.885629 0.518969
-0.885103 0.529698
-0.884568 0.541007
-0.884022 0.546348
-0.883478 0.542005
-0.882935 0.542852
-0.882388 0.552572
-0.881829 0.561730
-0.881264 0.568673
-0.880692 0.572107
-0.880123 0.562096
-0.879564 0.559497
-0.879000 0.565078
-0.878434 0.566573
-0.877865 0.570635
-0.877295 0.563043
-0.876740 0.549508
-0.876191 0.548726
-0.875641 0.548094
-0.875093 0.549331
-0.874545 0.541418
-0.874012 0.524562
-0.873491 0.517829
-0.872975 0.513214
-0.872462 0.512139
-0.871952 0.502172
-0.871460 0.482565
-0.870983 0.473454
-0.870511 0.467714
-0.870045 0.466181
-0.869580 0.457956
-0.869133 0.436372
-0.868704 0.422765
-0.868284 0.417414
-0.867867 0.415173
-0.867451 0.416000
-0.867038 0.405472
-0.866641 0.390521
-0.866254 0.382982
-0.865874 0.377067
-0.865498 0.374126
-0.865124 0.373679
-0.864749 0.375877
-0.864371 0.380662
-0.863986 0.387899
-0.863593 0.397226
-0.863190 0.408223
-0.862776 0.420053
-0.862349 0.432389
-0.861911 0.442024
-0.861464 0.453292
-0.861002 0.468695
-0.860524 0.487653
-0.860023 0.515150
-0.859494 0.539841
-0.858945 0.554816
-0.858384 0.566871
-0.857809 0.583978
-0.857212 0.608541
-0.856590 0.635684
-0.855944 0.651015
-0.855289 0.657870
-0.854626 0.667251
-0.853952 0.680192
-0.853262 0.698756
-0.852553 0.719097
-0.851824 0.734541
-0.851085 0.741785
-0.850340 0.747083
-0.849589 0.752152
-0.848834 0.756652
-0.848075 0.760120
-0.847312 0.764765
-0.846544 0.769721
-0.845770 0.777011
-0.844987 0.788487
-0.844192 0.799674
-0.843387 0.807707
-0.842576 0.811718
-0.841762 0.814206
-0.840946 0.816118
-0.840129 0.817378
-0.839310 0.817740
-0.838492 0.816991
-0.837674 0.816863
-0.836857 0.816082
-0.836039 0.819363
-0.835214 0.829134
-0.834379 0.838498
-0.833537 0.842004
-0.832696 0.838992
-0.831859 0.833458
-0.831028 0.826671
-0.830204 0.819365
-0.829387 0.811663
-0.828578 0.805602
-0.827772 0.806414
-0.826963 0.811097
-0.826151 0.809169
-0.825345 0.799428
-0.824551 0.786324
-0.823771 0.772135
-0.823006 0.757514
-0.822255 0.741462
-0.821521 0.725479
-0.820803 0.710494
-0.820097 0.702177
-0.819395 0.698902
-0.818700 0.689174
-0.818018 0.672540
-0.817354 0.652895
-0.816711 0.632536
-0.816088 0.612076
-0.815486 0.590038
-0.814907 0.566819
-0.814351 0.544379
-0.813816 0.523994
-0.813299 0.513847
-0.812787 0.505547
-0.812290 0.487950
-0.811812 0.465614
-0.811358 0.440996
-0.810929 0.416617
-0.810524 0.392674
-0.810143 0.368461
-0.809786 0.343986
-0.809454 0.319421
-0.809146 0.295978
-0.808861 0.276034
-0.808592 0.261408
-0.808336 0.250135
-0.808093 0.235245
-0.807867 0.215708
-0.807661 0.195603
-0.807475 0.176257
-0.807308 0.157701
-0.807159 0.140048
-0.807027 0.123338
-0.806912 0.107596
-0.806811 0.092851
-0.806725 0.079132
-0.806653 0.066435
-0.806592 0.054766
-0.806543 0.044136
-0.806503 0.034597
-0.806473 0.025873
-0.806451 0.018672
-0.806436 0.010980
-0.806427 0.009162
-0.806412 0.024186
-0.806363 0.087317
-0.806198 0.266420
-0.805765 0.637910
-0.804843 1.242552
-0.803210 2.048789
-0.800717 2.928491
-0.797370 3.741126
-0.793264 4.445292
-0.788497 5.068272
-0.783144 5.608869
-0.777299 6.056949
-0.771049 6.414933
-0.764505 6.627386
-0.757849 6.634249
-0.751300 6.409855
-0.745087 5.973624
-0.739382 5.414185
-0.734268 4.793899
-0.729805 4.114202
-0.726049 3.383118
-0.723056 2.580400
-0.720908 1.702264
-0.719667 0.765404
-0.719397 -0.234622
-0.720152 -1.279395
-0.721962 -2.337284
-0.724823 -3.372178
-0.728691 -4.337907
-0.733470 -5.191032
-0.739031 -5.888144
-0.745188 -6.373626
-0.751705 -6.601891
-0.758303 -6.525132
-0.764670 -6.152695
-0.770546 -5.556456
-0.775753 -4.836930
-0.780214 -4.071567
-0.783898 -3.289844
-0.786806 -2.522813
-0.788961 -1.791188
-0.790408 -1.110436
-0.791205 -0.491019
-0.791414 0.060761
-0.791107 0.540867
-0.790356 0.946824
-0.789237 1.277103
-0.787825 1.530559
-0.786198 1.707226
-0.784433 1.807052
-0.782605 1.832297
-0.780788 1.786059
-0.779052 1.670778
-0.777464 1.492706
-0.776082 1.261383
-0.774953 0.988480
-0.774114 0.681879
-0.773595 0.353972
-0.773409 0.015711
-0.773565 -0.327673
-0.774061 -0.659153
-0.774874 -0.959174
-0.775966 -1.214394
-0.777288 -1.417120
-0.778785 -1.564995
-0.780402 -1.657050
-0.782084 -1.693062
-0.783774 -1.675751
-0.785422 -1.609892
-0.786983 -1.501873
-0.788418 -1.359570
-0.789696 -1.190728
-0.790795 -1.003503
-0.791702 -0.805547
-0.792407 -0.603828
-0.792911 -0.404600
-0.793220 -0.213658
-0.793343 -0.035689
-0.793297 0.125382
-0.793099 0.266043
-0.792772 0.384207
-0.792338 0.477905
-0.791823 0.546044
-0.791253 0.588483
-0.790654 0.605665
-0.790049 0.598341
-0.789463 0.568280
-0.788918 0.518211
-0.788432 0.450843
-0.788020 0.369140
-0.787696 0.277027
-0.787468 0.178181
-0.787341 0.076237
-0.787315 -0.025008
-0.787389 -0.121835
-0.787556 -0.211076
-0.787808 -0.289859
-0.788132 -0.355173
-0.788514 -0.405397
-0.788938 -0.439406
-0.789388 -0.456573
-0.789847 -0.457050
-0.790298 -0.442110
-0.790727 -0.412895
-0.791121 -0.371183
-0.791467 -0.319379
-0.791757 -0.259244
-0.791984 -0.193645
-0.792144 -0.124746
-0.792234 -0.054663
-0.792254 0.014210
-0.792206 0.080097
-0.792095 0.140957
-0.791926 0.194628
-0.791708 0.239901
-0.791449 0.276000
-0.791159 0.302270
-0.790847 0.318851
-0.790524 0.325723
-0.790198 0.322848
-0.789880 0.311628
-0.789577 0.293384
-0.789295 0.269209
-0.789039 0.241324
-0.788812 0.211671
-0.788616 0.179057
-0.788455 0.142292
-0.788332 0.102247
-0.788251 0.059628
-0.788213 0.016349
-0.788218 -0.025867
-0.788264 -0.065869
-0.788349 -0.102357
-0.788468 -0.133615
-0.788614 -0.158077
-0.788781 -0.174328
-0.788960 -0.181454
-0.789141 -0.178608
-0.789315 -0.168096
-0.789476 -0.153071
-0.789620 -0.134531
-0.789745 -0.113466
-0.789847 -0.090445
-0.789926 -0.066481
-0.789980 -0.042312
-0.790010 -0.018720
-0.790018 0.003580
-0.790004 0.023939
-0.789971 0.041919
-0.789921 0.056930
-0.789858 0.068780
-0.789784 0.077431
-0.789704 0.082601
-0.789620 0.084793
-0.789535 0.084056
-0.789452 0.080934
-0.789374 0.075744
-0.789301 0.068599
-0.789237 0.059572
-0.789183 0.048716
-0.789140 0.036249
-0.789111 0.022291
-0.789096 0.007495
-0.789096 -0.007638
-0.789111 -0.022587
-0.789141 -0.036872
-0.789184 -0.049941
-0.789240 -0.061085
-0.789306 -0.069370
-0.789378 -0.074034
-0.789453 -0.075017
-0.789527 -0.073529
-0.789599 -0.070536
-0.789668 -0.066076
-0.789731 -0.060356
-0.789789 -0.053826
-0.789839 -0.046460
-0.789881 -0.038535
-0.789916 -0.031212
-0.789943 -0.021869
-0.789962 -0.020084
-0.789976 0.004783
-0.789978 -0.046264
-0.789993 0.129652
-0.789940 -0.356411
-0.790087 1.014269
-0.789702 -2.988847
-0.810094 -6.862083
