0.057266 0.107342 0.224758
-0.533492 -0.000007
-0.533492 0.000004
-0.533492 -0.000008
-0.533492 0.000029
-0.533492 -0.000117
-0.533492 0.000483
-0.533492 -0.001987
-0.533492 0.008119
-0.533493 -0.032733
-0.533490 0.129428
-0.533497 -0.498572
-0.533493 1.854911
-0.533386 -6.587857
-0.534020 22.916243
-0.436025 206.712742
-0.153738 289.938656
0.103362 250.075682
0.363408 259.645991
0.616121 248.081477
0.861643 241.236236
1.097846 230.703578
1.322993 218.615430
1.534933 204.783937
1.731427 186.327156
1.909669 172.990661
2.070500 137.912041
2.197590 138.259033
2.373437 216.952459
2.599678 198.989045
2.759025 142.698167
2.901265 134.076071
3.023064 112.323030
3.128747 98.395603
3.220092 84.586943
3.298712 72.640920
3.365876 61.766305
3.422891 52.458396
3.468871 37.075817
3.494068 12.555999
3.494292 -11.112458
3.472994 -31.265825
3.432491 -49.041795
3.375856 -63.688116
3.305811 -75.868571
3.224723 -85.783919
3.134741 -93.690154
3.037734 -99.862861
2.935333 -104.484870
2.829008 -107.748014
2.720032 -109.780938
2.609603 -110.686202
2.498771 -110.591519
2.388530 -109.503911
2.279854 -107.489618
2.173628 -104.598665
2.070731 -100.855295
1.971976 -96.329868
1.878122 -91.075635
1.789859 -85.173318
1.707794 -78.704344
1.632452 -71.757788
1.564261 -64.433151
1.503554 -56.815429
1.450580 -49.006786
1.405469 -41.117669
1.368253 -33.254708
1.338846 -25.532663
1.317065 -18.025439
1.302647 -10.856188
1.295220 -4.021298
1.294615 2.870410
1.300869 9.470410
1.313351 15.399799
1.331525 20.807060
1.354758 25.467340
1.382260 29.375008
1.413357 32.653774
1.447425 35.309472
1.483836 37.335628
1.521965 38.745583
1.561209 39.568269
1.600983 39.798623
1.640713 39.510146
1.679918 38.727263
1.717673 36.229667
1.751509 30.912107
1.778918 23.675651
1.798661 15.701240
1.810278 7.502948
1.813706 -0.622144
1.809127 -8.461713
1.796901 -15.896472
1.777453 -22.880970
1.751254 -29.383529
1.718791 -35.393661
1.680561 -40.908744
1.637056 -45.930841
1.588772 -50.459996
1.536200 -54.496293
1.479837 -58.033490
1.420185 -61.067099
1.357729 -63.654924
1.292885 -65.831643
1.226073 -67.592182
1.157694 -68.966951
1.088124 -69.971497
1.017728 -70.624718
0.946847 -70.937122
0.875826 -70.906938
0.805000 -70.550789
0.734685 -69.890299
0.665171 -68.956285
0.596709 -67.798290
0.529519 -66.400986
0.463854 -64.762513
0.399929 -62.930299
0.337922 -60.935689
0.277984 -58.795301
0.220257 -56.525209
0.164854 -54.155106
0.111863 -51.711716
0.061339 -49.231947
0.013312 -46.716856
-0.032192 -44.211581
-0.075205 -41.721229
-0.115717 -39.229525
-0.153756 -36.778025
-0.189362 -34.372600
-0.222589 -32.025580
-0.253503 -29.753405
-0.282183 -27.564685
-0.308716 -25.461341
-0.333155 -23.352276
-0.355441 -21.166217
-0.375521 -18.954642
-0.393422 -16.844536
-0.409167 -14.503980
-0.422489 -12.251773
-0.433821 -10.377412
-0.443277 -8.541108
-0.450962 -6.828817
-0.456982 -5.215703
-0.461444 -3.723738
-0.464479 -2.359152
-0.466209 -1.120363
-0.466766 -0.013113
-0.466279 0.963366
-0.464883 1.802996
-0.462709 2.525448
-0.459881 3.085254
-0.456551 3.587423
-0.452688 4.123234
-0.448375 4.422860
-0.443898 4.529798
-0.439324 4.585644
-0.434751 4.540686
-0.430256 4.427690
-0.425908 4.250266
-0.421764 4.021951
-0.417870 3.753278
-0.414260 3.455279
-0.410958 3.139292
-0.407977 2.815513
-0.405321 2.494326
-0.402980 2.183515
-0.400941 1.896682
-0.399179 1.622338
-0.397685 1.371218
-0.396420 1.163067
-0.395343 0.996159
-0.394409 0.878189
-0.393569 0.808515
-0.392774 0.788235
-0.391975 0.816416
-0.391125 0.887670
-0.390187 0.992212
-0.389129 1.126067
-0.387923 1.287682
-0.386545 1.465267
-0.384988 1.647744
-0.383245 1.833891
-0.381316 2.022328
-0.379196 2.212447
-0.376886 2.402495
-0.374387 2.589774
-0.371704 2.770575
-0.368844 2.941589
-0.365819 3.099430
-0.362644 3.240223
-0.359339 3.360400
-0.355925 3.456791
-0.352428 3.525845
-0.348875 3.567175
-0.345298 3.574062
-0.341736 3.532128
-0.338238 3.453978
-0.334832 3.344290
-0.331555 3.198372
-0.328440 3.020166
-0.325521 2.806677
-0.322832 2.559248
-0.320408 2.278351
-0.318281 1.966239
-0.316481 1.625003
-0.315037 1.256896
-0.313973 0.864620
-0.313313 0.450465
-0.313078 0.017627
-0.313283 -0.429964
-0.313942 -0.887462
-0.315061 -1.350238
-0.316645 -1.814087
-0.318692 -2.274155
-0.321195 -2.725719
-0.324144 -3.163961
-0.327524 -3.584721
-0.331314 -3.985423
-0.335495 -4.364093
-0.340044 -4.720118
-0.344938 -5.054408
-0.350155 -5.366043
-0.355672 -5.652003
-0.361461 -5.910171
-0.367494 -6.139671
-0.373743 -6.339911
-0.380177 -6.509774
-0.386765 -6.648616
-0.393477 -6.756017
-0.400280 -6.831522
-0.407143 -6.875742
-0.414035 -6.889018
-0.420925 -6.872103
-0.427783 -6.825993
-0.434581 -6.751695
-0.441291 -6.650271
-0.447886 -6.523185
-0.454342 -6.371915
-0.460635 -6.197793
-0.466743 -6.002478
-0.472646 -5.787133
-0.478323 -5.554557
-0.483760 -5.303259
-0.488938 -5.043825
-0.493851 -4.764995
-0.498448 -4.398501
-0.502658 -4.034363
-0.506549 -3.743384
-0.510150 -3.448312
-0.513451 -3.147827
-0.516451 -2.844404
-0.519148 -2.548509
-0.521544 -2.223842
-0.523597 -1.889739
-0.525339 -1.591044
-0.526780 -1.285987
-0.527928 -1.024801
-0.528846 -0.807036
-0.529547 -0.598943
-0.530057 -0.424467
-0.530410 -0.289391
-0.530639 -0.162295
-0.530728 -0.013414
-0.530675 0.107415
-0.530534 0.165151
-0.530369 0.149915
-0.530263 0.047835
-0.530287 -0.097815
-0.530484 -0.320404
-0.530941 -0.579053
-0.531707 -1.027173
-0.532843 -1.013156
-0.533483 -0.245478
-0.533489 0.058741
-0.533493 -0.017986
-0.533492 0.005558
-0.533492 -0.001698
-0.533492 0.000508
-0.533492 -0.000148
-0.533492 0.000042
-0.533492 -0.000012
-0.533492 0.000003
-0.533492 -0.000001
-0.533492 0.000000
-0.533492 -0.000000
-0.533492 0.000000
-0.533492 -0.000000
-0.533492 0.000000
-0.533492 -0.000000
-0.533492 0.000000
-0.533492 -0.000000
-0.533492 0.000000
-0.533492 -0.000000
-0.533492 0.000000
-0.533492 -0.000000
-0.533492 0.000000
-0.533492 -0.000000
-0.533492 0.000000
-0.533492 -0.000000
-0.533492 0.000000
-0.533492 -0.000000
-0.533492 -0.000000
-0.533492 0.000000
-0.533492 -0.000000
-0.533492 0.000000
-0.533492 -0.000000
-0.533492 0.000000
-0.533492 -0.000000
-0.533492 0.000000
-0.533492 -0.000000
-0.533492 0.000000
-0.533492 -0.000000
-0.533492 0.000000
-0.533492 -0.000000
-0.533492 0.000000
-0.533492 -0.000000
-0.533492 0.000000
-0.533492 -0.000000
-0.533492 0.000001
-0.533492 -0.000002
-0.533492 0.000008
-0.533492 -0.000027
-0.533492 0.000095
-0.533492 -0.000317
-0.533492 0.001018
-0.533492 -0.003114
-0.533493 0.009006
-0.533489 -0.024651
-0.533501 0.066133
-0.533475 -0.196469
-0.533478 0.786460
-0.532445 0.137099
-0.527623 16.214423
-0.498258 37.461474
-0.460389 35.440437
-0.429774 26.024519
-0.407304 19.555747
-0.389634 16.051969
-0.374629 14.162345
-0.361014 13.071389
-0.348405 12.145736
-0.336621 11.453698
-0.325464 10.795214
-0.315141 9.740138
-0.306120 8.218716
-0.298809 6.332509
-0.293537 4.160941
-0.290547 1.784153
-0.290013 -0.735153
-0.292045 -3.331759
-0.296688 -5.943717
-0.303931 -8.516119
-0.313708 -11.000012
-0.325910 -13.354280
-0.340389 -15.545560
-0.356969 -17.547437
-0.375449 -19.341097
-0.395616 -20.914402
-0.417242 -22.255185
-0.440099 -23.379584
-0.463988 -24.321767
-0.488425 -24.167759
-0.511057 -20.073516
-0.526777 -10.479256
-0.532523 -2.344992
-0.533452 -0.144569
-0.533497 0.005900
-0.533491 0.002512
-0.533492 -0.001137
-0.533492 0.000288
-0.533492 -0.000046
-0.533492 -0.000000
-0.533492 0.000004
-0.533492 -0.000002
-0.533492 0.000001
-0.533492 -0.000000
-0.533492 0.000000
-0.533492 -0.000000
-0.533492 0.000000
-0.533492 -0.000000
-0.533492 0.000000
-0.533492 -0.000000
-0.533492 0.000000
-0.533492 -0.000000
-0.533492 0.000000
-0.533492 -0.000000
-0.533492 0.000000
-0.533492 -0.000000
-0.533492 0.000000
-0.533492 -0.000000
-0.533492 0.000000
-0.533492 -0.000000
-0.533492 0.000000
-0.533492 -0.000000
-0.533492 0.000000
-0.533492 -0.000000
-0.533492 0.000000
-0.533492 -0.000000
-0.533492 0.000000
-0.533492 -0.000000
-0.533492 0.000000
-0.533492 -0.000000
-0.533492 0.000000
-0.533492 -0.000000
-0.533492 0.000000
-0.533492 -0.000000
-0.533492 0.000000
-0.533492 -0.000000
-0.533492 0.000000
-0.533492 -0.000000
-0.533492 0.000000
-0.533492 -0.000000
-0.533492 0.000000
-0.533492 -0.000000
-0.533492 0.000000
-0.533492 -0.000000
-0.533492 0.000000
-0.533492 -0.000000
-0.533492 0.000000
-0.533492 -0.000000
-0.533492 0.000000
-0.533492 -0.000000
-0.533492 0.000000
-0.533492 -0.000000
-0.533492 0.000000
-0.533492 -0.000000
-0.533492 0.000000
-0.533492 -0.000000
-0.533492 0.000000
-0.533492 -0.000000
-0.533492 0.000000
-0.533492 -0.000000
-0.533492 0.000000
-0.533492 -0.000000
-0.533492 0.000000
-0.533492 -0.000000
-0.533492 0.000000
-0.533492 -0.000000
-0.533492 0.000000
-0.533492 -0.000000
-0.533492 0.000000
-0.533492 -0.000000
-0.533492 0.000000
-0.533492 -0.000000
-0.533492 0.000000
-0.533492 -0.000000
-0.533492 0.000000
-0.533492 -0.000000
-0.533492 0.000000
-0.533492 -0.000000
-0.533492 0.000000
-0.533492 -0.000000
-0.533492 0.000000
-0.533492 -0.000000
-0.533492 0.000000
-0.533492 -0.000000
-0.533492 0.000000
-0.533492 -0.000000
-0.533492 0.000000
-0.533492 -0.000000
-0.533492 0.000000
-0.533492 -0.000000
-0.533492 0.000000
-0.533492 -0.000000
-0.533492 0.000000
-0.533492 -0.000000
-0.533492 0.000000
-0.533492 -0.000000
-0.533492 0.000000
-0.533492 -0.000000
-0.533492 0.000000
-0.533492 -0.000000
-0.533492 0.000000
-0.533492 -0.000000
-0.533492 0.000000
-0.533492 -0.000000
-0.533492 0.000000
-0.533492 -0.000000
-0.533492 0.000000
-0.533492 -0.000000
-0.533492 0.000000
-0.533492 -0.000000
-0.533492 0.000000
-0.533492 -0.000000
-0.533492 0.000000
-0.533492 -0.000000
-0.533492 0.000000
-0.533492 -0.000000
-0.533492 0.000000
-0.533492 -0.000000
-0.533492 0.000000
-0.533492 -0.000000
-0.533492 0.000000
-0.533492 -0.000000
-0.533492 0.000000
-0.533492 -0.000000
-0.533492 0.000000
-0.533492 -0.000000
-0.533492 0.000000
-0.533492 -0.000001
-0.533492 0.000004
-0.533492 -0.000013
-0.533492 0.000047
-0.533492 -0.000165
-0.533492 0.000559
-0.533492 -0.001820
-0.533492 0.005665
-0.533491 -0.016785
-0.533497 0.047427
-0.533477 -0.131551
-0.533524 0.396509
-0.531470 4.560465
-0.524812 7.473109
-0.517788 6.550488
-0.497907 46.958894
-0.394008 176.582164
-0.159191 261.844887
0.100626 258.456788
0.358216 254.996622
0.609919 247.909625
0.854138 239.643672
1.089039 229.437839
1.312816 217.261026
1.523381 203.240016
1.718598 185.908627
1.895808 169.290098
2.055264 145.919623
2.197560 151.383065
2.373213 201.439431
2.580654 190.989618
2.744838 148.361998
2.886688 132.746938
3.009486 113.801987
3.115884 98.945578
3.208057 85.533667
3.287634 73.654880
3.355906 62.949664
3.414121 53.627250
3.460958 37.381197
3.486169 12.776477
3.487014 -10.397897
3.466360 -30.551778
3.426705 -48.140269
3.370973 -62.764070
3.301888 -74.879842
3.221806 -84.769464
3.132839 -92.680503
3.036834 -98.868619
2.935415 -103.526282
2.830024 -106.836658
2.721936 -108.924375
2.612328 -109.900527
2.502252 -109.865658
2.392703 -108.852058
2.284639 -106.912735
2.178958 -104.092545
2.076526 -100.430412
1.978158 -95.981318
1.884614 -90.805811
1.796581 -84.981750
1.714670 -78.588009
1.639407 -71.716928
1.571221 -64.463023
1.510449 -56.917227
1.457339 -49.170565
1.412039 -41.337042
1.374573 -33.530890
1.344867 -25.853561
1.322739 -18.400751
1.307935 -11.228336
1.300172 -4.320244
1.299236 2.437442
1.304962 8.924952
1.316924 14.874904
1.334539 20.218041
1.357177 24.891170
1.384128 28.836837
1.414688 32.121853
1.448230 34.787526
1.484124 36.827560
1.521756 38.260990
1.560524 39.100196
1.599844 39.368747
1.639163 39.106020
1.677853 37.998163
1.714729 35.371844
1.747981 30.689787
1.775523 24.066704
1.795794 16.339153
1.808113 8.249991
1.812312 0.163820
1.808519 -7.688121
1.797044 -15.169424
1.778297 -22.208189
1.752742 -28.770773
1.720863 -34.839275
1.683160 -40.407931
1.640132 -45.480331
1.592276 -50.052409
1.540093 -54.128277
1.484078 -57.702493
1.424736 -60.786624
1.362537 -63.409235
1.297934 -65.601164
1.231335 -67.398764
1.163130 -68.809848
1.093702 -69.846657
1.023417 -70.525612
0.952625 -70.859061
0.881670 -70.853473
0.810885 -70.522825
0.740585 -69.886575
0.671063 -68.977574
0.602574 -67.820542
0.535363 -66.432326
0.469651 -64.821227
0.405660 -63.004361
0.343572 -61.020033
0.283546 -58.889173
0.225718 -56.632424
0.170202 -54.273830
0.117086 -51.842924
0.066429 -49.363684
0.018267 -46.861925
-0.027388 -44.355964
-0.070536 -41.858102
-0.111194 -39.379409
-0.149384 -36.929453
-0.185142 -34.525233
-0.218522 -32.177291
-0.249584 -29.897035
-0.278404 -27.700236
-0.305060 -25.565384
-0.329593 -23.452155
-0.352002 -21.308873
-0.372245 -19.139088
-0.390326 -16.993902
-0.406280 -14.890192
-0.420156 -12.845632
-0.432022 -10.874327
-0.441958 -8.996556
-0.450068 -7.224824
-0.456460 -5.565620
-0.461250 -4.024027
-0.464557 -2.607653
-0.466515 -1.325953
-0.467257 -0.177963
-0.466917 0.834467
-0.465631 1.711371
-0.463535 2.454337
-0.460761 3.066915
-0.457437 3.553872
-0.453686 3.921223
-0.449624 4.176585
-0.445359 4.328412
-0.440990 4.385837
-0.436607 4.359305
-0.432287 4.259237
-0.428101 4.096711
-0.424103 3.882870
-0.420340 3.628961
-0.416847 3.346121
-0.413648 3.045133
-0.410754 2.736462
-0.408168 2.429858
-0.405885 2.134345
-0.403890 1.855901
-0.402163 1.597746
-0.400683 1.364889
-0.399419 1.166268
-0.398333 1.011290
-0.397379 0.902894
-0.396510 0.841846
-0.395677 0.829187
-0.394835 0.862378
-0.393937 0.936838
-0.392947 1.046649
-0.391832 1.185928
-0.390565 1.348421
-0.389127 1.527181
-0.387505 1.714596
-0.385693 1.905233
-0.383690 2.097898
-0.381493 2.291647
-0.379102 2.484475
-0.376520 2.673328
-0.373753 2.854724
-0.370809 3.025340
-0.367701 3.181373
-0.364446 3.319789
-0.361062 3.437104
-0.357573 3.530028
-0.354004 3.595629
-0.350384 3.631537
-0.346746 3.631025
-0.343128 3.592230
-0.339567 3.513321
-0.336106 3.397921
-0.332776 3.249848
-0.329612 3.066679
-0.326647 2.850178
-0.323917 2.599508
-0.321454 2.316022
-0.319291 2.001311
-0.317457 1.657457
-0.315981 1.287110
-0.314888 0.892667
-0.314201 0.476686
-0.313940 0.042644
-0.314121 -0.405707
-0.314756 -0.864087
-0.315852 -1.327878
-0.317414 -1.792455
-0.319440 -2.253087
-0.321922 -2.705187
-0.324851 -3.144112
-0.328211 -3.565969
-0.331983 -3.968116
-0.336148 -4.348453
-0.340682 -4.706516
-0.345563 -5.042316
-0.350768 -5.354490
-0.356274 -5.641233
-0.362053 -5.900365
-0.368077 -6.130486
-0.374316 -6.331129
-0.380742 -6.501231
-0.387322 -6.640178
-0.394025 -6.747660
-0.400820 -6.823504
-0.407675 -6.868010
-0.414559 -6.881476
-0.421442 -6.864855
-0.428293 -6.819111
-0.435084 -6.745119
-0.441788 -6.644285
-0.448377 -6.517819
-0.454828 -6.367123
-0.461117 -6.193762
-0.467221 -5.999326
-0.473121 -5.784976
-0.478797 -5.553937
-0.484233 -5.302762
-0.489412 -5.049031
-0.494327 -4.752853
-0.498908 -4.396543
-0.503146 -4.090799
-0.507106 -3.812007
-0.510770 -3.510148
-0.514135 -3.211707
-0.517198 -2.908353
-0.519957 -2.604726
-0.522412 -2.297752
-0.524546 -1.957825
-0.526337 -1.636155
-0.527834 -1.350780
-0.529057 -1.111027
-0.530014 -0.737569
-0.530540 -0.382660
-0.530852 -0.245097
-0.531044 -0.147421
-0.531150 -0.057981
-0.531159 0.034203
-0.531096 0.083723
-0.531003 0.097510
-0.530919 0.057370
-0.530909 -0.046032
-0.531029 -0.204124
-0.531331 -0.402484
-0.531861 -0.677913
-0.532650 -0.836906
-0.533345 -0.423507
-0.533496 -0.004387
-0.533491 0.004268
-0.533492 -0.001993
-0.533492 0.000671
-0.533492 -0.000195
-0.533492 0.000051
-0.533492 -0.000013
-0.533492 0.000003
-0.533492 -0.000001
-0.533492 0.000000
-0.533492 -0.000000
-0.533492 0.000000
-0.533492 0.000000
-0.533492 -0.000000
-0.533492 0.000000
-0.533492 -0.000000
-0.533492 0.000000
-0.533492 -0.000000
-0.533492 0.000000
-0.533492 0.000000
-0.533492 -0.000000
-0.533492 0.000000
-0.533492 -0.000000
-0.533492 0.000000
-0.533492 -0.000000
-0.533492 0.000000
-0.533492 -0.000000
-0.533492 0.000000
-0.533492 -0.000000
-0.533492 0.000000
-0.533492 -0.000000
-0.533492 0.000000
-0.533492 -0.000000
-0.533492 0.000000
-0.533492 -0.000000
-0.533492 0.000000
-0.533492 -0.000000
-0.533492 0.000000
-0.533492 -0.000000
-0.533492 0.000000
-0.533492 -0.000000
-0.533492 0.000000
-0.533492 -0.000000
-0.533492 0.000000
-0.533492 -0.000000
-0.533492 0.000000
-0.533492 -0.000001
-0.533492 0.000006
-0.533492 -0.000024
-0.533492 0.000098
-0.533492 -0.000374
-0.533492 0.001347
-0.533492 -0.004436
-0.533493 0.012696
-0.533485 -0.026978
-0.533523 0.005445
-0.533289 0.594250
-0.531956 2.313694
-0.528192 5.424532
-0.521122 8.458326
-0.509978 15.332060
-0.490787 21.126399
-0.469025 22.896778
-0.444715 25.364498
-0.419927 22.793082
-0.399852 17.917165
-0.383329 15.222051
-0.369060 13.479730
-0.356110 12.434669
-0.344110 11.557698
-0.332970 10.685582
-0.322776 9.638223
-0.313789 8.245953
-0.306395 6.470168
-0.300937 4.390669
-0.297682 2.079374
-0.296827 -0.390827
-0.298494 -2.947796
-0.302737 -5.529938
-0.309554 -8.081466
-0.318890 -10.553173
-0.330641 -12.901503
-0.344669 -15.101279
-0.360804 -17.092065
-0.378664 -18.413658
-0.397656 -19.700021
-0.418189 -21.242151
-0.439987 -22.196967
-0.462761 -23.552593
-0.486554 -23.153774
-0.508091 -19.687434
-0.524752 -12.575210
-0.532613 -3.504561
-0.533548 0.230478
-0.533480 -0.015710
-0.533494 -0.005358
-0.533492 0.003186
-0.533492 -0.001107
-0.533492 0.000311
-0.533492 -0.000075
-0.533492 0.000016
-0.533492 -0.000003
-0.533492 0.000000
-0.533492 0.000000
-0.533492 -0.000000
-0.533492 0.000000
-0.533492 -0.000000
-0.533492 0.000000
-0.533492 -0.000000
-0.533492 0.000000
-0.533492 -0.000000
-0.533492 0.000000
-0.533492 -0.000000
-0.533492 0.000000
-0.533492 -0.000000
-0.533492 0.000000
-0.533492 -0.000000
-0.533492 0.000000
-0.533492 -0.000000
-0.533492 0.000000
-0.533492 -0.000000
-0.533492 0.000000
-0.533492 -0.000000
-0.533492 0.000000
-0.533492 -0.000000
-0.533492 0.000000
-0.533492 -0.000000
-0.533492 0.000000
-0.533492 -0.000000
-0.533492 0.000000
-0.533492 -0.000000
-0.533492 0.000000
-0.533492 -0.000000
-0.533492 0.000000
-0.533492 -0.000000
-0.533492 0.000000
-0.533492 -0.000000
-0.533492 0.000000
-0.533492 -0.000000
-0.533492 0.000000
-0.533492 -0.000000
-0.533492 0.000000
-0.533492 -0.000000
-0.533492 0.000000
-0.533492 -0.000000
-0.533492 0.000000
-0.533492 -0.000000
-0.533492 0.000000
-0.533492 -0.000000
-0.533492 0.000000
-0.533492 -0.000000
-0.533492 0.000000
-0.533492 -0.000000
-0.533492 0.000000
-0.533492 -0.000000
-0.533492 0.000000
-0.533492 -0.000000
-0.533492 0.000000
-0.533492 -0.000000
-0.533492 0.000000
-0.533492 -0.000000
-0.533492 0.000000
-0.533492 -0.000000
-0.533492 0.000000
-0.533492 -0.000000
-0.533492 0.000000
-0.533492 -0.000000
-0.533492 0.000000
-0.533492 -0.000000
-0.533492 0.000000
-0.533492 -0.000000
-0.533492 0.000000
-0.533492 -0.000000
-0.533492 0.000000
-0.533492 -0.000000
-0.533492 0.000000
-0.533492 -0.000000
-0.533492 0.000000
-0.533492 -0.000000
-0.533492 0.000000
-0.533492 -0.000000
-0.533492 0.000000
-0.533492 -0.000000
-0.533492 0.000000
-0.533492 -0.000000
-0.533492 0.000000
-0.533492 -0.000000
-0.533492 0.000000
-0.533492 -0.000000
-0.533492 0.000000
-0.533492 -0.000000
-0.533492 0.000000
-0.533492 -0.000000
-0.533492 0.000000
-0.533492 -0.000000
-0.533492 0.000000
-0.533492 -0.000000
-0.533492 0.000000
-0.533492 -0.000000
-0.533492 0.000000
-0.533492 -0.000000
-0.533492 0.000000
-0.533492 -0.000000
-0.533492 0.000000
-0.533492 -0.000000
-0.533492 0.000000
-0.533492 -0.000000
-0.533492 0.000000
-0.533492 -0.000000
-0.533492 0.000000
-0.533492 -0.000000
-0.533492 0.000000
-0.533492 -0.000000
-0.533492 0.000000
-0.533492 -0.000000
-0.533492 0.000000
-0.533492 -0.000000
-0.533492 0.000000
-0.533492 -0.000000
-0.533492 0.000000
-0.533492 -0.000000
-0.533492 0.000000
-0.533492 -0.000000
-0.533492 0.000000
-0.533492 -0.000000
-0.533492 0.000000
-0.533492 -0.000000
-0.533492 0.000000
-0.533492 -0.000007
