0.015771 0.028849 -0.239645
-0.336413 0.618604
-0.337235 -1.979354
-0.339813 -2.889447
-0.342667 -2.743234
-0.345193 -2.261135
-0.347146 -1.634153
-0.348456 -0.983463
-0.349118 -0.341089
-0.349148 0.276588
-0.348573 0.866768
-0.347425 1.418278
-0.345738 1.957861
-0.343546 2.376073
-0.340873 3.117150
-0.336778 5.438205
-0.329971 7.804250
-0.321746 8.397373
-0.313590 7.699857
-0.307072 4.779863
-0.302380 6.776979
-0.289286 21.417901
-0.258189 39.991650
-0.209105 58.917247
-0.139458 80.176619
-0.048772 100.893775
0.061395 118.203704
0.187738 135.112178
0.334100 158.643373
0.504296 179.037838
0.690508 193.362823
0.891293 207.342815
1.105153 219.954256
1.332116 233.987335
1.574049 249.379521
1.831116 263.996839
2.101903 276.609772
2.383991 286.529627
2.673799 291.246291
2.964269 287.578230
3.246834 275.825403
3.514363 257.752400
3.761465 235.513069
3.985329 211.679920
4.185220 187.762110
4.361341 164.178880
4.514002 140.883366
4.643470 117.828100
4.749986 95.047603
4.833890 72.670526
4.895664 50.865975
4.935977 29.821783
4.955682 9.722421
4.955813 -9.263994
4.937553 -26.999485
4.902214 -43.372535
4.851203 -58.300740
4.786004 -71.708400
4.708163 -83.558581
4.619245 -93.832542
4.520839 -102.519528
4.414524 -109.637476
4.301859 -115.215233
4.184359 -119.305896
4.063487 -121.960722
3.940648 -123.253949
3.817157 -123.273750
3.694245 -122.120193
3.573031 -119.891653
3.454542 -116.702809
3.339673 -112.671403
3.229229 -107.874405
3.123924 -102.430662
3.024339 -96.460949
2.930951 -90.065514
2.844129 -83.365957
2.764121 -76.461503
2.691095 -69.429933
2.625139 -62.346985
2.566270 -55.283052
2.514433 -48.306564
2.469510 -41.481274
2.431316 -34.870925
2.399609 -28.528470
2.374096 -22.502253
2.354417 -16.901569
2.340063 -11.889615
2.330383 -7.571071
2.324664 -3.976428
2.322180 -1.105411
2.322213 1.053681
2.324055 2.508275
2.326999 3.254785
2.330333 3.287818
2.333345 2.614137
2.335345 1.275829
2.335692 -0.682438
2.333778 -3.239991
2.329022 -6.347704
2.320909 -9.939469
2.309002 -13.894166
2.292993 -18.146700
2.272690 -22.346265
2.248437 -26.001838
2.220765 -29.267942
2.189810 -32.632978
2.155362 -36.210183
2.117291 -39.866554
2.075549 -43.525767
2.030179 -47.103597
1.981296 -50.534782
1.929076 -53.763180
1.873744 -56.746364
1.815562 -59.452278
1.754821 -61.856152
1.691832 -63.941240
1.626920 -65.698497
1.560414 -67.124851
1.492645 -68.223993
1.423936 -69.004970
1.354599 -69.479707
1.284935 -69.661361
1.215228 -69.569715
1.145742 -69.222206
1.076724 -68.637019
1.008402 -67.835926
0.940983 -66.835485
0.874658 -65.654274
0.809597 -64.312685
0.745951 -62.828685
0.683855 -61.219902
0.623425 -59.503948
0.564759 -57.696718
0.507944 -55.805354
0.453063 -53.835445
0.400187 -51.801274
0.349373 -49.718156
0.300662 -47.602043
0.254080 -45.466268
0.209641 -43.321911
0.167350 -41.174467
0.127210 -39.027091
0.089217 -36.881116
0.053375 -34.731853
0.019685 -32.581026
-0.011855 -30.437696
-0.041259 -28.315842
-0.068554 -26.224739
-0.093774 -24.172799
-0.116964 -22.169532
-0.138176 -20.222937
-0.157472 -18.342077
-0.174921 -16.534427
-0.190601 -14.806678
-0.204594 -13.166393
-0.216991 -11.618849
-0.227887 -10.169376
-0.237383 -8.818277
-0.245573 -7.560448
-0.252551 -6.400050
-0.258420 -5.342892
-0.263282 -4.389339
-0.267242 -3.538219
-0.270399 -2.786573
-0.272852 -2.130172
-0.274694 -1.564057
-0.276012 -1.082322
-0.276887 -0.678894
-0.277395 -0.347138
-0.277603 -0.079889
-0.277574 0.130026
-0.277360 0.289840
-0.277008 0.406897
-0.276557 0.487772
-0.276041 0.538701
-0.275487 0.565939
-0.274914 0.575255
-0.274339 0.572335
-0.273771 0.562633
-0.273213 0.551323
-0.272666 0.542767
-0.272124 0.540657
-0.271580 0.547863
-0.271024 0.566414
-0.270442 0.597685
-0.269823 0.642135
-0.269152 0.699541
-0.268418 0.768995
-0.267609 0.849421
-0.266714 0.939673
-0.265725 1.038538
-0.264633 1.144725
-0.263431 1.256766
-0.262115 1.373130
-0.260681 1.492108
-0.259128 1.611701
-0.257455 1.730045
-0.255665 1.845222
-0.253763 1.955135
-0.251754 2.057754
-0.249646 2.150865
-0.247452 2.231754
-0.245183 2.298122
-0.242856 2.348223
-0.240488 2.380362
-0.238097 2.393331
-0.235703 2.385921
-0.233328 2.357087
-0.230992 2.306031
-0.228719 2.232126
-0.226531 2.135102
-0.224452 2.014723
-0.222505 1.871225
-0.220713 1.705017
-0.219099 1.516593
-0.217684 1.307061
-0.216489 1.077711
-0.215533 0.829936
-0.214833 0.565704
-0.214405 0.286881
-0.214263 -0.004610
-0.214418 -0.306679
-0.214880 -0.616979
-0.215655 -0.932896
-0.216748 -1.251693
-0.218161 -1.570964
-0.219893 -1.888527
-0.221940 -2.202085
-0.224299 -2.509705
-0.226962 -2.809334
-0.229920 -3.099074
-0.233163 -3.377277
-0.236677 -3.642125
-0.240449 -3.892119
-0.244464 -4.126064
-0.248704 -4.342471
-0.253151 -4.540399
-0.257787 -4.718831
-0.262592 -4.876993
-0.267544 -5.014404
-0.272623 -5.130502
-0.277808 -5.225053
-0.283077 -5.298021
-0.288408 -5.349379
-0.293779 -5.379307
-0.299170 -5.388142
-0.304559 -5.376408
-0.309927 -5.344568
-0.315253 -5.293141
-0.320518 -5.223468
-0.325704 -5.135459
-0.330792 -5.026508
-0.335760 -4.897217
-0.340591 -4.752107
-0.345270 -4.594452
-0.349785 -4.426064
-0.354128 -4.248484
-0.358288 -4.063162
-0.362259 -3.870052
-0.366034 -3.669305
-0.369604 -3.462822
-0.372964 -3.250323
-0.376109 -3.033162
-0.379037 -2.816777
-0.381750 -2.604973
-0.384254 -2.400357
-0.386559 -2.205697
-0.388674 -2.021376
-0.390609 -1.846404
-0.392373 -1.681295
-0.393979 -1.528591
-0.395439 -1.392469
-0.396773 -1.277075
-0.398004 -1.185191
-0.399155 -1.119451
-0.400254 -1.082605
-0.401333 -1.077411
-0.402413 -1.077950
-0.403481 -1.047981
-0.404504 -0.995133
-0.405472 -0.939799
-0.406386 -0.887637
-0.407251 -0.840171
-0.408070 -0.797334
-0.408848 -0.758659
-0.409590 -0.722945
-0.410297 -0.689765
-0.410972 -0.659516
-0.411618 -0.632125
-0.412238 -0.607350
-0.412835 -0.584963
-0.413410 -0.564759
-0.413966 -0.546825
-0.414505 -0.531483
-0.415031 -0.518626
-0.415544 -0.508019
-0.416049 -0.499496
-0.416545 -0.492780
-0.417036 -0.487675
-0.417522 -0.483927
-0.418005 -0.481346
-0.418486 -0.479835
-0.418966 -0.479364
-0.419446 -0.479893
-0.419927 -0.481294
-0.420410 -0.483475
-0.420895 -0.486410
-0.421384 -0.489978
-0.421876 -0.494186
-0.422373 -0.498924
-0.422875 -0.504085
-0.423383 -0.509709
-0.423896 -0.515801
-0.424415 -0.522239
-0.424941 -0.528966
-0.425474 -0.536084
-0.426015 -0.543363
-0.426562 -0.550918
-0.427118 -0.558736
-0.427681 -0.566583
-0.428252 -0.574630
-0.428831 -0.582809
-0.429419 -0.591093
-0.430015 -0.599609
-0.430619 -0.607826
-0.431232 -0.617166
-0.431824 -0.534810
-0.432245 -0.278507
-0.432367 0.021978
-0.432239 0.206993
-0.432004 0.238802
-0.431800 0.153380
-0.431710 0.028994
-0.431732 -0.066182
-0.431829 -0.121278
-0.431955 -0.114492
-0.432047 -0.075791
-0.432060 0.101317
-0.431589 1.045340
-0.429673 2.871291
-0.425827 4.738274
-0.420363 6.078205
-0.413830 6.903245
-0.406659 7.378927
-0.399128 7.643396
-0.391400 7.778818
-0.383585 7.823957
-0.375759 7.801543
-0.367985 7.720797
-0.360324 7.573580
-0.352851 7.343776
-0.345654 7.017602
-0.338836 6.586388
-0.332504 6.046591
-0.326767 5.399610
-0.321728 4.650531
-0.317488 3.807833
-0.314133 2.883013
-0.311739 1.889185
-0.310369 0.840981
-0.310068 -0.246230
-0.310869 -1.357057
-0.312788 -2.476281
-0.315825 -3.589706
-0.319968 -4.682915
-0.325190 -5.745957
-0.331456 -6.764774
-0.338699 -7.681396
-0.346745 -8.329499
-0.355212 -8.490628
-0.363578 -8.155006
-0.371446 -7.541900
-0.378650 -6.849627
-0.385164 -6.173484
-0.391027 -5.549475
-0.396295 -4.986731
-0.401030 -4.484106
-0.405291 -4.036870
-0.409129 -3.639239
-0.412591 -3.285745
-0.415720 -2.971395
-0.418551 -2.691687
-0.421119 -2.442656
-0.423451 -2.220792
-0.425573 -2.023147
-0.427508 -1.846927
-0.429277 -1.689710
-0.430897 -1.549455
-0.432384 -1.424388
-0.433753 -1.312700
-0.435016 -1.212966
-0.436185 -1.123971
-0.437269 -1.044513
-0.438279 -0.973559
-0.439221 -0.910191
-0.440103 -0.853642
-0.440932 -0.803163
-0.441713 -0.758094
-0.442451 -0.717909
-0.443152 -0.682013
-0.443818 -0.650038
-0.444454 -0.621515
-0.445063 -0.596083
-0.445648 -0.573434
-0.446212 -0.553216
-0.446757 -0.535211
-0.447284 -0.519135
-0.447797 -0.504839
-0.448295 -0.492189
-0.448782 -0.480973
-0.449259 -0.471092
-0.449726 -0.462467
-0.450185 -0.454920
-0.450637 -0.448280
-0.451083 -0.442459
-0.451523 -0.437425
-0.451959 -0.432983
-0.452390 -0.429109
-0.452818 -0.425802
-0.453243 -0.422890
-0.453665 -0.420359
-0.454084 -0.418232
-0.454502 -0.416376
-0.454918 -0.414797
-0.455333 -0.413439
-0.455746 -0.412204
-0.456158 -0.410927
-0.456568 -0.409731
-0.456978 -0.408777
-0.457387 -0.408012
-0.457795 -0.407491
-0.458203 -0.407076
-0.458610 -0.406780
-0.459017 -0.406683
-0.459424 -0.406607
-0.459831 -0.406587
-0.460238 -0.406648
-0.460645 -0.406734
-0.461053 -0.406901
-0.461460 -0.407040
-0.461867 -0.407227
-0.462275 -0.407480
-0.462683 -0.407716
-0.463091 -0.408002
-0.463500 -0.408290
-0.463909 -0.408602
-0.464318 -0.408918
-0.464728 -0.409221
-0.465137 -0.409603
-0.465548 -0.409906
-0.465958 -0.410239
-0.466369 -0.410634
-0.466780 -0.410935
-0.467192 -0.411268
-0.467603 -0.411561
-0.468016 -0.411892
-0.468428 -0.412219
-0.468841 -0.412475
-0.469254 -0.412781
-0.469667 -0.413012
-0.470081 -0.413243
-0.470494 -0.413490
-0.470908 -0.413730
-0.471323 -0.413918
-0.471737 -0.414093
-0.472152 -0.414295
-0.472567 -0.414387
-0.472981 -0.414571
-0.473396 -0.414722
-0.473812 -0.414779
-0.474227 -0.414860
-0.474642 -0.414897
-0.475057 -0.414922
-0.475473 -0.414917
-0.475888 -0.414883
-0.476303 -0.414855
-0.476719 -0.414823
-0.477134 -0.414759
-0.477549 -0.414665
-0.477964 -0.414603
-0.478379 -0.414448
-0.478794 -0.414295
-0.479208 -0.414181
-0.479623 -0.413991
-0.480037 -0.413823
-0.480451 -0.413620
-0.480865 -0.413353
-0.481279 -0.413115
-0.481692 -0.412877
-0.482105 -0.412516
-0.482518 -0.412265
-0.482931 -0.411842
-0.483343 -0.411907
-0.483755 -0.410052
-0.484166 -0.413821
-0.484579 -0.403657
-0.484980 -0.413381
-0.485428 -0.488856
-0.485958 -0.560386
-0.486484 -0.434756
-0.487232 -1.519402
-0.489959 -3.901409
-0.494626 -5.033073
-0.499572 -4.775799
-0.504135 -4.364998
-0.508122 -3.388649
-0.510600 -1.455981
-0.511234 -0.115175
-0.511176 0.190649
-0.510907 0.332162
-0.510512 0.472550
-0.509960 0.616064
-0.509282 0.747957
-0.508368 1.163953
-0.506814 1.994425
-0.504581 2.208315
-0.502830 1.111938
-0.502317 0.127483
-0.502143 0.435192
-0.501571 0.367721
-0.501472 0.106441
-0.501085 0.663641
-0.500467 0.251174
-0.500483 0.135424
-0.499893 0.928332
-0.498936 0.789313
-0.498512 0.053480
-0.498475 0.377832
-0.497572 1.249958
-0.496440 0.721729
-0.496148 0.131788
-0.495763 0.779523
-0.494647 1.248777
-0.493452 1.152668
-0.492381 0.932239
-0.491657 0.497610
-0.491336 0.208330
-0.490969 0.731445
-0.489896 1.181497
-0.488776 1.112926
-0.487649 1.102242
-0.486593 1.022336
-0.485592 0.972566
-0.484642 0.932264
-0.483723 0.898799
-0.482843 0.865260
-0.481991 0.833289
-0.481174 0.802846
-0.480389 0.755202
-0.479647 0.752798
-0.478891 0.721923
-0.478089 1.028192
-0.476910 1.103105
-0.475904 1.110006
-0.474650 1.229953
-0.473545 1.040133
-0.472527 0.972008
-0.471600 0.900963
-0.470706 0.881904
-0.469834 0.863441
-0.468974 0.854992
-0.468121 0.849789
-0.467272 0.847263
-0.466425 0.845586
-0.465579 0.842890
-0.464737 0.839885
-0.463898 0.836596
-0.463060 0.839928
-0.462218 0.839949
-0.461385 0.819535
-0.460590 0.761192
-0.459892 0.611658
-0.459374 0.436738
-0.458963 0.425887
-0.458421 0.713386
-0.457515 1.058863
-0.456373 1.191476
-0.455172 1.197387
-0.453989 1.161381
-0.452856 1.100243
-0.451785 1.043299
-0.450768 0.981938
-0.449826 0.900707
-0.448686 1.656463
-0.446016 3.891677
-0.440534 7.207641
-0.431791 9.911711
-0.421399 10.494060
-0.411183 9.873560
-0.401666 9.151004
-0.392824 8.542547
-0.384508 8.100053
-0.376566 7.783622
-0.368909 7.516896
-0.361517 7.249651
-0.354400 6.968239
-0.347569 6.682036
-0.341030 6.372024
-0.334799 6.101075
-0.328837 5.768032
-0.323182 5.643019
-0.317456 5.768221
-0.311662 5.807458
-0.305821 5.871684
-0.300045 5.521761
-0.294812 5.036349
-0.289890 4.768940
-0.285274 4.470898
-0.280918 4.236518
-0.276776 4.053623
-0.272839 3.760663
-0.269116 3.858835
-0.265060 4.119021
-0.260871 4.377968
-0.256425 4.248493
-0.252508 3.691278
-0.248928 3.452884
-0.245592 3.223701
-0.242461 3.036728
-0.239502 2.880968
-0.236675 2.779328
-0.233976 2.561942
-0.231464 2.589755
-0.228724 2.820839
-0.225785 3.146447
-0.222516 3.197585
-0.219536 2.792171
-0.216866 2.567275
-0.214377 2.399201
-0.212055 2.255335
-0.209846 2.159860
-0.207728 2.073100
-0.205696 1.986182
-0.203753 1.894616
-0.201901 1.807357
-0.200138 1.711875
-0.198462 1.652862
-0.196833 1.578994
-0.195313 1.466794
-0.193793 1.665440
-0.191966 1.903967
-0.190001 2.085461
-0.187890 1.968501
-0.186095 1.745094
-0.184344 1.679022
-0.182761 1.531174
-0.181246 1.480862
-0.179801 1.416450
-0.178404 1.370465
-0.177059 1.319258
-0.175762 1.271060
-0.174515 1.221507
-0.173316 1.173746
-0.172165 1.126082
-0.171061 1.079427
-0.170004 1.033909
-0.168992 0.987896
-0.168026 0.942162
-0.167105 0.896553
-0.166231 0.849989
-0.165403 0.804312
-0.164621 0.757273
-0.163886 0.712980
-0.163197 0.660615
-0.162560 0.620591
-0.161934 0.642422
-0.161217 0.833215
-0.160250 1.071560
-0.159124 1.154007
-0.158005 1.040927
-0.157041 0.923679
-0.156140 0.852293
-0.155340 0.766812
-0.154590 0.726521
-0.153886 0.684989
-0.153215 0.652708
-0.152580 0.618287
-0.151977 0.585895
-0.151407 0.553741
-0.150868 0.522144
-0.150361 0.491274
-0.149884 0.461227
-0.149438 0.430748
-0.149022 0.400503
-0.148636 0.370428
-0.148280 0.339834
-0.147956 0.309175
-0.147661 0.278667
-0.147398 0.247069
-0.147166 0.217289
-0.146966 0.180421
-0.146800 0.157218
-0.146650 0.135205
-0.146471 0.288764
-0.146068 0.454924
-0.145549 0.656693
-0.144811 0.684953
-0.144237 0.534518
-0.143706 0.488140
-0.143274 0.397961
-0.142893 0.358457
-0.142556 0.319304
-0.142249 0.294281
-0.141968 0.267210
-0.141714 0.241257
-0.141486 0.213580
-0.141286 0.186092
-0.141113 0.158207
-0.140969 0.129462
-0.140854 0.100188
-0.140769 0.069400
-0.140715 0.037903
-0.140694 0.004765
-0.140706 -0.029715
-0.140754 -0.065996
-0.140839 -0.103834
-0.140963 -0.143221
-0.141126 -0.184460
-0.141332 -0.227256
-0.141582 -0.272272
-0.141878 -0.319404
-0.142222 -0.368039
-0.142616 -0.418976
-0.143062 -0.472174
-0.143562 -0.527768
-0.144119 -0.585583
-0.144735 -0.645481
-0.145412 -0.708440
-0.146154 -0.773648
-0.146962 -0.841617
-0.147840 -0.911743
-0.148788 -0.984456
-0.149812 -1.060937
-0.150913 -1.139286
-0.152094 -1.220939
-0.153358 -1.305590
-0.154708 -1.392934
-0.156148 -1.483139
-0.157679 -1.576303
-0.159305 -1.673270
-0.161029 -1.772582
-0.162854 -1.875077
-0.164784 -1.980807
-0.166821 -2.088912
-0.168967 -2.200713
-0.171228 -2.315848
-0.173604 -2.432950
-0.176099 -2.552727
-0.178716 -2.676420
-0.181458 -2.801834
-0.184327 -2.930372
-0.187326 -3.061499
-0.190456 -3.194620
-0.193722 -3.330540
-0.197125 -3.467818
-0.200666 -3.607703
-0.204348 -3.750248
-0.208175 -3.895487
-0.212149 -4.046796
-0.216271 -4.181162
-0.220517 -4.308829
-0.224901 -4.449430
-0.229414 -4.555117
-0.233965 -4.492901
-0.238285 -4.060922
-0.242018 -3.398055
-0.245142 -2.897291
-0.247897 -2.632571
-0.250454 -2.493529
-0.252913 -2.427155
-0.255325 -2.395543
-0.257713 -2.375587
-0.260081 -2.356334
-0.262430 -2.335313
-0.264756 -2.313093
-0.267060 -2.291004
-0.269343 -2.270210
-0.271606 -2.251057
-0.273850 -2.233041
-0.276076 -2.214871
-0.278284 -2.195277
-0.280471 -2.173587
-0.282635 -2.149362
-0.284773 -2.122133
-0.286882 -2.090971
-0.288957 -2.054288
-0.290992 -2.011800
-0.292983 -1.965405
-0.294927 -1.917245
-0.296821 -1.868383
-0.298667 -1.819425
-0.300464 -1.770611
-0.302212 -1.722286
-0.303912 -1.674925
-0.305566 -1.628754
-0.307173 -1.583860
-0.308737 -1.540304
-0.310258 -1.498064
-0.311736 -1.456859
-0.313174 -1.416468
-0.314572 -1.376627
-0.315931 -1.337448
-0.317250 -1.299005
-0.318532 -1.261381
-0.319776 -1.224717
-0.320984 -1.188908
-0.322156 -1.154023
-0.323294 -1.119881
-0.324399 -1.086624
-0.325470 -1.054228
-0.326509 -1.022539
-0.327517 -0.991608
-0.328495 -0.961483
-0.329443 -0.932143
-0.330361 -0.903451
-0.331252 -0.875533
-0.332114 -0.848226
-0.332950 -0.821581
-0.333759 -0.795004
-0.334542 -0.769798
-0.335299 -0.741769
-0.336030 -0.722375
-0.336737 -0.678944
-0.337369 -0.575860
-0.337842 -0.327504
-0.337906 0.277966
-0.337080 1.497696
-0.334598 3.643803
-0.329524 6.575145
-0.321341 9.787651
-0.310078 12.552172
-0.296521 14.389970
-0.281540 15.416934
-0.266039 15.294861
-0.251375 13.806492
-0.238847 10.973510
-0.229605 7.544590
-0.223489 4.877837
-0.219431 3.435609
-0.216288 2.961349
-0.213352 2.939749
-0.210372 3.009310
-0.207347 3.019621
-0.204355 2.944739
-0.201472 2.809132
-0.198740 2.647218
-0.196172 2.485019
-0.193762 2.332633
-0.191499 2.190120
-0.189374 2.055511
-0.187382 1.925628
-0.185519 1.797709
-0.183782 1.671947
-0.182171 1.547816
-0.180683 1.425465
-0.179316 1.305389
-0.178069 1.187184
-0.176939 1.071650
-0.175923 0.957532
-0.175021 0.845821
-0.174229 0.736700
-0.173546 0.628898
-0.172969 0.524270
-0.172495 0.421762
-0.172124 0.320949
-0.171852 0.223419
-0.171676 0.128001
-0.171595 0.034860
-0.171605 -0.054916
-0.171704 -0.142427
-0.171889 -0.227527
-0.172158 -0.310027
-0.172509 -0.390887
-0.172940 -0.469976
-0.173450 -0.548762
-0.174039 -0.628530
-0.174708 -0.708223
-0.175458 -0.788936
-0.176288 -0.869431
-0.177199 -0.951251
-0.178193 -1.033999
-0.179269 -1.117090
-0.180430 -1.202272
-0.181676 -1.287876
-0.183008 -1.374711
-0.184429 -1.463406
-0.185939 -1.553770
-0.187540 -1.646106
-0.189235 -1.740595
-0.191025 -1.837270
-0.192914 -1.936167
-0.194902 -2.037535
-0.196994 -2.142094
-0.199192 -2.249426
-0.201498 -2.359597
-0.203917 -2.472728
-0.206450 -2.588991
-0.209101 -2.708224
-0.211873 -2.831226
-0.214770 -2.957252
-0.217789 -3.071401
-0.220917 -3.180080
-0.224160 -3.299976
-0.227526 -3.428072
-0.231024 -3.559486
-0.234655 -3.697630
-0.238402 -3.763354
-0.242100 -3.562347
-0.245423 -3.028154
-0.248165 -2.500378
-0.250508 -2.209538
-0.252632 -2.051551
-0.254640 -1.968978
-0.256587 -1.924844
-0.258498 -1.894128
-0.260379 -1.863932
-0.262229 -1.830328
-0.264043 -1.793653
-0.265819 -1.755398
-0.267557 -1.716847
-0.269256 -1.678831
-0.270918 -1.641854
-0.272544 -1.606276
-0.274134 -1.572011
-0.275691 -1.538500
-0.277214 -1.504396
-0.278702 -1.467885
-0.280152 -1.428799
-0.281563 -1.389313
-0.282934 -1.351513
-0.284269 -1.315990
-0.285570 -1.283055
-0.286838 -1.252350
-0.288077 -1.223540
-0.289289 -1.196458
-0.290473 -1.170716
-0.291633 -1.146270
-0.292768 -1.122963
-0.293881 -1.100617
-0.294972 -1.079180
-0.296042 -1.058563
-0.297092 -1.038776
-0.298122 -1.019655
-0.299133 -1.001145
-0.300126 -0.983362
-0.301102 -0.966190
-0.302061 -0.949577
-0.303003 -0.933513
-0.303930 -0.918010
-0.304841 -0.903046
-0.305738 -0.888549
-0.306620 -0.874518
-0.307489 -0.860940
-0.308344 -0.847824
-0.309187 -0.835125
-0.310016 -0.822789
-0.310834 -0.810830
-0.311640 -0.799245
-0.312434 -0.787983
-0.313217 -0.777073
-0.313990 -0.766435
-0.314752 -0.756075
-0.315504 -0.746077
-0.316246 -0.736311
-0.316978 -0.726833
-0.317701 -0.717556
-0.318414 -0.708529
-0.319119 -0.699746
-0.319815 -0.691106
-0.320503 -0.682591
-0.321182 -0.674175
-0.321853 -0.665797
-0.322515 -0.657450
-0.323169 -0.649198
-0.323815 -0.641096
-0.324452 -0.633221
-0.325082 -0.625478
-0.325705 -0.617966
-0.326320 -0.610633
-0.326927 -0.603377
-0.327528 -0.596378
-0.328121 -0.589509
-0.328708 -0.582784
-0.329288 -0.576249
-0.329862 -0.569800
-0.330429 -0.563523
-0.330990 -0.557378
-0.331545 -0.551365
-0.332094 -0.545490
-0.332637 -0.539757
-0.333174 -0.534181
-0.333706 -0.528627
-0.334233 -0.523393
-0.334754 -0.517561
-0.335270 -0.514348
-0.335781 -0.503368
-0.336286 -0.516171
-0.336792 -0.460387
-0.337272 -0.598128
-0.337802 -0.176385
-0.336413 0.618604
