-0.069941 0.090137 -0.498249
-1.265182 16.521869
-1.248378 16.996735
-1.231267 17.134633
-1.214171 16.982873
-1.197343 16.604496
-1.180992 16.037503
-1.165286 15.319192
-1.150366 14.469740
-1.136354 13.510594
-1.123349 12.459828
-1.111436 11.331338
-1.100685 10.136307
-1.091160 8.890158
-1.082900 7.606298
-1.075943 6.289546
-1.070312 4.961110
-1.066015 3.618626
-1.063056 2.311272
-1.061409 0.940993
-1.061059 -0.089514
-1.061390 -0.526079
-1.061996 -0.616018
-1.062498 -0.329083
-1.062468 0.517712
-1.061239 2.031167
-1.058342 3.724742
-1.053811 5.330690
-1.047612 7.109133
-1.039566 8.925169
-1.029807 10.552213
-1.018496 12.013432
-1.005831 13.249862
-0.992017 14.343073
-0.977115 15.441010
-0.961112 16.517768
-0.944075 17.506580
-0.926089 18.418440
-0.907232 19.238185
-0.887620 19.920405
-0.867406 20.439279
-0.846758 20.786912
-0.825847 20.966632
-0.804834 20.992771
-0.783867 20.875465
-0.763086 20.624144
-0.742621 20.243005
-0.722596 19.751105
-0.703109 19.168528
-0.684247 18.507480
-0.666076 17.790576
-0.648644 17.033008
-0.631986 16.244774
-0.616127 15.440082
-0.601077 14.627711
-0.586844 13.811866
-0.573423 13.004930
-0.560805 12.205103
-0.548985 11.416747
-0.537943 10.646873
-0.527664 9.893830
-0.518128 9.162553
-0.509313 8.454077
-0.501194 7.771358
-0.493745 7.117289
-0.486935 6.493459
-0.480734 5.903835
-0.475104 5.349463
-0.470011 4.834991
-0.465410 4.364194
-0.461260 3.935033
-0.457516 3.553880
-0.454128 3.221889
-0.451049 2.939876
-0.448225 2.710511
-0.445605 2.532639
-0.443137 2.407230
-0.440769 2.334296
-0.438447 2.311898
-0.436123 2.340883
-0.433744 2.419472
-0.431265 2.540589
-0.428644 2.704074
-0.425838 2.906835
-0.422814 3.139357
-0.419544 3.399337
-0.416001 3.684701
-0.412163 3.984999
-0.408017 4.300726
-0.403548 4.628532
-0.398750 4.959911
-0.393618 5.292911
-0.388157 5.616361
-0.382379 5.924291
-0.376304 6.208814
-0.369961 6.459812
-0.363383 6.675112
-0.356609 6.853316
-0.349677 6.990392
-0.342629 7.084334
-0.335508 7.137496
-0.328352 7.153548
-0.321199 7.131698
-0.314086 7.073899
-0.307047 6.984896
-0.300112 6.866199
-0.293310 6.721348
-0.286664 6.552758
-0.280198 6.363880
-0.273930 6.157469
-0.267876 5.936035
-0.262050 5.702225
-0.256463 5.458362
-0.251125 5.207034
-0.246041 4.950103
-0.241216 4.689730
-0.236652 4.427842
-0.232351 4.166614
-0.228310 3.907551
-0.224527 3.652611
-0.220995 3.403350
-0.217711 3.161369
-0.214663 2.928595
-0.211844 2.706323
-0.209241 2.496453
-0.206842 2.299962
-0.204631 2.118888
-0.202594 1.954461
-0.200713 1.807945
-0.198968 1.680697
-0.197341 1.574178
-0.195809 1.489703
-0.194351 1.427598
-0.192943 1.389018
-0.191562 1.374393
-0.190184 1.383980
-0.188783 1.418335
-0.187336 1.477213
-0.185818 1.560959
-0.184203 1.669387
-0.182467 1.802600
-0.180586 1.961168
-0.178532 2.145294
-0.176282 2.355285
-0.173808 2.591269
-0.171086 2.852480
-0.168090 3.137559
-0.164797 3.445262
-0.161185 3.773891
-0.157235 4.121852
-0.152928 4.486569
-0.148248 4.865656
-0.143183 5.256158
-0.137723 5.654904
-0.131860 6.058685
-0.125593 6.464034
-0.118920 6.867726
-0.111845 7.266197
-0.104376 7.656371
-0.096521 8.035178
-0.088294 8.400143
-0.079709 8.748854
-0.070785 9.078939
-0.061540 9.389208
-0.051995 9.678463
-0.042171 9.945485
-0.032091 10.190112
-0.021778 10.412375
-0.011253 10.612225
-0.000539 10.790328
0.010342 10.947686
0.021371 11.084917
0.032528 11.203508
0.043795 11.304445
0.055154 11.389338
0.066591 11.459645
0.078092 11.516498
0.089644 11.561697
0.101235 11.596665
0.112857 11.622909
0.124502 11.641727
0.136162 11.654664
0.147833 11.663153
0.159510 11.667978
0.171191 11.670202
0.182874 11.671092
0.194557 11.671123
0.206239 11.670702
0.217921 11.670405
0.229604 11.670568
0.241286 11.671461
0.252970 11.673237
0.264656 11.675786
0.276345 11.679256
0.288039 11.683753
0.299737 11.688970
0.311440 11.694580
0.323149 11.700743
0.334865 11.707208
0.346587 11.713242
0.358315 11.718892
0.370048 11.723786
0.381785 11.727290
0.393526 11.729117
0.405266 11.729067
0.417006 11.726657
0.428742 11.721458
0.440472 11.713472
0.452192 11.702099
0.463898 11.687324
0.475589 11.669169
0.487259 11.646866
0.498904 11.620645
0.510522 11.590515
0.522107 11.555983
0.533656 11.517499
0.545164 11.475029
0.556627 11.428415
0.568042 11.378011
0.579405 11.324091
0.590712 11.267010
0.601961 11.206975
0.613148 11.144337
0.624271 11.079333
0.635328 11.012142
0.646317 10.943456
0.657236 10.873593
0.668085 10.802847
0.678863 10.730956
0.689569 10.659896
0.700203 10.585786
0.710768 10.531218
0.721238 10.330925
0.731444 10.111813
0.741537 10.058272
0.751568 9.965344
0.761540 10.028847
0.770754 7.420974
0.775491 2.097899
0.775963 -0.201534
0.775932 0.031296
0.775936 -0.005296
0.775936 0.001321
0.775936 -0.000481
0.775936 0.000191
0.775936 -0.000072
0.775936 0.000025
0.775936 -0.000008
0.775936 0.000003
0.775936 -0.000001
0.775936 0.000000
0.775936 -0.000000
0.775936 0.000000
0.775936 -0.000000
0.775936 0.000000
0.775936 -0.000000
0.775936 0.000000
0.775936 -0.000000
0.775936 0.000000
0.775936 -0.000000
0.775936 0.000000
0.775936 -0.000000
0.775936 0.000000
0.775936 -0.000000
0.775936 0.000000
0.775936 -0.000000
0.775936 0.000000
0.775936 -0.000000
0.775936 0.000000
0.775936 -0.000000
0.775936 0.000000
0.775936 -0.000000
0.775936 0.000000
0.775936 -0.000000
0.775936 0.000000
0.775936 -0.000000
0.775936 0.000000
0.775936 -0.000000
0.775936 0.000000
0.775936 -0.000000
0.775936 0.000000
0.775936 -0.000000
0.775936 0.000000
0.775936 -0.000000
0.775936 0.000000
0.775936 -0.000000
0.775936 0.000000
0.775936 -0.000000
0.775936 0.000000
0.775936 -0.000000
0.775936 0.000000
0.775936 -0.000000
0.775936 0.000000
0.775936 -0.000000
0.775936 0.000000
0.775936 -0.000000
0.775936 0.000000
0.775936 -0.000000
0.775936 0.000000
0.775936 -0.000000
0.775936 0.000000
0.775936 -0.000000
0.775936 0.000000
0.775936 -0.000000
0.775936 0.000000
0.775936 -0.000000
0.775936 0.000000
0.775936 -0.000000
0.775936 0.000000
0.775936 -0.000000
0.775936 0.000000
0.775936 -0.000000
0.775936 0.000000
0.775936 -0.000000
0.775936 0.000000
0.775936 -0.000000
0.775936 0.000000
0.775936 -0.000000
0.775936 0.000000
0.775936 -0.000000
0.775936 0.000000
0.775936 -0.000000
0.775936 0.000000
0.775936 -0.000000
0.775936 0.000000
0.775936 -0.000000
0.775936 0.000000
0.775936 -0.000000
0.775936 0.000000
0.775936 -0.000000
0.775936 0.000000
0.775936 -0.000000
0.775936 0.000000
0.775936 -0.000000
0.775936 0.000000
0.775936 -0.000000
0.775936 0.000000
0.775936 -0.000000
0.775936 0.000000
0.775936 -0.000000
0.775936 0.000000
0.775936 -0.000000
0.775936 0.000000
0.775936 -0.000000
0.775936 0.000000
0.775936 -0.000000
0.775936 0.000000
0.775936 -0.000000
0.775936 0.000000
0.775936 -0.000000
0.775936 0.000000
0.775936 -0.000000
0.775936 0.000000
0.775936 -0.000000
0.775936 0.000000
0.775936 -0.000000
0.775936 0.000000
0.775936 -0.000000
0.775936 0.000000
0.775936 -0.000000
0.775936 0.000000
0.775936 -0.000000
0.775936 0.000000
0.775936 -0.000000
0.775936 0.000000
0.775936 -0.000000
0.775936 0.000000
0.775936 -0.000000
0.775936 0.000000
0.775936 -0.000000
0.775936 0.000000
0.775936 -0.000000
0.775936 0.000000
0.775936 -0.000000
0.775936 0.000000
0.775936 -0.000000
0.775936 0.000000
0.775936 -0.000000
0.775936 0.000000
0.775936 -0.000000
0.775936 0.000000
0.775936 -0.000000
0.775936 0.000000
0.775936 -0.000000
0.775936 0.000000
0.775936 -0.000000
0.775936 0.000000
0.775936 -0.000000
0.775936 0.000000
0.775936 -0.000000
0.775936 0.000000
0.775936 -0.000000
0.775936 0.000000
0.775936 -0.000000
0.775936 0.000000
0.775936 -0.000000
0.775936 0.000000
0.775936 -0.000000
0.775936 0.000000
0.775936 -0.000000
0.775936 0.000000
0.775936 -0.000000
0.775936 0.000000
0.775936 -0.000000
0.775936 0.000000
0.775936 -0.000000
0.775936 0.000000
0.775936 -0.000000
0.775936 0.000000
0.775936 -0.000000
0.775936 0.000000
0.775936 -0.000000
0.775936 0.000000
0.775936 -0.000000
0.775936 0.000000
0.775936 -0.000000
0.775936 0.000000
0.775936 -0.000000
0.775936 0.000000
0.775936 -0.000000
0.775936 0.000000
0.775936 -0.000000
0.775936 0.000000
0.775936 -0.000000
0.775936 0.000000
0.775936 -0.000000
0.775936 0.000000
0.775936 -0.000000
0.775936 0.000000
0.775936 -0.000000
0.775936 0.000000
0.775936 -0.000000
0.775936 0.000000
0.775936 -0.000000
0.775936 0.000000
0.775936 -0.000000
0.775936 0.000000
0.775936 -0.000000
0.775936 0.000000
0.775936 -0.000000
0.775936 0.000000
0.775936 -0.000000
0.775936 0.000000
0.775936 -0.000000
0.775936 0.000000
0.775936 -0.000000
0.775936 0.000000
0.775936 -0.000000
0.775936 0.000000
0.775936 -0.000000
0.775936 0.000000
0.775936 -0.000000
0.775936 0.000000
0.775936 -0.000000
0.775936 0.000000
0.775936 -0.000000
0.775936 0.000000
0.775936 -0.000000
0.775936 0.000000
0.775936 -0.000000
0.775936 0.000000
0.775936 -0.000000
0.775936 0.000000
0.775936 -0.000000
0.775936 0.000000
0.775936 -0.000000
0.775936 0.000000
0.775936 -0.000000
0.775936 0.000000
0.775936 -0.000000
0.775936 0.000000
0.775936 -0.000000
0.775936 0.000000
0.775936 -0.000000
0.775936 0.000000
0.775936 -0.000000
0.775936 0.000000
0.775936 -0.000000
0.775936 0.000000
0.775936 -0.000000
0.775936 0.000000
0.775936 -0.000000
0.775936 0.000000
0.775936 -0.000000
0.775936 0.000000
0.775936 -0.000000
0.775936 0.000000
0.775936 -0.000000
0.775936 0.000000
0.775936 -0.000000
0.775936 0.000000
0.775936 0.000000
0.775936 -0.000000
0.775936 0.000000
0.775936 -0.000000
0.775936 0.000000
0.775936 -0.000000
0.775936 0.000000
0.775936 -0.000000
0.775936 0.000000
0.775936 -0.000000
0.775936 0.000000
0.775936 -0.000000
0.775936 0.000000
0.775936 -0.000000
0.775936 0.000000
0.775936 -0.000000
0.775936 0.000000
0.775936 -0.000000
0.775936 0.000000
0.775936 -0.000000
0.775936 0.000000
0.775936 -0.000000
0.775936 0.000000
0.775936 -0.000000
0.775936 0.000000
0.775936 -0.000000
0.775936 0.000000
0.775936 -0.000000
0.775936 0.000000
0.775936 -0.000000
0.775936 0.000000
0.775936 -0.000000
0.775936 0.000000
0.775936 -0.000000
0.775936 0.000000
0.775936 -0.000000
0.775936 0.000000
0.775936 -0.000000
0.775936 0.000000
0.775936 -0.000000
0.775936 0.000000
0.775936 -0.000000
0.775936 0.000000
0.775936 -0.000000
0.775936 0.000000
0.775936 -0.000000
0.775936 0.000000
0.775936 -0.000000
0.775936 0.000000
0.775936 -0.000000
0.775936 0.000000
0.775936 -0.000000
0.775936 0.000000
0.775936 -0.000000
0.775936 0.000000
0.775936 -0.000000
0.775936 0.000000
0.775936 -0.000000
0.775936 0.000000
0.775936 -0.000000
0.775936 0.000000
0.775936 -0.000000
0.775936 0.000000
0.775936 -0.000000
0.775936 0.000000
0.775936 -0.000000
0.775936 0.000000
0.775936 -0.000000
0.775936 0.000000
0.775936 -0.000000
0.775936 0.000000
0.775936 -0.000000
0.775936 0.000000
0.775936 -0.000000
0.775936 0.000000
0.775936 -0.000000
0.775936 0.000000
0.775936 -0.000000
0.775936 0.000000
0.775936 -0.000000
0.775936 0.000000
0.775936 -0.000000
0.775936 0.000000
0.775936 -0.000000
0.775936 0.000000
0.775936 -0.000000
0.775936 0.000000
0.775936 -0.000000
0.775936 0.000000
0.775936 -0.000000
0.775936 0.000000
0.775936 -0.000000
0.775936 0.000000
0.775936 -0.000000
0.775936 0.000000
0.775936 -0.000000
0.775936 0.000000
0.775936 -0.000000
0.775936 0.000000
0.775936 -0.000000
0.775936 0.000000
0.775936 -0.000000
0.775936 0.000000
0.775936 -0.000000
0.775936 0.000000
0.775936 -0.000000
0.775936 0.000000
0.775936 -0.000000
0.775936 0.000000
0.775936 -0.000000
0.775936 0.000000
0.775936 -0.000000
0.775936 0.000000
0.775936 -0.000000
0.775936 0.000000
0.775936 -0.000000
0.775936 0.000000
0.775936 -0.000000
0.775936 0.000000
0.775936 -0.000000
0.775936 0.000000
0.775936 -0.000000
0.775936 0.000000
0.775936 -0.000000
0.775936 0.000000
0.775936 -0.000000
0.775936 0.000000
0.775936 -0.000000
0.775936 0.000000
0.775936 -0.000000
0.775936 0.000000
0.775936 -0.000000
0.775936 0.000000
0.775936 -0.000000
0.775936 0.000000
0.775936 -0.000000
0.775936 0.000000
0.775936 -0.000000
0.775936 0.000000
0.775936 -0.000000
0.775936 0.000000
0.775936 -0.000000
0.775936 0.000000
0.775936 -0.000000
0.775936 0.000000
0.775936 -0.000000
0.775936 0.000000
0.775936 -0.000000
0.775936 0.000000
0.775936 -0.000000
0.775936 0.000000
0.775936 -0.000000
0.775936 0.000000
0.775936 -0.000000
0.775936 0.000000
0.775936 -0.000000
0.775936 0.000000
0.775936 -0.000000
0.775936 0.000000
0.775936 -0.000000
0.775936 0.000000
0.775936 -0.000000
0.775936 0.000000
0.775936 -0.000000
0.775936 0.000000
0.775936 -0.000000
0.775936 0.000000
0.775936 -0.000000
0.775936 0.000000
0.775936 -0.000000
0.775936 0.000000
0.775936 -0.000000
0.775936 0.000000
0.775936 -0.000000
0.775936 0.000000
0.775936 -0.000000
0.775936 0.000000
0.775936 -0.000000
0.775936 0.000000
0.775936 -0.000000
0.775936 0.000000
0.775936 -0.000000
0.775936 0.000000
0.775936 -0.000000
0.775936 0.000000
0.775936 -0.000000
0.775936 0.000000
0.775936 -0.000000
0.775936 0.000000
0.775936 -0.000000
0.775936 0.000000
0.775936 -0.000000
0.775936 0.000000
0.775936 -0.000000
0.775936 0.000000
0.775936 -0.000000
0.775936 0.000000
0.775936 -0.000000
0.775936 0.000000
0.775936 -0.000000
0.775936 0.000000
0.775936 -0.000000
0.775936 0.000000
0.775936 -0.000000
0.775936 0.000000
0.775936 -0.000000
0.775936 0.000000
0.775936 -0.000000
0.775936 0.000000
0.775936 -0.000000
0.775936 0.000000
0.775936 -0.000000
0.775936 0.000000
0.775936 -0.000000
0.775936 0.000000
0.775936 -0.000000
0.775936 0.000000
0.775936 -0.000000
0.775936 0.000000
0.775936 -0.000000
0.775936 0.000000
0.775936 -0.000000
0.775936 0.000000
0.775936 -0.000000
0.775936 0.000000
0.775936 -0.000000
0.775936 0.000000
0.775936 -0.000000
0.775936 0.000000
0.775936 -0.000000
0.775936 0.000000
0.775936 -0.000000
0.775936 0.000000
0.775936 -0.000000
0.775936 0.000000
0.775936 -0.000000
0.775936 0.000000
0.775936 -0.000000
0.775936 0.000000
0.775936 -0.000000
0.775936 0.000000
0.775936 -0.000001
0.775936 0.000004
0.775936 -0.000012
0.775936 0.000034
0.775936 -0.000085
0.775936 0.000169
0.775936 -0.000189
0.775936 -0.000179
0.775936 -0.000303
0.775944 0.025696
0.775831 -0.416450
0.775157 -0.716289
0.774544 -0.576464
0.773918 -0.693841
0.773265 -0.480948
0.772676 -1.102328
0.770020 -4.832778
0.761041 -14.436499
0.741270 -23.585958
0.716111 -25.874802
0.690243 -25.843467
0.664328 -25.945588
0.638295 -26.061854
0.612156 -26.166155
0.585908 -26.277024
0.559550 -26.386563
0.533082 -26.497203
0.506502 -26.608900
0.479811 -26.720658
0.453007 -26.833634
0.426089 -26.948678
0.399055 -27.065276
0.371904 -27.183725
0.344633 -27.302872
0.317243 -27.422014
0.289734 -27.540395
0.262108 -27.657785
0.234364 -27.773964
0.206505 -27.888372
0.178532 -28.001041
0.150447 -28.111486
0.122253 -28.219669
0.093952 -28.325638
0.065546 -28.428777
0.037039 -28.529118
0.008432 -28.626946
-0.020271 -28.721837
-0.049068 -28.813982
-0.077956 -28.903377
-0.106932 -28.990348
-0.135994 -29.074938
-0.165139 -29.157268
-0.194366 -29.237298
-0.223672 -29.315460
-0.253055 -29.392146
-0.282515 -29.467041
-0.312048 -29.540279
-0.341653 -29.611031
-0.371329 -29.680896
-0.401074 -29.747945
-0.430884 -29.812582
-0.460758 -29.875400
-0.490693 -29.934692
-0.520686 -29.990711
-0.550733 -30.042633
-0.580830 -30.088757
-0.610971 -30.134136
-0.641156 -30.171971
-0.671373 -30.204659
-0.701625 -30.235174
-0.731901 -30.256118
-0.762196 -30.273028
-0.792506 -30.283949
-0.822823 -30.289073
-0.853142 -30.286639
-0.883454 -30.277086
-0.913755 -30.261137
-0.944035 -30.238088
-0.974289 -30.207473
-1.004508 -30.168713
-1.034684 -30.122171
-1.064810 -30.068229
-1.094878 -30.006454
-1.124880 -29.935706
-1.154807 -29.858028
-1.184652 -29.769926
-1.214404 -29.673807
-1.244057 -29.571919
-1.273602 -29.455725
-1.303027 -29.336446
-1.332327 -29.198120
-1.361471 -29.027739
-1.390418 -28.788530
-1.419044 -28.364616
-1.447094 -27.610056
-1.474147 -26.338660
-1.499631 -24.489991
-1.523046 -22.253631
-1.544159 -19.945363
-1.563039 -17.823480
-1.579948 -16.020139
-1.595228 -14.565392
-1.609213 -13.427377
-1.622197 -12.552256
-1.634412 -11.883898
-1.646042 -11.375692
-1.657226 -10.986785
-1.668068 -10.687866
-1.678645 -10.454831
-1.689013 -10.266529
-1.699209 -10.107398
-1.709254 -9.966928
-1.719165 -9.834591
-1.728944 -9.704686
-1.738594 -9.575050
-1.748112 -9.442219
-1.757495 -9.303463
-1.766736 -9.158987
-1.775830 -9.009576
-1.784771 -8.852596
-1.793550 -8.688136
-1.802162 -8.517461
-1.810601 -8.341975
-1.818861 -8.161166
-1.826938 -7.975475
-1.834827 -7.785949
-1.842525 -7.595169
-1.850031 -7.400361
-1.857340 -7.203602
-1.864453 -7.009149
-1.871372 -6.813480
-1.878093 -6.616430
-1.884619 -6.422444
-1.890952 -6.230189
-1.897092 -6.040189
-1.903045 -5.852092
-1.908809 -5.664722
-1.914388 -5.483199
-1.919786 -5.303302
-1.925006 -5.126621
-1.930051 -4.954130
-1.934925 -4.782975
-1.939628 -4.614775
-1.944165 -4.450743
-1.948539 -4.288548
-1.952751 -4.128429
-1.956805 -3.971341
-1.960703 -3.817027
-1.964447 -3.662452
-1.968036 -3.510160
-1.971475 -3.361354
-1.974765 -3.212048
-1.977906 -3.063922
-1.980900 -2.918590
-1.983749 -2.773943
-1.986454 -2.631085
-1.989017 -2.490333
-1.991440 -2.349638
-1.993722 -2.211012
-1.995867 -2.074747
-1.997876 -1.938798
-1.999749 -1.805694
-2.001491 -1.674310
-2.003101 -1.543653
-2.004583 -1.416314
-2.005937 -1.290037
-2.007166 -1.165606
-2.008272 -1.045153
-2.009259 -0.924901
-2.010124 -0.806626
-2.010875 -0.691274
-2.011507 -0.572859
-2.012022 -0.455320
-2.012420 -0.341408
-2.012706 -0.230443
-2.012881 -0.118731
-2.012939 0.007285
-2.012843 0.204552
-2.012502 0.484807
-2.011869 0.773735
-2.010960 1.041497
-2.009789 1.296545
-2.008369 1.535978
-2.006717 1.764396
-2.004841 1.981057
-2.002754 2.188851
-2.000461 2.390579
-1.997971 2.582702
-1.995292 2.771334
-1.992425 2.953013
-1.989382 3.128419
-1.986162 3.303403
-1.982770 3.474042
-1.979209 3.639687
-1.975483 3.805134
-1.971592 3.967103
-1.967541 4.128969
-1.963326 4.291226
-1.958951 4.449683
-1.954417 4.609669
-1.949723 4.768672
-1.944870 4.928440
-1.939857 5.085766
-1.934688 5.245090
-1.929357 5.403608
-1.923870 5.560316
-1.918224 5.718763
-1.912422 5.875375
-1.906462 6.032811
-1.900344 6.189963
-1.894070 6.345851
-1.887640 6.501684
-1.881053 6.657862
-1.874312 6.811570
-1.867416 6.967461
-1.860363 7.121976
-1.853158 7.275854
-1.845797 7.429336
-1.838285 7.580534
-1.830620 7.734484
-1.822801 7.885671
-1.814833 8.036792
-1.806712 8.188269
-1.798441 8.337743
-1.790019 8.487273
-1.781449 8.635891
-1.772730 8.785216
-1.763862 8.932583
-1.754847 9.078854
-1.745686 9.225110
-1.736379 9.371026
-1.726926 9.515208
-1.717329 9.659254
-1.707589 9.800817
-1.697708 9.944228
-1.687680 10.087890
-1.677514 10.225416
-1.667208 10.365942
-1.656762 10.504490
-1.646178 10.643120
-1.635454 10.780682
-1.624596 10.916098
-1.613600 11.051207
-1.602472 11.185262
-1.591207 11.319869
-1.579810 11.450898
-1.568282 11.583371
-1.556621 11.714568
-1.544830 11.844396
-1.532909 11.973272
-1.520860 12.099659
-1.508685 12.227730
-1.496381 12.354249
-1.483952 12.478964
-1.471398 12.602345
-1.458722 12.727380
-1.445920 12.848098
-1.433000 12.967606
-1.419958 13.089322
-1.406796 13.207750
-1.393516 13.326650
-1.380117 13.443094
-1.366603 13.558123
-1.352974 13.673405
-1.339229 13.787200
-1.325371 13.901924
-1.311402 14.003686
-1.297323 14.144637
-1.265182 16.521869
