-0.453826 0.421726 -0.010357
-0.335912 8.843589
-0.327317 8.272923
-0.319461 7.367457
-0.312299 7.265842
-0.304403 8.698008
-0.294651 10.833397
-0.282683 13.064800
-0.268543 15.154205
-0.252419 17.017219
-0.234594 18.520266
-0.215515 19.504070
-0.195740 19.909552
-0.175841 19.762364
-0.156333 19.143718
-0.137639 18.153832
-0.120078 16.897228
-0.103863 15.481401
-0.089105 14.004268
-0.075820 12.546530
-0.063962 11.162892
-0.053433 9.898359
-0.044099 8.773112
-0.035813 7.814989
-0.028413 6.977218
-0.021755 6.408538
-0.015642 5.664714
-0.010223 5.492766
-0.003737 8.043288
0.005748 10.199172
0.015976 10.239444
0.026188 10.101408
0.036167 9.865625
0.045997 9.803916
0.055862 9.946723
0.065985 10.314661
0.076582 10.891081
0.087855 11.665272
0.099947 12.472158
0.112768 13.109234
0.126159 13.648216
0.140109 14.240224
0.154705 14.946002
0.170080 15.798931
0.186385 16.800870
0.203755 17.920228
0.222286 19.115001
0.242034 20.341068
0.263004 21.552698
0.285162 22.705301
0.308425 23.751234
0.332662 24.647473
0.357714 25.378399
0.383428 25.984411
0.409714 26.529518
0.436535 27.057735
0.463884 27.586659
0.491763 28.115206
0.520175 28.657005
0.549118 29.148449
0.578579 29.785543
0.608569 29.884807
0.638964 31.647973
0.670151 28.083780
0.700419 40.197178
0.735674 7.499745
0.756926 99.155975
0.938142 202.672808
1.079141 55.831813
1.074498 -17.339105
1.076612 5.945907
1.075984 -1.991824
1.076152 0.642866
1.076111 -0.199699
1.076120 0.059869
1.076118 -0.017382
1.076119 0.004905
1.076119 -0.001351
1.076119 0.000365
1.076119 -0.000097
1.076119 0.000025
1.076119 -0.000007
1.076119 0.000002
1.076119 -0.000000
1.076119 0.000000
1.076119 -0.000000
1.076119 0.000000
1.076119 -0.000000
1.076119 0.000000
1.076119 -0.000000
1.076119 0.000000
1.076119 -0.000000
1.076119 0.000000
1.076119 -0.000000
1.076119 0.000000
1.076119 -0.000000
1.076119 0.000000
1.076119 -0.000000
1.076119 0.000000
1.076119 -0.000000
1.076119 0.000000
1.076119 -0.000000
1.076119 0.000000
1.076119 -0.000000
1.076119 0.000000
1.076119 -0.000000
1.076119 0.000000
1.076119 -0.000000
1.076119 0.000000
1.076119 -0.000000
1.076119 0.000000
1.076119 -0.000000
1.076119 0.000000
1.076119 -0.000000
1.076119 0.000000
1.076119 -0.000000
1.076119 0.000000
1.076119 -0.000000
1.076119 0.000000
1.076119 -0.000000
1.076119 0.000000
1.076119 -0.000000
1.076119 0.000000
1.076119 -0.000000
1.076119 0.000000
1.076119 -0.000000
1.076119 0.000000
1.076119 -0.000000
1.076119 0.000000
1.076119 -0.000000
1.076119 0.000000
1.076119 -0.000000
1.076119 0.000000
1.076119 -0.000000
1.076119 0.000000
1.076119 -0.000000
1.076119 0.000000
1.076119 -0.000000
1.076119 0.000000
1.076119 -0.000000
1.076119 0.000000
1.076119 -0.000000
1.076119 0.000000
1.076119 -0.000000
1.076119 0.000000
1.076119 -0.000000
1.076119 0.000000
1.076119 -0.000000
1.076119 0.000000
1.076119 -0.000000
1.076119 0.000000
1.076119 -0.000000
1.076119 0.000000
1.076119 -0.000000
1.076119 0.000000
1.076119 -0.000000
1.076119 0.000000
1.076119 -0.000000
1.076119 0.000000
1.076119 -0.000000
1.076119 0.000000
1.076119 -0.000000
1.076119 0.000000
1.076119 -0.000000
1.076119 0.000000
1.076119 -0.000000
1.076119 0.000000
1.076119 -0.000000
1.076119 0.000000
1.076119 -0.000000
1.076119 0.000000
1.076119 -0.000000
1.076119 0.000000
1.076119 -0.000000
1.076119 0.000000
1.076119 -0.000000
1.076119 0.000000
1.076119 -0.000000
1.076119 0.000000
1.076119 -0.000000
1.076119 0.000000
1.076119 -0.000000
1.076119 0.000000
1.076119 -0.000000
1.076119 0.000000
1.076119 -0.000000
1.076119 0.000000
1.076119 -0.000000
1.076119 0.000000
1.076119 -0.000000
1.076119 0.000000
1.076119 -0.000000
1.076119 0.000000
1.076119 -0.000000
1.076119 0.000000
1.076119 -0.000000
1.076119 0.000000
1.076119 -0.000000
1.076119 0.000000
1.076119 -0.000000
1.076119 0.000000
1.076119 -0.000000
1.076119 0.000000
1.076119 -0.000000
1.076119 0.000000
1.076119 -0.000000
1.076119 0.000000
1.076119 -0.000000
1.076119 0.000000
1.076119 -0.000000
1.076119 0.000000
1.076119 -0.000000
1.076119 0.000000
1.076119 -0.000000
1.076119 0.000000
1.076119 -0.000000
1.076119 0.000000
1.076119 -0.000000
1.076119 0.000000
1.076119 -0.000000
1.076119 0.000000
1.076119 -0.000000
1.076119 0.000000
1.076119 -0.000000
1.076119 0.000000
1.076119 -0.000000
1.076119 0.000000
1.076119 -0.000000
1.076119 0.000000
1.076119 -0.000000
1.076119 0.000000
1.076119 -0.000000
1.076119 0.000000
1.076119 -0.000000
1.076119 0.000000
1.076119 -0.000000
1.076119 0.000000
1.076119 -0.000000
1.076119 0.000000
1.076119 -0.000000
1.076119 0.000000
1.076119 -0.000000
1.076119 0.000000
1.076119 -0.000000
1.076119 0.000000
1.076119 -0.000000
1.076119 0.000000
1.076119 -0.000000
1.076119 0.000000
1.076119 -0.000000
1.076119 0.000000
1.076119 -0.000000
1.076119 0.000000
1.076119 -0.000000
1.076119 0.000000
1.076119 -0.000000
1.076119 0.000000
1.076119 -0.000000
1.076119 0.000000
1.076119 -0.000000
1.076119 0.000000
1.076119 -0.000000
1.076119 0.000000
1.076119 -0.000000
1.076119 0.000000
1.076119 -0.000000
1.076119 0.000000
1.076119 -0.000000
1.076119 0.000000
1.076119 -0.000000
1.076119 0.000000
1.076119 -0.000000
1.076119 0.000000
1.076119 -0.000000
1.076119 0.000000
1.076119 -0.000000
1.076119 0.000000
1.076119 -0.000000
1.076119 0.000000
1.076119 -0.000000
1.076119 0.000000
1.076119 -0.000000
1.076119 0.000000
1.076119 -0.000000
1.076119 0.000000
1.076119 -0.000000
1.076119 0.000000
1.076119 -0.000000
1.076119 0.000000
1.076119 -0.000000
1.076119 0.000000
1.076119 -0.000000
1.076119 0.000000
1.076119 -0.000000
1.076119 0.000000
1.076119 -0.000000
1.076119 0.000000
1.076119 -0.000000
1.076119 0.000000
1.076119 -0.000000
1.076119 0.000000
1.076119 -0.000000
1.076119 0.000000
1.076119 -0.000000
1.076119 0.000000
1.076119 -0.000000
1.076119 0.000000
1.076119 -0.000000
1.076119 0.000000
1.076119 -0.000000
1.076119 0.000000
1.076119 -0.000000
1.076119 0.000000
1.076119 -0.000000
1.076119 0.000000
1.076119 -0.000000
1.076119 0.000000
1.076119 -0.000000
1.076119 0.000000
1.076119 -0.000000
1.076119 0.000000
1.076119 -0.000000
1.076119 0.000000
1.076119 -0.000000
1.076119 0.000000
1.076119 -0.000000
1.076119 0.000000
1.076119 -0.000000
1.076119 0.000000
1.076119 -0.000000
1.076119 0.000000
1.076119 -0.000000
1.076119 0.000000
1.076119 -0.000000
1.076119 0.000000
1.076119 -0.000000
1.076119 0.000000
1.076119 -0.000000
1.076119 0.000000
1.076119 -0.000000
1.076119 0.000000
1.076119 -0.000000
1.076119 0.000000
1.076119 -0.000000
1.076119 0.000000
1.076119 -0.000000
1.076119 0.000000
1.076119 -0.000000
1.076119 0.000000
1.076119 -0.000000
1.076119 0.000000
1.076119 -0.000000
1.076119 0.000000
1.076119 -0.000000
1.076119 0.000000
1.076119 -0.000000
1.076119 0.000000
1.076119 -0.000000
1.076119 0.000000
1.076119 -0.000000
1.076119 0.000000
1.076119 -0.000000
1.076119 0.000000
1.076119 -0.000000
1.076119 0.000000
1.076119 -0.000000
1.076119 0.000000
1.076119 -0.000000
1.076119 0.000000
1.076119 -0.000000
1.076119 0.000000
1.076119 -0.000000
1.076119 0.000000
1.076119 -0.000000
1.076119 0.000000
1.076119 -0.000000
1.076119 0.000000
1.076119 -0.000000
1.076119 0.000000
1.076119 -0.000000
1.076119 0.000000
1.076119 -0.000000
1.076119 0.000000
1.076119 -0.000000
1.076119 0.000000
1.076119 -0.000000
1.076119 0.000000
1.076119 -0.000000
1.076119 0.000000
1.076119 -0.000000
1.076119 0.000000
1.076119 -0.000000
1.076119 0.000000
1.076119 -0.000000
1.076119 0.000000
1.076119 -0.000000
1.076119 0.000000
1.076119 -0.000000
1.076119 0.000000
1.076119 -0.000000
1.076119 0.000000
1.076119 -0.000000
1.076119 0.000000
1.076119 -0.000000
1.076119 0.000000
1.076119 -0.000000
1.076119 0.000000
1.076119 -0.000000
1.076119 0.000000
1.076119 -0.000000
1.076119 0.000000
1.076119 -0.000000
1.076119 0.000000
1.076119 -0.000000
1.076119 0.000000
1.076119 -0.000000
1.076119 0.000000
1.076119 -0.000000
1.076119 0.000000
1.076119 -0.000000
1.076119 0.000000
1.076119 -0.000000
1.076119 0.000000
1.076119 -0.000000
1.076119 0.000000
1.076119 -0.000000
1.076119 0.000000
1.076119 -0.000000
1.076119 0.000000
1.076119 -0.000000
1.076119 0.000000
1.076119 -0.000000
1.076119 0.000000
1.076119 -0.000000
1.076119 0.000000
1.076119 -0.000000
1.076119 0.000000
1.076119 -0.000000
1.076119 0.000000
1.076119 -0.000000
1.076119 0.000000
1.076119 -0.000000
1.076119 0.000000
1.076119 -0.000000
1.076119 0.000000
1.076119 -0.000000
1.076119 0.000000
1.076119 -0.000000
1.076119 0.000000
1.076119 -0.000000
1.076119 0.000000
1.076119 -0.000000
1.076119 0.000000
1.076119 -0.000000
1.076119 0.000000
1.076119 -0.000000
1.076119 0.000000
1.076119 -0.000000
1.076119 0.000000
1.076119 -0.000000
1.076119 0.000000
1.076119 -0.000000
1.076119 0.000000
1.076119 -0.000000
1.076119 0.000000
1.076119 -0.000000
1.076119 0.000000
1.076119 -0.000000
1.076119 0.000000
1.076119 -0.000000
1.076119 0.000000
1.076119 -0.000000
1.076119 0.000000
1.076119 -0.000000
1.076119 0.000000
1.076119 -0.000000
1.076119 0.000000
1.076119 -0.000000
1.076119 0.000000
1.076119 -0.000000
1.076119 0.000000
1.076119 -0.000000
1.076119 0.000000
1.076119 -0.000002
1.076119 0.000008
1.076119 -0.000031
1.076119 0.000127
1.076119 -0.000515
1.076119 0.002043
1.076119 -0.007897
1.076119 0.029428
1.076120 -0.104329
1.076105 0.345688
1.076200 -1.039113
1.075715 2.644220
1.077911 -4.410264
1.065101 -16.815911
1.047854 -18.406012
1.040327 16.194722
0.945702 -352.523090
0.358116 -650.690892
-0.177686 -411.508831
-0.493994 -257.046261
-0.733502 -226.085656
-0.950237 -205.971470
-1.136269 -157.122260
-1.253400 -74.117939
-1.291866 -12.728554
-1.294844 0.824779
-1.295153 -0.421889
-1.295077 0.161957
-1.295096 -0.055808
-1.295092 0.018196
-1.295093 -0.006803
-1.295093 0.006615
-1.295092 -0.018577
-1.295093 0.065544
-1.295090 -0.237839
-1.294813 1.724441
-1.290914 5.857878
-1.285079 4.016941
-1.268051 46.594482
-1.171258 150.728172
-0.978139 219.359239
-0.742323 257.351619
-0.481098 240.864210
-0.233737 303.423504
-0.011690 -47.742552
-0.431136 -704.056495
-1.046263 -236.646954
-0.902313 238.526973
-0.773343 100.481909
-0.649825 116.250548
-0.562517 66.360884
-0.510782 35.017660
-0.493252 1.154598
-0.507057 -28.469804
-0.549871 -56.962123
-0.602505 -29.741662
-0.593422 45.406082
-0.522292 88.518235
-0.427123 98.921736
-0.329495 93.606778
-0.243315 77.520997
-0.175774 57.011715
-0.129550 35.387417
-0.104589 14.778304
-0.099243 -3.670917
-0.111040 -19.428073
-0.137216 -32.423248
-0.175093 -42.846144
-0.222250 -51.038770
-0.276666 -57.412765
-0.336712 -62.352511
-0.401147 -66.245054
-0.469088 -69.397079
-0.539921 -72.073939
-0.613202 -74.216332
-0.688487 -76.312412
-0.765607 -77.293840
-0.842808 -77.013233
-0.919996 -77.356130
-0.997576 -77.402660
-1.074881 -77.222641
-1.151459 -74.894296
-1.222230 -64.804753
-1.275124 -36.509335
-1.294583 -6.000215
-1.294913 1.202654
-1.295136 -0.467963
-1.295083 0.160722
-1.295095 -0.051148
-1.295092 0.015398
-1.295093 -0.004442
-1.295093 0.001240
-1.295093 -0.000337
-1.295093 0.000090
-1.295093 -0.000023
-1.295093 0.000006
-1.295093 -0.000002
-1.295093 0.000000
-1.295093 -0.000000
-1.295093 0.000000
-1.295093 0.000000
-1.295093 -0.000000
-1.295093 0.000001
-1.295093 -0.000004
-1.295093 0.000013
-1.295093 -0.000044
-1.295093 0.000139
-1.295092 -0.000416
-1.295093 0.001184
-1.295092 -0.003262
-1.295093 0.009404
-1.295092 -0.033766
-1.295011 0.373144
-1.294399 0.618347
-1.293886 0.526154
-1.293363 0.381108
-1.292748 1.357951
-1.288087 9.999552
-1.272613 18.987607
-1.253055 19.039806
-1.235354 16.518702
-1.219856 14.384214
-1.206605 12.106554
-1.195602 9.879159
-1.186812 7.697228
-1.180161 5.606857
-1.175548 3.633411
-1.172839 1.803931
-1.171881 0.138936
-1.172501 -1.345084
-1.174510 -2.635463
-1.177710 -3.724066
-1.181896 -4.606518
-1.186862 -5.280512
-1.192398 -5.745396
-1.198295 -6.002337
-1.204347 -6.056145
-1.210354 -5.912036
-1.216120 -5.578935
-1.221464 -5.069193
-1.226214 -4.394973
-1.230212 -3.570017
-1.233315 -2.607440
-1.235392 -1.523290
-1.236329 -0.332698
-1.236028 0.947814
-1.234408 2.299223
-1.231407 3.704773
-1.226979 5.144952
-1.221098 6.609076
-1.213739 8.098593
-1.204874 9.620242
-1.194470 11.170715
-1.182508 12.727878
-1.168994 14.268988
-1.153954 15.773332
-1.137435 17.221528
-1.119501 18.597235
-1.100233 19.884034
-1.079727 21.069347
-1.058089 22.142336
-1.035439 23.092421
-1.011902 23.911448
-0.987614 24.592737
-0.962715 25.131089
-0.937351 25.521977
-0.911670 25.761993
-0.885826 25.850505
-0.859968 25.786082
-0.834253 25.569612
-0.808828 25.204166
-0.783842 24.692564
-0.759440 24.039770
-0.735760 23.252013
-0.712932 22.336750
-0.691082 21.301766
-0.670323 20.156802
-0.650761 18.910769
-0.632494 17.573510
-0.615606 16.156171
-0.600171 14.671906
-0.586250 13.135119
-0.573888 11.559880
-0.563115 9.961604
-0.553948 8.354473
-0.546388 6.751922
-0.540424 5.167160
-0.536033 3.612901
-0.533177 2.100614
-0.531810 0.641213
-0.531873 -0.756376
-0.533302 -2.086690
-0.536028 -3.349246
-0.539985 -4.547351
-0.545111 -5.684221
-0.551344 -6.758212
-0.558618 -7.762709
-0.566859 -8.688856
-0.575984 -9.528331
-0.585904 -10.274643
-0.596522 -10.923760
-0.607740 -11.474983
-0.619462 -11.929632
-0.631592 -12.290039
-0.644037 -12.559423
-0.656707 -12.741738
-0.669518 -12.842674
-0.682393 -12.866971
-0.695255 -12.820617
-0.708038 -12.709999
-0.720680 -12.539853
-0.733125 -12.317644
-0.745324 -12.048239
-0.757232 -11.737296
-0.768810 -11.389890
-0.780024 -11.010309
-0.790844 -10.603526
-0.801244 -10.172797
-0.811203 -9.722481
-0.820704 -9.256992
-0.829732 -8.780427
-0.838280 -8.297008
-0.846342 -7.810967
-0.853918 -7.326722
-0.861012 -6.847963
-0.867631 -6.378146
-0.873785 -5.920845
-0.879489 -5.478626
-0.884759 -5.054950
-0.889616 -4.652565
-0.894082 -4.273765
-0.898180 -3.917879
-0.901930 -3.574846
-0.905337 -3.231860
-0.908395 -2.873573
-0.911079 -2.481675
-0.913350 -2.051363
-0.915179 -1.600876
-0.916558 -1.159055
-0.917507 -0.741838
-0.918053 -0.353167
-0.918225 0.003874
-0.918056 0.326989
-0.917582 0.615381
-0.916835 0.870797
-0.915849 1.095781
-0.914650 1.294226
-0.913265 1.470120
-0.911714 1.626244
-0.910015 1.765973
-0.908183 1.891829
-0.906232 2.005274
-0.904172 2.107547
-0.902016 2.199934
-0.899771 2.282355
-0.897450 2.354962
-0.895060 2.418463
-0.892611 2.472217
-0.890114 2.515843
-0.887577 2.550006
-0.885012 2.574286
-0.882427 2.588132
-0.879834 2.591877
-0.877242 2.585004
-0.874662 2.567616
-0.872105 2.539031
-0.869584 2.495127
-0.867118 2.427375
-0.864735 2.326579
-0.862469 2.199686
-0.860334 2.064405
-0.858336 1.929554
-0.856469 1.801847
-0.854731 1.666744
-0.853123 1.560185
-0.851633 1.377091
-0.850364 1.200441
-0.849348 0.670336
-0.849458 -1.167145
-0.851949 -3.798796
-0.856844 -5.773169
-0.863198 -6.820377
-0.870331 -7.367723
-0.877851 -7.624314
-0.885548 -7.737759
-0.893320 -7.784288
-0.901123 -7.804261
-0.908940 -7.813507
-0.916764 -7.817890
-0.924590 -7.818784
-0.932416 -7.815212
-0.940234 -7.805455
-0.948040 -7.788881
-0.955826 -7.765669
-0.963584 -7.735158
-0.971309 -7.697555
-0.978993 -7.653544
-0.986630 -7.603933
-0.994214 -7.548930
-1.001741 -7.489886
-1.009208 -7.427479
-1.016610 -7.362037
-1.023945 -7.293616
-1.031211 -7.223209
-1.038406 -7.152429
-1.045530 -7.081835
-1.052585 -7.012732
-1.059570 -6.944705
-1.066488 -6.878512
-1.073342 -6.816373
-1.080137 -6.760154
-1.086878 -6.708321
-1.093567 -6.657660
-1.100206 -6.604705
-1.106788 -6.546401
-1.113309 -6.481640
-1.119762 -6.408357
-1.126136 -6.326789
-1.132426 -6.238578
-1.138624 -6.144807
-1.144726 -6.047011
-1.150729 -5.945943
-1.156629 -5.841971
-1.162424 -5.735294
-1.168110 -5.626126
-1.173687 -5.514868
-1.179150 -5.400756
-1.184498 -5.283865
-1.189727 -5.163827
-1.194835 -5.041452
-1.199819 -4.915826
-1.204675 -4.785790
-1.209399 -4.651966
-1.213987 -4.512603
-1.218432 -4.368402
-1.222731 -4.220185
-1.226879 -4.066153
-1.230870 -3.909226
-1.234701 -3.740626
-1.238365 -3.589076
-1.241857 -3.348968
-1.245017 -2.952878
-1.247758 -2.526586
-1.250085 -2.129199
-1.252040 -1.788277
-1.253698 -1.546160
-1.255195 -1.482183
-1.256730 -1.609838
-1.258403 -1.693748
-1.259861 -0.999746
-1.259884 1.254097
-1.256737 5.346386
-1.248870 10.370937
-1.236197 14.727394
-1.219897 17.550674
-1.201636 18.647782
-1.183090 18.167422
-1.165683 16.435164
-1.150477 13.832851
-1.138156 10.733102
-1.129047 7.461316
-1.123189 4.274954
-1.120399 1.356353
-1.120346 -1.177631
-1.122608 -3.264512
-1.126726 -4.886915
-1.132240 -6.056645
-1.138712 -6.807218
-1.145745 -7.188077
-1.152997 -7.254296
-1.160183 -7.064086
-1.167074 -6.676318
-1.173500 -6.143957
-1.179343 -5.517290
-1.184529 -4.839784
-1.189027 -4.147596
-1.192838 -3.470619
-1.195988 -2.831822
-1.198525 -2.248525
-1.200511 -1.730875
-1.202015 -1.285847
-1.203110 -0.915515
-1.203872 -0.617463
-1.204370 -0.388347
-1.204670 -0.221999
-1.204832 -0.109964
-1.204906 -0.044797
-1.204935 -0.018329
-1.204953 -0.021920
-1.204986 -0.046264
-1.205049 -0.080435
-1.205146 -0.111348
-1.205265 -0.122700
-1.205380 -0.101709
-1.205455 -0.040412
-1.205447 0.064147
-1.205313 0.209664
-1.205015 0.390344
-1.204522 0.599851
-1.203807 0.831411
-1.202853 1.077955
-1.201646 1.333323
-1.200182 1.592113
-1.198459 1.849967
-1.196480 2.103099
-1.194251 2.349494
-1.191779 2.586749
-1.189075 2.814211
-1.186149 3.031194
-1.183010 3.237737
-1.179670 3.434034
-1.176139 3.620345
-1.172425 3.798125
-1.168538 3.967586
-1.164485 4.129199
-1.160273 4.285190
-1.155908 4.435457
-1.151395 4.580382
-1.146739 4.721792
-1.141943 4.859414
-1.137011 4.993933
-1.131946 5.126132
-1.126750 5.255965
-1.121425 5.383285
-1.115973 5.508858
-1.110397 5.632139
-1.104698 5.754109
-1.098877 5.875569
-1.092935 5.996753
-1.086872 6.117790
-1.080687 6.239093
-1.074381 6.359853
-1.067955 6.479852
-1.061409 6.599155
-1.054744 6.716765
-1.047962 6.832380
-1.041066 6.946323
-1.034056 7.058318
-1.026936 7.167358
-1.019708 7.274299
-1.012374 7.378757
-1.004937 7.480614
-0.997399 7.579378
-0.989764 7.674381
-0.982036 7.764518
-0.974221 7.849009
-0.966324 7.929856
-0.958346 8.009092
-0.950290 8.087683
-0.942155 8.164891
-0.933945 8.239065
-0.925662 8.308491
-0.917312 8.373526
-0.908900 8.434151
-0.900429 8.490806
-0.891902 8.544004
-0.883324 8.593970
-0.874698 8.640824
-0.866027 8.684783
-0.857312 8.726277
-0.848557 8.765226
-0.839765 8.801967
-0.830937 8.836562
-0.822075 8.868798
-0.813182 8.899511
-0.804259 8.928115
-0.795308 8.954786
-0.786332 8.980126
-0.777331 9.002984
-0.768308 9.024388
-0.759264 9.044176
-0.750202 9.061695
-0.741124 9.077307
-0.732030 9.091353
-0.722923 9.103115
-0.713806 9.113023
-0.704680 9.120542
-0.695547 9.126172
-0.686410 9.130244
-0.677270 9.131649
-0.668129 9.130994
-0.658990 9.128434
-0.649854 9.124174
-0.640724 9.117392
-0.631602 9.108522
-0.622490 9.097890
-0.613389 9.085052
-0.604302 9.070501
-0.595231 9.053337
-0.586178 9.033912
-0.577145 9.012462
-0.568136 8.988609
-0.559151 8.963250
-0.550192 8.935618
-0.541262 8.906360
-0.532362 8.875661
-0.523493 8.843305
-0.514658 8.809199
-0.505858 8.773451
-0.497094 8.736408
-0.488368 8.697516
-0.479682 8.657074
-0.471037 8.614729
-0.462436 8.571091
-0.453878 8.526377
-0.445367 8.479339
-0.436903 8.430855
-0.428489 8.381102
-0.420125 8.329347
-0.411814 8.276450
-0.403556 8.223180
-0.395353 8.163843
-0.387207 8.117966
-0.379116 8.025575
-0.371097 8.062593
-0.363098 7.730729
-0.355265 8.460922
-0.335912 8.843589
