0.156483 0.191456 0.577718
-0.752811 -6.032603
-0.757851 -4.141243
-0.761313 -2.880805
-0.763792 -2.142735
-0.765723 -1.764639
-0.767410 -1.640419
-0.769060 -1.677026
-0.770797 -1.801058
-0.772676 -1.955856
-0.774715 -2.120325
-0.776922 -2.287720
-0.779289 -2.434796
-0.781784 -2.542384
-0.784362 -2.601893
-0.786976 -2.611041
-0.789574 -2.572027
-0.792111 -2.491531
-0.794553 -2.383677
-0.796880 -2.265465
-0.799073 -2.101654
-0.801097 -1.966250
-0.802944 -1.634354
-0.804282 -1.042709
-0.805360 -1.435087
-0.805396 3.445757
-0.798074 9.485818
-0.788313 9.808827
-0.778722 9.278834
-0.769831 8.466052
-0.761740 7.750285
-0.754173 7.458377
-0.746654 7.629386
-0.738779 8.158969
-0.730455 8.283986
-0.722481 7.551469
-0.715495 6.344718
-0.709881 4.832832
-0.705849 3.234029
-0.703365 1.758160
-0.702251 0.514865
-0.702232 -0.422048
-0.702988 -1.033484
-0.704196 -1.330472
-0.705548 -1.319137
-0.706742 -1.023343
-0.707523 -0.505650
-0.707703 0.168103
-0.707153 0.942675
-0.705796 1.774191
-0.703593 2.630592
-0.700528 3.491222
-0.696606 4.343246
-0.691840 5.174654
-0.686258 5.972357
-0.679899 6.722849
-0.672818 7.413423
-0.665081 8.032443
-0.656764 8.570833
-0.647953 9.017794
-0.638741 9.374703
-0.629218 9.632008
-0.619473 9.841533
-0.609496 10.110547
-0.599242 10.348949
-0.588840 10.397845
-0.578502 10.218021
-0.568465 9.795120
-0.558973 9.129150
-0.550260 8.248889
-0.542508 7.220655
-0.535819 6.147781
-0.530178 5.141232
-0.525479 4.275861
-0.521565 3.569460
-0.518288 2.996945
-0.515534 2.516830
-0.513231 2.091773
-0.511337 1.697069
-0.509828 1.320021
-0.508689 0.957471
-0.507905 0.613251
-0.507453 0.293808
-0.507304 0.011010
-0.507415 -0.223838
-0.507737 -0.411614
-0.508222 -0.548258
-0.508817 -0.632843
-0.509463 -0.638783
-0.510050 -0.506255
-0.510428 -0.229186
-0.510475 0.148704
-0.510112 0.582097
-0.509300 1.044701
-0.508013 1.530476
-0.506230 2.032459
-0.503940 2.544233
-0.501135 3.061430
-0.497811 3.579684
-0.493970 4.093738
-0.489618 4.599974
-0.484763 5.099223
-0.479414 5.584478
-0.473590 6.046832
-0.467318 6.479970
-0.460627 6.883226
-0.453553 7.240690
-0.446135 7.589067
-0.438331 8.022450
-0.430066 8.477769
-0.421382 8.863713
-0.412344 9.180942
-0.403028 9.419502
-0.393514 9.576147
-0.383884 9.648935
-0.374225 9.637341
-0.364618 9.542901
-0.355146 9.369646
-0.345884 9.124271
-0.336900 8.817072
-0.328248 8.462339
-0.319968 8.077600
-0.312080 7.681766
-0.304587 7.292328
-0.297475 6.921611
-0.290720 6.580979
-0.284287 6.278884
-0.278134 6.024441
-0.272209 5.820474
-0.266464 5.666682
-0.260849 5.559693
-0.255322 5.489691
-0.249848 5.452356
-0.244397 5.440498
-0.238949 5.448335
-0.233484 5.473454
-0.227987 5.512668
-0.222443 5.564919
-0.216841 5.629930
-0.211168 5.707507
-0.205411 5.797721
-0.199556 5.904352
-0.193585 6.026063
-0.187486 6.163852
-0.181238 6.322070
-0.174822 6.500752
-0.168216 6.702659
-0.161395 6.930932
-0.154331 7.185799
-0.147001 7.464949
-0.139379 7.767623
-0.131443 8.091292
-0.123175 8.429812
-0.114563 8.779365
-0.105597 9.133779
-0.096278 9.485878
-0.086609 9.829548
-0.076603 10.159474
-0.066277 10.467487
-0.055656 10.751414
-0.044762 11.006508
-0.033631 11.229379
-0.022292 11.419618
-0.010781 11.573369
0.000866 11.692439
0.012615 11.776316
0.024432 11.827367
0.036284 11.848522
0.048143 11.842901
0.059986 11.816005
0.071794 11.773999
0.083554 11.722259
0.095262 11.669174
0.106916 11.616157
0.118519 11.569083
0.130081 11.533335
0.141612 11.507792
0.153124 11.495204
0.164629 11.493872
0.176139 11.503358
0.187662 11.522615
0.199209 11.549452
0.210787 11.582721
0.222399 11.619991
0.234051 11.661461
0.245746 11.704754
0.257485 11.748930
0.269267 11.791796
0.281092 11.834300
0.292959 11.874706
0.304863 11.910481
0.316803 11.943656
0.328773 11.972765
0.340771 11.997666
0.352791 12.019398
0.364833 12.039826
0.376895 12.059638
0.388977 12.080304
0.401081 12.103404
0.413209 12.131008
0.425369 12.163860
0.437565 12.206782
0.449812 12.265779
0.462125 12.335921
0.474508 12.405704
0.486959 12.468318
0.499467 12.522493
0.512026 12.569145
0.524629 12.611380
0.537281 12.674839
0.550017 12.776094
0.562872 12.917388
0.575884 13.078880
0.589042 13.196363
0.602267 13.205982
0.615430 13.065331
0.628369 12.760560
0.640928 12.309586
0.652975 11.744581
0.664416 11.106040
0.675200 10.438547
0.685317 9.779793
0.694793 9.164167
0.703686 8.615874
0.712070 8.151541
0.720037 7.782242
0.727683 7.510772
0.735105 7.334258
0.742397 7.250106
0.749648 7.249205
0.756934 7.320125
0.764324 7.455186
0.771877 7.642608
0.779638 7.869546
0.787642 8.128860
0.795920 8.411536
0.804486 8.704669
0.813348 9.003250
0.822510 9.301469
0.831966 9.589990
0.841705 9.864145
0.851709 10.122036
0.861962 10.359054
0.872440 10.572129
0.883120 10.761930
0.893976 10.924550
0.904982 11.062244
0.916114 11.173137
0.927341 11.254023
0.938636 11.309330
0.949973 11.338148
0.961327 11.343316
0.972676 11.327979
0.984000 11.296371
0.995287 11.252490
1.006525 11.200189
1.017709 11.143662
1.028834 11.086100
1.039904 11.030935
1.050919 10.977897
1.061883 10.930450
1.072804 10.888826
1.083685 10.852925
1.094533 10.823244
1.105355 10.798969
1.116155 10.781537
1.126940 10.766614
1.137711 10.756208
1.148475 10.749870
1.159234 10.746520
1.169991 10.744722
1.180745 10.744354
1.191502 10.747251
1.202261 10.749500
1.213023 10.752616
1.223788 10.756388
1.234557 10.761048
1.245331 10.764303
1.256108 10.768011
1.266889 10.773448
1.277676 10.780020
1.288472 10.790607
1.299280 10.804183
1.310104 10.822290
1.320948 10.845846
1.331818 10.871468
1.342714 10.901275
1.353643 10.933657
1.364604 10.966923
1.375599 11.000989
1.386628 11.035567
1.397693 11.071085
1.408792 11.104947
1.419925 11.138619
1.431091 11.172558
1.442292 11.204626
1.453523 11.235448
1.464785 11.265499
1.476076 11.294049
1.487394 11.319354
1.498736 11.339836
1.510096 11.357286
1.521472 11.371006
1.532859 11.380562
1.544254 11.384775
1.555650 11.383991
1.567043 11.378211
1.578428 11.368296
1.589801 11.354582
1.601158 11.335358
1.612493 11.313073
1.623805 11.286700
1.635088 11.255965
1.646339 11.222441
1.657554 11.184868
1.668730 11.144174
1.679863 11.099631
1.690950 11.051770
1.701988 11.000700
1.712971 10.941034
1.723888 10.868804
1.734727 10.787373
1.745483 10.702271
1.756155 10.621915
1.766750 10.549307
1.777276 10.481467
1.787735 10.415936
1.798128 10.349060
1.808452 10.277052
1.818700 10.197948
1.828866 10.112029
1.838942 10.017451
1.848918 9.914044
1.858787 9.803688
1.868543 9.685375
1.878174 9.556922
1.887668 9.406106
1.896984 9.192619
1.906039 8.879525
1.914728 8.468459
1.922973 7.998684
1.930746 7.541159
1.938102 7.177331
1.945166 6.965565
1.952104 6.926962
1.959085 7.043691
1.966241 7.266213
1.973647 7.532573
1.981317 7.785934
1.989216 7.985031
1.997276 8.104316
2.005411 8.132259
2.013528 8.071111
2.021542 7.929082
2.029379 7.718243
2.036975 7.451660
2.044283 7.143741
2.051267 6.806291
2.057902 6.447840
2.064172 6.078061
2.070069 5.703338
2.075590 5.328003
2.080736 4.954691
2.085510 4.584773
2.089917 4.221085
2.093963 3.862852
2.097652 3.509746
2.100992 3.163054
2.103986 2.820980
2.106640 2.482150
2.108956 2.145858
2.110937 1.810893
2.112582 1.477335
2.113895 1.144277
2.114872 0.808530
2.115513 0.471957
2.115816 0.133527
2.115779 -0.207434
2.115401 -0.549872
2.114678 -0.895006
2.113608 -1.242986
2.112188 -1.593235
2.110418 -1.944160
2.108296 -2.297141
2.105819 -2.651090
2.102988 -3.006312
2.099800 -3.361739
2.096258 -3.716580
2.092359 -4.072267
2.088105 -4.427592
2.083496 -4.781214
2.078533 -5.135733
2.073214 -5.488658
2.067545 -5.839958
2.061523 -6.191567
2.055150 -6.541186
2.048427 -6.890430
2.041357 -7.234720
2.033945 -7.575594
2.026192 -7.912424
2.018106 -8.242873
2.009696 -8.554108
2.000987 -8.845129
1.991990 -9.130142
1.982715 -9.398098
1.973183 -9.644119
1.963411 -9.877364
1.953411 -10.100853
1.943192 -10.316214
1.932759 -10.529484
1.922112 -10.741958
1.911254 -10.952928
1.900185 -11.162935
1.888906 -11.371242
1.877421 -11.576658
1.865730 -11.780916
1.853836 -11.982989
1.841741 -12.181785
1.829449 -12.378630
1.816961 -12.571838
1.804281 -12.761819
1.791412 -12.949374
1.778357 -13.133243
1.765121 -13.313448
1.751705 -13.490105
1.738115 -13.663266
1.724353 -13.831340
1.710425 -13.995804
1.696334 -14.158020
1.682084 -14.312243
1.667682 -14.463879
1.653129 -14.611032
1.638432 -14.752752
1.623595 -14.889393
1.608625 -15.021244
1.593524 -15.149026
1.578299 -15.270037
1.562954 -15.387616
1.547495 -15.499354
1.531927 -15.605435
1.516254 -15.707341
1.500482 -15.804151
1.484616 -15.895009
1.468662 -15.981699
1.452623 -16.063471
1.436505 -16.139342
1.420313 -16.211034
1.404052 -16.278439
1.387726 -16.339616
1.371341 -16.396209
1.354902 -16.448487
1.338413 -16.495053
1.321880 -16.537601
1.305307 -16.574484
1.288699 -16.606763
1.272061 -16.634391
1.255399 -16.656993
1.238716 -16.675148
1.222017 -16.687842
1.205308 -16.696625
1.188592 -16.700845
1.171874 -16.700646
1.155159 -16.695030
1.138452 -16.685819
1.121755 -16.672282
1.105076 -16.653520
1.088416 -16.632063
1.071780 -16.605095
1.055174 -16.574412
1.038599 -16.539589
1.022063 -16.500124
1.005567 -16.457806
0.989116 -16.410371
0.972715 -16.359801
0.956365 -16.305216
0.940073 -16.246639
0.923841 -16.184346
0.907673 -16.118459
0.891572 -16.049487
0.875543 -15.976032
0.859589 -15.899737
0.843713 -15.819588
0.827920 -15.736123
0.812210 -15.649947
0.796590 -15.560040
0.781060 -15.467722
0.765624 -15.371734
0.750287 -15.272485
0.735049 -15.171604
0.719915 -15.065167
0.704887 -14.964463
0.689953 -14.872477
0.675111 -14.785647
0.660348 -14.713303
0.645649 -14.657474
0.631000 -14.610872
0.616385 -14.603847
0.601741 -14.664094
0.587007 -14.785812
0.572112 -14.990634
0.556966 -15.282324
0.541496 -15.634930
0.525632 -16.087839
0.509252 -16.650566
0.492276 -17.276584
0.474641 -17.972161
0.456277 -18.725149
0.437142 -19.512819
0.417203 -20.328371
0.396439 -21.159843
0.374838 -21.999264
0.352397 -22.836040
0.329126 -23.655048
0.305049 -24.446147
0.280199 -25.195181
0.254623 -25.900859
0.228357 -26.571972
0.201447 -27.177877
0.173972 -27.707193
0.146001 -28.164681
0.117613 -28.544276
0.088888 -28.826729
0.059926 -29.034445
0.030770 -29.215574
0.001446 -29.369107
-0.028020 -29.499960
-0.057598 -29.586635
-0.087229 -29.604633
-0.116879 -29.659873
-0.146609 -29.716681
-0.176341 -29.681477
-0.206012 -29.587850
-0.235548 -29.408408
-0.264854 -29.128576
-0.293828 -28.742809
-0.322360 -28.245963
-0.350340 -27.639761
-0.377662 -26.934368
-0.404232 -26.136452
-0.429965 -25.274215
-0.454818 -24.372676
-0.478746 -23.428861
-0.501712 -22.453293
-0.523690 -21.456937
-0.544664 -20.448032
-0.564626 -19.435757
-0.583576 -18.427794
-0.601522 -17.431227
-0.618479 -16.452242
-0.634468 -15.497250
-0.649518 -14.583027
-0.663675 -13.705896
-0.676966 -12.852549
-0.689418 -12.033543
-0.701070 -11.253017
-0.711957 -10.504570
-0.722108 -9.781976
-0.731563 -9.127770
-0.740409 -8.554381
-0.748710 -8.044058
-0.756525 -7.568598
-0.763867 -7.105851
-0.770752 -6.645577
-0.777153 -6.131361
-0.783012 -5.573386
-0.788306 -4.999113
-0.793012 -4.399951
-0.797105 -3.773030
-0.800561 -3.132756
-0.803388 -2.526778
-0.805642 -1.985649
-0.807386 -1.512081
-0.808698 -1.126685
-0.809672 -0.832142
-0.810388 -0.608123
-0.810911 -0.447001
-0.811301 -0.341678
-0.811614 -0.294833
-0.811903 -0.283419
-0.812183 -0.275468
-0.812459 -0.280781
-0.812748 -0.294760
-0.813041 -0.283804
-0.813315 -0.271568
-0.813611 -0.337934
-0.814001 -0.432082
-0.814442 -0.424530
-0.814845 -0.398546
-0.815253 -0.411980
-0.815644 -0.347448
-0.815943 -0.265253
-0.816209 -0.286279
-0.816516 -0.306978
-0.816787 -0.217201
-0.816952 -0.130592
-0.817070 -0.108581
-0.817164 -0.070605
-0.817208 -0.022157
-0.817220 -0.010325
-0.817233 -0.012854
-0.817244 -0.009415
-0.817253 -0.008136
-0.817260 -0.006814
-0.817266 -0.004603
-0.817275 -0.018774
-0.817304 -0.033643
-0.817333 -0.020519
-0.817344 -0.002651
-0.817343 0.001090
-0.817343 -0.000396
-0.817343 0.000120
-0.817343 -0.000032
-0.817343 0.000008
-0.817343 -0.000002
-0.817343 0.000000
-0.817343 -0.000000
-0.817343 -0.000000
-0.817343 0.000000
-0.817343 -0.000001
-0.817343 0.000004
-0.817343 -0.000014
-0.817343 0.000039
-0.817343 -0.000050
-0.817343 -0.000295
-0.817341 0.006556
-0.817328 0.018325
-0.817307 0.022345
-0.817285 0.022895
-0.817262 0.022628
-0.817240 0.020926
-0.817217 0.026625
-0.817181 0.049564
-0.817113 0.086859
-0.816998 0.150060
-0.816806 0.232383
-0.816542 0.287962
-0.816236 0.326753
-0.815891 0.356229
-0.815528 0.367590
-0.815151 0.390078
-0.814754 0.391754
-0.814374 0.373678
-0.814005 0.359848
-0.813659 0.330503
-0.813345 0.295658
-0.813070 0.250079
-0.812843 0.207809
-0.812651 0.175679
-0.812493 0.140404
-0.812363 0.124788
-0.812238 0.124894
-0.812113 0.125048
-0.811987 0.124655
-0.811864 0.123769
-0.811740 0.122798
-0.811617 0.124035
-0.811491 0.125772
-0.811367 0.123679
-0.811243 0.121807
-0.811122 0.122628
-0.810998 0.122489
-0.810877 0.121838
-0.810755 0.120168
-0.810637 0.117288
-0.810519 0.116585
-0.810404 0.113582
-0.810291 0.114026
-0.810176 0.112285
-0.810066 0.108710
-0.809958 0.107366
-0.809852 0.105315
-0.809747 0.102687
-0.809646 0.099645
-0.809548 0.096598
-0.809453 0.091929
-0.809364 0.087443
-0.809278 0.083573
-0.809197 0.079631
-0.809119 0.075938
-0.809044 0.072436
-0.808974 0.069228
-0.808906 0.066389
-0.808841 0.064006
-0.808777 0.062176
-0.808716 0.060985
-0.808655 0.060523
-0.808594 0.060848
-0.808533 0.061988
-0.808470 0.063987
-0.808405 0.066832
-0.808336 0.070476
-0.808263 0.074899
-0.808186 0.079705
-0.808103 0.085208
-0.808015 0.092076
-0.807919 0.098899
-0.807817 0.105325
-0.807708 0.111662
-0.807593 0.117957
-0.807472 0.125204
-0.807342 0.133579
-0.807205 0.139289
-0.807063 0.145172
-0.806914 0.153494
-0.806757 0.160501
-0.806592 0.170285
-0.806416 0.180473
-0.806232 0.185321
-0.806043 0.193845
-0.805843 0.206599
-0.805631 0.215683
-0.805410 0.225661
-0.805178 0.237699
-0.804936 0.245754
-0.804686 0.255032
-0.804424 0.266895
-0.804152 0.277087
-0.803870 0.286082
-0.803580 0.294844
-0.803280 0.304461
-0.802971 0.312867
-0.802653 0.321911
-0.802325 0.333536
-0.801986 0.344123
-0.801636 0.355038
-0.801275 0.366855
-0.800902 0.377140
-0.800519 0.389420
-0.800122 0.403166
-0.799712 0.416771
-0.799288 0.429656
-0.798851 0.444220
-0.798398 0.460383
-0.797930 0.474947
-0.797446 0.493167
-0.796943 0.511138
-0.796423 0.526921
-0.795887 0.543712
-0.795334 0.562059
-0.794761 0.582412
-0.794169 0.600547
-0.793559 0.619435
-0.792928 0.640398
-0.792278 0.659327
-0.791608 0.678744
-0.790918 0.698883
-0.790210 0.716705
-0.789484 0.734103
-0.788739 0.754285
-0.787974 0.774247
-0.787189 0.793566
-0.786385 0.814299
-0.785560 0.831357
-0.784720 0.848409
-0.783861 0.867351
-0.782984 0.886075
-0.782088 0.902697
-0.781177 0.918281
-0.780249 0.936613
-0.779302 0.955464
-0.778337 0.972335
-0.777355 0.989036
-0.776356 1.006460
-0.775341 1.021096
-0.774312 1.036403
-0.773266 1.051436
-0.772207 1.065020
-0.771134 1.079742
-0.770046 1.093806
-0.768945 1.105591
-0.767832 1.118569
-0.766706 1.130677
-0.765570 1.138560
-0.764426 1.146518
-0.763275 1.152631
-0.762119 1.158053
-0.760957 1.163365
-0.759790 1.166643
-0.758621 1.169485
-0.757450 1.170808
-0.756279 1.167563
-0.755112 1.163651
-0.753949 1.159445
-0.752792 1.152520
-0.751643 1.142111
-0.750506 1.130982
-0.749378 1.121653
-0.748262 1.108663
-0.747159 1.093884
-0.746072 1.078183
-0.745002 1.059035
-0.743952 1.038805
-0.742922 1.018118
-0.741914 0.995743
-0.740930 0.971343
-0.739970 0.945965
-0.739036 0.920899
-0.738127 0.893653
-0.737247 0.863830
-0.736397 0.834782
-0.735577 0.804659
-0.734787 0.773260
-0.734028 0.742625
-0.733301 0.711224
-0.732605 0.678984
-0.731941 0.646585
-0.731310 0.614545
-0.730711 0.582496
-0.730144 0.550388
-0.729609 0.518914
-0.729105 0.487427
-0.728633 0.455732
-0.728193 0.423908
-0.727784 0.393503
-0.727405 0.363791
-0.727056 0.333936
-0.726736 0.305199
-0.726444 0.277507
-0.726180 0.250720
-0.725942 0.225093
-0.725729 0.200226
-0.725534 0.195267
-0.725333 0.206545
-0.725124 0.208041
-0.724918 0.203129
-0.724719 0.192926
-0.724534 0.177649
-0.724358 0.178895
-0.724168 0.202438
-0.723950 0.234016
-0.723704 0.251572
-0.723443 0.280857
-0.723123 0.367003
-0.722701 0.475281
-0.722171 0.585177
-0.721514 0.738999
-0.720688 0.902786
-0.719724 1.016968
-0.718651 1.135509
-0.717443 1.274883
-0.716102 1.404205
-0.714654 1.466423
-0.713195 1.443157
-0.711766 1.418422
-0.710369 1.350697
-0.709096 1.179320
-0.708035 0.928864
-0.707263 0.598393
-0.706860 0.198771
-0.706880 -0.243516
-0.707354 -0.704432
-0.708290 -1.165313
-0.709683 -1.616803
-0.711513 -2.026873
-0.713721 -2.377759
-0.716252 -2.666298
-0.719029 -2.863465
-0.721953 -2.965236
-0.724939 -2.987250
-0.727904 -2.919674
-0.730751 -2.754519
-0.733388 -2.499245
-0.735734 -2.181838
-0.737743 -1.825413
-0.739375 -1.429298
-0.740598 -1.013368
-0.741407 -0.605227
-0.741818 -0.220629
-0.741861 0.126734
-0.741581 0.423577
-0.741031 0.666116
-0.740265 0.854894
-0.739339 0.984854
-0.738314 1.054373
-0.737247 1.067944
-0.736193 1.030143
-0.735201 0.942126
-0.734321 0.810660
-0.733589 0.646142
-0.733037 0.454607
-0.732685 0.245773
-0.732548 0.027780
-0.732630 -0.191677
-0.732928 -0.400325
-0.733425 -0.590181
-0.734101 -0.756641
-0.734930 -0.894228
-0.735881 -1.001077
-0.736922 -1.069514
-0.738007 -1.089676
-0.739089 -1.067488
-0.740134 -1.016190
-0.741113 -0.934289
-0.741994 -0.820397
-0.742749 -0.687040
-0.743365 -0.541749
-0.743832 -0.390346
-0.744147 -0.241193
-0.744317 -0.098638
-0.744349 0.032410
-0.744257 0.148126
-0.744058 0.245897
-0.743771 0.323661
-0.743417 0.380286
-0.743017 0.415512
-0.742592 0.429888
-0.742163 0.424435
-0.741749 0.400860
-0.741366 0.361701
-0.741029 0.309428
-0.740750 0.247282
-0.740536 0.178324
-0.740394 0.106088
-0.740324 0.033792
-0.740325 -0.035681
-0.740393 -0.099030
-0.740521 -0.153979
-0.740698 -0.198603
-0.740914 -0.231238
-0.741157 -0.251046
-0.741412 -0.257747
-0.741668 -0.251503
-0.741912 -0.233158
-0.742132 -0.204069
-0.742317 -0.165864
-0.742461 -0.120214
-0.742556 -0.069435
-0.742599 -0.016180
-0.742589 0.037123
-0.742526 0.088537
-0.742413 0.136670
-0.742254 0.179801
-0.742055 0.215745
-0.741824 0.243685
-0.741570 0.264325
-0.741298 0.276997
-0.741018 0.280908
-0.740738 0.277162
-0.740465 0.266405
-0.740207 0.247419
-0.739972 0.221553
-0.739765 0.191146
-0.739591 0.156923
-0.739452 0.120201
-0.739351 0.080989
-0.739290 0.041805
-0.739267 0.003976
-0.739281 -0.032052
-0.739330 -0.063923
-0.739408 -0.091324
-0.739511 -0.113400
-0.739633 -0.128824
-0.739767 -0.137653
-0.739906 -0.140740
-0.740046 -0.137226
-0.740179 -0.127376
-0.740299 -0.112553
-0.740403 -0.094690
-0.740488 -0.074412
-0.740551 -0.051906
-0.740592 -0.029118
-0.740610 -0.007042
-0.740607 0.013578
-0.740584 0.031831
-0.740544 0.047304
-0.740490 0.059692
-0.740426 0.068436
-0.740354 0.073656
-0.740279 0.075240
-0.740205 0.073615
-0.740133 0.069245
-0.740067 0.061487
-0.740011 0.051047
-0.739965 0.038802
-0.739933 0.025492
-0.739915 0.011586
-0.739910 -0.003028
-0.739921 -0.017612
-0.739945 -0.031267
-0.739983 -0.043114
-0.740031 -0.052997
-0.740088 -0.060478
-0.740151 -0.065370
-0.740218 -0.068131
-0.740287 -0.068483
-0.740354 -0.066438
-0.740419 -0.062489
-0.740479 -0.056724
-0.740532 -0.049759
-0.740578 -0.042002
-0.740616 -0.033927
-0.740646 -0.026103
-0.740668 -0.017597
-0.740683 -0.013086
-0.740691 0.002771
-0.740692 -0.023903
-0.740694 0.083062
-0.740660 -0.213655
-0.740752 0.598177
-0.740456 -1.566689
-0.752811 -6.032603
