0.086182 0.059195 -0.719563
-0.483152 7.191357
-0.477214 4.921363
-0.472802 4.144376
-0.468559 4.441329
-0.463979 4.532306
-0.459583 4.331067
-0.455293 4.175535
-0.451285 3.836470
-0.447622 3.468623
-0.444359 3.044037
-0.441537 2.591398
-0.439177 2.122439
-0.437289 1.649620
-0.435869 1.192319
-0.434902 0.734805
-0.434381 0.329867
-0.434285 -0.205627
-0.434900 -1.065159
-0.436411 -1.903155
-0.438656 -2.578065
-0.441552 -3.193751
-0.445035 -3.764867
-0.449084 -4.319584
-0.453651 -4.777618
-0.458744 -5.521437
-0.464820 -6.610102
-0.471824 -7.239155
-0.479169 -7.436925
-0.486839 -8.013886
-0.495373 -9.072109
-0.505028 -10.210321
-0.515776 -11.235883
-0.527449 -12.040575
-0.539801 -12.603478
-0.552605 -12.939378
-0.565710 -13.287000
-0.579286 -13.875136
-0.593382 -14.147263
-0.607432 -13.888392
-0.621140 -13.488001
-0.634410 -13.011850
-0.647164 -12.460663
-0.659334 -11.844058
-0.670856 -11.167504
-0.681674 -10.437208
-0.691736 -9.659873
-0.700999 -8.842970
-0.709429 -7.993774
-0.716995 -7.121687
-0.723681 -6.235384
-0.729477 -5.343571
-0.734381 -4.455866
-0.738402 -3.582069
-0.741560 -2.731656
-0.743881 -1.913160
-0.745404 -1.137061
-0.746184 -0.440178
-0.746334 0.110728
-0.745987 0.587134
-0.745134 1.138364
-0.743690 1.745402
-0.741658 2.297069
-0.739132 2.727714
-0.736239 3.032194
-0.733096 3.232078
-0.729797 3.346136
-0.726421 3.387233
-0.723037 3.363289
-0.719707 3.282268
-0.716483 3.151470
-0.713412 2.977487
-0.710534 2.768030
-0.707880 2.530241
-0.705476 2.270546
-0.703339 1.997558
-0.701480 1.714449
-0.699908 1.426678
-0.698620 1.149942
-0.697600 0.890477
-0.696831 0.650683
-0.696291 0.430123
-0.695959 0.240124
-0.695815 0.036407
-0.695894 -0.190927
-0.696183 -0.377164
-0.696630 -0.503841
-0.697173 -0.573554
-0.697762 -0.594477
-0.698349 -0.572253
-0.698894 -0.511462
-0.699360 -0.412890
-0.699709 -0.279842
-0.699913 -0.124739
-0.699955 0.043270
-0.699829 0.203889
-0.699537 0.393725
-0.699017 0.653951
-0.698208 0.972473
-0.697053 1.342487
-0.695509 1.746504
-0.693553 2.161850
-0.691179 2.585142
-0.688383 2.991626
-0.685197 3.375135
-0.681623 3.766776
-0.677670 4.116407
-0.673354 4.550603
-0.668554 5.001306
-0.663433 5.175891
-0.658197 5.336046
-0.652709 5.619959
-0.646953 5.881521
-0.640939 6.128781
-0.634692 6.348945
-0.628237 6.544811
-0.621597 6.717169
-0.614797 6.865775
-0.607858 6.996542
-0.600800 7.096583
-0.593642 7.221440
-0.586466 6.975818
-0.579907 6.041432
-0.574352 5.165040
-0.569416 4.737893
-0.564656 4.943568
-0.559440 5.388218
-0.553956 5.570547
-0.548289 5.748306
-0.542465 5.874311
-0.536538 5.971384
-0.530521 6.037332
-0.524456 6.089222
-0.518337 6.119547
-0.512210 6.133571
-0.506056 6.152186
-0.499898 6.156099
-0.493729 6.168025
-0.487553 6.169322
-0.481378 6.172359
-0.475194 6.182051
-0.468986 6.236725
-0.462645 6.479618
-0.455949 6.917233
-0.448804 7.332982
-0.441287 7.693599
-0.433388 8.095965
-0.425074 8.513582
-0.416368 8.859137
-0.407393 9.038533
-0.398323 9.066928
-0.389253 9.058054
-0.380194 9.033997
-0.371193 8.933147
-0.362440 8.440655
-0.354387 7.671456
-0.346933 7.349877
-0.339558 7.372144
-0.332145 7.480604
-0.324564 7.641649
-0.316857 7.771040
-0.309011 7.887577
-0.301079 7.964894
-0.293061 8.054042
-0.284953 8.149258
-0.276740 8.263224
-0.268408 8.381902
-0.259962 8.491422
-0.251409 8.597733
-0.242756 8.686943
-0.234039 8.714633
-0.225346 8.629673
-0.216790 8.459993
-0.208438 8.204184
-0.200373 7.924964
-0.192554 7.699530
-0.184936 7.543207
-0.177419 7.489654
-0.169919 7.504622
-0.162371 7.588642
-0.154707 7.729603
-0.146888 7.895332
-0.138900 8.061578
-0.130756 8.207066
-0.122481 8.317848
-0.114111 8.407968
-0.105654 8.482175
-0.097135 8.540345
-0.088560 8.588521
-0.079946 8.621035
-0.071300 8.653346
-0.062614 8.707782
-0.053858 8.789249
-0.045004 8.911712
-0.036014 9.043816
-0.026907 9.151158
-0.017680 9.297172
-0.008288 9.462030
0.001252 9.595267
0.010921 9.725865
0.020722 9.852192
0.030636 9.951437
0.040642 10.042889
0.050742 10.134603
0.060926 10.209733
0.071176 10.267767
0.081474 10.301229
0.091791 10.308150
0.102117 10.334068
0.112436 10.228415
0.122503 9.849235
0.132110 9.337807
0.141198 8.828503
0.149831 8.460399
0.158167 8.185381
0.166227 7.936594
0.174037 7.631607
0.181507 7.330921
0.188740 7.108610
0.195738 6.884867
0.202527 6.671096
0.209090 6.444948
0.215435 6.234989
0.221577 6.040287
0.227529 5.848962
0.233297 5.688347
0.238919 5.534081
0.244380 5.391510
0.249721 5.273635
0.254929 5.127791
0.260013 5.060994
0.265060 4.990397
0.270007 4.929418
0.274951 4.935647
0.279866 4.875290
0.284741 4.903441
0.289669 4.889590
0.294532 4.883965
0.299451 4.892338
0.304306 4.837801
0.309167 4.875334
0.314047 4.854480
0.318896 4.862768
0.323722 4.692033
0.328281 4.494972
0.332693 4.213329
0.336676 3.812377
0.340361 3.518898
0.343746 3.301887
0.347031 3.262876
0.350308 3.311535
0.353700 3.478480
0.357287 3.690397
0.361089 3.904270
0.365096 4.097188
0.369281 4.257142
0.373610 4.391310
0.378066 4.507738
0.382629 4.605670
0.387283 4.691526
0.392018 4.767170
0.396824 4.834216
0.401693 4.891936
0.406616 4.945571
0.411592 4.994834
0.416614 5.039381
0.421680 5.080414
0.426784 5.117850
0.431926 5.155449
0.437104 5.191234
0.442317 5.222072
0.447559 5.254197
0.452836 5.284998
0.458139 5.314117
0.463475 5.344123
0.468838 5.371856
0.474229 5.400575
0.479648 5.425566
0.485093 5.455904
0.490571 5.484819
0.496073 5.510521
0.501603 5.537835
0.507160 5.565221
0.512745 5.593194
0.518357 5.620378
0.523998 5.649808
0.529667 5.676057
0.535362 5.703196
0.541086 5.734030
0.546841 5.763484
0.552623 5.790176
0.558433 5.818896
0.564273 5.848864
0.570142 5.877746
0.576041 5.907671
0.581969 5.937613
0.587927 5.965807
0.593913 5.994871
0.599929 6.024632
0.605974 6.053145
0.612048 6.081344
0.618150 6.111332
0.624281 6.137759
0.630438 6.166903
0.636628 6.196242
0.642842 6.222879
0.649087 6.251829
0.655359 6.280752
0.661661 6.310457
0.667991 6.337467
0.674349 6.365818
0.680736 6.394922
0.687152 6.424423
0.693597 6.453012
0.700071 6.483176
0.706576 6.511071
0.713107 6.539721
0.719669 6.571170
0.726261 6.597788
0.732877 6.622266
0.739517 6.641218
0.746172 6.655679
0.752841 6.670315
0.759527 6.689153
0.766234 6.710621
0.772962 6.732719
0.779713 6.756973
0.786489 6.781283
0.793291 6.809001
0.800120 6.834530
0.806972 6.856154
0.813848 6.882531
0.820750 6.906881
0.827675 6.929675
0.834623 6.949988
0.841587 6.966070
0.848560 6.957095
0.855493 6.880996
0.862316 6.745563
0.868975 6.542134
0.875395 6.282700
0.881557 6.034198
0.887487 5.818691
0.893219 5.643253
0.898806 5.533482
0.904318 5.487397
0.909809 5.491019
0.915321 5.522832
0.920872 5.573290
0.926481 5.630510
0.932144 5.687296
0.937868 5.748346
0.943648 5.798008
0.949474 5.843061
0.955344 5.883597
0.961251 5.916215
0.967188 5.947104
0.973155 5.973462
0.979146 5.995626
0.985157 6.012953
0.991184 6.032167
0.997233 6.049317
1.003294 6.063058
1.009372 6.080271
1.015465 6.094192
1.021573 6.107982
1.027695 6.124777
1.033834 6.139418
1.039985 6.153170
1.046153 6.169634
1.052336 6.183554
1.058533 6.199116
1.064747 6.215570
1.070977 6.231885
1.077223 6.245961
1.083482 6.263479
1.089762 6.279229
1.096052 6.292005
1.102360 6.310712
1.108686 6.327051
1.115026 6.340942
1.121381 6.357830
1.127754 6.372580
1.134140 6.389427
1.140545 6.405320
1.146963 6.420849
1.153400 6.437763
1.159851 6.453292
1.166320 6.469072
1.172803 6.486046
1.179304 6.501882
1.185820 6.519654
1.192357 6.536990
1.198906 6.551816
1.205475 6.569892
1.212058 6.583788
1.218657 6.602199
1.225275 6.619727
1.231909 6.634478
1.238558 6.652236
1.245226 6.668983
1.251909 6.684420
1.258608 6.699590
1.265322 6.714454
1.272051 6.731610
1.278799 6.749007
1.285562 6.764313
1.292341 6.779311
1.299134 6.794212
1.305943 6.810604
1.312769 6.827872
1.319612 6.841893
1.326467 6.857476
1.333340 6.873087
1.340227 6.889258
1.347133 6.905494
1.354052 6.919643
1.360987 6.936414
1.367938 6.952692
1.374905 6.967655
1.381888 6.983414
1.388887 7.000423
1.395902 7.016668
1.402934 7.031431
1.409980 7.048606
1.417044 7.064760
1.424123 7.080220
1.431219 7.096189
1.438330 7.111803
1.445458 7.129365
1.452602 7.144167
1.459760 7.157143
1.466932 7.175090
1.474124 7.191690
1.481329 7.205025
1.488549 7.220125
1.495784 7.237108
1.503037 7.251433
1.510302 7.266040
1.517584 7.281157
1.524879 7.297444
1.532193 7.312512
1.539519 7.326969
1.546862 7.342540
1.554218 7.356620
1.561591 7.374025
1.568979 7.387651
1.576382 7.403460
1.583802 7.422378
1.591238 7.432935
1.598684 7.447854
1.606150 7.465075
1.613629 7.479883
1.621125 7.496392
1.628636 7.510391
1.636162 7.526877
1.643703 7.540111
1.651259 7.557883
1.658833 7.573230
1.666419 7.585026
1.674021 7.603068
1.681639 7.618275
1.689272 7.632594
1.696920 7.648369
1.704584 7.664726
1.712264 7.676235
1.719954 7.691959
1.727663 7.708919
1.735386 7.722399
1.743123 7.735063
1.750872 7.750595
1.758640 7.766597
1.766420 7.780068
1.774216 7.794931
1.782025 7.808949
1.789850 7.823076
1.797687 7.835765
1.805538 7.850823
1.813404 7.864234
1.821282 7.877074
1.829175 7.893124
1.837083 7.905862
1.845002 7.917579
1.852935 7.932736
1.860882 7.945350
1.868841 7.957091
1.876814 7.973612
1.884802 7.982271
1.892797 7.998474
1.900811 8.004658
1.908832 8.040499
1.916864 7.944259
1.924721 7.799546
1.932494 7.699780
1.940095 7.477034
1.947469 7.272527
1.954671 7.120018
1.961593 6.575232
1.967753 5.784548
1.973145 4.910058
1.977491 3.758903
1.980742 2.820447
1.983208 2.094086
1.984814 1.006376
1.985258 0.024647
1.985022 -0.479450
1.984317 -0.928699
1.983235 -1.162653
1.982060 -1.182449
1.980870 -1.193817
1.979664 -1.225295
1.978398 -1.313917
1.977011 -1.470065
1.975433 -1.692410
1.973597 -1.991989
1.971428 -2.343819
1.968872 -2.792840
1.965772 -3.434254
1.961991 -4.090813
1.957602 -4.689877
1.952592 -5.321062
1.946946 -5.960756
1.940651 -6.621770
1.933680 -7.309109
1.926011 -8.018987
1.917615 -8.762594
1.908462 -9.523582
1.898546 -10.291968
1.887850 -11.084712
1.876349 -11.894887
1.864035 -12.707525
1.850911 -13.513003
1.836990 -14.295933
1.822300 -15.049576
1.806875 -15.759983
1.790766 -16.419884
1.774021 -17.023016
1.756707 -17.560699
1.738886 -18.034802
1.720622 -18.447141
1.701974 -18.801021
1.683001 -19.099315
1.663755 -19.344930
1.644289 -19.541330
1.624649 -19.689686
1.604886 -19.790811
1.585041 -19.851019
1.565156 -19.874163
1.545265 -19.862331
1.525402 -19.819076
1.505595 -19.751031
1.485868 -19.661971
1.466237 -19.558644
1.446716 -19.442203
1.427316 -19.316903
1.408043 -19.192244
1.388893 -19.069824
1.369863 -18.954382
1.350942 -18.850820
1.332120 -18.758498
1.313380 -18.689874
1.294696 -18.641558
1.276051 -18.617183
1.257413 -18.627756
1.238751 -18.661269
1.220056 -18.685052
1.201336 -18.730362
1.182540 -18.829687
1.163623 -18.976460
1.144544 -19.136982
1.125324 -19.259619
1.105978 -19.407467
1.086469 -19.557035
1.066861 -19.597501
1.047273 -19.523758
1.027807 -19.353141
1.008515 -19.220638
0.989325 -19.094069
0.970315 -18.888415
0.951473 -18.796503
0.932651 -18.806610
0.913819 -18.825448
0.894934 -18.927626
0.875881 -19.162332
0.856555 -19.444569
0.836958 -19.711682
0.817087 -19.995941
0.796926 -20.281669
0.776492 -20.539190
0.755815 -20.769782
0.734924 -20.963160
0.713862 -21.111328
0.692673 -21.217319
0.671399 -21.282594
0.650077 -21.310497
0.628747 -21.303266
0.607439 -21.262325
0.586190 -21.191378
0.565022 -21.096328
0.543962 -20.978490
0.523030 -20.839306
0.502248 -20.683136
0.481627 -20.513230
0.461185 -20.327610
0.440934 -20.133375
0.420881 -19.931504
0.401034 -19.721612
0.381399 -19.509895
0.361976 -19.296648
0.342768 -19.079900
0.323777 -18.864697
0.305000 -18.652185
0.286434 -18.445008
0.268072 -18.241682
0.249912 -18.042666
0.231947 -17.853346
0.214168 -17.668804
0.196572 -17.490800
0.179148 -17.322625
0.161889 -17.162651
0.144786 -17.010224
0.127832 -16.866665
0.111016 -16.732112
0.094331 -16.606789
0.077766 -16.490618
0.061314 -16.383942
0.044963 -16.285694
0.028707 -16.196174
0.012535 -16.115306
-0.003559 -16.041326
-0.019582 -15.974169
-0.035541 -15.912895
-0.051441 -15.856664
-0.067287 -15.803685
-0.083081 -15.753950
-0.098827 -15.706327
-0.114526 -15.659851
-0.130178 -15.613679
-0.145784 -15.567409
-0.161344 -15.519633
-0.176855 -15.471449
-0.192316 -15.417573
-0.207722 -15.369237
-0.223089 -15.333941
-0.238416 -15.282487
-0.253680 -15.215821
-0.268877 -15.146156
-0.284000 -15.070205
-0.299045 -14.988582
-0.314005 -14.900358
-0.328874 -14.805719
-0.343644 -14.702333
-0.358310 -14.604090
-0.372882 -14.508841
-0.387358 -14.418689
-0.401750 -14.332942
-0.416048 -14.232134
-0.430236 -14.111944
-0.444303 -14.002843
-0.458280 -13.924315
-0.472181 -13.849834
-0.485998 -13.748933
-0.499703 -13.636345
-0.513304 -13.540118
-0.526810 -13.444862
-0.540222 -13.353358
-0.553537 -13.241665
-0.566726 -13.112900
-0.579799 -13.013147
-0.592783 -12.927855
-0.605681 -12.844715
-0.618498 -12.761008
-0.631223 -12.659889
-0.643833 -12.528206
-0.656311 -12.417085
-0.668712 -12.366310
-0.681063 -12.298612
-0.693319 -12.186047
-0.705458 -12.067405
-0.717479 -11.951475
-0.729384 -11.835662
-0.741178 -11.731584
-0.752876 -11.641166
-0.764480 -11.541278
-0.775979 -11.434634
-0.787374 -11.331327
-0.798665 -11.228801
-0.809854 -11.128148
-0.820943 -11.027820
-0.831932 -10.928066
-0.842822 -10.828795
-0.853611 -10.729463
-0.864302 -10.630061
-0.874893 -10.530008
-0.885383 -10.429222
-0.895772 -10.327388
-0.906058 -10.223758
-0.916239 -10.119145
-0.926315 -10.012465
-0.936283 -9.903229
-0.946141 -9.792397
-0.955887 -9.679449
-0.965519 -9.564253
-0.975034 -9.446502
-0.984430 -9.327126
-0.993706 -9.205790
-1.002860 -9.082842
-1.011890 -8.958717
-1.020795 -8.833668
-1.029575 -8.709277
-1.038231 -8.586519
-1.046766 -8.466453
-1.055182 -8.348392
-1.063480 -8.232939
-1.071665 -8.121230
-1.079740 -8.012688
-1.087708 -7.907060
-1.095571 -7.803353
-1.103330 -7.700798
-1.110988 -7.598601
-1.118543 -7.495509
-1.125993 -7.390932
-1.133338 -7.283236
-1.140573 -7.172535
-1.147697 -7.058683
-1.154704 -6.940690
-1.161590 -6.818335
-1.168352 -6.691549
-1.174985 -6.560421
-1.181485 -6.424148
-1.187845 -6.283498
-1.194063 -6.138204
-1.200132 -5.988557
-1.206050 -5.834880
-1.211812 -5.677017
-1.217415 -5.515533
-1.222853 -5.350846
-1.228126 -5.183267
-1.233229 -5.012822
-1.238161 -4.840194
-1.242919 -4.665648
-1.247501 -4.489525
-1.251906 -4.312154
-1.256134 -4.133739
-1.260182 -3.954970
-1.264051 -3.775932
-1.267742 -3.596924
-1.271253 -3.418481
-1.274585 -3.240552
-1.277741 -3.063683
-1.280719 -2.887975
-1.283523 -2.713495
-1.286152 -2.539772
-1.288608 -2.367882
-1.290893 -2.196549
-1.293006 -2.027522
-1.294953 -1.861150
-1.296732 -1.693921
-1.298344 -1.526275
-1.299788 -1.358757
-1.301065 -1.193094
-1.302177 -1.029463
-1.303125 -0.864425
-1.303907 -0.697974
-1.304524 -0.537206
-1.304984 -0.379768
-1.305285 -0.222463
-1.305431 -0.070028
-1.305423 0.088084
-1.305253 0.248766
-1.304926 0.407679
-1.304436 0.571214
-1.303781 0.737839
-1.302957 0.908309
-1.301962 1.081600
-1.300792 1.255621
-1.299447 1.431272
-1.297925 1.610339
-1.296223 1.790290
-1.294341 1.970565
-1.292278 2.149807
-1.290037 2.328264
-1.287618 2.505487
-1.285022 2.679110
-1.282255 2.849833
-1.279317 3.019385
-1.276210 3.189952
-1.272932 3.359246
-1.269486 3.524503
-1.265875 3.690116
-1.262098 3.857766
-1.258153 4.023471
-1.254042 4.191488
-1.249765 4.347385
-1.245341 4.495714
-1.240764 4.648037
-1.236038 4.794418
-1.231165 4.941815
-1.226145 5.087686
-1.220981 5.227684
-1.215678 5.369705
-1.210231 5.512494
-1.204643 5.653247
-1.198914 5.791414
-1.193048 5.930376
-1.187040 6.073022
-1.180890 6.215298
-1.174597 6.356576
-1.168165 6.495187
-1.161595 6.631552
-1.154890 6.765192
-1.148051 6.899509
-1.141076 7.034408
-1.133969 7.166610
-1.126731 7.292985
-1.119371 7.411750
-1.111893 7.528368
-1.104303 7.632886
-1.096610 7.744432
-1.088800 7.852837
-1.080892 7.951118
-1.072881 8.049640
-1.064775 8.151388
-1.056575 8.215248
-1.048347 8.224255
-1.040106 8.244288
-1.031836 8.282333
-1.023520 8.334534
-1.015155 8.371379
-1.006773 8.371189
-0.998403 8.348378
-0.990074 8.280996
-0.981830 8.198404
-0.973664 8.107444
-0.965651 7.858538
-0.957973 7.484044
-0.950695 7.028661
-0.943932 6.481223
-0.937751 5.839525
-0.932275 5.098581
-0.927547 4.348873
-0.923579 3.565764
-0.920457 2.638047
-0.918300 1.706202
-0.916986 0.939786
-0.916404 0.215728
-0.916571 -0.558892
-0.917514 -1.305748
-0.919126 -1.877377
-0.921208 -2.257972
-0.923616 -2.547827
-0.926288 -2.775567
-0.929138 -2.898857
-0.932068 -2.951857
-0.935034 -2.964598
-0.937990 -2.937630
-0.940910 -2.893123
-0.943779 -2.838243
-0.946590 -2.778035
-0.949339 -2.714281
-0.952024 -2.648947
-0.954642 -2.582926
-0.957194 -2.515968
-0.959679 -2.448985
-0.962097 -2.381575
-0.964447 -2.313057
-0.966727 -2.243659
-0.968938 -2.173516
-0.971078 -2.102146
-0.973146 -2.029536
-0.975141 -1.955725
-0.977061 -1.880343
-0.978905 -1.803522
-0.980672 -1.725394
-0.982359 -1.645868
-0.983966 -1.564590
-0.985491 -1.482013
-0.986932 -1.397966
-0.988289 -1.312637
-0.989560 -1.226138
-0.990743 -1.137981
-0.991838 -1.049305
-0.992843 -0.959126
-0.993758 -0.868355
-0.994582 -0.776758
-0.995313 -0.684227
-0.995951 -0.591328
-0.996497 -0.499981
-0.996953 -0.410202
-0.997318 -0.320236
-0.997595 -0.232138
-0.997783 -0.144897
-0.997885 -0.058236
-0.997901 0.024969
-0.997835 0.106338
-0.997687 0.191506
-0.997451 0.280421
-0.997125 0.369762
-0.996709 0.462700
-0.996197 0.560410
-0.995586 0.661427
-0.994873 0.764179
-0.994057 0.866646
-0.993137 0.970132
-0.992114 1.074572
-0.990986 1.179144
-0.989753 1.283630
-0.988416 1.388373
-0.986974 1.493033
-0.985427 1.597581
-0.983776 1.702085
-0.982020 1.806397
-0.980159 1.910828
-0.978194 2.014760
-0.976126 2.118588
-0.973953 2.222401
-0.971676 2.325948
-0.969296 2.429359
-0.966813 2.532396
-0.964226 2.635317
-0.961537 2.737906
-0.958745 2.839929
-0.955852 2.941701
-0.952856 3.042489
-0.949761 3.142340
-0.946566 3.241576
-0.943272 3.338979
-0.939881 3.435310
-0.936395 3.530512
-0.932814 3.623349
-0.929141 3.714478
-0.925378 3.804461
-0.921525 3.892836
-0.917585 3.980162
-0.913557 4.066863
-0.909443 4.152670
-0.905244 4.238345
-0.900958 4.324109
-0.896587 4.409862
-0.892130 4.493422
-0.887592 4.575142
-0.882970 4.658269
-0.878267 4.737482
-0.873487 4.813304
-0.868631 4.889266
-0.863701 4.959193
-0.858703 5.026737
-0.853637 5.095783
-0.848501 5.167109
-0.843292 5.237623
-0.838015 5.307157
-0.832666 5.380017
-0.827244 5.454432
-0.821747 5.528475
-0.816176 5.601374
-0.810533 5.674770
-0.804815 5.748046
-0.799025 5.820801
-0.793162 5.893286
-0.787227 5.965084
-0.781220 6.036064
-0.775143 6.106970
-0.768995 6.177261
-0.762776 6.246717
-0.756489 6.315952
-0.750132 6.384428
-0.743707 6.452559
-0.737214 6.520120
-0.730654 6.586843
-0.724027 6.653320
-0.717334 6.719076
-0.710576 6.784311
-0.703752 6.849018
-0.696864 6.913317
-0.689912 6.977292
-0.682896 7.040667
-0.675817 7.103561
-0.668675 7.166246
-0.661470 7.228813
-0.654203 7.290772
-0.646874 7.352578
-0.639483 7.413798
-0.632032 7.474333
-0.624519 7.534774
-0.616948 7.592831
-0.609319 7.648503
-0.601636 7.703187
-0.593898 7.756165
-0.586109 7.806787
-0.578269 7.856221
-0.570381 7.903463
-0.562448 7.947622
-0.554470 7.992964
-0.546445 8.040722
-0.538373 8.087469
-0.530255 8.131791
-0.522091 8.182370
-0.513878 8.220261
-0.505622 8.294065
-0.497306 8.268311
-0.483152 7.191357
