0.013719 0.012709 -0.000784
-0.784052 2.319759
-0.783786 -1.630129
-0.786998 -4.630286
-0.792641 -6.388272
-0.799356 -6.853940
-0.806113 -6.571814
-0.812416 -5.998017
-0.818099 -5.356896
-0.823149 -4.742143
-0.827610 -4.180353
-0.831536 -3.671063
-0.834974 -3.206272
-0.837967 -2.778690
-0.840548 -2.383221
-0.842748 -2.016106
-0.844594 -1.677180
-0.846113 -1.361427
-0.847324 -1.059725
-0.848243 -0.783054
-0.848904 -0.543600
-0.849342 -0.335728
-0.849589 -0.165728
-0.849673 0.007820
-0.849519 0.343794
-0.848981 0.690954
-0.848189 0.879665
-0.847230 1.037163
-0.846114 1.188084
-0.844857 1.321830
-0.843471 1.445737
-0.841965 1.562894
-0.840345 1.673218
-0.838617 1.777019
-0.836789 1.873998
-0.834868 1.964631
-0.832858 2.049680
-0.830766 2.129241
-0.828597 2.203679
-0.826356 2.273658
-0.824047 2.339676
-0.821673 2.401963
-0.819239 2.460680
-0.816748 2.516672
-0.814201 2.570076
-0.811603 2.621178
-0.808955 2.670308
-0.806258 2.717803
-0.803514 2.763959
-0.800725 2.808626
-0.797891 2.852262
-0.795015 2.894980
-0.792096 2.936925
-0.789135 2.978080
-0.786134 3.018709
-0.783092 3.059004
-0.780010 3.098702
-0.776889 3.137972
-0.773728 3.176858
-0.770529 3.215279
-0.767291 3.253478
-0.764015 3.291269
-0.760702 3.328427
-0.757352 3.365333
-0.753965 3.401749
-0.750542 3.437446
-0.747083 3.472861
-0.743589 3.507602
-0.740061 3.541689
-0.736499 3.575304
-0.732904 3.608055
-0.729276 3.640161
-0.725616 3.671531
-0.721926 3.702147
-0.718205 3.731923
-0.714455 3.760736
-0.710676 3.788739
-0.706870 3.815915
-0.703037 3.842189
-0.699178 3.867440
-0.695295 3.891750
-0.691387 3.915039
-0.687457 3.937401
-0.683505 3.958643
-0.679532 3.978923
-0.675540 3.998189
-0.671528 4.016052
-0.667499 4.033794
-0.663454 4.048382
-0.659393 4.067899
-0.655316 4.069644
-0.651230 4.116962
-0.647054 4.223300
-0.642801 4.251007
-0.638554 4.246677
-0.634293 4.261662
-0.630026 4.266165
-0.625751 4.273112
-0.621471 4.279133
-0.617184 4.285963
-0.612891 4.292525
-0.608591 4.298623
-0.604285 4.304863
-0.599972 4.311301
-0.595654 4.317736
-0.591328 4.324445
-0.586996 4.331682
-0.582656 4.339104
-0.578309 4.347063
-0.573953 4.355378
-0.569589 4.364223
-0.565216 4.373655
-0.560833 4.384000
-0.556439 4.395779
-0.552032 4.408442
-0.547612 4.422257
-0.543178 4.436884
-0.538729 4.452531
-0.534264 4.469028
-0.529782 4.486127
-0.525283 4.504046
-0.520765 4.522662
-0.516228 4.542003
-0.511672 4.561786
-0.507095 4.581936
-0.502498 4.602521
-0.497881 4.623272
-0.493243 4.644242
-0.488583 4.665535
-0.483902 4.686642
-0.479200 4.707803
-0.474477 4.728825
-0.469733 4.749650
-0.464969 4.770271
-0.460183 4.790436
-0.455378 4.810231
-0.450553 4.829474
-0.445710 4.848228
-0.440848 4.866309
-0.435968 4.883575
-0.431071 4.900177
-0.426158 4.915926
-0.421229 4.930614
-0.416287 4.944393
-0.411331 4.957066
-0.406363 4.968505
-0.401385 4.978811
-0.396396 4.987739
-0.391400 4.995287
-0.386396 5.001502
-0.381387 5.006262
-0.376374 5.009617
-0.371358 5.011473
-0.366342 5.011887
-0.361325 5.010832
-0.356310 5.008158
-0.351299 5.004109
-0.346293 4.998671
-0.341292 4.991709
-0.336300 4.983608
-0.331315 4.974360
-0.326341 4.964091
-0.321378 4.953259
-0.316425 4.941173
-0.311486 4.928300
-0.306559 4.915041
-0.301646 4.900787
-0.296748 4.886244
-0.291864 4.871480
-0.286995 4.855826
-0.282143 4.838951
-0.277307 4.823038
-0.272487 4.807712
-0.267683 4.790951
-0.262895 4.773926
-0.258125 4.758267
-0.253370 4.742184
-0.248631 4.725923
-0.243908 4.710821
-0.239200 4.696432
-0.234506 4.680453
-0.229829 4.666244
-0.225164 4.654144
-0.220512 4.640651
-0.215873 4.628568
-0.211245 4.617830
-0.206628 4.607353
-0.202021 4.595770
-0.197426 4.587813
-0.192835 4.583630
-0.188248 4.582310
-0.183660 4.584002
-0.179070 4.588454
-0.174474 4.593354
-0.169874 4.597539
-0.165270 4.601951
-0.160662 4.605557
-0.156049 4.609311
-0.151434 4.612109
-0.146816 4.615231
-0.142195 4.616734
-0.137574 4.616506
-0.132952 4.618797
-0.128328 4.618777
-0.123706 4.617137
-0.119084 4.616652
-0.114464 4.614426
-0.109845 4.613150
-0.105229 4.609593
-0.100617 4.606051
-0.096007 4.603005
-0.091402 4.598794
-0.086800 4.594859
-0.082204 4.589920
-0.077611 4.585671
-0.073023 4.580239
-0.068442 4.574577
-0.063865 4.568978
-0.059294 4.563779
-0.054728 4.558650
-0.050168 4.552271
-0.045614 4.546696
-0.041066 4.540090
-0.036525 4.533663
-0.031990 4.527545
-0.027461 4.520719
-0.022939 4.513501
-0.018425 4.505181
-0.013919 4.498370
-0.009420 4.491122
-0.004929 4.482681
-0.000446 4.473640
0.004028 4.465600
0.008494 4.457293
0.012951 4.447870
0.017399 4.438482
0.021837 4.427935
0.026264 4.418375
0.030682 4.408703
0.035089 4.396302
0.039484 4.385973
0.043870 4.374241
0.048241 4.361391
0.052601 4.349125
0.056948 4.335619
0.061281 4.322347
0.065601 4.308633
0.069907 4.293332
0.074196 4.277853
0.078471 4.263075
0.082730 4.246227
0.086972 4.229059
0.091197 4.212177
0.095404 4.193866
0.099592 4.174231
0.103761 4.154714
0.107910 4.135800
0.112040 4.114672
0.116147 4.091407
0.120232 4.070115
0.124295 4.046288
0.128333 4.022747
0.132348 3.999213
0.136338 3.972944
0.140302 3.946807
0.144239 3.918944
0.148148 3.891749
0.152030 3.863488
0.155882 3.832721
0.159704 3.803476
0.163496 3.772539
0.167256 3.739732
0.170983 3.706764
0.174677 3.673679
0.178337 3.638551
0.181961 3.603190
0.185550 3.567607
0.189103 3.530186
0.192618 3.492428
0.196094 3.453028
0.199531 3.413015
0.202927 3.373190
0.206283 3.332167
0.209597 3.289192
0.212868 3.246341
0.216096 3.201837
0.219278 3.156678
0.222416 3.111521
0.225507 3.065093
0.228552 3.017347
0.231547 2.968381
0.234494 2.920116
0.237393 2.870088
0.240240 2.818643
0.243036 2.766769
0.245779 2.713825
0.248469 2.660799
0.251104 2.603909
0.253684 2.553761
0.256213 2.490639
0.258657 2.387268
0.260983 2.256340
0.263168 2.106731
0.265201 1.958038
0.267094 1.828086
0.268869 1.725022
0.270556 1.648193
0.272174 1.586481
0.273739 1.544397
0.275255 1.467959
0.276606 1.175041
0.277401 0.264663
0.276805 -1.636462
0.273866 -4.312048
0.268072 -7.289005
0.259328 -10.104403
0.248047 -12.305536
0.234958 -13.708751
0.220857 -14.350081
0.206426 -14.402330
0.192150 -14.075049
0.178314 -13.549445
0.165047 -12.954767
0.152375 -12.371508
0.140260 -11.845082
0.128634 -11.398356
0.117413 -11.034830
0.106515 -10.753008
0.095859 -10.549437
0.085372 -10.413995
0.074990 -10.339552
0.064654 -10.319886
0.054314 -10.346501
0.043927 -10.412303
0.033458 -10.510528
0.022876 -10.636596
0.012156 -10.785952
0.001276 -10.954068
-0.009781 -11.141618
-0.021033 -11.339669
-0.032480 -11.529226
-0.044113 -11.714780
-0.055935 -11.906782
-0.067950 -12.098213
-0.080155 -12.287363
-0.092550 -12.477830
-0.105101 -12.565343
-0.117577 -12.268392
-0.129543 -11.611554
-0.140813 -10.921872
-0.151429 -10.293250
-0.161437 -9.715905
-0.170899 -9.196503
-0.179865 -8.726388
-0.188385 -8.301711
-0.196497 -7.911978
-0.204236 -7.556834
-0.211636 -7.232066
-0.218724 -6.933966
-0.225526 -6.661052
-0.232067 -6.412965
-0.238371 -6.185384
-0.244457 -5.978229
-0.250347 -5.793483
-0.256061 -5.625296
-0.261615 -5.473289
-0.267025 -5.340328
-0.272310 -5.219169
-0.277478 -5.109384
-0.282543 -5.013198
-0.287516 -4.923079
-0.292402 -4.841117
-0.297210 -4.765754
-0.301944 -4.692295
-0.306605 -4.622098
-0.311198 -4.553329
-0.315721 -4.484871
-0.320176 -4.416021
-0.324562 -4.346174
-0.328877 -4.274909
-0.333120 -4.202066
-0.337289 -4.127733
-0.341383 -4.051929
-0.345400 -3.974937
-0.349341 -3.897412
-0.353203 -3.820553
-0.356990 -3.746252
-0.360705 -3.676408
-0.364352 -3.611631
-0.367937 -3.551629
-0.371464 -3.495801
-0.374937 -3.443334
-0.378358 -3.394010
-0.381732 -3.347617
-0.385061 -3.304023
-0.388348 -3.263112
-0.391595 -3.224801
-0.394805 -3.188251
-0.397980 -3.157087
-0.401122 -3.116001
-0.404233 -3.121020
-0.407316 -2.962853
-0.410369 -3.417445
-0.413398 -1.597433
-0.416392 -8.242656
-0.419394 16.600062
-0.422243 -75.694314
-0.425526 267.799700
0.000000 269.959052
0.000000 -72.335310
0.000000 19.382188
0.000000 -5.193442
0.000000 1.391578
0.000000 -0.372872
0.000000 0.099911
0.000000 -0.026771
0.000000 0.007173
0.000000 -0.001922
0.000000 0.000515
0.000000 -0.000138
0.000000 0.000037
0.000000 -0.000010
0.000000 0.000003
0.000000 -0.000001
0.000000 0.000000
0.000000 -0.000000
0.000000 0.000000
0.000000 -0.000000
0.000000 0.000000
0.000000 -0.000000
0.000000 0.000000
0.000000 -0.000000
0.000000 0.000000
0.000000 -0.000000
0.000000 0.000000
0.000000 -0.000000
0.000000 0.000000
0.000000 -0.000000
0.000000 0.000000
0.000000 -0.000000
0.000000 0.000000
0.000000 -0.000000
0.000000 0.000000
0.000000 -0.000000
0.000000 0.000000
0.000000 -0.000000
0.000000 0.000000
0.000000 -0.000000
0.000000 0.000000
0.000000 -0.000000
0.000000 0.000000
0.000000 -0.000000
0.000000 0.000000
0.000000 -0.000000
0.000000 0.000000
0.000000 -0.000000
0.000000 0.000000
0.000000 -0.000000
0.000000 0.000000
0.000000 -0.000000
0.000000 0.000000
0.000000 -0.000000
0.000000 0.000000
0.000000 -0.000000
0.000000 0.000000
0.000000 -0.000000
0.000000 0.000000
0.000000 -0.000000
0.000000 0.000000
0.000000 -0.000000
0.000000 0.000000
0.000000 -0.000000
0.000000 0.000000
0.000000 -0.000000
0.000000 0.000000
0.000000 -0.000000
0.000000 0.000000
0.000000 -0.000000
0.000000 0.000000
0.000000 -0.000000
0.000000 0.000000
0.000000 -0.000000
0.000000 0.000000
0.000000 -0.000000
0.000000 0.000000
0.000000 -0.000000
0.000000 0.000000
0.000000 -0.000000
0.000000 0.000000
0.000000 -0.000000
0.000000 0.000000
0.000000 -0.000000
0.000000 0.000000
0.000000 -0.000000
0.000000 0.000000
0.000000 -0.000000
0.000000 0.000000
0.000000 -0.000000
0.000000 0.000000
0.000000 -0.000000
0.000000 0.000000
0.000000 -0.000000
0.000000 0.000000
0.000000 -0.000000
0.000000 0.000000
0.000000 -0.000000
0.000000 0.000000
0.000000 -0.000000
0.000000 0.000000
0.000000 -0.000000
0.000000 0.000000
0.000000 -0.000000
0.000000 0.000000
0.000000 -0.000000
0.000000 0.000000
0.000000 -0.000000
0.000000 0.000000
0.000000 -0.000000
0.000000 0.000000
0.000000 -0.000000
0.000000 0.000000
0.000000 -0.000000
0.000000 0.000000
0.000000 -0.000000
0.000000 0.000000
0.000000 -0.000000
0.000000 0.000000
0.000000 -0.000000
0.000000 0.000000
0.000000 -0.000000
0.000000 0.000000
0.000000 -0.000000
0.000000 0.000000
0.000000 -0.000000
0.000000 0.000000
0.000000 -0.000000
0.000000 0.000000
0.000000 -0.000000
0.000000 0.000000
0.000000 -0.000000
0.000000 0.000000
0.000000 -0.000000
0.000000 0.000000
0.000000 -0.000000
0.000000 0.000000
0.000000 -0.000000
0.000000 0.000000
0.000000 -0.000000
0.000000 0.000000
0.000000 -0.000000
0.000000 0.000000
0.000000 -0.000000
0.000000 0.000000
0.000000 -0.000000
0.000000 0.000000
0.000000 -0.000000
0.000000 0.000000
0.000000 -0.000000
0.000000 0.000000
0.000000 -0.000000
0.000000 0.000000
0.000000 -0.000000
0.000000 0.000000
0.000000 -0.000000
0.000000 0.000000
0.000000 -0.000000
0.000000 0.000000
0.000000 -0.000000
0.000000 0.000000
0.000000 -0.000000
0.000000 0.000000
0.000000 -0.000000
0.000000 0.000000
0.000000 -0.000000
0.000000 0.000000
0.000000 -0.000000
0.000000 0.000000
0.000000 -0.000000
0.000000 0.000000
0.000000 -0.000000
0.000000 0.000000
0.000000 -0.000000
0.000000 0.000000
0.000000 -0.000000
0.000000 0.000000
0.000000 -0.000000
0.000000 0.000000
0.000000 -0.000000
0.000000 0.000000
0.000000 -0.000000
0.000000 0.000000
0.000000 -0.000000
0.000000 0.000000
0.000000 -0.000000
0.000000 0.000000
0.000000 -0.000000
0.000000 0.000000
0.000000 -0.000000
0.000000 0.000000
0.000000 -0.000000
0.000000 0.000000
0.000000 -0.000000
0.000000 0.000000
0.000000 -0.000000
0.000000 0.000000
0.000000 -0.000000
0.000000 0.000000
0.000000 -0.000000
0.000000 0.000000
0.000000 -0.000000
0.000000 0.000000
0.000000 -0.000000
0.000000 0.000000
0.000000 -0.000000
0.000000 0.000000
0.000000 -0.000000
0.000000 0.000000
0.000000 -0.000000
0.000000 0.000000
0.000000 -0.000000
0.000000 0.000000
0.000000 -0.000000
0.000000 0.000000
0.000000 -0.000000
0.000000 0.000000
0.000000 -0.000000
0.000000 0.000000
0.000000 -0.000000
0.000000 0.000000
0.000000 -0.000000
0.000000 0.000000
0.000000 -0.000000
0.000000 0.000000
0.000000 -0.000000
0.000000 0.000000
0.000000 -0.000000
0.000000 0.000000
0.000000 -0.000000
0.000000 0.000000
0.000000 -0.000000
0.000000 0.000000
0.000000 -0.000000
0.000000 0.000000
0.000000 -0.000000
0.000000 0.000000
0.000000 -0.000000
0.000000 0.000000
0.000000 -0.000000
0.000000 0.000000
0.000000 -0.000000
0.000000 0.000000
0.000000 -0.000000
0.000000 0.000000
0.000000 -0.000000
0.000000 0.000000
0.000000 -0.000000
0.000000 0.000000
0.000000 -0.000000
0.000000 0.000000
0.000000 -0.000000
0.000000 0.000000
0.000000 -0.000000
0.000000 0.000000
0.000000 -0.000000
0.000000 0.000000
0.000000 -0.000000
0.000000 0.000000
0.000000 -0.000000
0.000000 0.000000
0.000000 -0.000000
0.000000 0.000000
0.000000 -0.000000
0.000000 0.000000
0.000000 -0.000000
0.000000 0.000000
0.000000 -0.000000
0.000000 0.000000
0.000000 -0.000000
0.000000 0.000000
0.000000 -0.000000
0.000000 0.000000
0.000000 -0.000000
0.000000 0.000000
0.000000 -0.000000
0.000000 0.000000
0.000000 -0.000000
0.000000 0.000000
0.000000 -0.000000
0.000000 0.000000
0.000000 -0.000000
0.000000 0.000000
0.000000 -0.000000
0.000000 0.000000
0.000000 -0.000000
0.000000 0.000000
0.000000 -0.000000
0.000000 0.000000
0.000000 -0.000000
0.000000 0.000000
0.000000 -0.000000
0.000000 0.000000
0.000000 -0.000000
0.000000 0.000000
0.000000 -0.000000
0.000000 0.000000
0.000000 -0.000000
0.000000 0.000000
0.000000 -0.000000
0.000000 0.000000
0.000000 -0.000000
0.000000 0.000000
0.000000 -0.000000
0.000000 0.000000
0.000000 -0.000000
0.000000 0.000000
0.000000 -0.000000
0.000000 0.000000
0.000000 -0.000000
0.000000 0.000000
0.000000 -0.000000
0.000000 0.000000
0.000000 -0.000000
0.000000 0.000000
0.000000 -0.000000
0.000000 0.000000
0.000000 -0.000000
0.000000 0.000000
0.000000 -0.000000
0.000000 0.000000
0.000000 -0.000000
0.000000 0.000000
0.000000 -0.000000
0.000000 0.000000
0.000000 -0.000000
0.000000 0.000000
0.000000 -0.000000
0.000000 0.000000
0.000000 -0.000000
0.000000 0.000000
0.000000 -0.000000
0.000000 0.000000
0.000000 -0.000000
0.000000 0.000000
0.000000 -0.000000
0.000000 0.000000
0.000000 -0.000000
0.000000 0.000000
0.000000 -0.000000
0.000000 0.000000
0.000000 -0.000000
0.000000 0.000000
0.000000 -0.000000
0.000000 0.000000
0.000000 -0.000000
0.000000 0.000000
0.000000 -0.000000
0.000000 0.000000
0.000000 -0.000000
0.000000 0.000000
0.000000 -0.000000
0.000000 0.000000
0.000000 -0.000000
0.000000 0.000000
0.000000 -0.000000
0.000000 0.000000
0.000000 -0.000000
0.000000 0.000000
0.000000 -0.000000
0.000000 0.000000
0.000000 -0.000000
0.000000 0.000000
0.000000 -0.000000
0.000000 0.000000
0.000000 -0.000000
0.000000 0.000000
0.000000 -0.000000
0.000000 0.000000
0.000000 -0.000000
0.000000 0.000000
0.000000 -0.000000
0.000000 0.000000
0.000000 -0.000000
0.000000 0.000000
0.000000 -0.000000
0.000000 0.000000
0.000000 -0.000000
0.000000 0.000000
0.000000 -0.000000
0.000000 0.000000
0.000000 -0.000000
0.000000 0.000000
0.000000 -0.000000
0.000000 0.000000
0.000000 -0.000000
0.000000 0.000000
0.000000 -0.000000
0.000000 0.000000
0.000000 -0.000000
0.000000 0.000000
0.000000 -0.000000
0.000000 0.000000
0.000000 -0.000000
0.000000 0.000000
0.000000 -0.000000
0.000000 0.000000
0.000000 -0.000000
0.000000 0.000000
0.000000 -0.000000
0.000000 0.000000
0.000000 -0.000000
0.000000 0.000000
0.000000 -0.000000
0.000000 0.000000
0.000000 -0.000000
0.000000 0.000000
0.000000 -0.000000
0.000000 0.000000
0.000000 -0.000000
0.000000 0.000000
0.000000 -0.000000
0.000000 0.000000
0.000000 -0.000000
0.000000 0.000000
0.000000 -0.000000
0.000000 0.000000
0.000000 -0.000000
0.000000 0.000000
0.000000 -0.000000
0.000000 0.000000
0.000000 -0.000000
0.000000 0.000000
0.000000 -0.000000
0.000000 0.000000
0.000000 -0.000000
0.000000 0.000000
0.000000 -0.000000
0.000000 0.000000
0.000000 -0.000000
0.000000 0.000000
0.000000 -0.000000
0.000000 0.000000
0.000000 -0.000000
0.000000 0.000000
0.000000 -0.000000
0.000000 0.000000
0.000000 -0.000000
0.000000 0.000000
0.000000 -0.000000
0.000000 0.000000
0.000000 -0.000000
0.000000 0.000000
0.000000 -0.000000
0.000000 0.000000
0.000000 -0.000000
0.000000 0.000000
0.000000 -0.000000
0.000000 0.000000
0.000000 -0.000000
0.000000 0.000000
0.000000 -0.000000
0.000000 0.000000
0.000000 -0.000000
0.000000 0.000000
0.000000 -0.000000
0.000000 0.000000
0.000000 -0.000000
0.000000 0.000000
0.000000 -0.000000
0.000000 0.000000
0.000000 -0.000000
0.000000 0.000000
0.000000 -0.000000
0.000000 0.000000
0.000000 -0.000000
0.000000 0.000000
0.000000 -0.000000
0.000000 0.000000
0.000000 -0.000000
0.000000 0.000000
0.000000 -0.000000
0.000000 0.000000
0.000000 -0.000000
0.000000 0.000000
0.000000 -0.000000
0.000000 0.000000
0.000000 -0.000000
0.000000 0.000000
0.000000 -0.000000
0.000000 0.000000
0.000000 -0.000000
0.000000 0.000000
0.000000 -0.000000
0.000000 0.000000
0.000000 -0.000000
0.000000 0.000000
0.000000 -0.000000
0.000000 0.000000
0.000000 -0.000000
0.000000 0.000000
0.000000 -0.000000
0.000000 0.000000
0.000000 -0.000000
0.000000 0.000000
0.000000 -0.000000
0.000000 0.000000
0.000000 -0.000000
0.000000 0.000000
0.000000 -0.000000
0.000000 0.000000
0.000000 -0.000000
0.000000 0.000000
0.000000 -0.000000
0.000000 0.000000
0.000000 -0.000000
0.000000 0.000000
0.000000 -0.000000
0.000000 0.000000
0.000000 -0.000000
0.000000 0.000000
0.000000 -0.000000
0.000000 0.000000
0.000000 -0.000000
0.000000 0.000000
0.000000 -0.000000
0.000000 0.000000
0.000000 -0.000000
0.000000 0.000000
0.000000 -0.000000
0.000000 0.000000
0.000000 -0.000000
0.000000 0.000000
0.000000 -0.000000
0.000000 0.000000
0.000000 -0.000000
0.000000 0.000000
0.000000 -0.000000
0.000000 0.000000
0.000000 -0.000000
0.000000 0.000000
0.000000 -0.000000
0.000000 0.000000
0.000000 -0.000000
0.000000 0.000000
0.000000 -0.000000
0.000000 0.000000
0.000000 -0.000000
0.000000 0.000000
0.000000 -0.000000
0.000000 0.000000
0.000000 -0.000000
0.000000 0.000000
0.000000 -0.000000
0.000000 0.000000
0.000000 -0.000000
0.000000 0.000000
0.000000 -0.000000
0.000000 0.000000
0.000000 -0.000000
0.000000 0.000000
0.000000 -0.000000
0.000000 0.000000
0.000000 -0.000000
0.000000 0.000000
0.000000 -0.000000
0.000000 0.000000
0.000000 -0.000000
0.000000 0.000000
0.000000 -0.000000
0.000000 0.000000
0.000000 -0.000000
0.000000 0.000000
0.000000 -0.000000
0.000000 0.000000
0.000000 -0.000000
0.000000 0.000000
0.000000 0.000000
0.000000 0.000000
0.000000 0.000000
0.000000 0.000000
0.000000 0.000000
0.000000 0.000000
0.000000 0.000000
0.000000 0.000000
0.000000 0.000000
0.000000 0.000000
0.000000 0.000000
0.000000 0.000000
0.000000 0.000000
0.000000 0.000000
0.000000 0.000000
0.000000 0.000000
0.000000 0.000000
0.000000 0.000000
0.000000 0.000000
0.000000 0.000000
0.000000 0.000000
0.000000 0.000000
0.000000 0.000000
0.000000 0.000000
0.000000 0.000000
-0.784052 2.319759
