0.061544 0.084615 0.407473
-0.675225 14.056031
-0.659253 17.438860
-0.641148 18.315537
-0.623116 17.598946
-0.606020 16.568341
-0.590043 15.250034
-0.575268 14.594702
-0.561471 11.999579
-0.547572 20.413875
-0.515911 42.888738
-0.463854 58.933167
-0.408387 43.627942
-0.378645 21.925783
-0.356869 23.068776
-0.332212 24.959717
-0.307493 25.072166
-0.281584 26.482363
-0.254768 27.014682
-0.227571 27.336656
-0.199984 27.826849
-0.171657 28.929552
-0.141761 30.948537
-0.109556 33.393947
-0.075083 35.309137
-0.039097 36.533821
-0.001942 37.758820
0.036537 39.106809
0.076347 40.446199
0.117522 41.819591
0.160066 43.181925
0.203960 44.507283
0.249158 45.798046
0.295602 46.953108
0.343275 48.457146
0.392859 50.697710
0.444487 52.084472
0.496881 52.717781
0.550012 53.303318
0.604166 55.603245
0.661076 57.142062
0.717843 56.517214
0.775284 59.072007
0.835586 60.070214
0.895341 60.457603
0.957147 62.416669
1.019495 61.963813
1.082028 63.997170
1.147061 64.365109
1.211049 65.220180
1.277653 66.137759
1.343164 66.175772
1.410604 67.613561
1.477501 65.977969
1.542655 64.231262
1.606000 62.209271
1.667011 59.627108
1.725208 56.548112
1.780023 52.877507
1.830878 48.636497
1.877201 43.818528
1.918420 38.450922
1.954016 32.592215
1.983532 26.321727
2.006613 19.752508
2.023016 13.002365
2.032633 6.220697
2.035515 -0.427185
2.031882 -6.761049
2.022123 -12.664506
2.006749 -17.906709
1.986552 -22.313601
1.962343 -25.923112
1.935421 -27.235582
1.909032 -24.906189
1.886074 -21.030980
1.867012 -16.904419
1.852402 -12.265516
1.842582 -7.250824
1.837982 -1.948402
1.837939 1.130345
1.839151 0.930998
1.839175 -1.150578
1.836414 -4.533959
1.829883 -8.561523
1.819174 -12.887335
1.805442 -13.139667
1.794010 -9.969012
1.785269 -7.441762
1.779243 -4.520297
1.776375 -1.133449
1.777111 2.663015
1.781810 6.769835
1.790731 11.075505
1.804003 15.440074
1.821625 19.755637
1.843508 23.936245
1.869483 27.929247
1.899357 31.723876
1.932932 35.331510
1.970013 38.707783
2.010388 41.972308
2.053883 44.761235
2.100109 47.878733
2.150213 52.423319
2.205233 57.483311
2.265121 62.024115
2.329131 65.742660
2.396460 68.627136
2.466210 70.574044
2.537425 71.548674
2.609120 71.533991
2.680314 70.554130
2.750076 68.695165
2.817592 66.089121
2.882194 62.905266
2.943405 59.348769
3.000952 55.617161
3.054744 51.865760
3.104812 48.188291
3.151251 44.613680
3.194155 41.117715
3.233573 37.635621
3.269479 34.086342
3.301765 30.388420
3.330248 26.482456
3.354697 22.319916
3.374839 17.879306
3.390401 13.167121
3.401116 8.202530
3.406750 3.021921
3.407111 -2.321832
3.402066 -7.772964
3.391532 -13.276472
3.375489 -18.773257
3.353973 -24.195229
3.327086 -29.507704
3.294967 -34.614577
3.257856 -39.517563
3.216603 -42.172602
3.174213 -42.469908
3.131646 -42.563883
3.089049 -42.511280
3.046583 -42.323872
3.004343 -42.057043
2.962409 -41.717346
2.920840 -41.330933
2.879673 -40.920322
2.838920 -40.502938
2.798582 -40.097755
2.758636 -39.717218
2.719062 -39.355150
2.679840 -39.013298
2.640953 -38.684047
2.602393 -38.360469
2.564151 -38.049938
2.526214 -37.748158
2.488575 -37.457610
2.451217 -37.187240
2.414120 -36.935045
2.377266 -36.703819
2.340629 -36.503283
2.304175 -36.335733
2.267874 -36.199685
2.231691 -36.100831
2.195587 -36.041103
2.159524 -36.020263
2.123462 -36.036827
2.087365 -36.091942
2.051194 -36.181862
2.014918 -36.303238
1.978504 -36.457787
1.941921 -36.637540
1.905148 -36.838756
1.868163 -37.062357
1.830945 -37.299860
1.793484 -37.548417
1.755770 -37.805544
1.717798 -38.061758
1.679570 -38.319038
1.641085 -38.570824
1.602355 -38.810828
1.563390 -39.039391
1.524204 -39.248820
1.484821 -39.435426
1.445262 -39.600554
1.405550 -39.737873
1.365717 -39.842544
1.325797 -39.910589
1.285831 -39.933638
1.245867 -39.905728
1.205958 -39.822871
1.166161 -39.682693
1.126532 -39.486825
1.087127 -39.235213
1.048002 -38.927545
1.009211 -38.568390
0.970805 -38.158232
0.932831 -37.709038
0.895322 -37.228509
0.858313 -36.706064
0.821851 -36.137739
0.785978 -35.532374
0.750734 -34.871039
0.716203 -34.097112
0.682506 -33.219346
0.649719 -32.278331
0.617898 -31.298655
0.587065 -30.302433
0.557233 -29.303038
0.528397 -28.314432
0.500544 -27.337620
0.473659 -26.383039
0.447717 -25.452684
0.422695 -24.546248
0.398566 -23.668207
0.375302 -22.817291
0.352876 -21.993576
0.331262 -21.196775
0.310432 -20.426302
0.290360 -19.681030
0.271022 -18.960440
0.252393 -18.264511
0.234448 -17.593297
0.217163 -16.946548
0.200513 -16.324424
0.184473 -15.726537
0.169020 -15.152907
0.154129 -14.603583
0.139776 -14.078036
0.125937 -13.576210
0.112589 -13.097536
0.099708 -12.641730
0.087272 -12.208707
0.075259 -11.798123
0.063645 -11.410137
0.052408 -11.044165
0.041527 -10.699780
0.030980 -10.376376
0.020747 -10.072880
0.010808 -9.788575
0.001144 -9.522275
-0.008261 -9.272961
-0.017426 -9.039953
-0.026364 -8.821869
-0.035092 -8.617369
-0.043621 -8.426000
-0.051964 -8.246477
-0.060134 -8.077700
-0.068139 -7.918707
-0.075990 -7.768513
-0.083694 -7.626100
-0.091259 -7.489659
-0.098690 -7.357986
-0.105991 -7.230094
-0.113166 -7.105646
-0.120218 -6.984245
-0.127149 -6.865035
-0.133963 -6.747954
-0.140659 -6.632207
-0.147240 -6.517154
-0.153707 -6.403029
-0.160059 -6.289136
-0.166298 -6.174818
-0.172421 -6.060340
-0.178430 -5.945325
-0.184324 -5.829583
-0.190101 -5.713086
-0.195761 -5.595626
-0.201303 -5.476963
-0.206726 -5.357512
-0.212028 -5.237198
-0.217210 -5.114802
-0.222268 -4.990558
-0.227200 -4.864989
-0.232007 -4.738434
-0.236687 -4.611826
-0.241240 -4.484712
-0.245666 -4.360046
-0.249969 -4.236760
-0.254133 -4.069325
-0.258081 -3.796787
-0.261690 -3.391730
-0.264838 -2.886427
-0.267456 -2.341744
-0.269526 -1.797989
-0.271063 -1.278261
-0.272098 -0.798411
-0.272679 -0.370611
-0.272858 0.004063
-0.272688 0.327106
-0.272219 0.602590
-0.271496 0.835386
-0.270559 1.031193
-0.269442 1.195424
-0.268175 1.332824
-0.266781 1.447441
-0.265284 1.541983
-0.263700 1.618687
-0.262049 1.678837
-0.260344 1.723859
-0.258602 1.754707
-0.256836 1.771744
-0.255059 1.776008
-0.253284 1.768468
-0.251522 1.750074
-0.249784 1.721598
-0.248079 1.684308
-0.246415 1.639508
-0.244799 1.588534
-0.243236 1.532560
-0.241732 1.472747
-0.240288 1.410154
-0.238909 1.345458
-0.237595 1.279329
-0.236348 1.212436
-0.235168 1.145448
-0.234055 1.078733
-0.233008 1.012976
-0.232026 0.948569
-0.231109 0.885754
-0.230253 0.824611
-0.229457 0.765433
-0.228720 0.708412
-0.228038 0.653361
-0.227411 0.600518
-0.226835 0.549684
-0.226310 0.500890
-0.225832 0.454070
-0.225400 0.409171
-0.225012 0.366181
-0.224666 0.324718
-0.224361 0.285096
-0.224095 0.246967
-0.223866 0.210131
-0.223674 0.174903
-0.223516 0.141098
-0.223391 0.108326
-0.223299 0.076571
-0.223237 0.046016
-0.223206 0.016822
-0.223203 -0.011142
-0.223228 -0.038064
-0.223279 -0.063646
-0.223355 -0.088132
-0.223455 -0.111823
-0.223579 -0.134456
-0.223724 -0.155999
-0.223891 -0.176714
-0.224077 -0.196404
-0.224284 -0.215298
-0.224508 -0.233387
-0.224750 -0.250674
-0.225010 -0.267134
-0.225285 -0.282839
-0.225576 -0.297857
-0.225881 -0.312297
-0.226201 -0.326091
-0.226534 -0.338916
-0.226879 -0.351066
-0.227236 -0.362442
-0.227604 -0.372941
-0.227983 -0.382735
-0.228370 -0.391897
-0.228767 -0.400225
-0.229172 -0.408251
-0.229584 -0.415547
-0.230003 -0.422170
-0.230429 -0.428410
-0.230861 -0.433965
-0.231298 -0.439171
-0.231740 -0.443855
-0.232186 -0.448150
-0.232637 -0.451673
-0.233090 -0.454796
-0.233547 -0.457704
-0.234007 -0.460177
-0.234468 -0.462405
-0.234932 -0.464213
-0.235398 -0.465563
-0.235864 -0.466421
-0.236331 -0.466822
-0.236798 -0.466741
-0.237265 -0.466169
-0.237732 -0.465229
-0.238197 -0.463994
-0.238660 -0.462440
-0.239122 -0.460529
-0.239582 -0.458379
-0.240040 -0.455952
-0.240495 -0.453267
-0.240947 -0.450188
-0.241396 -0.447643
-0.241843 -0.443878
-0.242280 -0.424957
-0.242687 -0.386205
-0.243052 -0.344449
-0.243380 -0.311594
-0.243676 -0.278168
-0.243936 -0.243593
-0.244168 -0.221025
-0.244385 -0.216888
-0.244579 -0.143774
-0.244557 0.276602
-0.243865 1.176760
-0.242138 2.266298
-0.239358 3.266703
-0.235613 4.220884
-0.230928 5.112895
-0.225473 5.717187
-0.219615 5.924865
-0.213727 5.787074
-0.208115 5.390202
-0.202993 4.821893
-0.198496 4.152008
-0.194696 3.437423
-0.191614 2.721477
-0.189237 2.034681
-0.187525 1.395968
-0.186423 0.815777
-0.185871 0.298770
-0.185804 -0.156698
-0.186166 -0.557255
-0.186905 -0.911443
-0.187978 -1.228046
-0.189353 -1.515025
-0.191004 -1.780665
-0.192911 -2.023485
-0.195042 -2.226061
-0.197348 -2.371028
-0.199769 -2.457166
-0.202253 -2.501977
-0.204770 -2.522752
-0.207298 -2.526357
-0.209826 -2.524236
-0.212342 -2.492307
-0.214789 -2.381475
-0.217080 -2.183570
-0.219133 -1.902137
-0.220889 -1.621945
-0.222403 -1.410951
-0.223729 -1.245871
-0.224910 -1.119246
-0.225979 -1.021636
-0.226963 -0.946095
-0.227879 -0.887495
-0.228744 -0.841780
-0.229568 -0.805440
-0.230358 -0.775452
-0.231121 -0.749440
-0.231859 -0.725063
-0.232573 -0.700588
-0.233262 -0.675698
-0.233925 -0.649889
-0.234563 -0.623358
-0.235173 -0.596369
-0.235756 -0.569219
-0.236313 -0.542085
-0.236842 -0.515125
-0.237344 -0.488909
-0.237821 -0.463251
-0.238272 -0.438192
-0.238698 -0.413984
-0.239101 -0.390228
-0.239480 -0.367436
-0.239837 -0.345342
-0.240171 -0.323373
-0.240484 -0.302256
-0.240776 -0.281489
-0.241048 -0.260907
-0.241299 -0.240910
-0.241530 -0.221089
-0.241742 -0.201449
-0.241934 -0.182161
-0.242106 -0.162962
-0.242260 -0.143989
-0.242395 -0.125245
-0.242511 -0.106365
-0.242608 -0.087111
-0.242685 -0.067286
-0.242742 -0.046865
-0.242779 -0.026324
-0.242795 -0.005732
-0.242790 0.014749
-0.242765 0.034951
-0.242720 0.054704
-0.242656 0.074192
-0.242572 0.093348
-0.242469 0.111983
-0.242348 0.130464
-0.242208 0.149708
-0.242048 0.169332
-0.241869 0.188991
-0.241670 0.208576
-0.241451 0.229244
-0.241211 0.248528
-0.240952 0.270295
-0.240667 0.300189
-0.240348 0.341020
-0.239829 0.847466
-0.238572 1.589769
-0.236719 2.116256
-0.234282 2.804458
-0.231033 3.704691
-0.226815 4.755846
-0.221830 4.855589
-0.218268 1.435284
-0.220861 -7.693479
-0.235359 -21.882855
-0.263645 -32.999141
-0.298504 -35.365664
-0.333050 -33.546198
-0.365432 -31.031699
-0.395058 -28.164301
-0.421975 -25.771051
-0.446726 -23.600939
-0.469207 -21.380538
-0.489691 -19.643270
-0.508560 -17.986365
-0.525724 -16.399768
-0.541497 -15.127136
-0.555976 -13.757165
-0.569117 -12.622435
-0.581336 -11.758155
-0.592563 -10.612570
-0.602666 -9.718111
-0.612124 -9.137960
-0.620879 -8.314886
-0.628791 -7.553293
-0.636055 -6.953627
-0.642761 -6.500439
-0.648572 -4.556549
-0.651175 -0.489971
-0.650301 1.333223
-0.649074 1.452200
-0.647250 2.002261
-0.645251 1.997917
-0.643245 2.008736
-0.641237 1.996167
-0.639251 1.977968
-0.637291 1.918827
-0.635426 1.810221
-0.633623 1.832488
-0.631696 2.036879
-0.629551 2.223831
-0.627284 2.289470
-0.624982 2.312421
-0.622658 2.325943
-0.620328 2.330474
-0.617991 2.338432
-0.615647 2.346834
-0.613293 2.356362
-0.610929 2.366145
-0.608556 2.376034
-0.606172 2.385328
-0.603780 2.393784
-0.601380 2.401214
-0.598973 2.407841
-0.596560 2.412900
-0.594143 2.416415
-0.591723 2.418859
-0.589301 2.419465
-0.586880 2.418252
-0.584461 2.415648
-0.582044 2.411342
-0.579634 2.404933
-0.577230 2.397042
-0.574835 2.387434
-0.572451 2.376177
-0.570079 2.363000
-0.567721 2.347700
-0.565379 2.330991
-0.563055 2.313618
-0.560748 2.294854
-0.558461 2.273821
-0.556196 2.250759
-0.553956 2.224890
-0.551743 2.197692
-0.549551 2.186573
-0.547358 2.198149
-0.545150 2.210990
-0.542933 2.219002
-0.540709 2.221912
-0.538485 2.222421
-0.536281 2.158178
-0.534093 2.308356
-0.531904 1.726544
-0.529736 3.842774
-0.527633 -4.295719
-0.525693 25.457232
-0.523932 -86.443101
-0.521929 331.596906
0.000000 330.280533
0.000000 -88.498402
0.000000 23.713075
0.000000 -6.353899
0.000000 1.702522
0.000000 -0.456189
0.000000 0.122236
0.000000 -0.032753
0.000000 0.008776
0.000000 -0.002352
0.000000 0.000630
0.000000 -0.000169
0.000000 0.000045
0.000000 -0.000012
0.000000 0.000003
0.000000 -0.000001
0.000000 0.000000
0.000000 -0.000000
0.000000 0.000000
0.000000 -0.000000
0.000000 0.000000
0.000000 -0.000000
0.000000 0.000000
0.000000 -0.000000
0.000000 0.000000
0.000000 -0.000000
0.000000 0.000000
0.000000 -0.000000
0.000000 0.000000
0.000000 -0.000000
0.000000 0.000000
0.000000 -0.000000
0.000000 0.000000
0.000000 -0.000000
0.000000 0.000000
0.000000 -0.000000
0.000000 0.000000
0.000000 -0.000000
0.000000 0.000000
0.000000 -0.000000
0.000000 0.000000
0.000000 -0.000000
0.000000 0.000000
0.000000 -0.000000
0.000000 0.000000
0.000000 -0.000000
0.000000 0.000000
0.000000 -0.000000
0.000000 0.000000
0.000000 -0.000000
0.000000 0.000000
0.000000 -0.000000
0.000000 0.000000
0.000000 -0.000000
0.000000 0.000000
0.000000 -0.000000
0.000000 0.000000
0.000000 -0.000000
0.000000 0.000000
0.000000 -0.000000
0.000000 0.000000
0.000000 -0.000000
0.000000 0.000000
0.000000 -0.000000
0.000000 0.000000
0.000000 -0.000000
0.000000 0.000000
0.000000 -0.000000
0.000000 0.000000
0.000000 -0.000000
0.000000 0.000000
0.000000 -0.000000
0.000000 0.000000
0.000000 -0.000000
0.000000 0.000000
0.000000 -0.000000
0.000000 0.000000
0.000000 -0.000000
0.000000 0.000000
0.000000 -0.000000
0.000000 0.000000
0.000000 -0.000000
0.000000 0.000000
0.000000 -0.000000
0.000000 0.000000
0.000000 -0.000000
0.000000 0.000000
0.000000 -0.000000
0.000000 0.000000
0.000000 -0.000000
0.000000 0.000000
0.000000 -0.000000
0.000000 0.000000
0.000000 -0.000000
0.000000 0.000000
0.000000 -0.000000
0.000000 0.000000
0.000000 -0.000000
0.000000 0.000000
0.000000 -0.000000
0.000000 0.000000
0.000000 -0.000000
0.000000 0.000000
0.000000 -0.000000
0.000000 0.000000
0.000000 -0.000000
0.000000 0.000000
0.000000 -0.000000
0.000000 0.000000
0.000000 -0.000000
0.000000 0.000000
0.000000 -0.000000
0.000000 0.000000
0.000000 -0.000000
0.000000 0.000000
0.000000 -0.000000
0.000000 0.000000
0.000000 -0.000000
0.000000 0.000000
0.000000 -0.000000
0.000000 0.000000
0.000000 -0.000000
0.000000 0.000000
0.000000 -0.000000
0.000000 0.000000
0.000000 -0.000000
0.000000 0.000000
0.000000 -0.000000
0.000000 0.000000
0.000000 -0.000000
0.000000 0.000000
0.000000 -0.000000
0.000000 0.000000
0.000000 -0.000000
0.000000 0.000000
0.000000 -0.000000
0.000000 0.000000
0.000000 -0.000000
0.000000 0.000000
0.000000 -0.000000
0.000000 0.000000
0.000000 -0.000000
0.000000 0.000000
0.000000 -0.000000
0.000000 0.000000
0.000000 -0.000000
0.000000 0.000000
0.000000 -0.000000
0.000000 0.000000
0.000000 -0.000000
0.000000 0.000000
0.000000 -0.000000
0.000000 0.000000
0.000000 -0.000000
0.000000 0.000000
0.000000 -0.000000
0.000000 0.000000
0.000000 -0.000000
0.000000 0.000000
0.000000 -0.000000
0.000000 0.000000
0.000000 -0.000000
0.000000 0.000000
0.000000 -0.000000
0.000000 0.000000
0.000000 -0.000000
0.000000 0.000000
0.000000 -0.000000
0.000000 0.000000
0.000000 -0.000000
0.000000 0.000000
0.000000 -0.000000
0.000000 0.000000
0.000000 -0.000000
0.000000 0.000000
0.000000 -0.000000
0.000000 0.000000
0.000000 -0.000000
0.000000 0.000000
0.000000 -0.000000
0.000000 0.000000
0.000000 -0.000000
0.000000 0.000000
0.000000 -0.000000
0.000000 0.000000
0.000000 -0.000000
0.000000 0.000000
0.000000 -0.000000
0.000000 0.000000
0.000000 -0.000000
0.000000 0.000000
0.000000 -0.000000
0.000000 0.000000
0.000000 -0.000000
0.000000 0.000000
0.000000 -0.000000
0.000000 0.000000
0.000000 -0.000000
0.000000 0.000000
0.000000 -0.000000
0.000000 0.000000
0.000000 -0.000000
0.000000 0.000000
0.000000 -0.000000
0.000000 0.000000
0.000000 -0.000000
0.000000 0.000000
0.000000 -0.000000
0.000000 0.000000
0.000000 -0.000000
0.000000 0.000000
0.000000 -0.000000
0.000000 0.000000
0.000000 -0.000000
0.000000 0.000000
0.000000 -0.000000
0.000000 0.000000
0.000000 -0.000000
0.000000 0.000000
0.000000 -0.000000
0.000000 0.000000
0.000000 -0.000000
0.000000 0.000000
0.000000 -0.000000
0.000000 0.000000
0.000000 -0.000000
0.000000 0.000000
0.000000 -0.000000
0.000000 0.000000
0.000000 -0.000000
0.000000 0.000000
0.000000 -0.000000
0.000000 0.000000
0.000000 -0.000000
0.000000 0.000000
0.000000 -0.000000
0.000000 0.000000
0.000000 -0.000000
0.000000 0.000000
0.000000 -0.000000
0.000000 0.000000
0.000000 -0.000000
0.000000 0.000000
0.000000 -0.000000
0.000000 0.000000
0.000000 -0.000000
0.000000 0.000000
0.000000 -0.000000
0.000000 0.000000
0.000000 -0.000000
0.000000 0.000000
0.000000 -0.000000
0.000000 0.000000
0.000000 -0.000000
0.000000 0.000000
0.000000 -0.000000
0.000000 0.000000
0.000000 -0.000000
0.000000 0.000000
0.000000 -0.000000
0.000000 0.000000
0.000000 -0.000000
0.000000 0.000000
0.000000 -0.000000
0.000000 0.000000
0.000000 -0.000000
0.000000 0.000000
0.000000 -0.000000
0.000000 0.000000
0.000000 -0.000000
0.000000 0.000000
0.000000 -0.000000
0.000000 0.000000
0.000000 -0.000000
0.000000 0.000000
0.000000 -0.000000
0.000000 0.000000
0.000000 -0.000000
0.000000 0.000000
0.000000 -0.000000
0.000000 0.000000
0.000000 -0.000000
0.000000 0.000000
0.000000 -0.000000
0.000000 0.000000
0.000000 -0.000000
0.000000 0.000000
0.000000 -0.000000
0.000000 0.000000
0.000000 -0.000000
0.000000 0.000000
0.000000 -0.000000
0.000000 0.000000
0.000000 -0.000000
0.000000 0.000000
0.000000 -0.000000
0.000000 0.000000
0.000000 -0.000000
0.000000 0.000000
0.000000 -0.000000
0.000000 0.000000
0.000000 -0.000000
0.000000 0.000000
0.000000 -0.000000
0.000000 0.000000
0.000000 -0.000000
0.000000 0.000000
0.000000 -0.000000
0.000000 0.000000
0.000000 -0.000000
0.000000 0.000000
0.000000 -0.000000
0.000000 0.000000
0.000000 -0.000000
0.000000 0.000000
0.000000 -0.000000
0.000000 0.000000
0.000000 -0.000000
0.000000 0.000000
0.000000 -0.000000
0.000000 0.000000
0.000000 -0.000000
0.000000 0.000000
0.000000 -0.000000
0.000000 0.000000
0.000000 -0.000000
0.000000 0.000000
0.000000 -0.000000
0.000000 0.000000
0.000000 -0.000000
0.000000 0.000000
0.000000 -0.000000
0.000000 0.000000
0.000000 -0.000000
0.000000 0.000000
0.000000 -0.000000
0.000000 0.000000
0.000000 -0.000000
0.000000 0.000000
0.000000 -0.000000
0.000000 0.000000
0.000000 -0.000000
0.000000 0.000000
0.000000 -0.000000
0.000000 0.000000
0.000000 -0.000000
0.000000 0.000000
0.000000 -0.000000
0.000000 0.000000
0.000000 -0.000000
0.000000 0.000000
0.000000 -0.000000
0.000000 0.000000
0.000000 -0.000000
0.000000 0.000000
0.000000 -0.000000
0.000000 0.000000
0.000000 -0.000000
0.000000 0.000000
0.000000 -0.000000
0.000000 0.000000
0.000000 -0.000000
0.000000 0.000000
0.000000 -0.000000
0.000000 0.000000
0.000000 -0.000000
0.000000 0.000000
0.000000 -0.000000
0.000000 0.000000
0.000000 -0.000000
0.000000 0.000000
0.000000 -0.000000
0.000000 0.000000
0.000000 -0.000000
0.000000 0.000000
0.000000 -0.000000
0.000000 0.000000
0.000000 -0.000000
0.000000 0.000000
0.000000 -0.000000
0.000000 0.000000
0.000000 -0.000000
0.000000 0.000000
0.000000 -0.000000
0.000000 0.000000
0.000000 -0.000000
0.000000 0.000000
0.000000 -0.000000
0.000000 0.000000
0.000000 -0.000000
0.000000 0.000000
0.000000 -0.000000
0.000000 0.000000
0.000000 -0.000000
0.000000 0.000000
0.000000 -0.000000
0.000000 0.000000
0.000000 -0.000000
0.000000 0.000000
0.000000 -0.000000
0.000000 0.000000
0.000000 -0.000000
0.000000 0.000000
0.000000 -0.000000
0.000000 0.000000
0.000000 -0.000000
0.000000 0.000000
0.000000 -0.000000
-0.675225 14.056031
