-0.076999 0.126905 -0.057525
0.597755 0.000000
0.597755 -0.000000
0.597755 0.000000
0.597755 -0.000000
0.597755 -0.000000
0.597755 0.000000
0.597755 -0.000000
0.597755 0.000001
0.597755 -0.000002
0.597755 0.000001
0.597755 0.000010
0.597755 -0.000065
0.597755 0.000254
0.597755 -0.000760
0.597755 0.001776
0.597757 -0.002715
0.597752 -0.001050
0.597763 0.026966
0.597748 -0.117913
0.597723 0.323401
0.597986 -0.463374
0.595947 -3.792334
0.588656 -12.328961
0.568270 -29.839328
0.531565 -39.413659
0.492389 -39.922867
0.450914 -42.607116
0.407353 -44.501308
0.362773 -43.546940
0.320678 -41.074139
0.280278 -39.393213
0.242070 -36.942155
0.206224 -34.776778
0.172067 -33.748314
0.138768 -32.396624
0.107399 -30.476701
0.077674 -28.796518
0.049435 -28.054229
0.021261 -28.055136
-0.006333 -26.864303
-0.032444 -25.442298
-0.057351 -24.267023
-0.080978 -22.945523
-0.103325 -21.733921
-0.124435 -20.359680
-0.144156 -19.196796
-0.163116 -18.780575
-0.181701 -18.205414
-0.199384 -17.092482
-0.215905 -15.932434
-0.231322 -14.896855
-0.245714 -13.819300
-0.259203 -13.383974
-0.272706 -13.539690
-0.286044 -12.900872
-0.298486 -12.119295
-0.310358 -11.491309
-0.321723 -11.556774
-0.333993 -13.115478
-0.347866 -14.329996
-0.362459 -14.875693
-0.377609 -15.309411
-0.393426 -16.694035
-0.411777 -20.315563
-0.433812 -23.081990
-0.457945 -25.721648
-0.485758 -29.713637
-0.516896 -32.099199
-0.549735 -33.627080
-0.584764 -36.791996
-0.622527 -37.365098
-0.659389 -37.400598
-0.698505 -40.737706
-0.739585 -39.994199
-0.779010 -40.559788
-0.823090 -48.031933
-0.873814 -51.438558
-0.924183 -49.188737
-0.972628 -47.951085
-1.020724 -48.340462
-1.069478 -48.948880
-1.118249 -48.148138
-1.165857 -47.305286
-1.213500 -48.098052
-1.261874 -48.066444
-1.309346 -46.886468
-1.355867 -46.083583
-1.401728 -45.647650
-1.447293 -45.330117
-1.492458 -44.949295
-1.537707 -45.843129
-1.584132 -46.425000
-1.630170 -45.567326
-1.675482 -45.082348
-1.720771 -45.634787
-1.766723 -45.828473
-1.812448 -45.808380
-1.858317 -45.444192
-1.903112 -44.134050
-1.946727 -42.985302
-1.989513 -42.870189
-2.032578 -42.829693
-2.074758 -41.289963
-2.115220 -39.685716
-2.154305 -38.369958
-2.191925 -36.719449
-2.227947 -35.455085
-2.262956 -34.341978
-2.296492 -32.607409
-2.328146 -30.601314
-2.357802 -28.734645
-2.385859 -27.428301
-2.412766 -26.279135
-2.438389 -24.886917
-2.462331 -22.718543
-2.483677 -19.966765
-2.502330 -17.291332
-2.518274 -14.554374
-2.531444 -11.746050
-2.541755 -8.834996
-2.549101 -5.832022
-2.553424 -2.807392
-2.554736 0.173714
-2.553100 3.083807
-2.548594 5.898898
-2.541333 8.586187
-2.531450 11.137229
-2.519081 13.553353
-2.504362 15.831857
-2.487433 17.969292
-2.468432 19.974473
-2.447482 21.864325
-2.424697 23.642202
-2.400187 25.310771
-2.374058 26.879241
-2.346403 28.361864
-2.317302 29.768813
-2.286834 31.091408
-2.255085 32.332462
-2.222127 33.504793
-2.188031 34.607245
-2.152866 35.641934
-2.116695 36.619417
-2.079570 37.549973
-2.041536 38.431991
-2.002648 39.257085
-1.962961 40.028334
-1.922527 40.752808
-1.881389 41.431513
-1.839596 42.063994
-1.797191 42.656379
-1.754210 43.213636
-1.710690 43.731311
-1.666673 44.208570
-1.622195 44.652776
-1.577290 45.062188
-1.531993 45.435865
-1.486337 45.780828
-1.440349 46.098116
-1.394057 46.388681
-1.347488 46.649995
-1.300675 46.877671
-1.253649 47.075747
-1.206439 47.243939
-1.159077 47.380475
-1.111591 47.492838
-1.064004 47.582329
-1.016338 47.650896
-0.968615 47.696017
-0.920861 47.709104
-0.873110 47.694384
-0.825385 47.657408
-0.777707 47.597917
-0.730101 47.514655
-0.682590 47.409900
-0.635194 47.282721
-0.587936 47.136181
-0.540834 46.969571
-0.493911 46.779125
-0.447188 46.571212
-0.400683 46.341101
-0.354419 46.093447
-0.308411 45.824670
-0.262681 45.547261
-0.217237 45.233646
-0.172129 44.901980
-0.127297 44.708896
-0.082861 43.799246
-0.039945 41.888089
0.001236 40.685951
0.041893 40.636883
0.082161 39.299165
0.120380 37.391347
0.157478 36.862038
0.194314 36.741448
0.230496 35.006564
0.264374 33.203121
0.296660 30.473803
0.325075 26.822580
0.351218 25.746483
0.376863 25.398142
0.401861 24.437914
0.425833 23.614013
0.449186 22.939318
0.471618 21.847055
0.493079 21.220371
0.514103 20.597688
0.533708 18.153344
0.550360 15.451140
0.565214 14.464085
0.578743 11.757560
0.588091 7.069996
0.593549 4.336976
0.596951 2.132966
0.597866 0.067664
0.597716 -0.109274
0.597764 0.062675
0.597755 -0.024115
0.597755 0.006845
0.597756 -0.001210
0.597755 -0.000069
0.597755 0.000172
0.597755 -0.000091
0.597755 0.000033
0.597755 -0.000009
0.597755 0.000001
0.597755 0.000000
0.597755 -0.000000
0.597755 0.000000
0.597755 -0.000000
0.597755 0.000000
0.597755 -0.000000
0.597755 -0.000000
0.597755 0.000000
0.597755 -0.000000
0.597755 0.000000
0.597755 -0.000000
0.597755 0.000000
0.597755 0.000000
0.597755 -0.000000
0.597755 0.000000
0.597755 -0.000000
0.597755 0.000000
0.597755 -0.000000
0.597755 0.000000
0.597755 0.000002
0.597755 -0.000011
0.597755 0.000043
0.597755 -0.000126
0.597755 0.000293
0.597756 -0.000445
0.597755 -0.000182
0.597757 0.004456
0.597754 -0.019870
0.597751 0.059038
0.597788 -0.113743
0.597227 -1.176709
0.595534 -1.935051
0.593451 -2.398586
0.590818 -2.603721
0.588458 -2.150383
0.586343 -2.206389
0.584015 -2.341100
0.581735 -2.239998
0.579581 -1.986491
0.577781 -1.665449
0.576038 -1.971376
0.573651 -2.824683
0.570565 -3.130041
0.567640 -2.670177
0.565247 -2.128437
0.563352 -1.667000
0.561890 -1.265222
0.560809 -0.894849
0.560091 -0.545946
0.559704 -0.232529
0.559613 0.044158
0.559812 0.379466
0.560318 0.549603
0.560856 0.550086
0.561493 0.772657
0.562410 1.017961
0.563497 1.160032
0.564740 1.324711
0.566148 1.487511
0.567719 1.653545
0.569459 1.821744
0.571361 1.974635
0.573410 2.119526
0.575601 2.255040
0.577925 2.392040
0.580381 2.502119
0.582924 2.581493
0.585490 2.482986
0.587824 2.172956
0.589797 1.733314
0.591303 1.318826
0.592539 1.208941
0.593742 1.154655
0.594795 0.934709
0.595657 0.846902
0.596485 0.740319
0.597074 0.438203
0.597399 0.246130
0.597607 0.174937
0.597739 0.074886
0.597763 -0.007585
0.597753 -0.003986
0.597756 0.003224
0.597755 -0.001448
0.597755 0.000487
0.597755 -0.000119
0.597755 0.000014
0.597755 0.000005
0.597755 -0.000004
0.597755 0.000002
0.597755 -0.000001
0.597755 0.000000
0.597755 -0.000000
0.597755 -0.000000
0.597755 0.000000
0.597755 -0.000000
0.597755 0.000000
0.597755 -0.000000
0.597755 0.000000
0.597755 0.000000
0.597755 -0.000000
0.597755 0.000000
0.597755 -0.000000
0.597755 0.000000
0.597755 0.000000
0.597755 -0.000000
0.597755 0.000000
0.597755 -0.000000
0.597755 0.000000
0.597755 -0.000000
0.597755 0.000000
0.597755 -0.000000
0.597755 0.000000
0.597755 -0.000000
0.597755 0.000000
0.597755 -0.000000
0.597755 0.000000
0.597755 -0.000000
0.597755 0.000000
0.597755 -0.000000
0.597755 0.000000
0.597755 -0.000000
0.597755 0.000000
0.597755 -0.000000
0.597755 0.000000
0.597755 -0.000000
0.597755 0.000000
0.597755 -0.000000
0.597755 0.000000
0.597755 -0.000000
0.597755 0.000000
0.597755 -0.000000
0.597755 0.000000
0.597755 -0.000000
0.597755 0.000000
0.597755 -0.000000
0.597755 0.000000
0.597755 -0.000000
0.597755 0.000000
0.597755 -0.000000
0.597755 0.000000
0.597755 -0.000000
0.597755 0.000000
0.597755 -0.000000
0.597755 0.000000
0.597755 -0.000000
0.597755 0.000000
0.597755 -0.000000
0.597755 0.000000
0.597755 -0.000000
0.597755 0.000000
0.597755 -0.000000
0.597755 0.000000
0.597755 -0.000000
0.597755 0.000000
0.597755 -0.000000
0.597755 0.000000
0.597755 -0.000000
0.597755 0.000000
0.597755 -0.000000
0.597755 0.000000
0.597755 -0.000000
0.597755 0.000000
0.597755 -0.000000
0.597755 0.000000
0.597755 -0.000000
0.597755 0.000000
0.597755 -0.000000
0.597755 0.000000
0.597755 -0.000000
0.597755 0.000000
0.597755 -0.000000
0.597755 0.000000
0.597755 -0.000000
0.597755 0.000000
0.597755 -0.000000
0.597755 0.000000
0.597755 -0.000000
0.597755 0.000000
0.597755 -0.000000
0.597755 0.000000
0.597755 -0.000000
0.597755 0.000000
0.597755 -0.000000
0.597755 0.000000
0.597755 -0.000000
0.597755 0.000000
0.597755 -0.000000
0.597755 0.000000
0.597755 -0.000000
0.597755 0.000000
0.597755 -0.000000
0.597755 0.000000
0.597755 -0.000000
0.597755 0.000000
0.597755 -0.000000
0.597755 0.000000
0.597755 -0.000000
0.597755 0.000000
0.597755 -0.000000
0.597755 0.000000
0.597755 -0.000000
0.597755 0.000000
0.597755 -0.000000
0.597755 0.000000
0.597755 -0.000000
0.597755 0.000000
0.597755 -0.000000
0.597755 0.000000
0.597755 -0.000000
0.597755 0.000000
0.597755 -0.000000
0.597755 0.000000
0.597755 -0.000000
0.597755 0.000000
0.597755 -0.000000
0.597755 0.000000
0.597755 -0.000000
0.597755 0.000000
0.597755 -0.000000
0.597755 0.000000
0.597755 -0.000000
0.597755 0.000000
0.597755 -0.000000
0.597755 0.000000
0.597755 -0.000000
0.597755 0.000000
0.597755 -0.000000
0.597755 0.000000
0.597755 -0.000000
0.597755 0.000000
0.597755 -0.000000
0.597755 0.000000
0.597755 -0.000000
0.597755 0.000000
0.597755 -0.000000
0.597755 0.000000
0.597755 -0.000000
0.597755 0.000000
0.597755 -0.000000
0.597755 0.000000
0.597755 -0.000000
0.597755 0.000000
0.597755 -0.000000
0.597755 0.000000
0.597755 -0.000000
0.597755 0.000000
0.597755 -0.000000
0.597755 0.000000
0.597755 -0.000000
0.597755 0.000000
0.597755 -0.000000
0.597755 0.000000
0.597755 -0.000000
0.597755 0.000000
0.597755 -0.000000
0.597755 0.000000
0.597755 -0.000000
0.597755 0.000000
0.597755 -0.000000
0.597755 0.000000
0.597755 -0.000000
0.597755 -0.000000
0.597755 0.000000
0.597755 -0.000000
0.597755 -0.000000
0.597755 0.000000
0.597755 -0.000000
0.597755 0.000000
0.597755 -0.000000
0.597755 -0.000000
0.597755 0.000000
0.597755 -0.000000
0.597755 0.000000
0.597755 -0.000000
0.597755 0.000000
0.597755 0.000000
0.597755 -0.000002
0.597755 0.000008
0.597755 -0.000016
0.597755 0.000009
0.597755 0.000100
0.597755 -0.000594
0.597755 0.002124
0.597756 -0.005546
0.597752 0.009937
0.597766 -0.004635
0.597733 -0.048300
0.597772 0.216117
0.597866 -0.418124
0.595954 -3.991024
0.589453 -8.832111
0.579624 -9.622467
0.569018 -13.921963
0.549959 -23.596719
0.522511 -31.070958
0.489213 -34.175244
0.455674 -32.539460
0.423831 -31.617037
0.392488 -30.359405
0.362899 -29.557571
0.332711 -30.562991
0.302273 -29.887224
0.272574 -30.119285
0.242170 -29.763159
0.213648 -27.428504
0.186670 -26.856296
0.159014 -28.884432
0.129212 -29.809141
0.100074 -28.522395
0.071404 -29.351247
0.041112 -30.782808
0.010555 -29.880626
-0.018304 -27.763037
-0.045101 -25.868537
-0.070163 -24.183807
-0.093540 -22.569888
-0.115545 -21.548080
-0.136866 -21.083119
-0.157581 -20.100030
-0.177020 -18.861014
-0.195406 -17.818131
-0.212669 -16.704737
-0.229086 -16.302160
-0.245415 -16.225736
-0.261399 -15.637088
-0.276644 -14.820895
-0.291119 -14.148957
-0.304965 -13.462302
-0.318228 -13.247709
-0.331794 -13.952645
-0.345806 -13.593428
-0.358924 -12.982493
-0.372709 -15.106203
-0.389483 -18.178486
-0.408417 -19.193997
-0.427597 -19.270805
-0.447660 -21.336670
-0.470992 -25.438333
-0.497666 -26.775917
-0.523606 -25.142514
-0.548917 -26.252693
-0.577732 -32.061998
-0.612822 -37.024921
-0.650370 -37.533411
-0.687558 -36.823604
-0.724577 -37.571513
-0.762665 -37.986996
-0.800351 -37.574927
-0.837854 -37.054681
-0.874668 -36.935380
-0.912074 -37.640065
-0.949493 -36.754105
-0.985958 -36.774712
-1.023402 -37.651530
-1.061051 -37.672067
-1.099521 -39.789495
-1.141112 -43.111955
-1.185147 -44.383777
-1.229154 -43.216972
-1.272077 -43.276874
-1.316392 -45.126490
-1.362266 -46.515220
-1.408646 -45.299669
-1.453520 -45.773387
-1.500848 -47.936375
-1.548279 -46.473860
-1.593884 -44.994621
-1.638552 -44.096381
-1.682046 -42.843311
-1.724948 -43.459442
-1.769204 -44.530139
-1.813626 -44.188163
-1.857933 -44.638042
-1.902627 -43.993819
-1.945677 -42.355776
-1.987808 -41.870661
-2.029366 -40.978093
-2.069716 -39.696004
-2.108869 -38.508004
-2.146752 -37.148594
-2.183167 -35.568370
-2.217893 -33.787670
-2.250768 -31.880726
-2.281625 -29.695878
-2.310334 -27.856920
-2.337462 -26.217760
-2.362608 -23.936627
-2.385330 -21.495518
-2.405667 -19.128006
-2.423579 -16.625233
-2.438867 -13.871246
-2.451535 -11.675608
-2.462241 -9.479311
-2.470294 -6.625757
-2.475541 -3.878135
-2.478068 -1.161424
-2.477862 1.569476
-2.474930 4.288458
-2.469330 6.845889
-2.461210 9.445629
-2.450501 11.802951
-2.437845 13.368173
-2.423641 15.221860
-2.407249 17.440658
-2.388819 19.378165
-2.368478 21.243762
-2.346320 23.017217
-2.322422 24.715412
-2.296870 26.323506
-2.269753 27.841631
-2.241161 29.268434
-2.211188 30.601843
-2.179924 31.850878
-2.147451 33.016867
-2.113850 34.107164
-2.079192 35.127004
-2.043550 36.073471
-2.006992 36.960784
-1.969574 37.787728
-1.931361 38.553375
-1.892408 39.266617
-1.852767 39.928501
-1.812486 40.544192
-1.771613 41.113347
-1.730190 41.643774
-1.688254 42.136244
-1.645848 42.586213
-1.603008 43.003041
-1.559766 43.387909
-1.516156 43.738803
-1.472210 44.062057
-1.427952 44.360309
-1.383409 44.632923
-1.338606 44.879300
-1.293569 45.102078
-1.248320 45.301125
-1.202885 45.472705
-1.157291 45.620974
-1.111560 45.744904
-1.065717 45.845430
-1.019784 45.926389
-0.973780 45.984648
-0.927730 46.019267
-0.881657 46.031922
-0.835580 46.026323
-0.789518 46.001437
-0.743493 45.953440
-0.697527 45.881687
-0.651645 45.789330
-0.605862 45.681799
-0.560195 45.558225
-0.514662 45.413212
-0.469284 45.247674
-0.424082 45.063537
-0.379072 44.864835
-0.334271 44.639991
-0.289702 44.418403
-0.245372 44.118456
-0.201356 43.879274
-0.157528 43.631577
-0.114269 42.594953
-0.072319 41.359321
-0.031257 40.753525
0.009452 40.694697
0.049881 39.638695
0.088455 37.524224
0.125106 35.713374
0.160344 35.071226
0.195532 35.068692
0.230059 33.589923
0.262693 31.854046
0.294005 30.641761
0.324251 30.068568
0.354277 29.718976
0.383303 28.033836
0.410425 26.419833
0.436448 25.561501
0.461197 23.499784
0.483161 20.440233
0.502321 17.985414
0.519199 15.623896
0.533772 13.780511
0.546926 12.349748
0.558372 10.544125
0.568142 9.059930
0.576550 7.695657
0.583399 5.881686
0.588414 4.335647
0.592233 3.252394
0.595027 2.473479
0.597092 1.414841
0.597791 0.150702
0.597741 -0.071616
0.597756 0.031712
0.597757 -0.009543
0.597755 0.001699
0.597756 0.000134
0.597755 -0.000278
0.597755 0.000151
0.597755 -0.000059
0.597755 0.000017
0.597755 -0.000004
0.597755 0.000000
0.597755 0.000000
0.597755 -0.000000
0.597755 0.000000
0.597755 -0.000000
0.597755 0.000000
0.597755 -0.000000
0.597755 -0.000000
0.597755 0.000000
0.597755 0.000000
0.597755 -0.000000
0.597755 0.000000
0.597755 -0.000000
0.597755 0.000000
0.597755 -0.000000
0.597755 -0.000001
0.597755 0.000008
0.597755 -0.000033
0.597755 0.000106
0.597755 -0.000267
0.597755 0.000495
0.597756 -0.000371
0.597754 -0.001688
0.597756 0.008524
0.597759 -0.017072
0.597653 -0.250251
0.597205 -0.644318
0.596437 -0.815602
0.595504 -1.189865
0.593836 -2.221089
0.591216 -2.776974
0.588527 -2.582465
0.586089 -2.259885
0.584005 -1.930479
0.582089 -2.004322
0.579962 -2.168020
0.577681 -2.535222
0.574933 -2.765015
0.572362 -2.347667
0.570243 -1.898967
0.568528 -1.546928
0.567075 -1.406775
0.565685 -1.346133
0.564448 -1.081517
0.563501 -0.872304
0.562658 -0.793822
0.561979 -0.513911
0.561655 -0.156881
0.561643 0.135060
0.561929 0.435978
0.562502 0.695436
0.563318 0.945243
0.564389 1.177156
0.565621 1.248455
0.566917 1.405422
0.568415 1.503648
0.569875 1.447586
0.571372 1.569257
0.573006 1.658630
0.574635 1.573365
0.576179 1.557037
0.577763 1.573153
0.579287 1.464387
0.580712 1.409504
0.582153 1.488557
0.583682 1.538010
0.585195 1.473712
0.586638 1.424225
0.588086 1.495986
0.589589 1.437139
0.590935 1.293225
0.592246 1.353233
0.593582 1.226085
0.594640 0.916481
0.595480 0.795693
0.596229 0.663444
0.596786 0.466170
0.597186 0.340406
0.597478 0.246608
0.597675 0.136310
0.597753 0.030159
0.597758 -0.006253
0.597754 -0.000489
0.597756 0.001149
0.597755 -0.000652
0.597755 0.000262
0.597755 -0.000083
0.597755 0.000019
0.597755 -0.000002
0.597755 -0.000001
0.597755 0.000001
0.597755 -0.000000
0.597755 0.000000
0.597755 -0.000000
0.597755 0.000000
0.597755 0.000000
0.597755 -0.000000
0.597755 0.000000
0.597755 -0.000000
0.597755 0.000000
0.597755 -0.000000
0.597755 -0.000000
0.597755 0.000000
0.597755 -0.000000
0.597755 0.000000
0.597755 -0.000000
0.597755 0.000000
0.597755 -0.000000
0.597755 0.000000
0.597755 -0.000000
0.597755 0.000000
0.597755 -0.000000
0.597755 0.000000
0.597755 -0.000000
0.597755 0.000000
0.597755 -0.000000
0.597755 0.000000
0.597755 -0.000000
0.597755 0.000000
0.597755 -0.000000
0.597755 0.000000
0.597755 -0.000000
0.597755 0.000000
0.597755 -0.000000
0.597755 0.000000
0.597755 -0.000000
0.597755 0.000000
0.597755 -0.000000
0.597755 0.000000
0.597755 -0.000000
0.597755 0.000000
0.597755 -0.000000
0.597755 0.000000
0.597755 -0.000000
0.597755 0.000000
0.597755 -0.000000
0.597755 0.000000
0.597755 -0.000000
0.597755 0.000000
0.597755 -0.000000
0.597755 0.000000
0.597755 -0.000000
0.597755 0.000000
0.597755 -0.000000
0.597755 0.000000
0.597755 -0.000000
0.597755 0.000000
0.597755 -0.000000
0.597755 0.000000
0.597755 -0.000000
0.597755 0.000000
0.597755 -0.000000
0.597755 0.000000
0.597755 -0.000000
0.597755 0.000000
0.597755 -0.000000
0.597755 0.000000
0.597755 -0.000000
0.597755 0.000000
0.597755 -0.000000
0.597755 0.000000
0.597755 -0.000000
0.597755 0.000000
0.597755 -0.000000
0.597755 0.000000
0.597755 -0.000000
0.597755 0.000000
0.597755 -0.000000
0.597755 0.000000
0.597755 -0.000000
0.597755 0.000000
0.597755 -0.000000
0.597755 0.000000
0.597755 -0.000000
0.597755 0.000000
0.597755 -0.000000
0.597755 0.000000
0.597755 -0.000000
0.597755 0.000000
0.597755 -0.000000
0.597755 0.000000
0.597755 -0.000000
0.597755 0.000000
0.597755 -0.000000
0.597755 0.000000
0.597755 -0.000000
0.597755 0.000000
0.597755 -0.000000
0.597755 0.000000
0.597755 -0.000000
0.597755 0.000000
0.597755 -0.000000
0.597755 0.000000
0.597755 -0.000000
0.597755 0.000000
0.597755 -0.000000
0.597755 0.000000
0.597755 -0.000000
0.597755 0.000000
0.597755 -0.000000
0.597755 0.000000
0.597755 -0.000000
0.597755 0.000000
0.597755 -0.000000
0.597755 0.000000
0.597755 -0.000000
0.597755 0.000000
0.597755 -0.000000
0.597755 0.000000
0.597755 -0.000000
0.597755 0.000000
0.597755 -0.000000
0.597755 0.000000
0.597755 -0.000000
0.597755 0.000000
0.597755 -0.000000
0.597755 0.000000
0.597755 -0.000000
0.597755 0.000000
0.597755 -0.000000
0.597755 0.000000
0.597755 -0.000000
0.597755 0.000000
0.597755 -0.000000
0.597755 0.000000
0.597755 -0.000000
0.597755 0.000000
0.597755 -0.000000
0.597755 0.000000
0.597755 -0.000000
0.597755 0.000000
0.597755 -0.000000
0.597755 0.000000
0.597755 -0.000000
0.597755 0.000000
0.597755 -0.000000
0.597755 0.000000
0.597755 -0.000000
0.597755 0.000000
0.597755 -0.000000
0.597755 0.000000
0.597755 -0.000000
0.597755 0.000000
0.597755 -0.000000
0.597755 0.000000
0.597755 -0.000000
0.597755 0.000000
0.597755 -0.000000
0.597755 0.000000
0.597755 -0.000000
0.597755 0.000000
0.597755 -0.000000
0.597755 0.000000
0.597755 -0.000000
0.597755 0.000000
0.597755 -0.000000
0.597755 0.000000
0.597755 -0.000000
0.597755 0.000000
0.597755 -0.000000
0.597755 0.000000
0.597755 -0.000000
0.597755 0.000000
0.597755 -0.000000
0.597755 0.000000
0.597755 -0.000000
0.597755 0.000000
0.597755 -0.000000
0.597755 0.000000
0.597755 -0.000000
0.597755 0.000000
