-0.021796 0.053263 0.114018
0.398126 -0.000000
0.398126 0.000000
0.398126 -0.000000
0.398126 0.000000
0.398126 -0.000000
0.398126 0.000000
0.398126 -0.000000
0.398126 0.000000
0.398126 -0.000000
0.398126 0.000000
0.398126 -0.000000
0.398126 0.000000
0.398126 -0.000000
0.398126 0.000000
0.398126 -0.000000
0.398126 0.000000
0.398126 -0.000000
0.398126 0.000000
0.398126 -0.000000
0.398126 0.000000
0.398126 -0.000000
0.398126 0.000000
0.398126 0.000000
0.398126 -0.000000
0.398126 0.000000
0.398126 -0.000000
0.398126 0.000000
0.398126 -0.000000
0.398126 0.000000
0.398126 -0.000000
0.398126 0.000000
0.398126 0.000000
0.398126 -0.000000
0.398126 0.000000
0.398126 -0.000000
0.398126 0.000000
0.398126 -0.000001
0.398126 0.000001
0.398126 -0.000002
0.398126 -0.000002
0.398126 0.000032
0.398126 -0.000163
0.398126 0.000637
0.398127 -0.002094
0.398126 0.005915
0.398129 -0.013644
0.398116 0.019689
0.398160 0.027700
0.398005 -0.465057
0.397111 -1.311484
0.395596 -1.507127
0.394219 -1.326746
0.392876 -1.339304
0.391551 -1.312991
0.390239 -1.311435
0.388922 -1.320450
0.387593 -1.336817
0.386244 -1.359013
0.384871 -1.384035
0.383472 -1.410789
0.382047 -1.437649
0.380594 -1.463380
0.379117 -1.488792
0.377616 -1.507652
0.376095 -1.538909
0.374549 -1.528620
0.372995 -1.634786
0.371007 -2.547969
0.367982 -3.198095
0.364884 -3.009317
0.361902 -2.987532
0.358893 -2.997695
0.355918 -2.955188
0.352969 -2.933207
0.350049 -2.901936
0.347160 -2.871171
0.344302 -2.837679
0.341479 -2.803713
0.338687 -2.773541
0.335943 -2.692138
0.333232 -2.806341
0.330071 -3.682384
0.325624 -5.264947
0.319561 -6.755605
0.312452 -7.191377
0.305291 -7.247023
0.298216 -6.483589
0.291002 -9.642839
0.278191 -14.961551
0.262008 -17.404567
0.243203 -20.280174
0.221643 -22.447610
0.198767 -23.103553
0.174981 -24.984994
0.147575 -30.378667
0.112271 -41.443578
0.063848 -54.776872
0.003802 -64.528554
-0.064035 -70.375176
-0.137579 -77.689800
-0.219554 -84.954470
-0.308379 -94.380666
-0.407984 -102.246327
-0.510877 -103.521350
-0.615327 -105.075721
-0.721322 -106.879035
-0.829365 -108.880625
-0.938443 -108.309703
-1.046351 -108.186747
-1.155553 -109.623312
-1.265705 -110.723772
-1.376824 -110.630480
-1.485987 -106.941782
-1.590453 -101.846545
-1.689647 -96.041062
-1.782327 -89.035683
-1.867693 -81.418273
-1.945281 -73.663929
-2.015169 -65.912174
-2.077173 -57.968231
-2.131267 -50.162061
-2.177683 -42.613316
-2.216665 -35.320625
-2.248494 -28.323083
-2.273470 -21.633553
-2.291911 -15.264231
-2.304133 -9.206390
-2.310443 -3.451657
-2.311140 2.013095
-2.306500 7.215931
-2.296772 12.184724
-2.282185 16.917661
-2.262990 21.391003
-2.239445 25.609655
-2.211799 29.587851
-2.180292 33.321676
-2.145172 36.807798
-2.106683 40.052832
-2.065061 43.072811
-2.020524 45.874858
-1.973299 48.439405
-1.923626 50.772512
-1.871720 52.901845
-1.817785 54.824757
-1.762027 56.549083
-1.704627 58.111530
-1.645737 59.524913
-1.585514 60.772727
-1.524126 61.854791
-1.461732 62.782351
-1.398484 63.563311
-1.334522 64.212050
-1.269969 64.747913
-1.204932 65.177876
-1.139523 65.488201
-1.073866 65.674889
-1.008080 65.746724
-0.942277 65.710846
-0.876559 65.577705
-0.811017 65.363585
-0.745727 65.070611
-0.680782 64.669323
-0.616300 64.146602
-0.552329 63.717036
-0.489088 62.237592
-0.427870 60.336398
-0.368031 59.224413
-0.309411 57.786534
-0.252757 55.105858
-0.199114 52.349428
-0.147519 50.895116
-0.097627 48.227061
-0.051317 44.515319
-0.007837 42.812087
0.033529 38.519107
0.068839 32.909630
0.100356 30.123161
0.128802 26.306157
0.153486 23.881896
0.177266 23.413194
0.200072 22.083279
0.221116 19.674072
0.239244 16.619993
0.254934 15.198625
0.269793 14.141845
0.283088 12.609401
0.295239 11.679986
0.306463 10.726529
0.316586 9.391725
0.325382 8.407694
0.333526 7.746751
0.340967 7.312751
0.348266 7.179295
0.354906 5.744568
0.359831 4.501503
0.364404 4.717032
0.369023 4.179586
0.372519 2.882554
0.374982 2.149525
0.377044 2.083159
0.379198 2.151326
0.381309 2.091550
0.383401 2.080740
0.385471 2.060306
0.387510 1.993223
0.389499 2.037652
0.391513 1.853499
0.393102 1.347697
0.394307 1.126801
0.395429 1.117344
0.396577 1.208948
0.397684 0.805189
0.398102 0.138811
0.398132 -0.017067
0.398125 0.000017
0.398126 0.001158
0.398127 -0.000360
0.398126 -0.000034
0.398126 0.000084
0.398126 -0.000047
0.398126 0.000017
0.398126 -0.000003
0.398126 -0.000000
0.398126 0.000001
0.398126 -0.000000
0.398126 0.000000
0.398126 -0.000000
0.398126 -0.000000
0.398126 0.000000
0.398126 -0.000000
0.398126 0.000000
0.398126 0.000000
0.398126 -0.000000
0.398126 0.000000
0.398126 -0.000000
0.398126 0.000000
0.398126 0.000000
0.398126 -0.000000
0.398126 0.000000
0.398126 -0.000000
0.398126 -0.000000
0.398126 0.000000
0.398126 -0.000000
0.398126 0.000000
0.398126 -0.000000
0.398126 0.000000
0.398126 -0.000000
0.398126 0.000000
0.398126 -0.000000
0.398126 0.000000
0.398126 -0.000000
0.398126 0.000000
0.398126 -0.000000
0.398126 0.000000
0.398126 -0.000000
0.398126 0.000000
0.398126 -0.000000
0.398126 0.000000
0.398126 -0.000000
0.398126 0.000000
0.398126 -0.000000
0.398126 0.000000
0.398126 -0.000000
0.398126 0.000000
0.398126 -0.000000
0.398126 0.000000
0.398126 -0.000000
0.398126 0.000000
0.398126 -0.000000
0.398126 0.000000
0.398126 -0.000000
0.398126 0.000000
0.398126 -0.000000
0.398126 0.000000
0.398126 -0.000000
0.398126 0.000000
0.398126 -0.000000
0.398126 0.000000
0.398126 -0.000000
0.398126 0.000000
0.398126 -0.000000
0.398126 0.000000
0.398126 -0.000000
0.398126 0.000000
0.398126 -0.000000
0.398126 0.000000
0.398126 -0.000000
0.398126 0.000000
0.398126 -0.000000
0.398126 0.000000
0.398126 -0.000000
0.398126 0.000000
0.398126 -0.000000
0.398126 0.000000
0.398126 -0.000000
0.398126 0.000000
0.398126 -0.000000
0.398126 0.000000
0.398126 -0.000000
0.398126 0.000000
0.398126 -0.000000
0.398126 0.000000
0.398126 -0.000000
0.398126 0.000000
0.398126 -0.000000
0.398126 0.000000
0.398126 -0.000000
0.398126 0.000000
0.398126 -0.000000
0.398126 0.000000
0.398126 -0.000000
0.398126 0.000000
0.398126 -0.000000
0.398126 0.000000
0.398126 -0.000000
0.398126 0.000000
0.398126 -0.000000
0.398126 0.000000
0.398126 -0.000000
0.398126 0.000000
0.398126 -0.000000
0.398126 0.000000
0.398126 -0.000000
0.398126 0.000000
0.398126 -0.000000
0.398126 0.000000
0.398126 -0.000000
0.398126 0.000000
0.398126 -0.000000
0.398126 0.000000
0.398126 -0.000000
0.398126 0.000000
0.398126 -0.000000
0.398126 0.000000
0.398126 -0.000000
0.398126 0.000000
0.398126 -0.000000
0.398126 0.000000
0.398126 -0.000000
0.398126 -0.000000
0.398126 0.000000
0.398126 -0.000000
0.398126 0.000000
0.398126 -0.000000
0.398126 0.000000
0.398126 -0.000000
0.398126 0.000000
0.398126 -0.000000
0.398126 0.000000
0.398126 -0.000000
0.398126 0.000000
0.398126 -0.000000
0.398126 0.000000
0.398126 -0.000000
0.398126 0.000000
0.398126 -0.000000
0.398126 0.000000
0.398126 -0.000000
0.398126 0.000000
0.398126 -0.000000
0.398126 0.000000
0.398126 -0.000000
0.398126 0.000000
0.398126 -0.000000
0.398126 0.000000
0.398126 -0.000000
0.398126 0.000000
0.398126 -0.000000
0.398126 0.000000
0.398126 -0.000000
0.398126 0.000000
0.398126 -0.000000
0.398126 0.000000
0.398126 -0.000000
0.398126 0.000000
0.398126 -0.000000
0.398126 0.000000
0.398126 -0.000000
0.398126 0.000000
0.398126 -0.000000
0.398126 0.000000
0.398126 -0.000000
0.398126 0.000000
0.398126 -0.000000
0.398126 0.000000
0.398126 -0.000000
0.398126 0.000000
0.398126 -0.000000
0.398126 0.000000
0.398126 -0.000000
0.398126 0.000000
0.398126 -0.000000
0.398126 0.000000
0.398126 -0.000000
0.398126 0.000000
0.398126 -0.000000
0.398126 0.000000
0.398126 -0.000000
0.398126 0.000000
0.398126 -0.000000
0.398126 0.000000
0.398126 -0.000000
0.398126 0.000000
0.398126 -0.000000
0.398126 0.000000
0.398126 -0.000000
0.398126 0.000000
0.398126 -0.000000
0.398126 0.000000
0.398126 -0.000000
0.398126 0.000000
0.398126 -0.000000
0.398126 0.000000
0.398126 -0.000000
0.398126 0.000000
0.398126 -0.000000
0.398126 0.000000
0.398126 -0.000000
0.398126 0.000000
0.398126 -0.000000
0.398126 0.000000
0.398126 -0.000000
0.398126 0.000000
0.398126 -0.000000
0.398126 0.000000
0.398126 -0.000000
0.398126 0.000000
0.398126 -0.000000
0.398126 0.000000
0.398126 -0.000000
0.398126 0.000000
0.398126 -0.000000
0.398126 0.000000
0.398126 -0.000000
0.398126 0.000000
0.398126 -0.000000
0.398126 0.000000
0.398126 0.000000
0.398126 -0.000000
0.398126 0.000000
0.398126 -0.000000
0.398126 0.000000
0.398126 0.000000
0.398126 -0.000000
0.398126 0.000000
0.398126 -0.000000
0.398126 -0.000000
0.398126 0.000000
0.398126 -0.000000
0.398126 0.000000
0.398126 -0.000000
0.398126 -0.000000
0.398126 0.000000
0.398126 -0.000001
0.398126 0.000001
0.398126 0.000001
0.398126 -0.000014
0.398126 0.000048
0.398126 -0.000095
0.398126 0.000028
0.398127 0.000658
0.398126 -0.003094
0.398126 0.008345
0.398132 -0.013255
0.398110 -0.003452
0.398156 0.100197
0.398136 -0.318191
0.397414 -1.052743
0.396174 -1.351454
0.394815 -1.330900
0.393519 -1.282099
0.392233 -1.278285
0.390967 -1.253034
0.389723 -1.233218
0.388498 -1.213151
0.387294 -1.192585
0.386110 -1.172522
0.384947 -1.152254
0.383803 -1.131798
0.382681 -1.110842
0.381580 -1.089192
0.380500 -1.067302
0.379443 -1.045318
0.378408 -1.022668
0.377396 -0.999513
0.376407 -0.976348
0.375441 -0.953176
0.374499 -0.929959
0.373579 -0.906899
0.372683 -0.884217
0.371809 -0.862065
0.370957 -0.840577
0.370126 -0.819869
0.369315 -0.800366
0.368523 -0.781767
0.367750 -0.763910
0.366993 -0.747617
0.366252 -0.733278
0.365525 -0.720765
0.364809 -0.709822
0.364103 -0.699629
0.363408 -0.688899
0.362724 -0.677654
0.362052 -0.666332
0.361390 -0.655270
0.360740 -0.645040
0.360099 -0.635429
0.359467 -0.626180
0.358845 -0.617027
0.358232 -0.608023
0.357628 -0.599709
0.357031 -0.592413
0.356442 -0.583089
0.355863 -0.577144
0.355286 -0.574461
0.354722 -0.542528
0.354206 -0.492851
0.353732 -0.454470
0.353294 -0.420750
0.352888 -0.391746
0.352507 -0.370216
0.352145 -0.353865
0.351798 -0.339035
0.351465 -0.328075
0.351145 -0.307430
0.350836 -0.327548
0.350522 -0.249399
0.350290 -0.311856
0.349350 -2.015924
0.345967 -4.579489
0.340751 -5.435742
0.335721 -4.386296
0.331264 -5.453028
0.323694 -9.845925
0.311986 -12.940452
0.298047 -15.255294
0.281726 -16.726485
0.264147 -19.436589
0.242019 -24.528818
0.215245 -29.006874
0.183807 -33.905402
0.147507 -38.384056
0.106596 -43.959036
0.059822 -48.569850
0.009944 -51.427647
-0.043324 -54.849361
-0.100992 -61.650264
-0.166835 -68.710694
-0.237825 -73.594138
-0.313964 -77.858826
-0.393211 -80.662835
-0.475867 -84.713451
-0.563158 -89.816630
-0.656280 -96.718684
-0.756805 -103.668081
-0.862137 -105.563160
-0.967591 -105.805185
-1.075468 -110.569270
-1.189369 -116.585537
-1.307793 -119.364010
-1.428105 -121.450580
-1.551685 -125.778612
-1.679244 -128.097158
-1.807252 -127.769184
-1.934605 -126.144855
-2.060090 -125.404720
-2.185316 -123.617338
-2.306739 -119.333519
-2.424258 -115.157677
-2.537209 -110.755897
-2.646120 -106.737355
-2.750771 -102.337736
-2.850983 -97.887306
-2.946532 -92.810818
-3.037028 -88.444739
-3.123517 -83.834289
-3.204384 -77.786032
-3.279261 -71.784994
-3.348041 -65.613587
-3.410586 -59.342377
-3.466829 -53.025404
-3.516727 -46.659707
-3.560227 -40.247714
-3.597294 -33.809455
-3.627938 -27.444370
-3.652255 -21.130202
-3.670330 -15.085326
-3.682794 -10.055096
-3.690553 -5.301100
-3.693146 0.236079
-3.690088 5.749269
-3.681745 10.934439
-3.668225 16.037963
-3.649706 20.934949
-3.626362 25.685661
-3.598329 30.298403
-3.565758 34.750838
-3.528816 39.027821
-3.487686 43.117475
-3.442564 47.000495
-3.393665 50.662719
-3.341208 54.112539
-3.285397 57.365575
-3.226429 60.417331
-3.164510 63.263912
-3.099837 65.923095
-3.032590 68.407339
-2.962948 70.705011
-2.891099 72.820792
-2.817215 74.772723
-2.741462 76.551201
-2.664016 78.160944
-2.585034 79.619770
-2.504668 80.926019
-2.423068 82.089287
-2.340368 83.122842
-2.256699 84.025641
-2.172189 84.808324
-2.086950 85.479308
-2.001094 86.045485
-1.914719 86.516174
-1.827921 86.890951
-1.740791 87.182535
-1.653408 87.393887
-1.565857 87.519307
-1.478229 87.539055
-1.390639 87.452911
-1.303175 87.285717
-1.215919 87.037588
-1.128955 86.701956
-1.042376 86.263879
-0.956287 85.727718
-0.870774 85.117808
-0.785966 84.252576
-0.701948 83.843372
-0.618647 81.831922
-0.539021 77.119484
-0.463808 73.742146
-0.390638 72.617093
-0.318907 70.056360
-0.251126 65.275284
-0.188281 60.330475
-0.130011 56.382563
-0.076485 49.188992
-0.031266 42.799811
0.011065 41.999303
0.052150 39.201285
0.088264 32.562624
0.118006 27.918908
0.144956 25.667367
0.169048 22.384845
0.190240 20.508390
0.209688 17.379715
0.224703 13.259173
0.236847 10.977891
0.246857 9.225507
0.255792 8.899730
0.264776 8.879458
0.273265 7.949421
0.280839 7.461952
0.288374 7.484470
0.295820 7.499677
0.303282 7.196975
0.309938 6.021763
0.315456 5.200957
0.320309 4.257049
0.324102 3.681565
0.327939 3.883587
0.331691 3.528301
0.334844 2.697045
0.337228 2.279577
0.339579 2.377897
0.341945 2.343970
0.344280 2.334425
0.346610 2.300492
0.348898 2.303445
0.351230 2.331097
0.353391 1.837550
0.354833 1.118254
0.355805 0.924481
0.356770 0.987162
0.357761 0.989524
0.358751 0.993531
0.359752 1.003653
0.360759 1.008326
0.361772 1.014773
0.362790 1.020062
0.363814 1.024980
0.364842 1.028946
0.365874 1.032538
0.366909 1.035817
0.367947 1.038407
0.368987 1.040375
0.370030 1.041919
0.371073 1.043128
0.372118 1.043659
0.373163 1.044370
0.374209 1.045700
0.375256 1.046629
0.376304 1.046917
0.377352 1.046553
0.378399 1.046015
0.379446 1.045432
0.380492 1.044560
0.381537 1.043737
0.382582 1.043016
0.383625 1.042100
0.384668 1.040890
0.385709 1.039574
0.386749 1.038131
0.387787 1.035195
0.388821 1.030112
0.389849 1.023350
0.390869 1.014982
0.391881 1.006364
0.392882 0.994046
0.393872 0.984561
0.394852 0.969926
0.395809 0.940983
0.396768 1.008017
0.397705 0.711846
0.398104 0.150814
0.398136 -0.023604
0.398123 -0.001452
0.398128 0.003364
0.398126 -0.001872
0.398127 0.000779
0.398126 -0.000277
0.398126 0.000087
0.398126 -0.000024
0.398126 0.000005
0.398126 -0.000001
0.398126 -0.000000
0.398126 0.000000
0.398126 -0.000000
0.398126 0.000000
0.398126 -0.000000
0.398126 0.000000
0.398126 -0.000000
0.398126 0.000000
0.398126 -0.000000
0.398126 -0.000000
0.398126 0.000000
0.398126 -0.000000
0.398126 0.000000
0.398126 -0.000000
0.398126 0.000000
0.398126 -0.000000
0.398126 0.000000
0.398126 -0.000000
0.398126 0.000000
0.398126 -0.000000
0.398126 0.000000
0.398126 -0.000000
0.398126 0.000000
0.398126 -0.000000
0.398126 0.000000
0.398126 -0.000000
0.398126 0.000000
0.398126 -0.000000
0.398126 0.000000
0.398126 -0.000000
0.398126 0.000000
0.398126 -0.000000
0.398126 0.000000
0.398126 -0.000000
0.398126 0.000000
0.398126 -0.000000
0.398126 0.000000
0.398126 -0.000000
0.398126 0.000000
0.398126 -0.000000
0.398126 0.000000
0.398126 -0.000000
0.398126 0.000000
0.398126 -0.000000
0.398126 0.000000
0.398126 -0.000000
0.398126 0.000000
0.398126 -0.000000
0.398126 0.000000
0.398126 -0.000000
0.398126 0.000000
0.398126 -0.000000
0.398126 0.000000
0.398126 -0.000000
0.398126 0.000000
0.398126 -0.000000
0.398126 0.000000
0.398126 -0.000000
0.398126 0.000000
0.398126 -0.000000
0.398126 0.000000
0.398126 -0.000000
0.398126 0.000000
0.398126 -0.000000
0.398126 0.000000
0.398126 -0.000000
0.398126 0.000000
0.398126 -0.000000
0.398126 0.000000
0.398126 -0.000000
0.398126 0.000000
0.398126 -0.000000
0.398126 0.000000
0.398126 -0.000000
0.398126 0.000000
0.398126 -0.000000
0.398126 0.000000
0.398126 -0.000000
0.398126 0.000000
0.398126 -0.000000
0.398126 0.000000
0.398126 -0.000000
0.398126 0.000000
0.398126 -0.000000
0.398126 0.000000
0.398126 -0.000000
0.398126 0.000000
0.398126 -0.000000
0.398126 0.000000
0.398126 -0.000000
0.398126 0.000000
0.398126 -0.000000
0.398126 0.000000
0.398126 -0.000000
0.398126 0.000000
0.398126 -0.000000
0.398126 0.000000
0.398126 -0.000000
0.398126 0.000000
0.398126 -0.000000
0.398126 0.000000
0.398126 -0.000000
0.398126 0.000000
0.398126 -0.000000
0.398126 0.000000
0.398126 -0.000000
0.398126 0.000000
0.398126 -0.000000
0.398126 0.000000
0.398126 -0.000000
0.398126 0.000000
0.398126 -0.000000
0.398126 0.000000
0.398126 -0.000000
0.398126 0.000000
0.398126 -0.000000
0.398126 0.000000
0.398126 -0.000000
0.398126 0.000000
0.398126 -0.000000
0.398126 0.000000
0.398126 -0.000000
0.398126 0.000000
0.398126 -0.000000
0.398126 0.000000
0.398126 -0.000000
0.398126 0.000000
0.398126 -0.000000
0.398126 0.000000
0.398126 -0.000000
0.398126 0.000000
0.398126 -0.000000
0.398126 0.000000
0.398126 -0.000000
0.398126 0.000000
0.398126 -0.000000
0.398126 0.000000
0.398126 -0.000000
0.398126 0.000000
0.398126 -0.000000
0.398126 0.000000
0.398126 -0.000000
0.398126 0.000000
0.398126 -0.000000
0.398126 0.000000
0.398126 -0.000000
0.398126 0.000000
0.398126 -0.000000
0.398126 0.000000
0.398126 -0.000000
0.398126 0.000000
0.398126 -0.000000
0.398126 0.000000
0.398126 -0.000000
0.398126 0.000000
0.398126 -0.000000
0.398126 0.000000
0.398126 -0.000000
0.398126 0.000000
0.398126 -0.000000
0.398126 0.000000
0.398126 -0.000000
0.398126 0.000000
0.398126 -0.000000
0.398126 0.000000
0.398126 -0.000000
0.398126 0.000000
0.398126 -0.000000
0.398126 0.000000
0.398126 -0.000000
0.398126 0.000000
0.398126 -0.000000
0.398126 0.000000
0.398126 -0.000000
0.398126 0.000000
0.398126 -0.000000
0.398126 0.000000
0.398126 -0.000000
0.398126 0.000000
0.398126 -0.000000
0.398126 0.000000
0.398126 -0.000000
0.398126 0.000000
0.398126 -0.000000
0.398126 0.000000
0.398126 -0.000000
0.398126 0.000000
0.398126 -0.000000
0.398126 0.000000
0.398126 -0.000000
0.398126 0.000000
0.398126 -0.000000
0.398126 0.000000
0.398126 -0.000000
0.398126 0.000000
0.398126 -0.000000
0.398126 0.000000
0.398126 -0.000000
0.398126 0.000000
0.398126 -0.000000
0.398126 0.000000
0.398126 -0.000000
0.398126 0.000000
0.398126 -0.000000
0.398126 0.000000
0.398126 -0.000000
0.398126 0.000000
0.398126 -0.000000
0.398126 0.000000
0.398126 -0.000000
0.398126 0.000000
0.398126 -0.000000
0.398126 0.000000
0.398126 -0.000000
0.398126 0.000000
0.398126 -0.000000
0.398126 0.000000
0.398126 -0.000000
0.398126 0.000000
0.398126 -0.000000
0.398126 0.000000
0.398126 -0.000000
0.398126 0.000000
0.398126 -0.000000
0.398126 0.000000
0.398126 -0.000000
0.398126 0.000000
0.398126 -0.000000
0.398126 0.000000
0.398126 -0.000000
0.398126 0.000000
0.398126 -0.000000
0.398126 0.000000
0.398126 -0.000000
0.398126 0.000000
0.398126 -0.000000
0.398126 0.000000
0.398126 -0.000000
0.398126 0.000000
0.398126 -0.000000
0.398126 0.000000
0.398126 -0.000000
0.398126 0.000000
0.398126 -0.000000
0.398126 0.000000
0.398126 -0.000000
0.398126 0.000000
0.398126 -0.000000
0.398126 0.000000
0.398126 -0.000000
0.398126 0.000000
0.398126 -0.000000
0.398126 0.000000
0.398126 -0.000000
0.398126 0.000000
0.398126 -0.000000
0.398126 0.000000
0.398126 -0.000000
0.398126 0.000000
0.398126 -0.000000
0.398126 0.000000
0.398126 -0.000000
0.398126 0.000000
0.398126 -0.000000
0.398126 0.000000
0.398126 -0.000000
0.398126 0.000000
0.398126 -0.000000
