0.013977 0.022058 0.151378
-0.497098 -3.037570
-0.499629 -2.080809
-0.501386 -1.492588
-0.502693 -1.132119
-0.503678 -0.848118
-0.504411 -0.624124
-0.504933 -0.415245
-0.505279 -0.318667
-0.505492 0.015531
-0.505777 -1.235604
-0.502467 13.990410
-0.463782 71.133510
-0.352001 152.422455
-0.165532 213.031233
0.070534 261.791216
0.345900 272.565523
0.592892 213.453231
0.780844 177.149233
0.958341 173.201793
1.124863 161.070508
1.282990 155.488840
1.437695 154.529870
1.593769 157.794627
1.754539 163.874316
1.922265 171.211194
2.096631 176.530630
2.274823 179.281986
2.455217 181.022369
2.636964 181.967035
2.819147 181.807619
3.000766 181.115607
3.182879 183.834325
3.367867 183.748003
3.548734 177.643089
3.725816 178.452782
3.905701 178.374278
4.080008 169.564555
4.244527 158.829884
4.397158 145.614349
4.535126 129.637215
4.655807 111.008029
4.756369 89.397269
4.833756 64.716832
4.884983 37.189534
4.907419 7.291654
4.899009 -24.319323
4.858490 -56.655130
4.785622 -88.880274
4.681327 -118.779514
4.547940 -148.334095
4.388403 -165.776431
4.223559 -160.730107
4.069211 -147.923283
3.927595 -134.582345
3.800215 -119.926628
3.687528 -105.190894
3.588797 -92.929793
3.499333 -87.109300
3.412943 -85.670019
3.327837 -84.186637
3.244544 -82.274789
3.163242 -80.005619
3.084712 -76.717766
3.010017 -72.336015
2.940226 -66.963905
2.876192 -60.882768
2.818467 -54.416822
2.767230 -48.008874
2.722133 -42.260102
2.682276 -37.558744
2.646595 -33.893344
2.614137 -31.078902
2.584159 -28.910626
2.556092 -27.240476
2.529485 -25.986834
2.503942 -25.106624
2.479120 -24.529004
2.454756 -24.185971
2.430628 -24.057830
2.406523 -24.138876
2.382235 -24.419515
2.357590 -24.835630
2.332455 -25.428808
2.306600 -26.265113
2.279795 -27.333397
2.251813 -28.598550
2.222481 -30.041996
2.191596 -31.702036
2.158949 -33.554968
2.124366 -35.567975
2.087702 -37.702180
2.048849 -39.947237
2.007688 -42.309433
1.964113 -44.770337
1.918068 -47.201327
1.869662 -49.493768
1.819016 -51.680760
1.766275 -53.632759
1.711749 -55.267249
1.655704 -56.680155
1.598347 -57.878339
1.539908 -58.846475
1.480612 -59.588389
1.420686 -60.106991
1.360349 -60.412372
1.299808 -60.515194
1.239261 -60.427090
1.178891 -60.165433
1.118866 -59.734235
1.059359 -59.134130
1.000541 -58.350077
0.942695 -57.108458
0.886428 -55.213159
0.832354 -52.732428
0.781123 -49.455541
0.733580 -45.468684
0.690115 -41.422269
0.650507 -37.812345
0.614195 -34.858185
0.580482 -32.621392
0.548660 -31.066297
0.518089 -30.103795
0.488231 -29.624836
0.458656 -29.517622
0.429048 -29.674022
0.399193 -29.996522
0.368963 -30.414311
0.338292 -30.868375
0.307166 -31.320468
0.275619 -31.681252
0.243827 -31.780308
0.212132 -31.465927
0.181029 -30.561205
0.151117 -29.151045
0.122661 -27.763976
0.095334 -26.974746
0.068416 -26.907798
0.041296 -27.348233
0.013569 -28.076835
-0.014928 -28.846490
-0.044125 -29.445251
-0.073769 -29.717590
-0.103480 -29.572299
-0.132860 -29.090829
-0.161944 -29.281311
-0.184405 -8.263239
-0.167817 44.732055
-0.097746 89.052510
0.000475 103.429792
0.104530 103.448871
0.205963 98.622865
0.301176 91.407417
0.388675 83.335893
0.467964 75.112698
0.539163 67.225511
0.596426 40.985505
0.616977 2.041419
0.604712 -24.317858
0.569447 -47.216819
0.510464 -69.275128
0.434515 -80.076352
0.354148 -78.900718
0.278653 -71.436778
0.211642 -62.440336
0.153435 -54.082454
0.102858 -47.255263
0.058302 -42.007744
0.018300 -38.134745
-0.018446 -35.468303
-0.053032 -33.775103
-0.086245 -32.625916
-0.118497 -31.917950
-0.149994 -30.758616
-0.179548 -28.018260
-0.206101 -25.319856
-0.229281 -19.751805
-0.244117 -9.605222
-0.248228 1.388960
-0.242659 8.417652
-0.234857 5.012892
-0.234322 -3.483891
-0.241420 -10.746158
-0.255115 -15.848800
-0.273220 -21.166060
-0.297238 -25.727036
-0.323152 -25.571721
-0.347630 -23.011394
-0.369009 -19.815815
-0.387442 -17.042265
-0.403248 -14.627609
-0.416888 -12.696362
-0.428766 -11.063964
-0.439185 -9.871459
-0.448583 -8.842941
-0.456913 -7.887640
-0.464335 -6.814304
-0.470397 -5.266688
-0.474931 -3.876181
-0.478330 -3.005878
-0.480704 -1.401035
-0.481010 0.579992
-0.479885 1.533996
-0.478326 1.328148
-0.477121 1.437820
-0.475133 2.488200
-0.472582 2.213692
-0.471224 0.371452
-0.471712 -1.092148
-0.473084 -1.575011
-0.474779 -1.800684
-0.476648 -1.905266
-0.478530 -1.819631
-0.480252 -1.616808
-0.481754 -1.376832
-0.483008 -1.135858
-0.484048 -0.953052
-0.484937 -0.833619
-0.485731 -0.756820
-0.486462 -0.708946
-0.487158 -0.683637
-0.487834 -0.669566
-0.488499 -0.658697
-0.489152 -0.645711
-0.489791 -0.630644
-0.490413 -0.608312
-0.490993 -0.539084
-0.491473 -0.412535
-0.491820 -0.287964
-0.492065 -0.210209
-0.492253 -0.167825
-0.492400 -0.121611
-0.492497 -0.078319
-0.492565 -0.059583
-0.492620 -0.052450
-0.492671 -0.048828
-0.492719 -0.046864
-0.492765 -0.045129
-0.492809 -0.043389
-0.492851 -0.041216
-0.492891 -0.038801
-0.492929 -0.036226
-0.492964 -0.032932
-0.492995 -0.029473
-0.493023 -0.026476
-0.493048 -0.024165
-0.493071 -0.022249
-0.493093 -0.021269
-0.493114 -0.021631
-0.493137 -0.023302
-0.493161 -0.026333
-0.493190 -0.030193
-0.493222 -0.034721
-0.493259 -0.039903
-0.493302 -0.045308
-0.493350 -0.050882
-0.493404 -0.056490
-0.493463 -0.062003
-0.493528 -0.067364
-0.493598 -0.072830
-0.493674 -0.078354
-0.493755 -0.083778
-0.493842 -0.089100
-0.493933 -0.094165
-0.494030 -0.099055
-0.494131 -0.103527
-0.494237 -0.107772
-0.494347 -0.111734
-0.494461 -0.115433
-0.494578 -0.118999
-0.494699 -0.122379
-0.494823 -0.125542
-0.494950 -0.128600
-0.495080 -0.131570
-0.495214 -0.134299
-0.495349 -0.136957
-0.495488 -0.139517
-0.495629 -0.141889
-0.495772 -0.144256
-0.495917 -0.146577
-0.496065 -0.148804
-0.496215 -0.151033
-0.496368 -0.153249
-0.496522 -0.155440
-0.496679 -0.157443
-0.496837 -0.159263
-0.496998 -0.161094
-0.497160 -0.162788
-0.497323 -0.164576
-0.497489 -0.166285
-0.497656 -0.167910
-0.497825 -0.169653
-0.497996 -0.171295
-0.498168 -0.172957
-0.498342 -0.174527
-0.498518 -0.176047
-0.498695 -0.177662
-0.498873 -0.179156
-0.499053 -0.180636
-0.499235 -0.182106
-0.499418 -0.183560
-0.499602 -0.184954
-0.499788 -0.186320
-0.499975 -0.187826
-0.500164 -0.189205
-0.500354 -0.190494
-0.500546 -0.191773
-0.500738 -0.192896
-0.500932 -0.193998
-0.501126 -0.195104
-0.501322 -0.196057
-0.501519 -0.197214
-0.501717 -0.197819
-0.501916 -0.200435
-0.502115 -0.194677
-0.502316 -0.219360
-0.502507 -0.102596
-0.502637 -0.334567
-0.502794 0.581965
-0.500988 2.950822
-0.497132 4.583117
-0.491499 7.153712
-0.472081 41.879149
-0.401682 94.511412
-0.297317 103.843920
-0.212310 57.660099
-0.183263 7.336549
-0.187338 -12.164938
-0.204798 -23.219526
-0.233465 -33.197448
-0.269593 -38.180317
-0.308351 -38.514754
-0.345668 -35.756284
-0.379742 -32.419123
-0.410257 -28.142313
-0.436173 -24.135365
-0.458690 -20.469693
-0.476743 -15.573658
-0.489602 -9.877875
-0.496860 -5.207891
-0.500839 -2.969433
-0.503210 -1.945033
-0.504944 -1.551151
-0.506370 -1.320161
-0.507599 -1.126870
-0.508607 -0.877167
-0.509343 -0.591235
-0.509819 -0.388334
-0.510148 -0.266651
-0.510368 -0.190750
-0.510549 -0.171206
-0.510713 -0.160115
-0.510872 -0.157582
-0.511030 -0.157658
-0.511188 -0.159693
-0.511350 -0.162812
-0.511514 -0.166605
-0.511683 -0.170819
-0.511856 -0.175060
-0.512034 -0.179222
-0.512215 -0.183110
-0.512400 -0.186590
-0.512589 -0.189574
-0.512780 -0.192001
-0.512973 -0.194024
-0.513168 -0.195483
-0.513364 -0.196354
-0.513561 -0.196908
-0.513758 -0.197137
-0.513955 -0.196984
-0.514152 -0.196571
-0.514349 -0.195924
-0.514545 -0.195129
-0.514739 -0.194141
-0.514933 -0.193036
-0.515126 -0.191829
-0.515317 -0.190564
-0.515507 -0.189341
-0.515696 -0.187857
-0.515883 -0.185288
-0.516067 -0.182311
-0.516248 -0.180252
-0.516428 -0.178634
-0.516606 -0.177111
-0.516783 -0.175764
-0.516958 -0.174569
-0.517132 -0.173616
-0.517306 -0.172731
-0.517478 -0.171689
-0.517649 -0.170641
-0.517820 -0.169478
-0.517989 -0.168133
-0.518156 -0.166707
-0.518322 -0.165130
-0.518487 -0.163602
-0.518650 -0.162196
-0.518811 -0.160798
-0.518972 -0.159296
-0.519130 -0.157720
-0.519287 -0.156108
-0.519443 -0.154265
-0.519596 -0.152597
-0.519748 -0.150950
-0.519898 -0.149214
-0.520047 -0.147567
-0.520194 -0.145993
-0.520339 -0.144417
-0.520483 -0.142806
-0.520625 -0.141343
-0.520766 -0.139881
-0.520905 -0.138453
-0.521043 -0.137006
-0.521180 -0.135517
-0.521315 -0.134173
-0.521448 -0.132689
-0.521580 -0.131147
-0.521711 -0.129740
-0.521840 -0.128175
-0.521967 -0.126617
-0.522093 -0.125047
-0.522218 -0.123382
-0.522340 -0.121716
-0.522461 -0.120038
-0.522581 -0.118308
-0.522698 -0.116605
-0.522814 -0.114847
-0.522928 -0.113051
-0.523040 -0.111351
-0.523151 -0.109611
-0.523260 -0.107815
-0.523367 -0.106084
-0.523472 -0.104408
-0.523576 -0.102675
-0.523678 -0.101047
-0.523778 -0.099328
-0.523877 -0.097583
-0.523974 -0.095864
-0.524069 -0.094096
-0.524162 -0.092350
-0.524253 -0.090547
-0.524343 -0.088769
-0.524431 -0.086917
-0.524517 -0.085119
-0.524602 -0.083336
-0.524684 -0.081479
-0.524765 -0.079647
-0.524844 -0.077825
-0.524920 -0.075921
-0.524995 -0.074024
-0.525069 -0.072136
-0.525140 -0.070158
-0.525209 -0.068259
-0.525277 -0.066410
-0.525342 -0.064519
-0.525406 -0.062627
-0.525467 -0.060724
-0.525527 -0.058869
-0.525585 -0.057016
-0.525641 -0.055139
-0.525696 -0.053261
-0.525748 -0.051457
-0.525799 -0.049566
-0.525847 -0.047679
-0.525894 -0.045900
-0.525939 -0.044029
-0.525982 -0.042186
-0.526024 -0.040334
-0.526063 -0.038444
-0.526101 -0.036621
-0.526136 -0.034819
-0.526170 -0.032857
-0.526202 -0.030996
-0.526232 -0.029140
-0.526261 -0.027239
-0.526287 -0.025377
-0.526311 -0.023458
-0.526334 -0.021600
-0.526355 -0.019708
-0.526373 -0.017789
-0.526390 -0.015896
-0.526405 -0.013998
-0.526418 -0.012145
-0.526429 -0.010227
-0.526439 -0.008329
-0.526446 -0.006422
-0.526452 -0.004383
-0.526455 -0.003231
-0.526457 0.000293
-0.526456 -0.000015
-0.526456 0.003634
-0.526465 -0.042011
-0.526269 0.724867
-0.524945 1.699459
-0.523158 1.801081
-0.521371 1.804712
-0.519640 1.522837
-0.518052 2.053803
-0.515448 2.827090
-0.512058 4.600971
-0.508320 0.131161
-0.503360 20.943173
-0.455791 73.523545
-0.366006 96.612076
-0.270064 96.653255
-0.177758 80.954267
-0.117190 37.692322
-0.097663 8.321293
-0.098300 -14.363098
-0.128573 -43.507295
-0.178456 -51.836326
-0.228012 -47.167345
-0.272741 -42.066601
-0.312123 -36.646057
-0.346620 -32.764189
-0.377588 -28.495113
-0.404073 -25.442394
-0.428680 -22.857909
-0.449633 -19.669607
-0.468310 -17.235592
-0.480678 -4.430288
-0.478744 3.686807
-0.476176 3.177579
-0.471572 5.095853
-0.466911 4.206435
-0.463111 3.436679
-0.459380 4.615955
-0.453874 5.782353
-0.448257 5.589903
-0.442866 4.848490
-0.438453 4.399371
-0.433424 5.853435
-0.426921 6.748259
-0.420252 6.630072
-0.413603 6.645191
-0.406938 6.691255
-0.400191 6.784716
-0.393357 6.872071
-0.386429 6.971994
-0.379404 7.055442
-0.372286 7.194896
-0.365057 7.163883
-0.357877 7.331615
-0.349086 11.374274
-0.335093 15.455128
-0.318684 17.922293
-0.298341 23.000845
-0.273209 26.362178
-0.248971 19.514215
-0.235560 8.414259
-0.230867 1.085427
-0.231446 -0.426640
-0.230580 1.480551
-0.228979 1.899908
-0.226656 2.679921
-0.223662 3.312827
-0.220032 3.920622
-0.215847 4.427100
-0.210979 5.505613
-0.204595 7.271963
-0.196704 8.185998
-0.188515 8.177071
-0.180413 7.931703
-0.172654 7.630538
-0.164464 9.344273
-0.153971 10.986204
-0.143028 10.954072
-0.132012 11.007639
-0.121032 10.938329
-0.110110 10.878963
-0.099256 10.807700
-0.088474 10.733667
-0.077768 10.656716
-0.067140 10.577310
-0.056593 10.496772
-0.046131 10.399280
-0.035765 10.327018
-0.025455 10.259497
-0.015244 10.138480
-0.005161 10.007688
0.004797 9.890987
0.014643 9.780864
0.024394 9.718338
0.034087 9.619038
0.043619 9.422203
0.052947 9.215294
0.062110 9.135178
0.071253 9.108246
0.080299 8.943519
0.089193 8.884461
0.098143 8.998369
0.107102 8.794620
0.115791 8.713928
0.126280 13.827453
0.143333 18.518925
0.161368 17.254588
0.177804 15.774008
0.193063 14.640568
0.207086 13.422270
0.219949 12.246394
0.231643 11.187764
0.242220 9.747886
0.251691 9.905410
0.262273 10.730213
0.272407 9.259715
0.280801 7.760618
0.288177 6.958643
0.294494 5.441402
0.299711 5.843552
0.306517 7.217213
0.313273 5.934257
0.318382 4.604770
0.322691 3.871528
0.326057 2.911747
0.329332 4.385545
0.334540 4.968670
0.338573 3.433739
0.341731 2.848863
0.344245 2.171682
0.346168 1.762044
0.348071 2.244353
0.350872 3.358645
0.354265 2.885737
0.356481 1.908213
0.358312 1.610678
0.359642 1.121983
0.360576 0.686024
0.361212 0.839525
0.362665 2.215889
0.365190 2.219496
0.366792 1.274298
0.367952 0.960093
0.368676 0.532896
0.369060 0.229311
0.369102 -0.174822
0.369173 0.808044
0.370747 1.873343
0.372327 1.152217
0.373089 0.538363
0.373537 0.319096
0.373701 0.019034
0.373568 -0.301382
0.373143 -0.485399
0.373098 0.836061
0.374562 1.391626
0.375420 0.555669
0.375865 0.290687
0.375992 -0.004086
0.375886 -0.210192
0.375593 -0.350816
0.375074 -0.819274
0.374436 0.159475
0.375447 1.298157
0.376424 0.605123
0.376727 0.118833
0.376757 -0.081830
0.376555 -0.307938
0.376154 -0.493351
0.375568 -0.678034
0.374796 -0.863139
0.373838 -1.053183
0.372685 -1.251068
0.371330 -1.458698
0.369761 -1.678205
0.367966 -1.911700
0.365928 -2.162082
0.363630 -2.432553
0.361051 -2.724402
0.358168 -3.040554
0.354955 -3.383803
0.351384 -3.756963
0.347422 -4.164221
0.343035 -4.607595
0.338184 -5.091453
0.332827 -5.620765
0.326916 -6.197176
0.320402 -6.827210
0.313228 -7.516537
0.305333 -8.267774
0.296652 -9.088280
0.287113 -9.983575
0.276639 -10.957825
0.265148 -12.013985
0.252559 -13.153477
0.238786 -14.381178
0.223742 -15.685824
0.207344 -17.105709
0.189520 -18.454457
0.170317 -20.047215
0.149901 -20.095720
0.131057 -17.231974
0.115427 -14.295645
0.102080 -12.429892
0.090386 -11.032167
0.079845 -10.080505
0.070116 -9.395188
0.060973 -8.895688
0.052266 -8.517088
0.043895 -8.218919
0.035794 -7.974353
0.027919 -7.764653
0.020241 -7.580467
0.012737 -7.412903
0.005397 -7.256575
-0.001794 -7.111093
-0.008842 -6.972840
-0.015755 -6.840423
-0.022539 -6.713431
-0.029197 -6.591474
-0.035737 -6.475380
-0.042162 -6.362731
-0.048476 -6.254137
-0.054684 -6.149083
-0.060788 -6.046640
-0.066791 -5.947764
-0.072696 -5.851279
-0.078506 -5.757294
-0.084223 -5.665515
-0.089849 -5.576547
-0.095387 -5.488880
-0.100839 -5.403570
-0.106205 -5.318004
-0.111486 -5.234375
-0.116685 -5.152201
-0.121801 -5.069873
-0.126836 -4.990809
-0.131794 -4.916963
-0.136682 -4.848858
-0.141503 -4.785782
-0.146265 -4.729349
-0.150973 -4.678536
-0.155633 -4.633509
-0.160251 -4.592930
-0.164830 -4.556757
-0.169375 -4.525096
-0.173890 -4.497189
-0.178380 -4.473087
-0.182846 -4.451127
-0.187291 -4.429581
-0.191714 -4.406642
-0.196113 -4.381891
-0.200486 -4.355300
-0.204831 -4.324728
-0.209142 -4.287651
-0.213413 -4.246412
-0.217643 -4.205002
-0.221832 -4.164941
-0.225982 -4.126875
-0.230095 -4.091156
-0.234173 -4.057923
-0.238220 -4.027168
-0.242236 -3.998872
-0.246226 -3.973049
-0.250191 -3.949767
-0.254134 -3.928821
-0.258058 -3.910227
-0.261963 -3.893743
-0.265854 -3.878951
-0.269730 -3.866124
-0.273594 -3.855384
-0.277449 -3.847737
-0.281299 -3.843871
-0.285146 -3.843437
-0.288994 -3.846039
-0.292847 -3.851423
-0.296706 -3.859442
-0.300574 -3.869881
-0.304454 -3.882599
-0.308348 -3.897554
-0.312258 -3.914657
-0.316185 -3.933669
-0.320133 -3.954586
-0.324103 -3.977168
-0.328096 -4.001336
-0.332114 -4.026949
-0.336159 -4.053822
-0.340230 -4.081808
-0.344331 -4.110799
-0.348460 -4.140572
-0.352620 -4.171041
-0.356811 -4.201994
-0.361033 -4.233367
-0.365286 -4.265091
-0.369572 -4.297043
-0.373889 -4.328752
-0.378238 -4.359516
-0.382616 -4.389406
-0.387025 -4.418382
-0.391462 -4.446340
-0.395926 -4.473145
-0.400417 -4.498605
-0.404932 -4.522565
-0.409470 -4.544645
-0.414030 -4.564815
-0.418608 -4.582820
-0.423204 -4.598451
-0.427813 -4.611486
-0.432435 -4.621717
-0.437065 -4.629173
-0.441701 -4.633440
-0.446340 -4.634459
-0.450978 -4.632154
-0.455613 -4.626327
-0.460239 -4.616946
-0.464855 -4.603867
-0.469455 -4.586997
-0.474036 -4.566169
-0.478595 -4.541304
-0.483127 -4.512412
-0.487627 -4.479363
-0.492093 -4.442352
-0.496520 -4.401323
-0.500903 -4.356498
-0.505240 -4.307462
-0.509526 -4.255875
-0.513758 -4.197293
-0.517955 -4.216356
-0.522136 -4.046861
-0.526079 -3.942784
-0.530481 -5.190693
-0.535764 -4.322892
-0.537715 0.800455
-0.534567 4.708798
-0.529074 6.261921
-0.522306 6.991609
-0.515503 6.444054
-0.509583 5.361706
-0.504817 4.133919
-0.501290 2.957812
-0.498811 2.035691
-0.497134 1.354528
-0.496030 0.880744
-0.495317 0.567142
-0.494848 0.394953
-0.494504 0.290754
-0.494245 0.248114
-0.493887 0.564967
-0.492996 1.234071
-0.491492 1.676843
-0.489770 1.728331
-0.488071 1.663757
-0.486426 1.637599
-0.484755 1.722826
-0.482960 1.859264
-0.481052 1.937990
-0.479106 1.938575
-0.477192 1.877152
-0.475366 1.763597
-0.473674 1.611332
-0.472149 1.431141
-0.470815 1.231019
-0.469688 1.020623
-0.468773 0.808714
-0.468067 0.602457
-0.467563 0.408025
-0.467244 0.230737
-0.467093 0.075032
-0.467086 -0.055656
-0.467196 -0.159112
-0.467395 -0.234238
-0.467655 -0.281063
-0.467949 -0.300567
-0.468249 -0.295401
-0.468533 -0.269079
-0.468782 -0.226973
-0.468984 -0.175675
-0.469133 -0.120966
-0.469227 -0.068934
-0.469273 -0.024805
-0.469281 0.007097
-0.469264 0.023735
-0.469239 0.023084
-0.469224 0.004348
-0.469236 -0.032013
-0.469294 -0.084601
-0.469411 -0.151339
-0.469600 -0.229905
-0.469873 -0.315708
-0.470235 -0.410195
-0.470691 -0.493727
-0.471217 -0.556591
-0.471757 -0.474834
-0.472219 -0.547184
-0.473666 -3.058427
-0.478096 -4.833070
-0.482278 -3.420073
-0.485000 -2.178648
-0.486834 -1.518028
-0.488123 -1.107629
-0.489088 -0.808953
-0.489751 -0.536654
-0.490175 -0.302046
-0.490286 0.142933
-0.489829 0.768931
-0.488788 1.269522
-0.487389 1.466164
-0.485955 1.356659
-0.484674 1.243545
-0.483739 0.310135
-0.484328 -1.448431
-0.486194 -1.873906
-0.487743 -1.288918
-0.488856 -0.948727
-0.489673 -0.700152
-0.490285 -0.533279
-0.490755 -0.411652
-0.491120 -0.320755
-0.491393 -0.217702
-0.491555 -0.111932
-0.491634 -0.054914
-0.491676 -0.032458
-0.491703 -0.022094
-0.491722 -0.016567
-0.491737 -0.012813
-0.491748 -0.009989
-0.491757 -0.007714
-0.491764 -0.005969
-0.491769 -0.004738
-0.491773 -0.004110
-0.491777 -0.004115
-0.491782 -0.004518
-0.491787 -0.005341
-0.491792 -0.006534
-0.491800 -0.007979
-0.491808 -0.009567
-0.491819 -0.011158
-0.491831 -0.012723
-0.491844 -0.014095
-0.491859 -0.015174
-0.491875 -0.016030
-0.491891 -0.016609
-0.491908 -0.016764
-0.491924 -0.016614
-0.491941 -0.016117
-0.491957 -0.015352
-0.491971 -0.014407
-0.491985 -0.013212
-0.491998 -0.011982
-0.492009 -0.010747
-0.492019 -0.009496
-0.492028 -0.008452
-0.492036 -0.007555
-0.492044 -0.006848
-0.492050 -0.006400
-0.492056 -0.006161
-0.492063 -0.006186
-0.492069 -0.006344
-0.492075 -0.006605
-0.492082 -0.006783
-0.492089 -0.006714
-0.492095 -0.006592
-0.492102 -0.006641
-0.492109 -0.006704
-0.492116 -0.006926
-0.492123 -0.007045
-0.492130 -0.007122
-0.492137 -0.007146
-0.492144 -0.006991
-0.492151 -0.006766
-0.492157 -0.006403
-0.492164 -0.005985
-0.492169 -0.005381
-0.492174 -0.004828
-0.492179 -0.004185
-0.492183 -0.003476
-0.492186 -0.002867
-0.492188 -0.002185
-0.492190 -0.001605
-0.492192 -0.001112
-0.492193 -0.000649
-0.492193 -0.000322
-0.492193 0.000037
-0.492193 0.000201
-0.492193 0.000348
-0.492192 0.000479
-0.492192 0.000464
-0.492191 0.000535
-0.492191 0.000515
-0.492190 0.000587
-0.492190 0.000585
-0.492189 0.000548
-0.492189 0.000686
-0.492188 0.000781
-0.492187 0.000913
-0.492186 0.001082
-0.492185 0.001223
-0.492184 0.001403
-0.492182 0.001686
-0.492180 0.001870
-0.492178 0.002065
-0.492176 0.002375
-0.492174 0.002608
-0.492171 0.003048
-0.492168 0.003139
-0.492164 0.004026
-0.492154 0.020501
-0.492128 0.023464
-0.492094 0.067701
-0.492055 -0.075847
-0.492065 0.321282
-0.491818 -0.499747
-0.497098 -3.037570
