0.219101 0.253071 0.553693
-0.824888 -0.835563
-0.825045 0.446123
-0.824149 1.268217
-0.822633 1.708437
-0.820812 1.898860
-0.818890 1.916548
-0.817017 1.809057
-0.815297 1.612852
-0.813807 1.357514
-0.812598 1.046664
-0.811709 0.743759
-0.811140 0.348968
-0.810961 0.102038
-0.810961 -0.219725
-0.811624 -1.208722
-0.811810 2.508326
-0.806175 7.504460
-0.797993 8.884354
-0.788399 10.234628
-0.777638 11.180744
-0.766158 11.697810
-0.754349 11.824282
-0.742619 11.552834
-0.731336 10.933764
-0.720826 10.024179
-0.711338 8.903415
-0.703046 7.650312
-0.696042 6.339500
-0.690352 5.035154
-0.685942 3.789309
-0.682733 2.641670
-0.680611 1.619631
-0.679441 0.743978
-0.679070 0.025395
-0.679341 -0.545153
-0.680119 -0.988609
-0.681285 -1.325885
-0.682744 -1.575331
-0.684415 -1.752723
-0.686232 -1.867134
-0.688131 -1.916773
-0.690047 -1.900657
-0.691916 -1.825211
-0.693683 -1.696442
-0.695297 -1.520442
-0.696713 -1.302531
-0.697892 -1.047563
-0.698803 -0.769250
-0.699435 -0.499231
-0.699811 -0.255620
-0.699953 -0.030074
-0.699875 0.183668
-0.699588 0.389374
-0.699097 0.589611
-0.698407 0.789779
-0.697513 1.000704
-0.696402 1.219214
-0.695073 1.433060
-0.693536 1.636939
-0.691800 1.828872
-0.689878 2.008961
-0.687782 2.178659
-0.685520 2.339792
-0.683100 2.494575
-0.680527 2.645110
-0.677805 2.793324
-0.674935 2.940999
-0.671917 3.089838
-0.668748 3.241178
-0.665426 3.396233
-0.661947 3.556054
-0.658305 3.721476
-0.654495 3.893252
-0.650509 4.071855
-0.646341 4.257532
-0.641983 4.450440
-0.637428 4.650785
-0.632669 4.858432
-0.627699 5.073151
-0.622511 5.294756
-0.617097 5.522873
-0.611452 5.757120
-0.605569 5.997014
-0.599444 6.242142
-0.593071 6.490983
-0.586448 6.742183
-0.579573 6.994390
-0.572445 7.247739
-0.565064 7.498724
-0.557433 7.749174
-0.549546 8.012635
-0.541388 8.286454
-0.532942 8.603540
-0.524094 9.129109
-0.514604 9.838205
-0.504405 10.525330
-0.493553 11.149472
-0.482077 11.794640
-0.469908 12.537210
-0.456976 13.285547
-0.443330 13.974155
-0.429011 14.627584
-0.414061 15.234905
-0.398529 15.787852
-0.382478 16.269562
-0.365988 16.659888
-0.349177 16.891434
-0.332211 17.002631
-0.315309 16.602548
-0.299210 15.492088
-0.284374 14.139319
-0.270902 12.789391
-0.258742 11.522662
-0.247771 10.444001
-0.237739 9.648060
-0.228369 9.112842
-0.219431 8.768899
-0.210773 8.546517
-0.202297 8.395454
-0.193953 8.279658
-0.185718 8.174398
-0.177590 8.062424
-0.169584 7.930255
-0.161723 7.770386
-0.154038 7.577431
-0.146566 7.345816
-0.139346 7.072544
-0.132421 6.755340
-0.125836 6.395824
-0.119630 5.995870
-0.113845 5.557934
-0.108514 5.087276
-0.103670 4.588105
-0.099337 4.064556
-0.095539 3.522134
-0.092290 2.967291
-0.089600 2.406905
-0.087470 1.849052
-0.085895 1.301156
-0.084860 0.769793
-0.084346 0.261879
-0.084326 -0.216231
-0.084767 -0.658399
-0.085631 -1.060692
-0.086876 -1.419908
-0.088456 -1.726315
-0.090320 -1.998125
-0.092420 -2.161765
-0.094593 -2.158716
-0.096711 -2.063388
-0.098706 -1.916153
-0.100532 -1.723474
-0.102142 -1.486327
-0.103494 -1.208279
-0.104549 -0.893957
-0.105272 -0.546316
-0.105633 -0.169673
-0.105604 0.231622
-0.105162 0.654497
-0.104288 1.094794
-0.102966 1.548238
-0.101185 2.011959
-0.098936 2.482048
-0.096215 2.955018
-0.093020 3.428130
-0.089352 3.898632
-0.085216 4.364888
-0.080617 4.822647
-0.075564 5.271057
-0.070068 5.707994
-0.064142 6.129660
-0.057801 6.536134
-0.051062 6.925797
-0.043942 7.296292
-0.036462 7.646380
-0.028641 7.975713
-0.020502 8.283192
-0.012066 8.568049
-0.003355 8.831845
0.005609 9.074590
0.014806 9.300012
0.024221 9.505698
0.033829 9.689143
0.043630 9.907790
0.053685 10.188646
0.064031 10.480067
0.074660 10.752877
0.085552 11.006090
0.096688 11.240713
0.108050 11.457018
0.119619 11.654523
0.131376 11.833263
0.143303 11.994674
0.155384 12.138399
0.167599 12.265430
0.179934 12.376253
0.192371 12.471862
0.204897 12.552940
0.217497 12.619045
0.230157 12.672964
0.242865 12.716135
0.255611 12.748013
0.268383 12.770606
0.281175 12.785861
0.293979 12.794544
0.306788 12.797657
0.319598 12.796824
0.332406 12.793123
0.345209 12.787645
0.358007 12.782062
0.370799 12.776529
0.383586 12.771115
0.396368 12.768234
0.409148 12.766861
0.421927 12.766767
0.434708 12.769921
0.447493 12.774732
0.460284 12.782100
0.473084 12.792368
0.485895 12.804125
0.498719 12.818066
0.511558 12.834282
0.524413 12.851692
0.537287 12.870759
0.550181 12.891815
0.563097 12.913908
0.576036 12.937785
0.588999 12.962957
0.601988 12.988553
0.615003 13.015968
0.628046 13.045028
0.641119 13.074027
0.654221 13.104560
0.667356 13.139419
0.680527 13.175772
0.693733 13.210204
0.706973 13.243359
0.720246 13.277255
0.733554 13.311902
0.746895 13.339908
0.760257 13.356162
0.773631 13.364970
0.787012 13.369860
0.800396 13.370507
0.813779 13.367465
0.827156 13.359525
0.840523 13.347065
0.853876 13.330270
0.867210 13.310824
0.880524 13.290670
0.893817 13.267790
0.907085 13.241874
0.920326 13.212250
0.933534 13.177392
0.946704 13.134505
0.959827 13.084717
0.972898 13.030390
0.985912 12.969384
0.998861 12.901442
1.011738 12.826801
1.024538 12.746175
1.037254 12.659496
1.049882 12.571406
1.062425 12.491202
1.074895 12.429857
1.087317 12.392489
1.099710 12.369383
1.112081 12.346405
1.124421 12.304309
1.136700 12.220408
1.148865 12.071244
1.160839 11.839128
1.172536 11.516517
1.183866 11.105282
1.194743 10.616622
1.205100 10.066591
1.214882 9.473403
1.224058 8.856686
1.232612 8.235876
1.240550 7.627010
1.247890 7.044057
1.254665 6.499677
1.260918 6.001710
1.266698 5.555774
1.272059 5.165768
1.277059 4.833015
1.281754 4.556495
1.286199 4.333482
1.290446 4.161885
1.294547 4.037451
1.298544 3.955449
1.302478 3.911430
1.306385 3.900436
1.310296 3.917766
1.314237 3.958759
1.318228 4.018820
1.322287 4.094039
1.326428 4.179634
1.330658 4.274151
1.334986 4.374344
1.339416 4.474984
1.343946 4.575937
1.348576 4.674956
1.353304 4.770349
1.358125 4.861532
1.363034 4.945700
1.368024 5.022740
1.373087 5.093234
1.378218 5.155753
1.383406 5.210104
1.388646 5.256964
1.393928 5.295451
1.399244 5.325293
1.404587 5.348409
1.409949 5.363173
1.415321 5.369455
1.420697 5.368840
1.426068 5.361547
1.431429 5.349150
1.436775 5.332575
1.442103 5.312547
1.447410 5.289889
1.452693 5.266530
1.457954 5.243948
1.463192 5.222895
1.468411 5.204957
1.473614 5.189757
1.478802 5.177143
1.483980 5.169032
1.489152 5.164278
1.494319 5.161883
1.499487 5.162141
1.504654 5.162914
1.509822 5.163119
1.514990 5.161230
1.520154 5.155805
1.525311 5.147088
1.530457 5.133994
1.535588 5.116115
1.540698 5.094018
1.545784 5.067765
1.550842 5.037440
1.555869 5.004404
1.560860 4.967591
1.565813 4.928268
1.570726 4.886843
1.575595 4.842075
1.580419 4.795996
1.585196 4.747665
1.589924 4.697894
1.594601 4.647231
1.599227 4.595449
1.603801 4.542789
1.608321 4.489514
1.612789 4.435646
1.617201 4.380453
1.621558 4.324801
1.625859 4.268412
1.630103 4.212157
1.634292 4.155259
1.638422 4.097602
1.642495 4.040196
1.646510 3.982116
1.650467 3.923317
1.654364 3.863367
1.658201 3.802593
1.661977 3.740266
1.665689 3.676148
1.669336 3.610043
1.672916 3.542577
1.676427 3.473405
1.679869 3.402193
1.683238 3.329589
1.686534 3.255010
1.689754 3.179454
1.692899 3.102469
1.695965 3.023721
1.698952 2.944210
1.701859 2.863364
1.704684 2.780948
1.707426 2.698138
1.710085 2.614365
1.712659 2.528743
1.715148 2.442865
1.717550 2.356115
1.719864 2.267659
1.722089 2.178630
1.724225 2.089042
1.726271 1.998231
1.728225 1.906056
1.730087 1.813147
1.731855 1.719307
1.733529 1.624446
1.735107 1.528556
1.736589 1.431825
1.737973 1.334263
1.739259 1.235433
1.740446 1.135713
1.741533 1.035318
1.742519 0.934806
1.743404 0.833608
1.744188 0.732341
1.744871 0.634368
1.745460 0.542051
1.745958 0.452977
1.746367 0.366741
1.746693 0.283478
1.746935 0.198957
1.747091 0.113213
1.747161 0.026983
1.747144 -0.060992
1.747039 -0.150044
1.746843 -0.240508
1.746557 -0.332435
1.746177 -0.425419
1.745704 -0.520106
1.745136 -0.615236
1.744472 -0.712007
1.743710 -0.810171
1.742850 -0.908594
1.741890 -1.009290
1.740829 -1.110333
1.739667 -1.211945
1.738402 -1.315495
1.737033 -1.419757
1.735560 -1.525261
1.733980 -1.630837
1.732294 -1.737228
1.730501 -1.845287
1.728600 -1.953671
1.726590 -2.062703
1.724470 -2.173028
1.722239 -2.283651
1.719898 -2.394323
1.717445 -2.506628
1.714878 -2.623348
1.712189 -2.752136
1.709362 -2.901007
1.706374 -3.071621
1.703208 -3.255073
1.699858 -3.436941
1.696332 -3.604334
1.692650 -3.750048
1.688831 -3.877323
1.684892 -3.988593
1.680850 -4.085320
1.676717 -4.170572
1.672505 -4.245230
1.668221 -4.311446
1.663875 -4.370192
1.659475 -4.421570
1.655026 -4.465555
1.650537 -4.503085
1.646012 -4.535722
1.641458 -4.562327
1.636881 -4.582383
1.632286 -4.598502
1.627676 -4.609912
1.623059 -4.613885
1.618441 -4.611542
1.613829 -4.602705
1.609227 -4.591827
1.604634 -4.587556
1.600040 -4.593762
1.595433 -4.613761
1.590798 -4.649011
1.586120 -4.700610
1.581382 -4.767977
1.576569 -4.849566
1.571668 -4.945619
1.566664 -5.053884
1.561547 -5.172835
1.556305 -5.301208
1.550931 -5.437603
1.545417 -5.580226
1.539758 -5.727505
1.533949 -5.878323
1.527989 -6.030203
1.521876 -6.183248
1.515610 -6.336216
1.509192 -6.487685
1.502622 -6.637677
1.495904 -6.784332
1.489041 -6.927696
1.482036 -7.067455
1.474893 -7.203059
1.467617 -7.334284
1.460212 -7.461135
1.452682 -7.582689
1.445033 -7.699962
1.437267 -7.815525
1.429388 -7.925774
1.421401 -8.031075
1.413311 -8.131955
1.405123 -8.228205
1.396839 -8.320352
1.388470 -8.398779
1.380006 -8.534909
1.371347 -8.778712
1.362403 -9.104572
1.353098 -9.494274
1.343383 -9.923789
1.333215 -10.401353
1.322540 -10.935220
1.311305 -11.522158
1.299455 -12.161107
1.286942 -12.848537
1.273718 -13.580522
1.259741 -14.351300
1.244977 -15.151796
1.229399 -15.976610
1.212985 -16.819289
1.195715 -17.694954
1.177564 -18.559079
1.158532 -19.507987
1.138419 -20.727714
1.116966 -22.154798
1.094040 -23.655429
1.069610 -25.148593
1.043704 -26.607508
1.016354 -28.030561
0.987603 -29.405867
0.957505 -30.716117
0.926136 -31.945277
0.893578 -33.090354
0.859918 -34.147116
0.825246 -35.113608
0.789651 -35.990989
0.753221 -36.779970
0.716046 -37.481238
0.678213 -38.096629
0.639805 -38.628497
0.600905 -39.079552
0.561594 -39.449343
0.521954 -39.739987
0.482062 -39.951046
0.441996 -40.088582
0.401827 -40.158420
0.361624 -40.154519
0.321462 -40.075584
0.281417 -39.924153
0.241557 -39.703126
0.201953 -39.414675
0.162671 -39.060503
0.123775 -38.643723
0.085325 -38.169140
0.047379 -37.639535
0.009987 -37.060547
-0.026803 -36.441715
-0.062959 -35.792743
-0.098452 -35.119021
-0.133260 -34.423898
-0.167363 -33.710142
-0.200742 -32.977710
-0.233378 -32.227287
-0.265255 -31.459921
-0.296355 -30.674672
-0.326660 -29.871121
-0.356151 -29.049867
-0.384812 -28.210461
-0.412623 -27.353384
-0.439568 -26.479810
-0.465630 -25.590423
-0.490795 -24.686762
-0.515049 -23.770483
-0.538380 -22.842988
-0.560778 -21.906923
-0.582235 -20.964421
-0.602747 -20.018203
-0.622312 -19.071387
-0.640929 -18.126594
-0.658603 -17.186925
-0.675340 -16.255383
-0.691150 -15.334968
-0.706045 -14.428738
-0.720042 -13.539181
-0.733157 -12.669437
-0.745413 -11.822078
-0.756833 -10.999286
-0.767443 -10.203646
-0.777270 -9.435706
-0.786345 -8.703119
-0.794700 -7.987988
-0.802361 -7.345944
-0.809456 -6.853666
-0.816112 -6.450691
-0.822381 -6.079061
-0.828282 -5.706211
-0.833801 -5.320528
-0.838915 -4.877980
-0.843531 -4.328406
-0.847557 -3.709684
-0.850952 -3.075916
-0.853728 -2.479709
-0.855940 -1.953107
-0.857664 -1.505633
-0.858980 -1.134435
-0.859958 -0.829314
-0.860658 -0.578506
-0.861130 -0.371502
-0.861415 -0.205034
-0.861555 -0.080452
-0.861591 0.000705
-0.861571 0.030435
-0.861540 0.030275
-0.861563 -0.128493
-0.861922 -0.660693
-0.862882 -1.182208
-0.864084 -1.089571
-0.864936 -0.614706
-0.865354 -0.257911
-0.865520 -0.103105
-0.865594 -0.050391
-0.865629 -0.022916
-0.865646 -0.012350
-0.865655 -0.007215
-0.865661 -0.003226
-0.865662 -0.000091
-0.865661 0.001615
-0.865659 0.002197
-0.865657 0.001886
-0.865656 -0.000291
-0.865658 -0.002033
-0.865660 -0.003329
-0.865668 -0.015528
-0.865695 -0.038544
-0.865737 -0.038873
-0.865763 -0.012020
-0.865766 0.001774
-0.865765 -0.000084
-0.865765 -0.000168
-0.865765 0.000116
-0.865765 -0.000054
-0.865765 0.000021
-0.865765 -0.000007
-0.865765 0.000002
-0.865765 -0.000001
-0.865765 0.000000
-0.865765 -0.000000
-0.865765 -0.000000
-0.865765 0.000000
-0.865765 -0.000000
-0.865765 0.000000
-0.865765 -0.000000
-0.865765 0.000000
-0.865765 -0.000000
-0.865765 0.000000
-0.865765 -0.000000
-0.865765 -0.000000
-0.865765 0.000000
-0.865765 -0.000000
-0.865765 0.000000
-0.865765 -0.000000
-0.865765 0.000000
-0.865765 -0.000000
-0.865765 0.000000
-0.865765 -0.000000
-0.865765 0.000000
-0.865765 -0.000000
-0.865765 0.000000
-0.865765 -0.000000
-0.865765 0.000000
-0.865765 -0.000000
-0.865765 0.000000
-0.865765 -0.000000
-0.865765 0.000000
-0.865765 -0.000000
-0.865765 0.000000
-0.865765 -0.000000
-0.865765 0.000000
-0.865765 -0.000000
-0.865765 0.000000
-0.865765 -0.000000
-0.865765 0.000000
-0.865765 -0.000000
-0.865765 0.000000
-0.865765 -0.000000
-0.865765 0.000000
-0.865765 -0.000000
-0.865765 0.000000
-0.865765 -0.000000
-0.865765 0.000000
-0.865765 -0.000000
-0.865765 0.000000
-0.865765 -0.000000
-0.865765 0.000000
-0.865765 -0.000000
-0.865765 0.000000
-0.865765 -0.000000
-0.865765 0.000000
-0.865765 -0.000000
-0.865765 0.000000
-0.865765 -0.000000
-0.865765 0.000000
-0.865765 -0.000000
-0.865765 -0.000000
-0.865765 0.000000
-0.865765 -0.000000
-0.865765 0.000000
-0.865765 -0.000000
-0.865765 0.000000
-0.865765 -0.000000
-0.865765 0.000000
-0.865765 -0.000000
-0.865765 0.000000
-0.865765 -0.000000
-0.865765 0.000000
-0.865765 -0.000000
-0.865765 0.000000
-0.865765 -0.000000
-0.865765 0.000000
-0.865765 -0.000000
-0.865765 0.000000
-0.865765 -0.000000
-0.865765 0.000000
-0.865765 -0.000000
-0.865765 0.000000
-0.865765 -0.000000
-0.865765 0.000000
-0.865765 -0.000000
-0.865765 0.000000
-0.865765 -0.000000
-0.865765 0.000000
-0.865765 -0.000000
-0.865765 0.000000
-0.865765 -0.000000
-0.865765 0.000000
-0.865765 -0.000000
-0.865765 0.000000
-0.865765 -0.000000
-0.865765 0.000000
-0.865765 -0.000000
-0.865765 0.000000
-0.865765 -0.000000
-0.865765 0.000000
-0.865765 -0.000000
-0.865765 0.000000
-0.865765 -0.000000
-0.865765 0.000000
-0.865765 -0.000000
-0.865765 0.000000
-0.865765 -0.000000
-0.865765 -0.000000
-0.865765 0.000000
-0.865765 -0.000000
-0.865765 0.000000
-0.865765 -0.000000
-0.865765 0.000000
-0.865765 -0.000000
-0.865765 -0.000000
-0.865765 0.000000
-0.865765 -0.000000
-0.865765 0.000000
-0.865765 -0.000001
-0.865765 0.000002
-0.865765 -0.000004
-0.865765 0.000008
-0.865765 -0.000007
-0.865765 -0.000029
-0.865765 0.000195
-0.865765 -0.000715
-0.865765 0.003370
-0.865752 0.028749
-0.865686 0.118249
-0.865502 0.245819
-0.865194 0.373745
-0.864759 0.484927
-0.864246 0.528750
-0.863724 0.502968
-0.863255 0.429227
-0.862875 0.325958
-0.862598 0.234259
-0.862398 0.166995
-0.862253 0.130915
-0.862122 0.134783
-0.861983 0.140473
-0.861843 0.139651
-0.861703 0.139325
-0.861563 0.141537
-0.861419 0.146440
-0.861270 0.151028
-0.861117 0.155989
-0.860958 0.161115
-0.860794 0.166276
-0.860625 0.171596
-0.860450 0.176789
-0.860271 0.181729
-0.860087 0.186784
-0.859897 0.193059
-0.859699 0.201864
-0.859492 0.211996
-0.859275 0.221542
-0.859049 0.230183
-0.858815 0.237965
-0.858573 0.245271
-0.858323 0.252699
-0.858067 0.260232
-0.857802 0.267916
-0.857530 0.275713
-0.857250 0.283615
-0.856962 0.291673
-0.856666 0.299989
-0.856362 0.308461
-0.856049 0.316834
-0.855728 0.325224
-0.855398 0.333729
-0.855059 0.342592
-0.854712 0.352040
-0.854354 0.361825
-0.853987 0.371536
-0.853610 0.381578
-0.853223 0.392331
-0.852825 0.402927
-0.852417 0.413062
-0.851998 0.423097
-0.851570 0.432961
-0.851131 0.442660
-0.850683 0.452369
-0.850226 0.462095
-0.849758 0.471834
-0.849281 0.481575
-0.848794 0.491313
-0.848298 0.501021
-0.847791 0.510687
-0.847275 0.520298
-0.846750 0.529830
-0.846214 0.539277
-0.845670 0.548620
-0.845116 0.557843
-0.844553 0.566920
-0.843981 0.575847
-0.843400 0.584582
-0.842811 0.593151
-0.842213 0.601571
-0.841607 0.609727
-0.840992 0.617592
-0.840370 0.625170
-0.839741 0.632469
-0.839104 0.639515
-0.838461 0.646238
-0.837811 0.652605
-0.837154 0.658647
-0.836492 0.664343
-0.835824 0.669689
-0.835152 0.674691
-0.834474 0.679338
-0.833792 0.683639
-0.833105 0.687592
-0.832415 0.691199
-0.831722 0.694462
-0.831025 0.697378
-0.830326 0.699960
-0.829624 0.702199
-0.828920 0.704101
-0.828214 0.705649
-0.827507 0.706869
-0.826799 0.707734
-0.826091 0.708200
-0.825382 0.708383
-0.824672 0.708175
-0.823964 0.707504
-0.823256 0.706467
-0.822550 0.704982
-0.821845 0.703090
-0.821142 0.700746
-0.820442 0.697902
-0.819745 0.694668
-0.819052 0.690980
-0.818362 0.686781
-0.817677 0.682068
-0.816997 0.676851
-0.816322 0.671139
-0.815653 0.664948
-0.814991 0.658271
-0.814335 0.651266
-0.813687 0.643751
-0.813047 0.635522
-0.812415 0.626845
-0.811792 0.617711
-0.811179 0.608131
-0.810575 0.598136
-0.809981 0.587834
-0.809398 0.577156
-0.808826 0.565968
-0.808265 0.554455
-0.807716 0.542681
-0.807179 0.530660
-0.806654 0.518348
-0.806141 0.505820
-0.805641 0.493143
-0.805154 0.480281
-0.804680 0.467086
-0.804219 0.454322
-0.803770 0.441301
-0.803334 0.430706
-0.802907 0.422251
-0.802490 0.410872
-0.802085 0.398505
-0.801692 0.386788
-0.801310 0.375590
-0.800941 0.362754
-0.800585 0.348798
-0.800242 0.335806
-0.799912 0.322425
-0.799596 0.308890
-0.799294 0.295674
-0.799004 0.283582
-0.798726 0.271885
-0.798459 0.264009
-0.798198 0.255582
-0.797948 0.244589
-0.797707 0.236510
-0.797475 0.227439
-0.797253 0.216001
-0.797042 0.203652
-0.796845 0.191387
-0.796659 0.180912
-0.796483 0.170709
-0.796316 0.162940
-0.796155 0.157964
-0.796001 0.150262
-0.795854 0.143868
-0.795712 0.138941
-0.795577 0.129861
-0.795453 0.119111
-0.795338 0.110167
-0.795232 0.102096
-0.795133 0.095801
-0.795039 0.092856
-0.794948 0.088189
-0.794863 0.083156
-0.794781 0.080759
-0.794702 0.074820
-0.794632 0.065796
-0.794570 0.057025
-0.794517 0.051292
-0.794468 0.045371
-0.794427 0.036187
-0.794395 0.027462
-0.794372 0.017652
-0.794362 0.002490
-0.794368 -0.013710
-0.794388 -0.027205
-0.794424 -0.047616
-0.794488 -0.083093
-0.794597 -0.137699
-0.794774 -0.222964
-0.795055 -0.343596
-0.795472 -0.494617
-0.796055 -0.674103
-0.796830 -0.879043
-0.797822 -1.104200
-0.799044 -1.338242
-0.800499 -1.567468
-0.802176 -1.779833
-0.804053 -1.962715
-0.806094 -2.108661
-0.808256 -2.201208
-0.810476 -2.222008
-0.812679 -2.164811
-0.814779 -2.013746
-0.816684 -1.783111
-0.818333 -1.505961
-0.819690 -1.202312
-0.820738 -0.892500
-0.821478 -0.586821
-0.821917 -0.292903
-0.822070 -0.016800
-0.821958 0.236824
-0.821605 0.464457
-0.821038 0.663971
-0.820286 0.833463
-0.819380 0.970156
-0.818356 1.070419
-0.817250 1.132476
-0.816099 1.162263
-0.814933 1.162023
-0.813781 1.137457
-0.812664 1.087773
-0.811615 1.001277
-0.810673 0.875167
-0.809876 0.709714
-0.809263 0.511715
-0.808859 0.292183
-0.808682 0.061364
-0.808737 -0.170414
-0.809020 -0.394109
-0.809520 -0.601798
-0.810217 -0.787160
-0.811087 -0.945191
-0.812097 -1.064957
-0.813204 -1.140647
-0.814362 -1.162040
-0.815516 -1.138807
-0.816619 -1.045633
-0.817617 -0.974376
-0.818540 -0.814413
-0.819204 -0.525916
-0.819987 -1.418049
-0.824888 -0.835563
