0.127772 0.050045 0.000003
-0.071717 3.038168
-0.068051 4.395407
-0.062699 6.406191
-0.054934 9.289930
-0.043619 13.617150
-0.026925 20.185387
-0.002060 30.194435
0.034970 44.536735
0.087486 60.026624
0.153455 70.455013
0.226693 75.357220
0.304208 79.924502
0.386300 83.285416
0.471148 87.250766
0.562913 97.020375
0.652110 67.011966
0.694103 28.109459
0.718914 20.760694
0.735419 12.670863
0.745328 7.719836
0.751497 4.636264
0.754858 2.296249
0.756417 0.923073
0.756392 -1.391018
0.753215 -4.955396
0.746498 -8.439955
0.736387 -11.717829
0.723137 -14.701960
0.707069 -17.339765
0.688548 -19.601704
0.667947 -21.500633
0.645616 -23.062770
0.621871 -24.338136
0.596965 -25.393491
0.571092 -26.272622
0.544413 -27.012421
0.517049 -27.644454
0.489097 -28.191698
0.460630 -28.677679
0.431709 -29.089983
0.402436 -29.369655
0.372964 -29.490720
0.343447 -29.456483
0.314044 -29.266129
0.284902 -28.938989
0.256149 -28.489819
0.227904 -27.926638
0.200271 -27.268511
0.173341 -26.523087
0.147204 -25.681860
0.121954 -24.756908
0.097661 -23.772104
0.074380 -22.733876
0.052159 -21.661807
0.031017 -20.578826
0.010956 -19.507195
-0.008051 -18.476830
-0.026053 -17.501467
-0.043108 -16.583637
-0.059273 -15.723014
-0.074603 -14.916705
-0.089152 -14.159876
-0.102967 -13.449320
-0.116094 -12.785932
-0.128578 -12.163796
-0.140458 -11.577469
-0.151769 -11.027964
-0.162547 -10.511191
-0.172821 -10.022446
-0.182620 -9.559590
-0.191969 -9.124299
-0.200896 -8.717033
-0.209430 -8.337078
-0.217597 -7.985174
-0.225426 -7.663324
-0.232949 -7.373305
-0.240199 -7.116862
-0.247210 -6.897851
-0.254021 -6.718311
-0.260672 -6.576010
-0.267200 -6.474273
-0.273649 -6.417193
-0.280061 -6.402596
-0.286481 -6.431573
-0.292952 -6.504892
-0.299520 -6.625950
-0.306233 -6.794897
-0.313138 -7.008231
-0.320280 -7.270020
-0.327709 -7.582008
-0.335477 -7.947428
-0.343640 -8.371173
-0.352255 -8.852392
-0.361395 -9.432614
-0.371177 -10.126817
-0.381697 -10.903659
-0.393027 -11.742706
-0.405217 -12.616758
-0.418293 -13.510471
-0.432267 -14.410761
-0.447142 -15.306855
-0.462907 -16.189934
-0.479548 -17.054861
-0.497045 -17.901963
-0.515381 -18.729423
-0.534535 -19.537562
-0.554488 -20.323092
-0.575217 -21.094044
-0.596699 -21.808831
-0.618842 -22.414820
-0.641542 -22.926750
-0.664717 -23.365113
-0.688296 -23.733753
-0.712208 -24.030017
-0.736380 -24.253187
-0.760738 -24.402507
-0.785208 -24.475870
-0.809712 -24.468599
-0.834167 -24.379776
-0.858492 -24.206012
-0.882598 -23.944073
-0.906400 -23.596570
-0.929811 -23.164798
-0.952748 -22.651508
-0.975134 -22.061523
-0.996892 -21.399852
-1.017954 -20.672742
-1.038259 -19.886529
-1.057750 -19.047604
-1.076377 -18.163359
-1.094100 -17.240883
-1.110883 -16.286649
-1.126697 -15.307313
-1.141522 -14.310620
-1.155344 -13.303590
-1.168154 -12.290590
-1.179949 -11.275338
-1.190727 -10.260483
-1.200491 -9.247275
-1.209241 -8.236023
-1.216980 -7.227798
-1.223712 -6.223216
-1.229441 -5.222587
-1.234170 -4.227018
-1.237905 -3.236206
-1.240653 -2.259229
-1.242423 -1.266684
-1.243229 -0.392272
-1.243314 0.163322
-1.242964 0.531972
-1.242236 0.938992
-1.241060 1.418551
-1.239378 1.953904
-1.237124 2.560381
-1.234225 3.248171
-1.230590 4.029980
-1.226123 4.912013
-1.220722 5.896941
-1.214285 6.979630
-1.206721 8.144569
-1.197962 9.361452
-1.187978 10.584448
-1.176790 11.755219
-1.164482 12.811058
-1.151198 13.697545
-1.137128 14.378438
-1.122486 14.840771
-1.107488 15.091002
-1.092337 15.150513
-1.077211 15.047059
-1.062258 14.807844
-1.047602 14.459581
-1.033338 14.027652
-1.019539 13.535044
-1.006255 13.000771
-0.993520 12.439781
-0.981355 11.862898
-0.969773 11.278063
-0.958777 10.691166
-0.948369 10.105529
-0.938545 9.523150
-0.929302 8.945678
-0.920634 8.373273
-0.912537 7.806353
-0.905003 7.247237
-0.898025 6.696980
-0.891592 6.157744
-0.885693 5.631987
-0.880312 5.121654
-0.875432 4.630684
-0.871034 4.161980
-0.867092 3.718025
-0.863581 3.301300
-0.860473 2.913734
-0.857738 2.555757
-0.855347 2.227247
-0.853269 1.928882
-0.851475 1.658937
-0.849939 1.416657
-0.848630 1.201350
-0.847525 1.010418
-0.846599 0.843306
-0.845830 0.698442
-0.845194 0.573978
-0.844674 0.469051
-0.844249 0.382434
-0.843903 0.311857
-0.843621 0.253493
-0.843391 0.207683
-0.843200 0.177457
-0.843030 0.164776
-0.842864 0.170727
-0.842683 0.192463
-0.842474 0.226788
-0.842226 0.271065
-0.841929 0.323734
-0.841574 0.385729
-0.841153 0.457939
-0.840654 0.540670
-0.840067 0.633775
-0.839382 0.736532
-0.838589 0.848918
-0.837679 0.970769
-0.836643 1.100854
-0.835473 1.239074
-0.834160 1.385000
-0.832698 1.537873
-0.831079 1.696660
-0.829299 1.860220
-0.827354 2.028058
-0.825238 2.198804
-0.822951 2.371015
-0.820491 2.543284
-0.817860 2.714165
-0.815059 2.882524
-0.812090 3.046955
-0.808960 3.206224
-0.805674 3.358969
-0.802238 3.503925
-0.798662 3.640333
-0.794953 3.767257
-0.791123 3.884161
-0.787181 3.989659
-0.783140 4.082907
-0.779011 4.163669
-0.774808 4.231429
-0.770544 4.286169
-0.766232 4.328013
-0.761884 4.357058
-0.757514 4.372358
-0.753135 4.374394
-0.748760 4.363907
-0.744403 4.340445
-0.740075 4.304646
-0.735788 4.258559
-0.731552 4.203235
-0.727377 4.138028
-0.723271 4.064475
-0.719242 3.984064
-0.715297 3.897159
-0.711441 3.805713
-0.707679 3.710390
-0.704014 3.612663
-0.700449 3.506445
-0.696999 3.384566
-0.693681 3.239340
-0.690524 3.062650
-0.687559 2.857318
-0.684814 2.622979
-0.682318 2.360136
-0.680096 2.075911
-0.678168 1.772057
-0.676551 1.460173
-0.675243 1.154631
-0.674236 0.859753
-0.673516 0.582095
-0.673066 0.318875
-0.672876 0.059653
-0.672959 -0.238389
-0.673372 -0.592224
-0.674155 -0.976201
-0.675334 -1.382084
-0.676924 -1.795098
-0.678921 -2.188820
-0.681294 -2.547185
-0.684009 -2.872636
-0.687037 -3.171703
-0.690352 -3.449345
-0.693936 -3.709313
-0.697773 -3.953598
-0.701846 -4.182591
-0.706141 -4.396062
-0.710641 -4.591471
-0.715326 -4.766121
-0.720175 -4.917745
-0.725163 -5.044108
-0.730265 -5.143769
-0.735452 -5.216417
-0.740699 -5.262450
-0.745979 -5.283638
-0.751269 -5.282003
-0.756547 -5.259683
-0.761793 -5.218986
-0.766990 -5.161587
-0.772122 -5.089748
-0.777175 -5.003893
-0.782135 -4.904356
-0.786989 -4.792703
-0.791726 -4.668978
-0.796333 -4.533118
-0.800797 -4.385865
-0.805109 -4.227419
-0.809257 -4.057545
-0.813229 -3.876431
-0.817014 -3.683935
-0.820600 -3.479099
-0.823975 -3.262872
-0.827129 -3.035810
-0.830049 -2.796994
-0.832725 -2.547548
-0.835146 -2.287465
-0.837300 -2.016224
-0.839179 -1.735683
-0.840773 -1.446807
-0.842072 -1.149035
-0.843071 -0.846246
-0.843769 -0.550813
-0.844181 -0.276676
-0.844333 -0.032865
-0.844258 0.176592
-0.843987 0.362634
-0.843535 0.541202
-0.842903 0.722708
-0.842084 0.915738
-0.841064 1.126032
-0.839823 1.356402
-0.838341 1.608172
-0.836596 1.882480
-0.834565 2.179734
-0.832224 2.502034
-0.829547 2.849640
-0.826510 3.223599
-0.823086 3.621084
-0.819249 4.054668
-0.814982 4.447833
-0.810363 4.785506
-0.805379 5.191088
-0.799962 5.619377
-0.794147 5.992320
-0.787957 6.390220
-0.781334 6.848022
-0.774250 7.297357
-0.766726 7.742599
-0.758748 8.193458
-0.750357 8.542353
-0.741710 8.700259
-0.733049 8.527478
-0.724840 7.748747
-0.717684 6.526836
-0.711777 5.294216
-0.707084 4.063270
-0.703626 2.879875
-0.701258 1.877168
-0.699805 1.064428
-0.699066 0.434871
-0.698916 -0.140431
-0.699349 -0.718718
-0.700340 -1.252489
-0.701843 -1.747872
-0.703820 -2.186237
-0.706191 -2.538870
-0.708879 -2.819521
-0.711809 -3.020060
-0.714901 -3.148884
-0.718096 -3.226670
-0.721347 -3.261695
-0.724615 -3.264121
-0.727873 -3.240840
-0.731097 -3.197439
-0.734269 -3.137894
-0.737375 -3.065790
-0.740403 -2.984022
-0.743346 -2.894249
-0.746196 -2.798174
-0.748946 -2.696996
-0.751594 -2.591546
-0.754134 -2.482970
-0.756564 -2.371410
-0.758880 -2.257236
-0.761082 -2.141045
-0.763166 -2.023060
-0.765131 -1.903258
-0.766976 -1.781808
-0.768698 -1.659249
-0.770297 -1.535026
-0.771771 -1.409376
-0.773118 -1.282581
-0.774339 -1.155490
-0.775432 -1.028484
-0.776397 -0.900276
-0.777234 -0.771681
-0.777942 -0.643093
-0.778522 -0.515242
-0.778973 -0.385942
-0.779295 -0.258117
-0.779492 -0.137073
-0.779574 -0.031603
-0.779561 0.057836
-0.779462 0.137263
-0.779289 0.206224
-0.779048 0.277023
-0.778732 0.356109
-0.778333 0.442036
-0.777845 0.535179
-0.777260 0.634922
-0.776571 0.741369
-0.775773 0.854757
-0.774858 0.974710
-0.773820 1.100646
-0.772652 1.233079
-0.771349 1.371847
-0.769904 1.516423
-0.768311 1.666744
-0.766565 1.822388
-0.764661 1.983463
-0.762593 2.149804
-0.760355 2.320668
-0.757945 2.495945
-0.755357 2.675392
-0.752588 2.858707
-0.749633 3.045510
-0.746490 3.235413
-0.743155 3.427797
-0.739626 3.622724
-0.735901 3.819728
-0.731980 4.015599
-0.727864 4.205301
-0.723565 4.381104
-0.719100 4.537488
-0.714488 4.673021
-0.709751 4.787745
-0.704910 4.881007
-0.699986 4.953703
-0.694997 5.012563
-0.689953 5.065158
-0.684856 5.119285
-0.679702 5.182233
-0.674477 5.259471
-0.669166 5.355732
-0.663748 5.472607
-0.658202 5.612824
-0.652503 5.775989
-0.646631 5.960333
-0.640563 6.166334
-0.634280 6.391041
-0.627763 6.632918
-0.620996 6.888389
-0.613969 7.154018
-0.606672 7.424304
-0.599107 7.690411
-0.591280 7.944944
-0.583207 8.180414
-0.574909 8.395704
-0.566405 8.594725
-0.557708 8.779029
-0.548832 8.952717
-0.539786 9.121507
-0.530572 9.286785
-0.521194 9.451736
-0.511649 9.618980
-0.501936 9.788152
-0.492052 9.960826
-0.481994 10.134589
-0.471761 10.314078
-0.461344 10.497824
-0.450744 10.683127
-0.439956 10.870662
-0.428981 11.057889
-0.417817 11.247615
-0.406463 11.436526
-0.394922 11.623013
-0.383194 11.809200
-0.371281 11.991330
-0.359188 12.169814
-0.346917 12.348092
-0.334469 12.521937
-0.321850 12.690552
-0.309064 12.854480
-0.296116 13.017273
-0.283005 13.176354
-0.269738 13.332151
-0.256313 13.490172
-0.242734 13.636605
-0.229019 13.763303
-0.215184 13.877356
-0.201237 13.991491
-0.187175 14.101425
-0.173007 14.207215
-0.158733 14.308747
-0.144375 14.366631
-0.130012 14.302600
-0.115811 14.029683
-0.102018 13.475773
-0.088941 12.595631
-0.076887 11.458127
-0.066032 10.232667
-0.056390 9.043233
-0.047899 7.936749
-0.040466 6.933808
-0.033985 6.030494
-0.028364 5.213898
-0.023521 4.474190
-0.019383 3.804279
-0.015884 3.197194
-0.012964 2.645786
-0.010569 2.146133
-0.008648 1.702863
-0.007140 1.322032
-0.005983 0.997867
-0.005126 0.721187
-0.004527 0.479337
-0.004161 0.252821
-0.004015 0.045116
-0.004062 -0.134971
-0.004273 -0.279733
-0.004606 -0.376927
-0.005011 -0.422896
-0.005435 -0.415279
-0.005825 -0.356303
-0.006131 -0.248198
-0.006309 -0.102205
-0.006330 0.063468
-0.006179 0.238401
-0.005849 0.422137
-0.005331 0.616219
-0.004607 0.835470
-0.003644 1.096409
-0.002397 1.403089
-0.000816 1.766904
0.001162 2.195423
0.003603 2.693990
0.006585 3.281912
0.010208 3.974857
0.014580 4.778686
0.019818 5.711607
0.026064 6.792300
0.033469 8.030316
0.042196 9.436019
0.052416 11.010361
0.064290 12.738279
0.077959 14.589503
0.093525 16.519989
0.111040 18.473744
0.130499 20.396311
0.151849 22.246307
0.175003 23.996245
0.199854 25.638854
0.226302 27.192877
0.254272 28.680653
0.283705 30.119069
0.314562 31.531298
0.346828 32.935511
0.380498 34.338500
0.415576 35.748779
0.452070 37.167873
0.489987 38.590808
0.529334 40.026782
0.570123 41.468758
0.612354 42.910524
0.656032 44.357188
0.701157 45.803236
0.747729 47.247281
0.795745 48.686621
0.845165 50.022889
0.895865 51.281046
0.947838 52.563092
1.001103 53.865702
1.055691 55.208710
1.111636 56.568293
1.168930 57.896094
1.227517 59.143063
1.287344 60.417297
1.348449 61.619973
1.410834 63.202522
1.475309 65.769084
1.542751 69.076835
1.613857 73.151513
1.689396 77.811456
1.769781 82.907797
1.855420 88.130752
1.945905 92.413002
2.039914 95.145896
2.135870 96.327955
2.232261 96.008063
2.327579 94.190593
2.420439 91.199405
2.509796 87.117769
2.594529 82.076929
2.673908 76.416791
2.747318 70.162580
2.814206 63.407046
2.874172 56.391255
2.927220 49.729217
2.973961 43.759813
3.014856 37.879030
3.049691 31.687921
3.078328 25.592786
3.101174 20.235132
3.119234 16.062694
3.133712 13.031329
3.145558 10.705102
3.155268 8.750501
3.163175 7.092654
3.169545 5.666774
3.174573 4.398576
3.178409 3.304170
3.181211 2.279849
3.182844 0.868581
3.182808 -0.967540
3.180841 -3.002516
3.176779 -5.091979
3.170679 -7.085214
3.162628 -8.979257
3.152766 -10.682280
3.141328 -12.125768
3.128574 -13.317666
3.114748 -14.265434
3.100094 -14.976427
3.084835 -15.478638
3.069166 -15.800250
3.053250 -15.979977
3.037210 -16.051554
3.021141 -16.044101
3.005103 -15.997042
2.989113 -15.955729
2.973152 -15.936802
2.957198 -15.946124
2.941212 -16.001336
2.925144 -16.113563
2.908929 -16.297906
2.892489 -16.562998
2.875742 -16.910936
2.858603 -17.349047
2.840977 -17.884116
2.822767 -18.515765
2.803876 -19.245155
2.784206 -20.069770
2.763663 -20.993154
2.742147 -22.009032
2.719570 -23.116010
2.695840 -24.309090
2.670880 -25.573735
2.644617 -26.909807
2.616986 -28.304935
2.587935 -29.749132
2.557416 -31.231472
2.525402 -32.736430
2.491874 -34.251727
2.456830 -35.765353
2.420278 -37.260051
2.382247 -38.720021
2.342776 -40.133614
2.301920 -41.484541
2.259748 -42.762436
2.216339 -43.951461
2.171790 -45.042333
2.126200 -46.026024
2.079686 -46.890058
2.032366 -47.635346
1.984362 -48.254681
1.935804 -48.742187
1.886823 -49.099644
1.837551 -49.324510
1.788117 -49.424153
1.738645 -49.398065
1.689263 -49.249850
1.640084 -48.990003
1.591222 -48.617635
1.542785 -48.144710
1.494868 -47.577876
1.447563 -46.924857
1.400949 -46.196769
1.355102 -45.394350
1.310090 -44.532134
1.265966 -43.618035
1.222783 -42.654246
1.180584 -41.654275
1.139401 -40.624851
1.099261 -39.570195
1.060188 -38.495974
1.022196 -37.410464
0.985293 -36.321601
0.949481 -35.231127
0.914759 -34.144904
0.881120 -33.066774
0.848555 -32.001270
0.817048 -30.951596
0.786584 -29.918209
0.757143 -28.909658
0.728699 -27.924471
0.701230 -26.963683
0.674708 -26.032011
0.649105 -25.128807
0.624390 -24.254922
0.600536 -23.410803
0.577511 -22.600082
0.555281 -21.819622
0.533818 -21.067799
0.513093 -20.347613
0.493072 -19.657347
0.473729 -18.995015
0.455034 -18.363149
0.436957 -17.757564
0.419476 -17.174353
0.402566 -16.616055
0.386202 -16.083033
0.370361 -15.570483
0.355024 -15.076841
0.340171 -14.601936
0.325785 -14.143141
0.311851 -13.699735
0.298355 -13.268010
0.285283 -12.851810
0.272621 -12.447163
0.260362 -12.047972
0.248497 -11.660159
0.237016 -11.280426
0.225912 -10.906099
0.215179 -10.538545
0.204812 -10.176083
0.194805 -9.820585
0.185150 -9.468975
0.175847 -9.120825
0.166888 -8.778898
0.158270 -8.441069
0.149988 -8.106736
0.142038 -7.779150
0.134412 -7.456910
0.127107 -7.139568
0.120117 -6.828242
0.113435 -6.524849
0.107052 -6.228157
0.100964 -5.935801
0.095165 -5.654188
0.089642 -5.380906
0.084390 -5.113372
0.079401 -4.856824
0.074664 -4.607938
0.070173 -4.368797
0.065914 -4.142116
0.061877 -3.924746
0.058054 -3.716522
0.054433 -3.518555
0.051005 -3.332918
0.047758 -3.156721
0.044681 -2.993447
0.041762 -2.839984
0.038993 -2.695475
0.036361 -2.563726
0.033858 -2.437980
0.031476 -2.323926
0.029202 -2.220345
0.027030 -2.121099
0.024952 -2.032017
0.022959 -1.951218
0.021045 -1.874214
0.019205 -1.801450
0.017437 -1.733023
0.015736 -1.664225
0.014104 -1.596923
0.012539 -1.529177
0.011044 -1.459164
0.009618 -1.388210
0.008265 -1.315806
0.006984 -1.243344
0.005776 -1.170601
0.004640 -1.100038
0.003573 -1.030113
0.002577 -0.960646
0.001649 -0.894741
0.000783 -0.836581
-0.000026 -0.779577
-0.000778 -0.724363
-0.001480 -0.681168
-0.002143 -0.641425
-0.002766 -0.605027
-0.003357 -0.576431
-0.003923 -0.556107
-0.004472 -0.540831
-0.005007 -0.529410
-0.005535 -0.527662
-0.006064 -0.527720
-0.006593 -0.532946
-0.007132 -0.543215
-0.007681 -0.554222
-0.008243 -0.569015
-0.008821 -0.586949
-0.009418 -0.604208
-0.010030 -0.620517
-0.010660 -0.637174
-0.011305 -0.649855
-0.011962 -0.663546
-0.012632 -0.673909
-0.013309 -0.679519
-0.013992 -0.683619
-0.014676 -0.682274
-0.015358 -0.680036
-0.016036 -0.672971
-0.016702 -0.658754
-0.017354 -0.643512
-0.017990 -0.625731
-0.018605 -0.600897
-0.019193 -0.575184
-0.019757 -0.551713
-0.020295 -0.522932
-0.020802 -0.488783
-0.021274 -0.456191
-0.021716 -0.425383
-0.022125 -0.392187
-0.022501 -0.359002
-0.022845 -0.327569
-0.023157 -0.296748
-0.023439 -0.267008
-0.023692 -0.237493
-0.023916 -0.213421
-0.024119 -0.190190
-0.024296 -0.164511
-0.024451 -0.147190
-0.024591 -0.130534
-0.024712 -0.112298
-0.024818 -0.098863
-0.024911 -0.087510
-0.024993 -0.077049
-0.025065 -0.067723
-0.025129 -0.058709
-0.025183 -0.050237
-0.025230 -0.043303
-0.025270 -0.037468
-0.025304 -0.028252
-0.025328 -0.021658
-0.025347 -0.014634
-0.025356 -0.004093
-0.025357 0.000686
-0.025353 0.009017
-0.025338 0.018959
-0.025318 0.021127
-0.025295 0.027554
-0.025261 0.039073
-0.025218 0.045185
-0.025170 0.052498
-0.025111 0.065003
-0.025041 0.075699
-0.024960 0.084839
-0.024870 0.096009
-0.024768 0.107252
-0.024655 0.119940
-0.024528 0.133427
-0.024389 0.144237
-0.024239 0.155137
-0.024077 0.168413
-0.023902 0.182310
-0.023714 0.192334
-0.023517 0.202589
-0.023307 0.214455
-0.023088 0.223069
-0.022860 0.233727
-0.022621 0.243871
-0.022373 0.250136
-0.022119 0.258125
-0.021856 0.267655
-0.021585 0.272410
-0.021310 0.277823
-0.021028 0.285688
-0.020740 0.290048
-0.020447 0.294479
-0.020150 0.299362
-0.019848 0.303974
-0.019542 0.307838
-0.019232 0.310615
-0.018920 0.313999
-0.018603 0.318209
-0.018283 0.320826
-0.017961 0.324037
-0.017634 0.329488
-0.017303 0.330366
-0.016971 0.333129
-0.016635 0.337077
-0.016298 0.337779
-0.015958 0.342021
-0.015614 0.344433
-0.015268 0.346387
-0.014920 0.349648
-0.014570 0.349508
-0.014219 0.351621
-0.013865 0.354885
-0.013510 0.354078
-0.013157 0.352451
-0.012803 0.354750
-0.012447 0.354883
-0.012094 0.350459
-0.011744 0.350781
-0.011393 0.349289
-0.011045 0.346937
-0.010698 0.345496
-0.010354 0.340621
-0.010015 0.339309
-0.009676 0.334681
-0.009346 0.326677
-0.009020 0.324214
-0.008697 0.321224
-0.008378 0.315474
-0.008065 0.309772
-0.007758 0.304040
-0.007456 0.299726
-0.007159 0.292933
-0.006869 0.286951
-0.006584 0.282654
-0.006304 0.276635
-0.006030 0.270812
-0.005762 0.264746
-0.005499 0.260395
-0.005241 0.254176
-0.004991 0.246477
-0.004746 0.243337
-0.004504 0.238504
-0.004270 0.230827
-0.004041 0.226367
-0.003816 0.222499
-0.003596 0.217677
-0.003381 0.210574
-0.003174 0.205050
-0.002972 0.194800
-0.002787 0.175301
-0.002624 0.148159
-0.002495 0.107506
-0.002413 0.054011
-0.002394 -0.020232
-0.002475 -0.158187
-0.002744 -0.396960
-0.003314 -0.767556
-0.004337 -1.305795
-0.005974 -1.983516
-0.008334 -2.741067
-0.011474 -3.534553
-0.015406 -4.315180
-0.020090 -5.028671
-0.025439 -5.640018
-0.031334 -6.108483
-0.037611 -6.404133
-0.044094 -6.515751
-0.050590 -6.430715
-0.056906 -6.160715
-0.062867 -5.719957
-0.068310 -5.135374
-0.073110 -4.437623
-0.077163 -3.648722
-0.080390 -2.786269
-0.082734 -1.902089
-0.084219 -1.080902
-0.084934 -0.367447
-0.085014 0.167888
-0.084650 0.547037
-0.083946 0.844772
-0.082976 1.090666
-0.081771 1.311976
-0.080363 1.494001
-0.078795 1.629704
-0.077118 1.711269
-0.075387 1.739279
-0.073655 1.711523
-0.071978 1.630880
-0.070405 1.506032
-0.068978 1.336778
-0.067739 1.136450
-0.066709 0.917655
-0.065904 0.692856
-0.065322 0.468921
-0.064968 0.234520
-0.064860 -0.023291
-0.065028 -0.319731
-0.065515 -0.660084
-0.066354 -1.014241
-0.067531 -1.324373
-0.068976 -1.545337
-0.070592 -1.670240
-0.072287 -1.697405
-0.073960 -1.634095
-0.075532 -1.492005
-0.076919 -1.266001
-0.078043 -0.968891
-0.078850 -0.642987
-0.079330 -0.315800
-0.079493 -0.023049
-0.079398 0.204149
-0.079103 0.376866
-0.078646 0.542038
-0.078025 0.684322
-0.077287 0.791871
-0.076354 1.156421
-0.071717 3.038168
