0.028528 0.024848 -0.000852
-0.852294 19.490663
-0.833336 18.612914
-0.814581 19.083455
-0.794807 20.524625
-0.773484 21.985269
-0.750964 22.930338
-0.727707 23.488765
-0.704130 23.477212
-0.680880 22.941112
-0.658077 22.777756
-0.635270 22.642303
-0.612767 22.449292
-0.590027 23.152644
-0.566233 24.402397
-0.541085 25.917040
-0.514387 27.310511
-0.486467 28.531222
-0.457351 29.502415
-0.427522 30.118462
-0.396891 31.222649
-0.365119 32.013214
-0.332992 32.228717
-0.300545 32.599024
-0.267764 32.863586
-0.234944 32.554318
-0.202455 32.649101
-0.169158 34.007772
-0.134820 34.021986
-0.101566 32.477723
-0.069621 31.471124
-0.038603 30.339374
-0.008994 28.870282
0.019577 28.545092
0.048519 29.314207
0.078160 29.771391
0.107929 29.653640
0.137436 29.262189
0.166422 28.599893
0.194486 27.318948
0.221131 26.086003
0.246850 25.271969
0.271676 24.310285
0.295636 23.696579
0.319097 23.024582
0.341643 22.090093
0.363369 21.299240
0.384341 20.676749
0.404817 20.213713
0.424672 19.340930
0.443558 18.529376
0.461918 18.167904
0.479870 17.624790
0.497082 16.720557
0.513467 16.183771
0.529597 15.992165
0.545320 15.311559
0.560166 14.376728
0.574213 13.771229
0.587866 13.554250
0.601274 13.113672
0.614073 12.532669
0.626555 12.524292
0.639035 12.183156
0.650718 11.160727
0.661497 10.490883
0.671833 10.157068
0.681795 9.713861
0.691349 9.475279
0.700837 9.453285
0.710192 9.184201
0.719101 8.549165
0.727255 7.758770
0.734792 7.440749
0.742169 7.173338
0.749127 6.827241
0.755955 6.835258
0.762713 6.550457
0.768955 5.923924
0.774597 5.370413
0.779778 5.029539
0.784737 4.900310
0.789526 4.585928
0.793920 4.278845
0.798162 4.180486
0.802138 3.625682
0.805413 3.048523
0.808385 2.904479
0.811214 2.719048
0.813727 2.228563
0.815664 1.702429
0.817246 1.507808
0.818622 1.131822
0.819457 0.592193
0.819861 0.212300
0.819843 -0.285646
0.819257 -0.879989
0.818106 -1.400888
0.816503 -1.771181
0.814553 -2.160419
0.812155 -2.617870
0.809266 -3.212916
0.805681 -3.930542
0.801458 -4.467492
0.796760 -4.937784
0.791592 -5.348984
0.786070 -5.702433
0.780144 -6.151059
0.773732 -6.672445
0.766726 -7.371729
0.758961 -8.108858
0.750514 -8.782281
0.741410 -9.361017
0.731805 -9.843043
0.721636 -10.530850
0.710725 -11.211941
0.699219 -11.803728
0.687080 -12.436144
0.674335 -13.029522
0.661006 -13.590390
0.647155 -14.068324
0.632853 -14.510972
0.618126 -14.886725
0.603089 -15.143634
0.587838 -15.313474
0.572483 -15.328476
0.557171 -15.279680
0.541867 -15.308225
0.526516 -15.359889
0.511110 -15.433461
0.495609 -15.535863
0.479999 -15.661144
0.464247 -15.811394
0.448365 -15.901205
0.432428 -15.945528
0.416442 -15.989785
0.400411 -16.050488
0.384300 -16.136310
0.368120 -16.181448
0.351914 -16.200578
0.335696 -16.190997
0.319529 -16.092180
0.303494 -15.948899
0.287595 -15.817995
0.271804 -15.753314
0.256048 -15.716718
0.240386 -15.539904
0.224963 -15.283426
0.209808 -14.969480
0.195021 -14.574996
0.180592 -14.288759
0.166384 -14.095017
0.152373 -13.906054
0.138535 -13.746607
0.124850 -13.592240
0.111343 -13.376463
0.098122 -13.007102
0.085340 -12.526154
0.073026 -12.099003
0.061084 -11.773816
0.049433 -11.514899
0.038016 -11.302258
0.026798 -11.112776
0.015755 -10.961782
0.004849 -10.821217
-0.005886 -10.612177
-0.016393 -10.393107
-0.026705 -10.209199
-0.036833 -10.028247
-0.046762 -9.789661
-0.056395 -9.441306
-0.065663 -9.090459
-0.074610 -8.786119
-0.083258 -8.498626
-0.091634 -8.240659
-0.099766 -8.012326
-0.107684 -7.811402
-0.115410 -7.627151
-0.122956 -7.451287
-0.130330 -7.283842
-0.137541 -7.123719
-0.144592 -6.963439
-0.151480 -6.799022
-0.158203 -6.633818
-0.164762 -6.471141
-0.171160 -6.313095
-0.177402 -6.159284
-0.183492 -6.009285
-0.189434 -5.863003
-0.195231 -5.719450
-0.200885 -5.577952
-0.206398 -5.437379
-0.211771 -5.297107
-0.217003 -5.156398
-0.222093 -5.013878
-0.227040 -4.869737
-0.231842 -4.723671
-0.236496 -4.575227
-0.241001 -4.424469
-0.245354 -4.272002
-0.249552 -4.115171
-0.253593 -3.962417
-0.257479 -3.792159
-0.261195 -3.649851
-0.264779 -3.487706
-0.268012 -2.830454
-0.270166 -1.333713
-0.270535 0.603993
-0.268985 2.457066
-0.265685 4.104127
-0.260887 5.395527
-0.255028 6.250903
-0.248489 6.757965
-0.241514 7.219458
-0.233914 8.043976
-0.225384 8.945362
-0.216162 9.378960
-0.206744 9.402378
-0.197397 9.250751
-0.188301 8.870768
-0.179663 8.414253
-0.171375 8.197776
-0.163167 8.232634
-0.154867 8.346001
-0.146482 8.387687
-0.138114 8.312728
-0.129908 8.034780
-0.122100 7.540682
-0.114841 6.957987
-0.108138 6.472947
-0.101788 6.271166
-0.095477 6.387629
-0.088914 6.761839
-0.081857 7.383879
-0.074095 8.114812
-0.065664 8.688139
-0.056753 9.105673
-0.047446 9.488598
-0.037790 9.773018
-0.027937 9.887518
-0.018060 9.808361
-0.008344 9.598436
0.001218 9.571414
0.010889 9.758091
0.020733 9.883350
0.030603 9.790118
0.040262 9.485138
0.049559 9.080746
0.058392 8.528178
0.066584 7.830575
0.074039 7.042325
0.080700 6.306457
0.086772 5.894386
0.092554 5.640489
0.098033 5.291307
0.103158 4.975559
0.108088 4.940521
0.113134 5.160324
0.118429 5.411268
0.123978 5.695695
0.129839 6.001725
0.135940 6.146902
0.142087 6.118789
0.148189 6.088362
0.154269 6.036931
0.160221 5.823319
0.165899 5.525173
0.171286 5.236111
0.176374 4.923013
0.181140 4.604958
0.185614 4.350697
0.189863 4.134780
0.193870 3.851119
0.197560 3.528486
0.200964 3.297561
0.204210 3.212118
0.207434 3.243278
0.210713 3.303505
0.214047 3.362604
0.217435 3.394303
0.220808 3.322837
0.224058 3.162472
0.227120 2.944079
0.229928 2.654253
0.232435 2.367297
0.234682 2.124343
0.236676 1.845389
0.238358 1.510588
0.239693 1.156673
0.240673 0.801598
0.241294 0.435043
0.241546 0.072995
0.241447 -0.270922
0.241040 -0.506261
0.240484 -0.588128
0.239861 -0.675397
0.239128 -0.775438
0.238325 -0.823880
0.237469 -0.902003
0.236498 -1.044372
0.235364 -1.228077
0.234038 -1.417157
0.232534 -1.585868
0.230855 -1.778892
0.228968 -1.985332
0.226898 -2.138166
0.224695 -2.266843
0.222358 -2.399360
0.219897 -2.515732
0.217317 -2.645439
0.214594 -2.797151
0.211717 -2.951580
0.208689 -3.093440
0.205537 -3.196356
0.202298 -3.273341
0.198989 -3.334184
0.195639 -3.347500
0.192293 -3.343464
0.188936 -3.367497
0.185548 -3.401746
0.182130 -3.424137
0.178700 -3.423818
0.175274 -3.426564
0.171831 -3.455214
0.168352 -3.497620
0.164825 -3.551346
0.161240 -3.613301
0.157590 -3.681036
0.153868 -3.755891
0.150077 -3.812334
0.146243 -3.846242
0.142374 -3.887772
0.138457 -3.937223
0.134491 -3.988423
0.130471 -4.043751
0.126394 -4.101486
0.122260 -4.159320
0.118067 -4.217147
0.113816 -4.277707
0.109507 -4.327883
0.105163 -4.342719
0.100823 -4.328307
0.096500 -4.309464
0.092189 -4.308195
0.087873 -4.311997
0.083567 -4.284195
0.079298 -4.250269
0.075052 -4.234117
0.070818 -4.228070
0.066587 -4.224644
0.062366 -4.204319
0.058173 -4.174620
0.054005 -4.153277
0.049855 -4.140397
0.045720 -4.115667
0.041622 -4.070218
0.037570 -4.029652
0.033551 -4.000515
0.029559 -3.976103
0.025590 -3.955741
0.021639 -3.937787
0.017704 -3.927797
0.013783 -3.896901
0.009918 -3.816949
0.006145 -3.726974
0.002451 -3.655486
-0.001177 -3.594045
-0.004747 -3.540032
-0.008266 -3.492201
-0.011740 -3.447966
-0.015171 -3.409642
-0.018565 -3.368652
-0.021908 -3.307623
-0.025183 -3.234127
-0.028385 -3.167287
-0.031525 -3.104525
-0.034603 -3.050155
-0.037631 -2.994154
-0.040586 -2.904218
-0.043439 -2.795867
-0.046187 -2.697719
-0.048843 -2.610665
-0.051416 -2.530551
-0.053912 -2.457019
-0.056337 -2.388852
-0.058695 -2.323673
-0.060990 -2.260891
-0.063222 -2.200038
-0.065395 -2.140448
-0.067507 -2.081368
-0.069561 -2.021289
-0.071554 -1.961409
-0.073489 -1.904548
-0.075362 -1.833653
-0.077153 -1.743125
-0.078857 -1.666202
-0.080480 -1.561690
-0.082027 -1.589898
-0.083498 -1.123435
-0.084898 -2.518808
-0.086216 3.052179
-0.087284 -16.841365
-0.089185 55.415166
0.000000 56.770954
0.000000 -15.211731
0.000000 4.075971
0.000000 -1.092153
0.000000 0.292642
0.000000 -0.078413
0.000000 0.021011
0.000000 -0.005630
0.000000 0.001509
0.000000 -0.000404
0.000000 0.000108
0.000000 -0.000029
0.000000 0.000008
0.000000 -0.000002
0.000000 0.000001
0.000000 -0.000000
0.000000 0.000000
0.000000 -0.000000
0.000000 0.000000
0.000000 -0.000000
0.000000 0.000000
0.000000 -0.000000
0.000000 0.000000
0.000000 -0.000000
0.000000 0.000000
0.000000 -0.000000
0.000000 0.000000
0.000000 -0.000000
0.000000 0.000000
0.000000 -0.000000
0.000000 0.000000
0.000000 -0.000000
0.000000 0.000000
0.000000 -0.000000
0.000000 0.000000
0.000000 -0.000000
0.000000 0.000000
0.000000 -0.000000
0.000000 0.000000
0.000000 -0.000000
0.000000 0.000000
0.000000 -0.000000
0.000000 0.000000
0.000000 -0.000000
0.000000 0.000000
0.000000 -0.000000
0.000000 0.000000
0.000000 -0.000000
0.000000 0.000000
0.000000 -0.000000
0.000000 0.000000
0.000000 -0.000000
0.000000 0.000000
0.000000 -0.000000
0.000000 0.000000
0.000000 -0.000000
0.000000 0.000000
0.000000 -0.000000
0.000000 0.000000
0.000000 -0.000000
0.000000 0.000000
0.000000 -0.000000
0.000000 0.000000
0.000000 -0.000000
0.000000 0.000000
0.000000 -0.000000
0.000000 0.000000
0.000000 -0.000000
0.000000 0.000000
0.000000 -0.000000
0.000000 0.000000
0.000000 -0.000000
0.000000 0.000000
0.000000 -0.000000
0.000000 0.000000
0.000000 -0.000000
0.000000 0.000000
0.000000 -0.000000
0.000000 0.000000
0.000000 -0.000000
0.000000 0.000000
0.000000 -0.000000
0.000000 0.000000
0.000000 -0.000000
0.000000 0.000000
0.000000 -0.000000
0.000000 0.000000
0.000000 -0.000000
0.000000 0.000000
0.000000 -0.000000
0.000000 0.000000
0.000000 -0.000000
0.000000 0.000000
0.000000 -0.000000
0.000000 0.000000
0.000000 -0.000000
0.000000 0.000000
0.000000 -0.000000
0.000000 0.000000
0.000000 -0.000000
0.000000 0.000000
0.000000 -0.000000
0.000000 0.000000
0.000000 -0.000000
0.000000 0.000000
0.000000 -0.000000
0.000000 0.000000
0.000000 -0.000000
0.000000 0.000000
0.000000 -0.000000
0.000000 0.000000
0.000000 -0.000000
0.000000 0.000000
0.000000 -0.000000
0.000000 0.000000
0.000000 -0.000000
0.000000 0.000000
0.000000 -0.000000
0.000000 0.000000
0.000000 -0.000000
0.000000 0.000000
0.000000 -0.000000
0.000000 0.000000
0.000000 -0.000000
0.000000 0.000000
0.000000 -0.000000
0.000000 0.000000
0.000000 -0.000000
0.000000 0.000000
0.000000 -0.000000
0.000000 0.000000
0.000000 -0.000000
0.000000 0.000000
0.000000 -0.000000
0.000000 0.000000
0.000000 -0.000000
0.000000 0.000000
0.000000 -0.000000
0.000000 0.000000
0.000000 -0.000000
0.000000 0.000000
0.000000 -0.000000
0.000000 0.000000
0.000000 -0.000000
0.000000 0.000000
0.000000 -0.000000
0.000000 0.000000
0.000000 -0.000000
0.000000 0.000000
0.000000 -0.000000
0.000000 0.000000
0.000000 -0.000000
0.000000 0.000000
0.000000 -0.000000
0.000000 0.000000
0.000000 -0.000000
0.000000 0.000000
0.000000 -0.000000
0.000000 0.000000
0.000000 -0.000000
0.000000 0.000000
0.000000 -0.000000
0.000000 0.000000
0.000000 -0.000000
0.000000 0.000000
0.000000 -0.000000
0.000000 0.000000
0.000000 -0.000000
0.000000 0.000000
0.000000 -0.000000
0.000000 0.000000
0.000000 -0.000000
0.000000 0.000000
0.000000 -0.000000
0.000000 0.000000
0.000000 -0.000000
0.000000 0.000000
0.000000 -0.000000
0.000000 0.000000
0.000000 -0.000000
0.000000 0.000000
0.000000 -0.000000
0.000000 0.000000
0.000000 -0.000000
0.000000 0.000000
0.000000 -0.000000
0.000000 0.000000
0.000000 -0.000000
0.000000 0.000000
0.000000 -0.000000
0.000000 0.000000
0.000000 -0.000000
0.000000 0.000000
0.000000 -0.000000
0.000000 0.000000
0.000000 -0.000000
0.000000 0.000000
0.000000 -0.000000
0.000000 0.000000
0.000000 -0.000000
0.000000 0.000000
0.000000 -0.000000
0.000000 0.000000
0.000000 -0.000000
0.000000 0.000000
0.000000 -0.000000
0.000000 0.000000
0.000000 -0.000000
0.000000 0.000000
0.000000 -0.000000
0.000000 0.000000
0.000000 -0.000000
0.000000 0.000000
0.000000 -0.000000
0.000000 0.000000
0.000000 -0.000000
0.000000 0.000000
0.000000 -0.000000
0.000000 0.000000
0.000000 -0.000000
0.000000 0.000000
0.000000 -0.000000
0.000000 0.000000
0.000000 -0.000000
0.000000 0.000000
0.000000 -0.000000
0.000000 0.000000
0.000000 -0.000000
0.000000 0.000000
0.000000 -0.000000
0.000000 0.000000
0.000000 -0.000000
0.000000 0.000000
0.000000 -0.000000
0.000000 0.000000
0.000000 -0.000000
0.000000 0.000000
0.000000 -0.000000
0.000000 0.000000
0.000000 -0.000000
0.000000 0.000000
0.000000 -0.000000
0.000000 0.000000
0.000000 -0.000000
0.000000 0.000000
0.000000 -0.000000
0.000000 0.000000
0.000000 -0.000000
0.000000 0.000000
0.000000 -0.000000
0.000000 0.000000
0.000000 -0.000000
0.000000 0.000000
0.000000 -0.000000
0.000000 0.000000
0.000000 -0.000000
0.000000 0.000000
0.000000 -0.000000
0.000000 0.000000
0.000000 -0.000000
0.000000 0.000000
0.000000 -0.000000
0.000000 0.000000
0.000000 -0.000000
0.000000 0.000000
0.000000 -0.000000
0.000000 0.000000
0.000000 -0.000000
0.000000 0.000000
0.000000 -0.000000
0.000000 0.000000
0.000000 -0.000000
0.000000 0.000000
0.000000 -0.000000
0.000000 0.000000
0.000000 -0.000000
0.000000 0.000000
0.000000 -0.000000
0.000000 0.000000
0.000000 -0.000000
0.000000 0.000000
0.000000 -0.000000
0.000000 0.000000
0.000000 -0.000000
0.000000 0.000000
0.000000 -0.000000
0.000000 0.000000
0.000000 -0.000000
0.000000 0.000000
0.000000 -0.000000
0.000000 0.000000
0.000000 -0.000000
0.000000 0.000000
0.000000 -0.000000
0.000000 0.000000
0.000000 -0.000000
0.000000 0.000000
0.000000 -0.000000
0.000000 0.000000
0.000000 -0.000000
0.000000 0.000000
0.000000 -0.000000
0.000000 0.000000
0.000000 -0.000000
0.000000 0.000000
0.000000 -0.000000
0.000000 0.000000
0.000000 -0.000000
0.000000 0.000000
0.000000 -0.000000
0.000000 0.000000
0.000000 -0.000000
0.000000 0.000000
0.000000 -0.000000
0.000000 0.000000
0.000000 -0.000000
0.000000 0.000000
0.000000 -0.000000
0.000000 0.000000
0.000000 -0.000000
0.000000 0.000000
0.000000 -0.000000
0.000000 0.000000
0.000000 -0.000000
0.000000 0.000000
0.000000 -0.000000
0.000000 0.000000
0.000000 -0.000000
0.000000 0.000000
0.000000 -0.000000
0.000000 0.000000
0.000000 -0.000000
0.000000 0.000000
0.000000 -0.000000
0.000000 0.000000
0.000000 -0.000000
0.000000 0.000000
0.000000 -0.000000
0.000000 0.000000
0.000000 -0.000000
0.000000 0.000000
0.000000 -0.000000
0.000000 0.000000
0.000000 -0.000000
0.000000 0.000000
0.000000 -0.000000
0.000000 0.000000
0.000000 -0.000000
0.000000 0.000000
0.000000 -0.000000
0.000000 0.000000
0.000000 -0.000000
0.000000 0.000000
0.000000 -0.000000
0.000000 0.000000
0.000000 -0.000000
0.000000 0.000000
0.000000 -0.000000
0.000000 0.000000
0.000000 -0.000000
0.000000 0.000000
0.000000 -0.000000
0.000000 0.000000
0.000000 -0.000000
0.000000 0.000000
0.000000 -0.000000
0.000000 0.000000
0.000000 -0.000000
0.000000 0.000000
0.000000 -0.000000
0.000000 0.000000
0.000000 -0.000000
0.000000 0.000000
0.000000 -0.000000
0.000000 0.000000
0.000000 -0.000000
0.000000 0.000000
0.000000 -0.000000
0.000000 0.000000
0.000000 -0.000000
0.000000 0.000000
0.000000 -0.000000
0.000000 0.000000
0.000000 -0.000000
0.000000 0.000000
0.000000 -0.000000
0.000000 0.000000
0.000000 -0.000000
0.000000 0.000000
0.000000 -0.000000
0.000000 0.000000
0.000000 -0.000000
0.000000 0.000000
0.000000 -0.000000
0.000000 0.000000
0.000000 -0.000000
0.000000 0.000000
0.000000 -0.000000
0.000000 0.000000
0.000000 -0.000000
0.000000 0.000000
0.000000 -0.000000
0.000000 0.000000
0.000000 -0.000000
0.000000 0.000000
0.000000 -0.000000
0.000000 0.000000
0.000000 -0.000000
0.000000 0.000000
0.000000 -0.000000
0.000000 0.000000
0.000000 -0.000000
0.000000 0.000000
0.000000 -0.000000
0.000000 0.000000
0.000000 -0.000000
0.000000 0.000000
0.000000 -0.000000
0.000000 0.000000
0.000000 -0.000000
0.000000 0.000000
0.000000 -0.000000
0.000000 0.000000
0.000000 -0.000000
0.000000 0.000000
0.000000 -0.000000
0.000000 0.000000
0.000000 -0.000000
0.000000 0.000000
0.000000 -0.000000
0.000000 0.000000
0.000000 -0.000000
0.000000 0.000000
0.000000 -0.000000
0.000000 0.000000
0.000000 -0.000000
0.000000 0.000000
0.000000 -0.000000
0.000000 0.000000
0.000000 -0.000000
0.000000 0.000000
0.000000 -0.000000
0.000000 0.000000
0.000000 -0.000000
0.000000 0.000000
0.000000 -0.000000
0.000000 0.000000
0.000000 -0.000000
0.000000 0.000000
0.000000 -0.000000
0.000000 0.000000
0.000000 -0.000000
0.000000 0.000000
0.000000 -0.000000
0.000000 0.000000
0.000000 -0.000000
0.000000 0.000000
0.000000 -0.000000
0.000000 0.000000
0.000000 -0.000000
0.000000 0.000000
0.000000 -0.000000
0.000000 0.000000
0.000000 -0.000000
0.000000 0.000000
0.000000 -0.000000
0.000000 0.000000
0.000000 -0.000000
0.000000 0.000000
0.000000 -0.000000
0.000000 0.000000
0.000000 -0.000000
0.000000 0.000000
0.000000 -0.000000
0.000000 0.000000
0.000000 -0.000000
0.000000 0.000000
0.000000 -0.000000
0.000000 0.000000
0.000000 -0.000000
0.000000 0.000000
0.000000 -0.000000
0.000000 0.000000
0.000000 -0.000000
0.000000 0.000000
0.000000 -0.000000
0.000000 0.000000
0.000000 -0.000000
0.000000 0.000000
0.000000 -0.000000
0.000000 0.000000
0.000000 -0.000000
0.000000 0.000000
0.000000 -0.000000
0.000000 0.000000
0.000000 -0.000000
0.000000 0.000000
0.000000 -0.000000
0.000000 0.000000
0.000000 -0.000000
0.000000 0.000000
0.000000 -0.000000
0.000000 0.000000
0.000000 -0.000000
0.000000 0.000000
0.000000 -0.000000
0.000000 0.000000
0.000000 -0.000000
0.000000 0.000000
0.000000 -0.000000
0.000000 0.000000
0.000000 -0.000000
0.000000 0.000000
0.000000 -0.000000
0.000000 0.000000
0.000000 -0.000000
0.000000 0.000000
0.000000 -0.000000
0.000000 0.000000
0.000000 -0.000000
0.000000 0.000000
0.000000 -0.000000
0.000000 0.000000
0.000000 -0.000000
0.000000 0.000000
0.000000 -0.000000
0.000000 0.000000
0.000000 -0.000000
0.000000 0.000000
0.000000 -0.000000
0.000000 0.000000
0.000000 -0.000000
0.000000 0.000000
0.000000 -0.000000
0.000000 0.000000
0.000000 -0.000000
0.000000 0.000000
0.000000 -0.000000
0.000000 0.000000
0.000000 -0.000000
0.000000 0.000000
0.000000 -0.000000
0.000000 0.000000
0.000000 -0.000000
0.000000 0.000000
0.000000 -0.000000
0.000000 0.000000
0.000000 -0.000000
0.000000 0.000000
0.000000 -0.000000
0.000000 0.000000
0.000000 -0.000000
0.000000 0.000000
0.000000 -0.000000
0.000000 0.000000
0.000000 -0.000000
0.000000 0.000000
0.000000 -0.000000
0.000000 0.000000
0.000000 -0.000000
0.000000 0.000000
0.000000 -0.000000
0.000000 0.000000
0.000000 -0.000000
0.000000 0.000000
0.000000 0.000000
0.000000 0.000000
0.000000 0.000000
0.000000 0.000000
0.000000 0.000000
0.000000 0.000000
0.000000 0.000000
0.000000 0.000000
0.000000 0.000000
0.000000 0.000000
0.000000 0.000000
0.000000 0.000000
0.000000 0.000000
0.000000 0.000000
0.000000 0.000000
0.000000 0.000000
0.000000 0.000000
0.000000 0.000000
0.000000 0.000000
0.000000 0.000000
0.000000 0.000000
0.000000 0.000000
0.000000 0.000000
0.000000 0.000000
0.000000 0.000000
0.000000 0.000000
0.000000 0.000000
0.000000 0.000000
0.000000 0.000000
0.000000 0.000000
0.000000 0.000000
0.000000 0.000000
-0.852294 19.490663
