-0.033314 0.028326 -0.662803
1.046568 23.370354
1.064809 13.284670
1.073586 4.464150
1.073416 -5.346284
1.062893 -15.126194
1.043815 -22.860635
1.017297 -30.084730
0.983942 -36.242385
0.945209 -40.991945
0.902384 -44.218408
0.857829 -44.012147
0.815366 -40.526714
0.777676 -34.098913
0.747691 -25.899428
0.725281 -19.330876
0.708537 -14.120214
0.696470 -10.536521
0.686821 -8.815478
0.678722 -7.391644
0.671911 -6.303749
0.666197 -4.930973
0.662538 -2.063680
0.662263 1.396562
0.664990 3.826545
0.669482 4.930345
0.674428 4.735732
0.678597 3.446347
0.681089 1.444222
0.681336 -1.016742
0.678991 -3.665241
0.674058 -6.134254
0.666847 -8.193462
0.657820 -9.754969
0.647482 -10.825081
0.636286 -11.484538
0.624591 -11.839182
0.612650 -11.994365
0.600620 -12.026153
0.588596 -11.989730
0.576628 -11.918920
0.564732 -11.857257
0.552896 -11.777472
0.541115 -11.812851
0.529294 -11.704920
0.517774 -11.320411
0.506869 -10.222608
0.497162 -9.562446
0.487225 -10.398120
0.476382 -11.121897
0.465306 -10.807370
0.454819 -10.275299
0.444317 -10.994392
0.432177 -13.604651
0.417743 -14.230619
0.404132 -13.521529
0.390136 -14.419936
0.375040 -15.988304
0.358255 -17.175486
0.341041 -17.206010
0.323508 -18.136444
0.304778 -18.927866
0.285671 -19.549994
0.265686 -20.031482
0.245840 -19.696310
0.226191 -19.548260
0.206642 -19.587036
0.187132 -19.165105
0.168414 -18.322282
0.150248 -18.084663
0.132159 -17.995239
0.114287 -17.710923
0.096714 -17.390544
0.079475 -17.059146
0.062567 -16.711429
0.045940 -16.599397
0.029483 -16.044036
0.013820 -15.488100
-0.001728 -15.542251
-0.017274 -15.531168
-0.032866 -15.653125
-0.048614 -15.781613
-0.064407 -15.749141
-0.080099 -15.581887
-0.095630 -15.499473
-0.111130 -15.421816
-0.126462 -15.215926
-0.141586 -14.991083
-0.156458 -14.719256
-0.171052 -14.441004
-0.185364 -14.148413
-0.199373 -13.842859
-0.213089 -13.570492
-0.226546 -13.313826
-0.239736 -13.034310
-0.252647 -12.774236
-0.265321 -12.548659
-0.277774 -12.334479
-0.290019 -12.133551
-0.302071 -11.951403
-0.313944 -11.763780
-0.325611 -11.540532
-0.337052 -11.328536
-0.348300 -11.144190
-0.359364 -10.963804
-0.370251 -10.789141
-0.380966 -10.619051
-0.391511 -10.449995
-0.401886 -10.278420
-0.412087 -10.103743
-0.422112 -9.926647
-0.431960 -9.747932
-0.441627 -9.566307
-0.451110 -9.379961
-0.460403 -9.184709
-0.469494 -8.979139
-0.478376 -8.764111
-0.487037 -8.538548
-0.495467 -8.303710
-0.503658 -8.059710
-0.511599 -7.805069
-0.519280 -7.541538
-0.526695 -7.273522
-0.533840 -7.000387
-0.540709 -6.721926
-0.547296 -6.438983
-0.553598 -6.151481
-0.559611 -5.861642
-0.565332 -5.570054
-0.570762 -5.279284
-0.575902 -4.990224
-0.580753 -4.703160
-0.585319 -4.419789
-0.589603 -4.139944
-0.593609 -3.864316
-0.597341 -3.592783
-0.600803 -3.326702
-0.604003 -3.067662
-0.606947 -2.815467
-0.609642 -2.570552
-0.612095 -2.332508
-0.614314 -2.100534
-0.616302 -1.873619
-0.618066 -1.650567
-0.619609 -1.435141
-0.620943 -1.230300
-0.622075 -1.032677
-0.623011 -0.839477
-0.623757 -0.650785
-0.624316 -0.467405
-0.624694 -0.288396
-0.624895 -0.113705
-0.624924 0.054968
-0.624787 0.217101
-0.624491 0.374053
-0.624040 0.526934
-0.623437 0.675710
-0.622688 0.820951
-0.621795 0.962509
-0.620762 1.100196
-0.619593 1.234946
-0.618291 1.367022
-0.616858 1.495911
-0.615297 1.621202
-0.613613 1.743981
-0.611807 1.863919
-0.609882 1.981255
-0.607841 2.096303
-0.605687 2.207984
-0.603421 2.317610
-0.601047 2.424752
-0.598568 2.529906
-0.595983 2.632707
-0.593298 2.733494
-0.590512 2.831937
-0.587629 2.928116
-0.584650 3.022910
-0.581577 3.116499
-0.578412 3.207918
-0.575155 3.298616
-0.571808 3.387929
-0.568373 3.476642
-0.564848 3.566124
-0.561240 3.635325
-0.557579 3.676004
-0.553886 3.702412
-0.550168 3.725854
-0.546425 3.753188
-0.542651 3.790556
-0.538832 3.840893
-0.534957 3.904310
-0.531011 3.980541
-0.526984 4.067721
-0.522865 4.162789
-0.518648 4.263440
-0.514329 4.367730
-0.509904 4.473891
-0.505372 4.580556
-0.500734 4.686622
-0.495989 4.793890
-0.491136 4.902153
-0.486174 5.013366
-0.481098 5.127477
-0.475907 5.244857
-0.470597 5.364444
-0.465168 5.484319
-0.459617 5.606730
-0.453941 5.733288
-0.448139 5.860169
-0.442219 5.959406
-0.436219 6.025491
-0.430158 6.083880
-0.424037 6.147334
-0.417847 6.224625
-0.411569 6.321918
-0.405183 6.441458
-0.398666 6.582107
-0.392000 6.739935
-0.385169 6.907333
-0.378167 7.086967
-0.370983 7.260490
-0.363642 7.400975
-0.356177 7.508867
-0.348617 7.595121
-0.340973 7.677808
-0.333255 7.734107
-0.325510 7.729796
-0.317794 7.681944
-0.310132 7.629190
-0.302519 7.581163
-0.294953 7.538191
-0.287467 7.375895
-0.280278 6.939776
-0.273660 6.246715
-0.267828 5.386057
-0.262920 4.395357
-0.259049 3.343588
-0.256187 2.408039
-0.254164 1.664448
-0.252777 1.153851
-0.251760 0.922764
-0.250865 0.886840
-0.249972 0.888762
-0.249105 0.831993
-0.248333 0.697028
-0.247728 0.506794
-0.247329 0.284483
-0.247158 0.063012
-0.247195 -0.134085
-0.247444 -0.382886
-0.247977 -0.678304
-0.248796 -0.955301
-0.249880 -1.204167
-0.251193 -1.412022
-0.252696 -1.589146
-0.254371 -1.756018
-0.256223 -1.957426
-0.258314 -2.231411
-0.260716 -2.580292
-0.263507 -3.009785
-0.266754 -3.476007
-0.270465 -3.940351
-0.274652 -4.434406
-0.279354 -4.960880
-0.284586 -5.495301
-0.290350 -6.015333
-0.296613 -6.487472
-0.303316 -6.891872
-0.310386 -7.221625
-0.317749 -7.478242
-0.325337 -7.673711
-0.333097 -7.823859
-0.340989 -7.941122
-0.348988 -8.038406
-0.357079 -8.125639
-0.365255 -8.209708
-0.373516 -8.297459
-0.381868 -8.392209
-0.390321 -8.497348
-0.398884 -8.613712
-0.407569 -8.741147
-0.416388 -8.881965
-0.425354 -9.033278
-0.434475 -9.192468
-0.443760 -9.358183
-0.453212 -9.529301
-0.462839 -9.704046
-0.472641 -9.883270
-0.482626 -10.066780
-0.492794 -10.247981
-0.503142 -10.425879
-0.513666 -10.600142
-0.524361 -10.767229
-0.535221 -10.930909
-0.546243 -11.090288
-0.557422 -11.245837
-0.568756 -11.399215
-0.580241 -11.546878
-0.591872 -11.691592
-0.603646 -11.831518
-0.615558 -11.969102
-0.627608 -12.105842
-0.639795 -12.244404
-0.652123 -12.386874
-0.664593 -12.527956
-0.677207 -12.677190
-0.689973 -12.826743
-0.702884 -12.971171
-0.715941 -13.115749
-0.729140 -13.255845
-0.742478 -13.391803
-0.755949 -13.523142
-0.769551 -13.652118
-0.783280 -13.777881
-0.797130 -13.892921
-0.811093 -14.006949
-0.825173 -14.124093
-0.839363 -14.222412
-0.853640 -14.300112
-0.867989 -14.367543
-0.882398 -14.419642
-0.896852 -14.456879
-0.911337 -14.483016
-0.925841 -14.492918
-0.940348 -14.490315
-0.954854 -14.497794
-0.969377 -14.518246
-0.983919 -14.536914
-0.998480 -14.556737
-1.013062 -14.576584
-1.027664 -14.599059
-1.042293 -14.632527
-1.056959 -14.668394
-1.071655 -14.690791
-1.086366 -14.702728
-1.101088 -14.710424
-1.115815 -14.714131
-1.130545 -14.715764
-1.145274 -14.709162
-1.159987 -14.685351
-1.174667 -14.640404
-1.189292 -14.578418
-1.203849 -14.505705
-1.218332 -14.431951
-1.232743 -14.360520
-1.247081 -14.287195
-1.261345 -14.210980
-1.275530 -14.131745
-1.289637 -14.054041
-1.303667 -13.976853
-1.317615 -13.890259
-1.331473 -13.798570
-1.345240 -13.707110
-1.358913 -13.608957
-1.372483 -13.503619
-1.385946 -13.395892
-1.399300 -13.284369
-1.412540 -13.166606
-1.425658 -13.042770
-1.438649 -12.912614
-1.451507 -12.777919
-1.464229 -12.639687
-1.476811 -12.499471
-1.489252 -12.356020
-1.501547 -12.208666
-1.513692 -12.055861
-1.525680 -11.894098
-1.537503 -11.728268
-1.549158 -11.558079
-1.560640 -11.381068
-1.571941 -11.198400
-1.583057 -11.009840
-1.593981 -10.816302
-1.604710 -10.617331
-1.615236 -10.412915
-1.625555 -10.204475
-1.635664 -9.991874
-1.645557 -9.774306
-1.655230 -9.552423
-1.664680 -9.326669
-1.673901 -9.096778
-1.682891 -8.864725
-1.691647 -8.630364
-1.700167 -8.392011
-1.708447 -8.150102
-1.716483 -7.905485
-1.724274 -7.660257
-1.731819 -7.414416
-1.739117 -7.167663
-1.746168 -6.918887
-1.752968 -6.668308
-1.759518 -6.417866
-1.765816 -6.166471
-1.771863 -5.915128
-1.777658 -5.663952
-1.783201 -5.410330
-1.788490 -5.155853
-1.793523 -4.900024
-1.798299 -4.642045
-1.802816 -4.382138
-1.807072 -4.122270
-1.811068 -3.862332
-1.814804 -3.601883
-1.818279 -3.341355
-1.821493 -3.079435
-1.824446 -2.821396
-1.827142 -2.565949
-1.829583 -2.310519
-1.831769 -2.058158
-1.833703 -1.806510
-1.835386 -1.554489
-1.836816 -1.303024
-1.837995 -1.052646
-1.838923 -0.801135
-1.839598 -0.549398
-1.840023 -0.299628
-1.840198 -0.049189
-1.840122 0.200174
-1.839798 0.448443
-1.839225 0.695812
-1.838405 0.942460
-1.837338 1.189195
-1.836024 1.435038
-1.834465 1.680640
-1.832660 1.925665
-1.830610 2.169676
-1.828316 2.412756
-1.825780 2.655178
-1.823001 2.896540
-1.819981 3.137069
-1.816721 3.376447
-1.813222 3.613909
-1.809486 3.850914
-1.805513 4.086220
-1.801306 4.319787
-1.796866 4.552348
-1.792193 4.782732
-1.787291 5.011053
-1.782162 5.237413
-1.776806 5.462178
-1.771227 5.684508
-1.765427 5.904448
-1.759407 6.122487
-1.753171 6.337553
-1.746720 6.550334
-1.740058 6.760180
-1.733187 6.967277
-1.726110 7.172152
-1.718830 7.373609
-1.711349 7.571831
-1.703671 7.767859
-1.695799 7.960404
-1.687736 8.149640
-1.679484 8.336353
-1.671048 8.519428
-1.662429 8.699173
-1.653633 8.875638
-1.644661 9.049321
-1.635517 9.219450
-1.626205 9.385970
-1.616728 9.549838
-1.607088 9.709512
-1.597290 9.866209
-1.587337 10.019927
-1.577232 10.169576
-1.566978 10.315956
-1.556580 10.458859
-1.546041 10.598497
-1.535363 10.734537
-1.524551 10.866780
-1.513609 10.994949
-1.502540 11.120218
-1.491348 11.241140
-1.480038 11.353578
-1.468615 11.473605
-1.457068 11.594269
-1.445407 11.705761
-1.433639 11.799491
-1.421788 11.880311
-1.409856 11.955362
-1.397857 12.019408
-1.385789 12.097966
-1.373638 12.175149
-1.361422 12.228318
-1.349164 12.259610
-1.336886 12.266490
-1.324608 12.268742
-1.312323 12.274873
-1.300040 12.262516
-1.287778 12.237901
-1.275544 12.200962
-1.263357 12.145783
-1.251238 12.059763
-1.239222 11.949197
-1.227318 11.831660
-1.215535 11.712352
-1.203870 11.593458
-1.192330 11.460955
-1.180922 11.337594
-1.169626 11.230986
-1.158450 11.087244
-1.147443 10.905187
-1.136610 10.745944
-1.125931 10.582069
-1.115440 10.372492
-1.105174 10.136196
-1.095152 9.887093
-1.085387 9.618033
-1.075898 9.342674
-1.066681 9.070618
-1.057742 8.788306
-1.049095 8.481478
-1.040773 8.142896
-1.032800 7.782892
-1.025196 7.409170
-1.017967 7.034911
-1.011108 6.672011
-1.004605 6.325327
-0.998443 5.986132
-0.992627 5.625781
-0.987182 5.259161
-0.982090 4.918345
-0.977324 4.611542
-0.972843 4.349852
-0.968602 4.129418
-0.964565 3.940130
-0.960705 3.777296
-0.956991 3.649649
-0.953386 3.557608
-0.949859 3.494115
-0.946375 3.478185
-0.942874 3.527302
-0.939292 3.639816
-0.935565 3.819524
-0.931626 4.058596
-0.927423 4.346496
-0.922910 4.677301
-0.918042 5.058698
-0.912761 5.503280
-0.907004 6.009888
-0.900709 6.576774
-0.893817 7.206248
-0.886263 7.895276
-0.877993 8.636066
-0.868954 9.433806
-0.859086 10.293540
-0.848327 11.212750
-0.836620 12.184342
-0.823919 13.199788
-0.810180 14.257360
-0.795362 15.354759
-0.779427 16.491150
-0.762335 17.662620
-0.744058 18.858040
-0.724573 20.078812
-0.703855 21.315929
-0.681880 22.609983
-0.658563 23.984088
-0.633855 25.382729
-0.607736 26.814936
-0.580144 28.328760
-0.551035 29.802805
-0.520528 31.129067
-0.488748 32.353642
-0.455806 33.428566
-0.421881 34.334620
-0.387062 35.258930
-0.351271 36.246207
-0.314509 37.197603
-0.276804 38.142432
-0.238142 39.105463
-0.198551 39.959203
-0.158202 40.638996
-0.117230 41.204656
-0.075750 41.651092
-0.033848 42.084259
0.008560 42.687691
0.051612 43.289406
0.095192 43.791721
0.139302 44.349994
0.183952 44.820401
0.228861 44.776998
0.273413 44.188311
0.317200 43.222295
0.359815 41.866514
0.400951 40.314842
0.440550 38.838911
0.478757 37.514301
0.515674 36.248665
0.551349 35.046751
0.585709 33.460174
0.618670 32.875499
0.650117 28.070404
0.679975 38.572812
0.708313 -7.949685
0.735202 158.741156
0.760974 -469.191326
0.000000 -485.375599
0.000000 130.056000
0.000000 -34.848400
0.000000 9.337601
0.000000 -2.502003
0.000000 0.670410
0.000000 -0.179636
0.000000 0.048133
0.000000 -0.012897
0.000000 0.003456
0.000000 -0.000926
0.000000 0.000248
0.000000 -0.000066
0.000000 0.000018
0.000000 -0.000005
0.000000 0.000001
0.000000 -0.000000
0.000000 0.000000
0.000000 -0.000000
0.000000 0.000000
0.000000 -0.000000
0.000000 0.000000
0.000000 -0.000000
0.000000 0.000000
0.000000 -0.000000
0.000000 0.000000
0.000000 -0.000000
0.000000 0.000000
0.000000 -0.000000
0.000000 0.000000
0.000000 -0.000000
0.000000 0.000000
0.000000 -0.000000
0.000000 0.000000
0.000000 -0.000000
0.000000 0.000000
0.000000 -0.000000
0.000000 0.000000
0.000000 -0.000000
0.000000 0.000000
0.000000 -0.000000
0.000000 0.000000
0.000000 -0.000000
0.000000 0.000000
0.000000 -0.000000
0.000000 0.000000
0.000000 -0.000000
0.000000 0.000000
0.000000 -0.000000
0.000000 0.000000
0.000000 -0.000000
0.000000 0.000000
0.000000 -0.000000
0.000000 0.000000
0.000000 -0.000000
0.000000 0.000000
0.000000 -0.000000
0.000000 0.000000
0.000000 -0.000000
0.000000 0.000000
0.000000 -0.000000
0.000000 0.000000
0.000000 -0.000000
0.000000 0.000000
0.000000 -0.000000
0.000000 0.000000
0.000000 -0.000000
0.000000 0.000000
0.000000 -0.000000
0.000000 0.000000
0.000000 -0.000000
0.000000 0.000000
0.000000 -0.000000
0.000000 0.000000
0.000000 -0.000000
0.000000 0.000000
0.000000 -0.000000
0.000000 0.000000
0.000000 -0.000000
0.000000 0.000000
0.000000 -0.000000
0.000000 0.000000
0.000000 -0.000000
0.000000 0.000000
0.000000 -0.000000
0.000000 0.000000
0.000000 -0.000000
0.000000 0.000000
0.000000 -0.000000
0.000000 0.000000
0.000000 -0.000000
0.000000 0.000000
0.000000 -0.000000
0.000000 0.000000
0.000000 -0.000000
0.000000 0.000000
0.000000 -0.000000
0.000000 0.000000
0.000000 -0.000000
0.000000 0.000000
0.000000 -0.000000
0.000000 0.000000
0.000000 -0.000000
0.000000 0.000000
0.000000 -0.000000
0.000000 0.000000
0.000000 -0.000000
0.000000 0.000000
0.000000 -0.000000
0.000000 0.000000
0.000000 -0.000000
0.000000 0.000000
0.000000 -0.000000
0.000000 0.000000
0.000000 -0.000000
0.000000 0.000000
0.000000 -0.000000
0.000000 0.000000
0.000000 -0.000000
0.000000 0.000000
0.000000 -0.000000
0.000000 0.000000
0.000000 -0.000000
0.000000 0.000000
0.000000 -0.000000
0.000000 0.000000
0.000000 -0.000000
0.000000 0.000000
0.000000 -0.000000
0.000000 0.000000
0.000000 -0.000000
0.000000 0.000000
0.000000 -0.000000
0.000000 0.000000
0.000000 -0.000000
0.000000 0.000000
0.000000 -0.000000
0.000000 0.000000
0.000000 -0.000000
0.000000 0.000000
0.000000 -0.000000
0.000000 0.000000
0.000000 -0.000000
0.000000 0.000000
0.000000 -0.000000
0.000000 0.000000
0.000000 -0.000000
0.000000 0.000000
0.000000 -0.000000
0.000000 0.000000
0.000000 -0.000000
0.000000 0.000000
0.000000 -0.000000
0.000000 0.000000
0.000000 -0.000000
0.000000 0.000000
0.000000 -0.000000
0.000000 0.000000
0.000000 -0.000000
0.000000 0.000000
0.000000 -0.000000
0.000000 0.000000
0.000000 -0.000000
0.000000 0.000000
0.000000 -0.000000
0.000000 0.000000
0.000000 -0.000000
0.000000 0.000000
0.000000 -0.000000
0.000000 0.000000
0.000000 -0.000000
0.000000 0.000000
0.000000 -0.000000
0.000000 0.000000
0.000000 -0.000000
0.000000 0.000000
0.000000 -0.000000
0.000000 0.000000
0.000000 -0.000000
0.000000 0.000000
0.000000 -0.000000
0.000000 0.000000
0.000000 -0.000000
0.000000 0.000000
0.000000 -0.000000
0.000000 0.000000
0.000000 -0.000000
0.000000 0.000000
0.000000 -0.000000
0.000000 0.000000
0.000000 -0.000000
0.000000 0.000000
0.000000 -0.000000
0.000000 0.000000
0.000000 -0.000000
0.000000 0.000000
0.000000 -0.000000
0.000000 0.000000
0.000000 -0.000000
0.000000 0.000000
0.000000 -0.000000
0.000000 0.000000
0.000000 -0.000000
0.000000 0.000000
0.000000 -0.000000
0.000000 0.000000
0.000000 -0.000000
0.000000 0.000000
0.000000 -0.000000
0.000000 0.000000
0.000000 -0.000000
0.000000 0.000000
0.000000 -0.000000
0.000000 0.000000
0.000000 -0.000000
0.000000 0.000000
0.000000 -0.000000
0.000000 0.000000
0.000000 -0.000000
0.000000 0.000000
0.000000 -0.000000
0.000000 0.000000
0.000000 -0.000000
0.000000 0.000000
0.000000 -0.000000
0.000000 0.000000
0.000000 -0.000000
0.000000 0.000000
0.000000 -0.000000
0.000000 0.000000
0.000000 -0.000000
0.000000 0.000000
0.000000 -0.000000
0.000000 0.000000
0.000000 -0.000000
0.000000 0.000000
0.000000 -0.000000
0.000000 0.000000
0.000000 -0.000000
0.000000 0.000000
0.000000 -0.000000
0.000000 0.000000
0.000000 -0.000000
0.000000 0.000000
0.000000 -0.000000
0.000000 0.000000
0.000000 -0.000000
0.000000 0.000000
0.000000 -0.000000
0.000000 0.000000
0.000000 -0.000000
0.000000 0.000000
0.000000 -0.000000
0.000000 0.000000
0.000000 -0.000000
0.000000 0.000000
0.000000 -0.000000
0.000000 0.000000
0.000000 -0.000000
0.000000 0.000000
0.000000 -0.000000
0.000000 0.000000
0.000000 -0.000000
0.000000 0.000000
0.000000 -0.000000
0.000000 0.000000
0.000000 -0.000000
0.000000 0.000000
0.000000 -0.000000
0.000000 0.000000
0.000000 -0.000000
0.000000 0.000000
0.000000 -0.000000
0.000000 0.000000
0.000000 -0.000000
0.000000 0.000000
0.000000 -0.000000
0.000000 0.000000
0.000000 -0.000000
0.000000 0.000000
0.000000 -0.000000
0.000000 0.000000
0.000000 -0.000000
0.000000 0.000000
0.000000 -0.000000
0.000000 0.000000
0.000000 -0.000000
0.000000 0.000000
0.000000 -0.000000
0.000000 0.000000
0.000000 -0.000000
0.000000 0.000000
0.000000 -0.000000
0.000000 0.000000
0.000000 -0.000000
0.000000 0.000000
0.000000 -0.000000
0.000000 0.000000
0.000000 -0.000000
0.000000 0.000000
0.000000 -0.000000
0.000000 0.000000
0.000000 -0.000000
0.000000 0.000000
0.000000 -0.000000
0.000000 0.000000
0.000000 -0.000000
0.000000 0.000000
0.000000 -0.000000
0.000000 0.000000
0.000000 -0.000000
0.000000 0.000000
0.000000 -0.000000
0.000000 0.000000
0.000000 -0.000000
0.000000 0.000000
0.000000 -0.000000
0.000000 0.000000
0.000000 -0.000000
0.000000 0.000000
0.000000 -0.000000
0.000000 0.000000
0.000000 -0.000000
0.000000 0.000000
0.000000 -0.000000
0.000000 0.000000
0.000000 -0.000000
0.000000 0.000000
0.000000 -0.000000
0.000000 0.000000
0.000000 -0.000000
0.000000 0.000000
0.000000 -0.000000
0.000000 0.000000
0.000000 -0.000000
0.000000 0.000000
0.000000 -0.000000
0.000000 0.000000
0.000000 -0.000000
0.000000 0.000000
0.000000 -0.000000
0.000000 0.000000
0.000000 -0.000000
0.000000 0.000000
0.000000 -0.000000
0.000000 0.000000
0.000000 -0.000000
0.000000 0.000000
0.000000 -0.000000
0.000000 0.000000
0.000000 -0.000000
0.000000 0.000000
0.000000 -0.000000
0.000000 0.000000
0.000000 -0.000000
0.000000 0.000000
0.000000 -0.000000
0.000000 0.000000
0.000000 -0.000000
0.000000 0.000000
0.000000 -0.000000
0.000000 0.000000
0.000000 -0.000000
0.000000 0.000000
0.000000 -0.000000
0.000000 0.000000
0.000000 -0.000000
0.000000 0.000000
0.000000 -0.000000
0.000000 0.000000
0.000000 -0.000000
0.000000 0.000000
0.000000 -0.000000
0.000000 0.000000
0.000000 -0.000000
0.000000 0.000000
0.000000 -0.000000
0.000000 0.000000
0.000000 -0.000000
0.000000 0.000000
0.000000 -0.000000
0.000000 0.000000
0.000000 -0.000000
0.000000 0.000000
0.000000 -0.000000
0.000000 0.000000
0.000000 -0.000000
0.000000 0.000000
0.000000 -0.000000
0.000000 0.000000
0.000000 -0.000000
0.000000 0.000000
0.000000 -0.000000
0.000000 0.000000
0.000000 -0.000000
0.000000 0.000000
0.000000 -0.000000
0.000000 0.000000
0.000000 -0.000000
0.000000 0.000000
0.000000 -0.000000
0.000000 0.000000
0.000000 -0.000000
1.046568 23.370354
