0.133715 0.080840 0.000004
0.555935 8.196142
0.563859 9.480536
0.578608 21.832174
0.604934 26.291606
0.626355 16.097251
0.637842 7.944211
0.643529 3.599149
0.645223 -0.219150
0.643157 -3.839316
0.637501 -7.565982
0.627869 -11.713838
0.613976 -16.082943
0.595700 -20.364406
0.573340 -24.247981
0.547316 -27.651149
0.518178 -30.466698
0.486521 -32.683789
0.452937 -34.324148
0.417980 -35.439748
0.382138 -36.101328
0.345830 -36.388136
0.309385 -36.389531
0.273049 -36.178256
0.237007 -35.814330
0.201375 -35.370167
0.166205 -34.897939
0.131515 -34.408921
0.097328 -33.889052
0.063686 -33.317223
0.030650 -32.678118
-0.001710 -31.963665
-0.033315 -31.169202
-0.064086 -30.300347
-0.093955 -29.367277
-0.122861 -28.378755
-0.150756 -27.349995
-0.177607 -26.295557
-0.203395 -25.226640
-0.228110 -24.153874
-0.251754 -23.090998
-0.274343 -22.043119
-0.295891 -21.014402
-0.316427 -20.024248
-0.335988 -19.058154
-0.354582 -18.095761
-0.372198 -17.080469
-0.388777 -16.063657
-0.404401 -15.178445
-0.419202 -14.406830
-0.433249 -13.652069
-0.446534 -12.898369
-0.459108 -12.254711
-0.471151 -11.858956
-0.482872 -11.529296
-0.494219 -11.158490
-0.505246 -10.890035
-0.516072 -10.777090
-0.526858 -10.774974
-0.537648 -10.785253
-0.548479 -10.879849
-0.559452 -11.042428
-0.570602 -11.254787
-0.581992 -11.489831
-0.593591 -11.682743
-0.605374 -11.856778
-0.617327 -12.028543
-0.629441 -12.157992
-0.641645 -12.218354
-0.653900 -12.270314
-0.666210 -12.323200
-0.678565 -12.359702
-0.690948 -12.376719
-0.703337 -12.375155
-0.715715 -12.350704
-0.728061 -12.318454
-0.740362 -12.242780
-0.752558 -12.127564
-0.764644 -12.018433
-0.776619 -11.909001
-0.788489 -11.808579
-0.800261 -11.712040
-0.811933 -11.606247
-0.823490 -11.479653
-0.834911 -11.338961
-0.846186 -11.184327
-0.857294 -11.007136
-0.868215 -10.808242
-0.878925 -10.586638
-0.889402 -10.344071
-0.899627 -10.081785
-0.909580 -9.801442
-0.919245 -9.507921
-0.928611 -9.203575
-0.937667 -8.889240
-0.946405 -8.568299
-0.954820 -8.244686
-0.962911 -7.922042
-0.970682 -7.604226
-0.978138 -7.295470
-0.985290 -6.994171
-0.992141 -6.693390
-0.998690 -6.392598
-1.004939 -6.094132
-1.010891 -5.798317
-1.016549 -5.506135
-1.021916 -5.217328
-1.026995 -4.931021
-1.031789 -4.647870
-1.036301 -4.368290
-1.040534 -4.089710
-1.044489 -3.811224
-1.048165 -3.534935
-1.051567 -3.262013
-1.054697 -2.992332
-1.057558 -2.725804
-1.060155 -2.463062
-1.062491 -2.205351
-1.064573 -1.955398
-1.066409 -1.713939
-1.068006 -1.478884
-1.069372 -1.250423
-1.070512 -1.028363
-1.071432 -0.810169
-1.072134 -0.594185
-1.072622 -0.379293
-1.072895 -0.168200
-1.072961 0.035887
-1.072825 0.233497
-1.072495 0.425323
-1.071975 0.613349
-1.071268 0.799613
-1.070375 0.984869
-1.069297 1.166202
-1.068043 1.339337
-1.066619 1.504624
-1.065031 1.666593
-1.063282 1.828865
-1.061370 1.990976
-1.059296 2.152556
-1.057062 2.310178
-1.054675 2.456139
-1.052148 2.593165
-1.049484 2.729607
-1.046683 2.866133
-1.043746 3.001654
-1.040674 3.135908
-1.037469 3.268224
-1.034132 3.398677
-1.030666 3.526369
-1.027073 3.650703
-1.023358 3.770421
-1.019527 3.883380
-1.015586 3.989912
-1.011541 4.090312
-1.007399 4.184306
-1.003166 4.272395
-0.998848 4.354963
-0.994449 4.431968
-0.989977 4.503337
-0.985436 4.569106
-0.980831 4.629484
-0.976169 4.684688
-0.971454 4.735262
-0.966691 4.781196
-0.961883 4.823105
-0.957036 4.861504
-0.952152 4.896494
-0.947234 4.928927
-0.942285 4.959018
-0.937307 4.986864
-0.932302 5.012985
-0.927271 5.037735
-0.922217 5.061063
-0.917139 5.083166
-0.912040 5.104452
-0.906920 5.125058
-0.901780 5.144775
-0.896621 5.164230
-0.891442 5.183437
-0.886244 5.202446
-0.881026 5.221795
-0.875789 5.241422
-0.870533 5.260409
-0.865259 5.276673
-0.859970 5.289893
-0.854669 5.300755
-0.849359 5.310274
-0.844038 5.320146
-0.838707 5.331484
-0.833364 5.345437
-0.828005 5.362384
-0.822627 5.382820
-0.817227 5.407173
-0.811800 5.435232
-0.806344 5.467132
-0.800854 5.502884
-0.795326 5.542624
-0.789756 5.586146
-0.784141 5.633531
-0.778477 5.684795
-0.772759 5.740284
-0.766983 5.800551
-0.761145 5.865742
-0.755238 5.936173
-0.749260 6.008512
-0.743209 6.080317
-0.737085 6.156746
-0.730881 6.239780
-0.724592 6.326043
-0.718216 6.414212
-0.711750 6.504238
-0.705193 6.597223
-0.698541 6.695024
-0.691788 6.799153
-0.684927 6.910711
-0.677950 7.030118
-0.670850 7.157652
-0.663618 7.292986
-0.656247 7.435754
-0.648729 7.584839
-0.641061 7.737090
-0.633239 7.890378
-0.625264 8.042718
-0.617138 8.194458
-0.608860 8.344259
-0.600434 8.488724
-0.591868 8.625133
-0.583170 8.753336
-0.574346 8.875059
-0.565407 8.982211
-0.556382 9.034522
-0.547352 8.988364
-0.538427 8.823992
-0.529720 8.561027
-0.521308 8.236049
-0.513242 7.877129
-0.505541 7.510746
-0.498206 7.142363
-0.491237 6.786665
-0.484608 6.466677
-0.478277 6.188291
-0.472210 5.935086
-0.466394 5.685834
-0.460829 5.429880
-0.455528 5.158584
-0.450505 4.879132
-0.445757 4.608243
-0.441274 4.353218
-0.437042 4.097787
-0.433074 3.828957
-0.429378 3.555066
-0.425954 3.289702
-0.422787 3.042018
-0.419859 2.811000
-0.417152 2.600840
-0.414647 2.403154
-0.412340 2.207500
-0.410230 2.006903
-0.408327 1.793718
-0.406640 1.575797
-0.405177 1.342322
-0.403964 1.076298
-0.403034 0.773694
-0.402424 0.444467
-0.402152 0.091625
-0.402241 -0.263077
-0.402672 -0.596069
-0.403433 -0.923800
-0.404519 -1.244976
-0.405921 -1.555613
-0.407633 -1.863607
-0.409649 -2.161724
-0.411955 -2.443420
-0.414538 -2.716476
-0.417389 -2.975446
-0.420491 -3.224043
-0.423843 -3.470963
-0.427437 -3.707376
-0.431260 -3.928472
-0.435296 -4.134409
-0.439532 -4.327410
-0.443958 -4.514666
-0.448570 -4.699671
-0.453366 -4.881544
-0.458342 -5.059762
-0.463494 -5.232976
-0.468815 -5.398001
-0.474301 -5.565306
-0.479959 -5.739115
-0.485788 -5.905158
-0.491777 -6.057923
-0.497913 -6.201221
-0.504188 -6.332087
-0.510586 -6.451377
-0.517100 -6.561750
-0.523719 -6.660308
-0.530431 -6.750149
-0.537230 -6.831281
-0.544105 -6.903701
-0.551048 -6.966908
-0.558050 -7.023423
-0.565107 -7.073889
-0.572210 -7.117712
-0.579355 -7.157548
-0.586538 -7.193062
-0.593754 -7.224666
-0.601001 -7.252337
-0.608273 -7.277999
-0.615570 -7.300868
-0.622888 -7.318920
-0.630222 -7.333916
-0.637569 -7.346297
-0.644928 -7.355014
-0.652293 -7.359526
-0.659661 -7.361314
-0.667029 -7.360173
-0.674394 -7.354702
-0.681752 -7.344738
-0.689097 -7.329777
-0.696424 -7.309008
-0.703728 -7.282897
-0.711002 -7.250768
-0.718241 -7.211774
-0.725438 -7.166549
-0.732587 -7.115972
-0.739683 -7.061428
-0.746723 -7.003580
-0.753703 -6.942439
-0.760621 -6.878551
-0.767473 -6.812490
-0.774259 -6.744912
-0.780976 -6.676286
-0.787624 -6.606202
-0.794201 -6.533805
-0.800704 -6.459068
-0.807132 -6.382204
-0.813481 -6.303135
-0.819750 -6.221597
-0.825935 -6.136739
-0.832034 -6.047335
-0.838040 -5.952959
-0.843950 -5.853638
-0.849758 -5.749638
-0.855460 -5.641780
-0.861051 -5.530389
-0.866530 -5.415927
-0.871893 -5.298573
-0.877137 -5.179118
-0.882261 -5.057790
-0.887262 -4.934546
-0.892140 -4.809344
-0.896890 -4.682266
-0.901513 -4.553774
-0.906006 -4.423206
-0.910368 -4.290958
-0.914596 -4.157412
-0.918690 -4.022263
-0.922648 -3.885654
-0.926469 -3.747579
-0.930150 -3.607977
-0.933691 -3.466682
-0.937090 -3.324091
-0.940346 -3.180180
-0.943457 -3.035200
-0.946422 -2.889356
-0.949241 -2.742299
-0.951912 -2.594152
-0.954434 -2.445049
-0.956807 -2.295362
-0.959029 -2.144742
-0.961100 -1.993201
-0.963019 -1.841093
-0.964786 -1.688343
-0.966399 -1.535019
-0.967859 -1.381537
-0.969165 -1.228147
-0.970318 -1.075114
-0.971318 -0.923262
-0.972167 -0.773081
-0.972866 -0.625055
-0.973419 -0.480180
-0.973829 -0.340694
-0.974104 -0.210093
-0.974253 -0.090283
-0.974288 0.019003
-0.974219 0.117564
-0.974056 0.206044
-0.973809 0.287852
-0.973481 0.366420
-0.973076 0.443395
-0.972594 0.520098
-0.972034 0.597838
-0.971396 0.677558
-0.970677 0.759727
-0.969874 0.844692
-0.968985 0.933161
-0.968005 1.024573
-0.966932 1.118883
-0.965764 1.215888
-0.964497 1.315353
-0.963130 1.417045
-0.961660 1.520680
-0.960085 1.626002
-0.958404 1.732335
-0.956616 1.839793
-0.954721 1.947994
-0.952716 2.056414
-0.950604 2.165117
-0.948382 2.273756
-0.946052 2.382197
-0.943613 2.490281
-0.941066 2.597729
-0.938412 2.704488
-0.935652 2.810325
-0.932787 2.915082
-0.929817 3.018380
-0.926744 3.120239
-0.923571 3.220491
-0.920298 3.318500
-0.916928 3.414172
-0.913463 3.507539
-0.909906 3.598138
-0.906261 3.685463
-0.902529 3.769576
-0.898715 3.850584
-0.894822 3.927830
-0.890853 4.001244
-0.886812 4.070910
-0.882704 4.137005
-0.878531 4.199069
-0.874299 4.257205
-0.870010 4.312024
-0.865667 4.363075
-0.861276 4.410729
-0.856838 4.455337
-0.852357 4.496619
-0.847837 4.534948
-0.843279 4.570722
-0.838687 4.603920
-0.834063 4.634764
-0.829409 4.663721
-0.824727 4.690897
-0.820018 4.716381
-0.815285 4.740725
-0.810528 4.764015
-0.805748 4.786323
-0.800946 4.808276
-0.796122 4.829830
-0.791276 4.851133
-0.786410 4.872672
-0.781521 4.894352
-0.776611 4.916635
-0.771678 4.939802
-0.766721 4.963735
-0.761740 4.988531
-0.756734 5.014792
-0.751700 5.042318
-0.746638 5.071352
-0.741547 5.102104
-0.736424 5.134199
-0.731267 5.168257
-0.726076 5.204030
-0.720848 5.241826
-0.715581 5.281421
-0.710274 5.322786
-0.704924 5.366225
-0.699530 5.411346
-0.694090 5.458361
-0.688602 5.507104
-0.683064 5.557656
-0.677475 5.609880
-0.671833 5.663272
-0.666137 5.717687
-0.660386 5.774130
-0.654577 5.832296
-0.648709 5.891738
-0.642781 5.951255
-0.636795 6.010162
-0.630749 6.068490
-0.624646 6.125583
-0.618486 6.182699
-0.612268 6.239599
-0.605994 6.295325
-0.599666 6.348417
-0.593286 6.397873
-0.586858 6.444092
-0.580386 6.487114
-0.573872 6.527029
-0.567320 6.563146
-0.560734 6.595344
-0.554118 6.622343
-0.547478 6.643531
-0.540820 6.657663
-0.534152 6.665190
-0.527478 6.667936
-0.520804 6.664998
-0.514136 6.656592
-0.507479 6.644827
-0.500834 6.630581
-0.494206 6.611677
-0.487600 6.586545
-0.481022 6.555415
-0.474478 6.518243
-0.467977 6.466116
-0.461537 6.400432
-0.455165 6.328830
-0.448871 6.246017
-0.442664 6.154752
-0.436551 6.056402
-0.430543 5.945449
-0.424652 5.824258
-0.418886 5.692914
-0.413258 5.551600
-0.407775 5.401612
-0.402448 5.240214
-0.397285 5.075921
-0.392285 4.912144
-0.387452 4.745519
-0.382785 4.577602
-0.378286 4.412364
-0.373950 4.252435
-0.369774 4.091004
-0.365760 3.929745
-0.361904 3.775881
-0.358198 3.628088
-0.354639 3.484408
-0.351221 3.345208
-0.347939 3.214096
-0.344787 3.080007
-0.341774 2.943067
-0.338889 2.825455
-0.336107 2.737637
-0.333400 2.674302
-0.330744 2.639990
-0.328095 2.666210
-0.325384 2.757407
-0.322558 2.898061
-0.319570 3.077107
-0.316387 3.285993
-0.312978 3.533845
-0.309296 3.830990
-0.305299 4.155972
-0.300963 4.518580
-0.296232 4.944429
-0.291045 5.428088
-0.285344 5.974909
-0.279063 6.583513
-0.272149 7.235913
-0.264574 7.896264
-0.256344 8.546736
-0.247461 9.205089
-0.237897 9.918404
-0.227581 10.700077
-0.216445 11.572879
-0.204362 12.597569
-0.191159 13.819433
-0.176616 15.278082
-0.160502 16.947799
-0.142618 18.823211
-0.122730 20.961421
-0.100592 23.284132
-0.076110 25.620292
-0.049303 27.947815
-0.020174 30.229430
0.011185 32.415628
0.044742 34.662831
0.080603 36.978879
0.118749 39.218800
0.159102 41.406849
0.201674 43.679224
0.246568 46.011749
0.293805 48.391287
0.343450 50.780273
0.395409 52.995054
0.449587 55.330355
0.506273 57.943834
0.565543 60.415296
0.627213 62.852334
0.691496 65.657200
0.758732 68.679315
0.828911 71.456227
0.901669 73.879511
0.976673 75.869210
1.053311 77.113901
1.130904 77.906658
1.209300 78.759982
1.288543 79.496686
1.368357 79.946524
1.448425 79.882616
1.528104 79.283956
1.607118 78.585083
1.685227 77.274465
1.761504 75.011033
1.835419 72.804836
1.907401 71.024065
1.977576 69.145155
2.045824 67.248541
2.112345 65.762892
2.177551 64.485318
2.241389 63.039427
2.303672 61.342425
2.364154 59.518937
2.422905 57.922960
2.480092 56.254917
2.535474 54.425889
2.589086 52.696281
2.640922 50.817215
2.690668 48.476682
2.737875 45.846254
2.782378 42.992861
2.823825 39.772121
2.861886 36.205646
2.896254 32.474632
2.926922 28.808398
2.953946 25.196207
2.977379 21.625667
2.997272 18.148260
3.013737 14.745750
3.026828 11.449730
3.036726 8.352291
3.043588 5.369025
3.047525 2.538016
3.048709 -0.171292
3.047154 -2.964059
3.042838 -5.567787
3.036136 -7.785377
3.027289 -9.891950
3.016340 -11.977258
3.003341 -13.970257
2.988382 -15.932069
2.971408 -18.006156
2.952333 -20.082908
2.931245 -22.029968
2.908305 -23.747832
2.883772 -25.255810
2.857765 -26.695678
2.830353 -28.059540
2.801616 -29.344758
2.771622 -30.578382
2.740418 -31.755018
2.708078 -32.842208
2.674698 -33.837952
2.640363 -34.747155
2.605163 -35.568268
2.569174 -36.333262
2.532436 -37.062766
2.494984 -37.763802
2.456840 -38.442179
2.418036 -39.079813
2.378618 -39.670845
2.338629 -40.218296
2.298118 -40.715552
2.257132 -41.166267
2.215718 -41.572580
2.173920 -41.930523
2.131787 -42.245589
2.089357 -42.521540
2.046672 -42.758203
2.003767 -42.959908
1.960677 -43.128556
1.917434 -43.265250
1.874070 -43.371425
1.830615 -43.445999
1.787101 -43.490062
1.743557 -43.507096
1.700010 -43.492464
1.656495 -43.446667
1.613040 -43.371419
1.569677 -43.261713
1.526441 -43.120041
1.483362 -42.943560
1.440480 -42.729845
1.397829 -42.481165
1.355445 -42.194412
1.313368 -41.869132
1.271636 -41.505147
1.230289 -41.099070
1.189369 -40.653156
1.148914 -40.170322
1.108962 -39.644310
1.069559 -39.078238
1.030739 -38.477359
0.992541 -37.835523
0.955004 -37.157715
0.918162 -36.446365
0.882050 -35.701575
0.846697 -34.927982
0.812134 -34.124064
0.778390 -33.292458
0.745490 -32.439015
0.713454 -31.563665
0.682305 -30.670638
0.652057 -29.761344
0.622728 -28.837233
0.594328 -27.903370
0.566868 -26.961683
0.540352 -26.015400
0.514786 -25.065722
0.490169 -24.120693
0.466494 -23.182426
0.443756 -22.251315
0.421943 -21.331737
0.401046 -20.421564
0.381056 -19.520671
0.361962 -18.630511
0.343754 -17.752161
0.326417 -16.891492
0.309930 -16.051548
0.294276 -15.227307
0.279439 -14.419935
0.265402 -13.629568
0.252146 -12.860278
0.239646 -12.118480
0.227878 -11.397660
0.216822 -10.694728
0.206458 -10.017378
0.196758 -9.369339
0.187691 -8.750277
0.179228 -8.164770
0.171335 -7.609569
0.163987 -7.075222
0.157162 -6.566342
0.150833 -6.080455
0.144984 -5.610852
0.139596 -5.153226
0.134663 -4.708199
0.130163 -4.286060
0.126075 -3.884395
0.122381 -3.497902
0.119068 -3.124524
0.116121 -2.767264
0.113523 -2.425232
0.111261 -2.097340
0.109318 -1.786195
0.107680 -1.487954
0.106336 -1.200941
0.105273 -0.924168
0.104484 -0.652937
0.103962 -0.390927
0.103695 -0.146557
0.103662 0.076892
0.103844 0.283835
0.104227 0.481617
0.104805 0.671883
0.105570 0.855601
0.106517 1.035058
0.107641 1.209428
0.108935 1.375294
0.110389 1.526104
0.111987 1.665531
0.113721 1.798670
0.115585 1.924087
0.117570 2.041031
0.119669 2.151086
0.121876 2.258381
0.124188 2.360779
0.126602 2.461495
0.129115 2.559241
0.131723 2.649728
0.134418 2.733267
0.137193 2.811145
0.140045 2.885304
0.142967 2.950807
0.145951 3.013125
0.148999 3.076378
0.152109 3.135875
0.155278 3.197120
0.158510 3.259098
0.161801 3.318037
0.165154 3.380789
0.168570 3.444053
0.172049 3.507445
0.175592 3.572423
0.179201 3.637830
0.182877 3.706837
0.186622 3.775142
0.190434 3.843392
0.194317 3.915671
0.198273 3.985544
0.202297 4.057195
0.206395 4.128852
0.210562 4.198487
0.214801 4.269243
0.219108 4.336454
0.223482 4.401718
0.227920 4.465189
0.232420 4.526271
0.236980 4.584570
0.241598 4.639009
0.246266 4.688652
0.250984 4.736812
0.255748 4.781629
0.260555 4.820611
0.265397 4.854577
0.270273 4.887050
0.275180 4.916604
0.280114 4.940340
0.285070 4.961638
0.290046 4.980347
0.295040 4.995691
0.300045 5.002197
0.305041 4.969651
0.309974 4.875889
0.314788 4.738073
0.319449 4.570415
0.323937 4.399370
0.328254 4.218526
0.332355 3.957673
0.336161 3.650291
0.339663 3.340321
0.342848 3.029239
0.345738 2.750508
0.348380 2.547935
0.350874 2.451100
0.353313 2.431720
0.355769 2.493158
0.358320 2.601376
0.360989 2.745946
0.363827 2.918215
0.366809 3.021971
0.369874 3.116514
0.373073 3.285104
0.376459 3.477853
0.380024 3.635376
0.383733 3.782403
0.387583 3.890536
0.391500 3.933436
0.395454 3.964116
0.399428 3.968609
0.403386 3.935431
0.407297 3.875578
0.411140 3.798630
0.414890 3.685564
0.418508 3.543526
0.421977 3.379796
0.425259 3.169328
0.428313 2.932823
0.431137 2.714898
0.433745 2.487219
0.436103 2.220091
0.438204 1.993482
0.440124 1.856414
0.441940 1.778481
0.443699 1.742849
0.445440 1.740695
0.447180 1.728776
0.448913 1.751096
0.450691 1.789283
0.452492 1.818226
0.454354 1.915268
0.456342 2.060347
0.458477 2.199126
0.460743 2.332423
0.463145 2.462558
0.465666 2.572791
0.468277 2.625894
0.470896 2.597194
0.473466 2.537971
0.475968 2.450632
0.478362 2.330778
0.480633 2.207587
0.482785 2.096866
0.484832 1.989933
0.486759 1.853158
0.488538 1.704620
0.490176 1.568960
0.491678 1.428859
0.493040 1.297474
0.494285 1.195623
0.495445 1.128197
0.496546 1.066971
0.497583 1.013034
0.498583 0.985442
0.499561 0.971865
0.500538 0.985838
0.501535 1.001413
0.502529 0.976638
0.503490 0.951085
0.504443 0.956561
0.505410 0.976001
0.506395 0.987414
0.507385 0.993157
0.508389 1.016147
0.509425 1.057182
0.510508 1.106934
0.511639 1.150543
0.512804 1.170299
0.513972 1.159251
0.515121 1.138323
0.516251 1.118071
0.517355 1.083761
0.518414 1.029060
0.519415 0.973869
0.520364 0.919853
0.521250 0.847390
0.522059 0.770031
0.522798 0.710187
0.523485 0.663279
0.524130 0.630579
0.524751 0.609158
0.525346 0.577218
0.525906 0.543237
0.526438 0.522121
0.526953 0.505516
0.527451 0.489999
0.527936 0.480393
0.528415 0.477705
0.528890 0.469541
0.529355 0.462518
0.529821 0.468670
0.530291 0.466948
0.530755 0.465337
0.531225 0.472033
0.531700 0.476538
0.532181 0.487512
0.532677 0.501746
0.533183 0.507613
0.533691 0.507154
0.534198 0.506739
0.534703 0.500074
0.535196 0.482632
0.535669 0.462133
0.536119 0.435016
0.536537 0.401616
0.536924 0.371657
0.537281 0.341643
0.537609 0.313775
0.537912 0.291949
0.538195 0.276391
0.538465 0.259710
0.538715 0.241105
0.538950 0.230989
0.539180 0.229301
0.539411 0.233694
0.539647 0.237576
0.539886 0.239470
0.540126 0.239986
0.540367 0.241269
0.540611 0.245727
0.540859 0.249865
0.541109 0.247427
0.541353 0.240793
0.541593 0.240009
0.541834 0.241356
0.542076 0.243996
0.542323 0.248746
0.542572 0.246212
0.542815 0.240722
0.543055 0.237804
0.543291 0.235709
0.543526 0.233743
0.543759 0.231289
0.543989 0.225795
0.544210 0.216504
0.544423 0.210414
0.544630 0.200489
0.544823 0.185091
0.545001 0.170908
0.545165 0.157718
0.545318 0.148810
0.545464 0.144245
0.545608 0.142456
0.545750 0.140805
0.545891 0.143059
0.546037 0.147071
0.546184 0.147861
0.546332 0.148034
0.546481 0.149935
0.546632 0.149971
0.546782 0.150451
0.546935 0.156017
0.547093 0.158455
0.547251 0.156002
0.547405 0.154135
0.547560 0.155968
0.547717 0.155245
0.547871 0.153875
0.548025 0.152972
0.548176 0.148227
0.548322 0.143009
0.548463 0.139944
0.548602 0.137707
0.548738 0.133493
0.548869 0.127749
0.548993 0.120855
0.549111 0.115819
0.549224 0.108440
0.549329 0.102030
0.549429 0.096750
0.549521 0.087863
0.549606 0.081367
0.549685 0.076720
0.549760 0.073509
0.549833 0.073639
0.549906 0.069060
0.549975 0.074527
0.550056 0.084050
0.550095 -0.050250
0.550208 0.572311
0.555935 8.196142
