0.012849 0.014138 -0.090713
-0.369771 -2.554909
-0.373662 -5.258858
-0.380380 -8.203361
-0.387445 -3.234085
-0.386192 3.719855
-0.381995 4.687224
-0.376928 5.297638
-0.371565 5.380395
-0.366224 5.260774
-0.361075 5.017077
-0.356183 4.763117
-0.351508 4.602568
-0.346910 4.617740
-0.342204 4.810078
-0.337228 5.157554
-0.331850 5.589796
-0.325973 6.215874
-0.319507 6.539738
-0.312400 8.301819
-0.302223 12.052670
-0.288443 15.287446
-0.272004 17.363706
-0.254140 18.064102
-0.236368 17.182160
-0.220216 14.877201
-0.206885 11.666679
-0.196906 8.315082
-0.190070 5.470138
-0.185696 3.403433
-0.183020 2.043511
-0.181439 1.179615
-0.180558 0.617729
-0.180146 0.222998
-0.180082 -0.083585
-0.180301 -0.353013
-0.180787 -0.617527
-0.181541 -0.893102
-0.182594 -1.226131
-0.183999 -1.566780
-0.185801 -2.117874
-0.188319 -2.910099
-0.191615 -3.664588
-0.195649 -4.398161
-0.200431 -5.164652
-0.206009 -5.993719
-0.212458 -6.905947
-0.219867 -7.915041
-0.228339 -9.030681
-0.237983 -10.256350
-0.248910 -11.593996
-0.261226 -13.027262
-0.275032 -14.583960
-0.290406 -16.087387
-0.307415 -18.118189
-0.325735 -17.320122
-0.341102 -13.561036
-0.353248 -10.895005
-0.363191 -9.060195
-0.371557 -7.734425
-0.378793 -6.763461
-0.385166 -5.999419
-0.390853 -5.380196
-0.395969 -4.856714
-0.400599 -4.402653
-0.404801 -4.000392
-0.408621 -3.639387
-0.412098 -3.312270
-0.415262 -3.013937
-0.418140 -2.740298
-0.420755 -2.487849
-0.423127 -2.254096
-0.425274 -2.036659
-0.427210 -1.834222
-0.428949 -1.643078
-0.430503 -1.463374
-0.431882 -1.293524
-0.433075 -1.069698
-0.433874 -0.395885
-0.433511 1.343953
-0.430790 4.260997
-0.424735 7.916035
-0.414850 11.848948
-0.401023 15.750704
-0.383379 19.466338
-0.362140 22.917139
-0.337544 26.231216
-0.309643 29.490839
-0.278694 32.178673
-0.244650 36.580854
-0.204700 43.260160
-0.158491 48.596486
-0.108020 52.102974
-0.054441 54.830080
0.001544 56.941529
0.059534 58.985428
0.119910 61.858808
0.183721 65.767815
0.251738 70.158395
0.324194 74.597759
0.401037 78.900438
0.482080 82.982515
0.567089 86.825946
0.655825 90.427776
0.748048 93.797718
0.843537 96.956094
0.942090 99.921974
1.043524 102.714558
1.147671 105.346515
1.254376 107.823270
1.363482 110.144471
1.474829 112.296826
1.588239 114.266032
1.703523 116.034483
1.820466 117.580012
1.938836 118.878720
2.058369 119.900923
2.178777 120.620125
2.299742 121.013602
2.420929 121.055857
2.541971 120.722100
2.662482 119.989100
2.782047 118.829199
2.900227 117.217417
3.016557 115.127757
3.130548 112.543514
3.241700 109.452999
3.349502 105.850826
3.453444 101.740506
3.553018 97.124310
3.647724 92.017600
3.737085 86.453607
3.820669 80.485100
3.898103 74.175914
3.969070 67.569193
4.033290 60.701997
4.090524 53.619644
4.140577 46.358911
4.183290 38.964353
4.218554 31.482414
4.246301 23.951228
4.266497 16.397781
4.279132 8.850775
4.284229 1.340068
4.281842 -6.089168
4.272091 -13.359515
4.255160 -20.437641
4.231243 -27.310812
4.200564 -33.943316
4.163376 -40.312655
4.119954 -46.394989
4.070605 -52.142286
4.015681 -57.542335
3.955519 -62.601819
3.890471 -67.305201
3.820896 -71.643527
3.747166 -75.604811
3.669662 -79.185625
3.588764 -82.383847
3.504857 -85.200034
3.418318 -87.642765
3.329519 -89.716030
3.238822 -91.441418
3.146572 -92.809334
3.053240 -93.512915
2.959677 -93.265689
2.866832 -92.086481
2.775591 -90.092294
2.686675 -87.476951
2.600591 -84.476605
2.517622 -81.268340
2.437922 -77.966250
2.361524 -74.690473
2.288356 -71.523242
2.218281 -68.516009
2.151123 -65.698696
2.086684 -63.086529
2.024754 -60.682417
1.965130 -58.479622
1.907613 -56.472785
1.852011 -54.649292
1.798147 -52.998587
1.745852 -51.514057
1.694965 -50.181242
1.645343 -48.985916
1.596853 -47.916323
1.549378 -46.956383
1.502815 -46.091049
1.457076 -45.307509
1.412087 -44.592004
1.367785 -43.930724
1.324123 -43.313473
1.281060 -42.728605
1.238573 -42.165578
1.196640 -41.616895
1.155254 -41.072044
1.114414 -40.526425
1.074123 -39.973044
1.034392 -39.406709
0.995236 -38.822918
0.956676 -38.216502
0.918734 -37.588357
0.881434 -36.932074
0.844805 -36.248786
0.808872 -35.538710
0.773666 -34.799357
0.739213 -34.032462
0.705542 -33.238241
0.672679 -32.416802
0.640652 -31.570923
0.609481 -30.704640
0.579188 -29.818315
0.549790 -28.915775
0.521302 -28.000754
0.493736 -27.074370
0.467102 -26.141223
0.441403 -25.203416
0.416645 -24.265332
0.392823 -23.329799
0.369936 -22.399838
0.347975 -21.480483
0.326929 -20.572842
0.306782 -19.683535
0.287515 -18.814486
0.269109 -17.965391
0.251540 -17.141779
0.234782 -16.345590
0.218807 -15.577990
0.203585 -14.838994
0.189089 -14.130158
0.175286 -13.453477
0.162145 -12.807089
0.149635 -12.193461
0.137723 -11.611421
0.126378 -11.063232
0.115563 -10.549542
0.105246 -10.068662
0.095394 -9.622067
0.085972 -9.209406
0.076945 -8.830992
0.068281 -8.486842
0.059944 -8.175397
0.051903 -7.895785
0.044125 -7.650103
0.036575 -7.439617
0.029219 -7.263518
0.022022 -7.123575
0.014945 -7.023585
0.007947 -6.963704
0.000990 -6.944284
-0.005969 -6.967138
-0.012973 -7.032185
-0.020062 -7.138606
-0.027278 -7.288222
-0.034666 -7.477188
-0.042261 -7.705269
-0.050105 -7.973151
-0.058235 -8.276643
-0.066686 -8.614899
-0.075493 -8.985387
-0.084685 -9.385547
-0.094292 -9.813731
-0.104340 -10.265725
-0.114851 -10.740096
-0.125849 -11.235899
-0.137351 -11.748208
-0.149374 -12.275107
-0.161929 -12.811234
-0.175024 -13.352420
-0.188661 -13.894606
-0.202839 -14.430780
-0.217548 -14.957088
-0.232778 -15.467864
-0.248509 -15.960671
-0.264720 -16.421326
-0.281354 -16.791966
-0.298263 -16.938239
-0.315136 -16.697820
-0.331547 -16.022063
-0.347106 -15.027257
-0.361584 -13.891401
-0.374909 -12.733447
-0.387090 -11.614859
-0.398186 -10.570028
-0.408280 -9.611430
-0.417458 -8.741279
-0.425808 -7.955916
-0.433412 -7.249208
-0.440345 -6.614300
-0.446675 -6.044364
-0.452465 -5.532782
-0.457770 -5.073855
-0.462639 -4.662411
-0.467118 -4.293361
-0.471247 -3.962305
-0.475062 -3.665262
-0.478595 -3.398569
-0.481875 -3.158969
-0.484927 -2.943615
-0.487775 -2.750220
-0.490440 -2.576307
-0.492939 -2.419981
-0.495290 -2.279565
-0.497507 -2.153324
-0.499605 -2.040032
-0.501595 -1.938341
-0.503489 -1.847042
-0.505296 -1.765313
-0.507026 -1.692130
-0.508687 -1.626721
-0.510285 -1.568346
-0.511829 -1.516214
-0.513323 -1.469919
-0.514773 -1.428709
-0.516184 -1.391944
-0.517561 -1.359217
-0.518907 -1.330341
-0.520226 -1.304948
-0.521520 -1.282648
-0.522794 -1.263145
-0.524050 -1.246209
-0.525290 -1.231624
-0.526516 -1.219095
-0.527731 -1.208516
-0.528937 -1.199797
-0.530134 -1.192544
-0.531324 -1.186598
-0.532510 -1.182187
-0.533692 -1.178956
-0.534870 -1.176500
-0.536047 -1.175028
-0.537223 -1.174213
-0.538398 -1.173980
-0.539574 -1.174464
-0.540750 -1.175367
-0.541927 -1.176827
-0.543106 -1.178802
-0.544287 -1.181150
-0.545471 -1.183963
-0.546657 -1.187136
-0.547847 -1.190459
-0.549041 -1.194168
-0.550238 -1.198136
-0.551439 -1.202192
-0.552645 -1.206407
-0.553855 -1.210766
-0.555069 -1.215278
-0.556288 -1.219903
-0.557511 -1.224464
-0.558739 -1.228861
-0.559971 -1.233183
-0.561208 -1.237500
-0.562449 -1.241626
-0.563694 -1.245782
-0.564943 -1.250058
-0.566196 -1.254162
-0.567454 -1.258297
-0.568715 -1.262383
-0.569981 -1.266505
-0.571251 -1.270747
-0.572525 -1.274595
-0.573803 -1.279122
-0.575085 -1.281632
-0.576370 -1.289072
-0.577663 -1.287608
-0.578938 -1.256621
-0.580176 -1.219270
-0.581381 -1.186223
-0.582555 -1.163163
-0.583685 -1.066194
-0.584631 -0.796271
-0.585245 -0.424694
-0.585459 0.015188
-0.585205 0.483458
-0.584539 0.809237
-0.583662 0.905570
-0.582807 0.758373
-0.582212 0.406374
-0.582024 -0.038809
-0.582288 -0.479736
-0.582962 -0.851318
-0.583960 -1.127427
-0.585187 -1.309588
-0.586556 -1.413915
-0.587999 -1.460802
-0.589468 -1.468840
-0.590932 -1.452808
-0.592372 -1.423462
-0.593779 -1.388373
-0.595151 -1.352262
-0.596487 -1.318520
-0.597792 -1.288890
-0.599069 -1.263976
-0.600324 -1.244354
-0.601562 -1.229768
-0.602788 -1.219882
-0.604006 -1.214106
-0.605220 -1.211771
-0.606433 -1.212369
-0.607648 -1.215070
-0.608866 -1.219266
-0.610089 -1.224710
-0.611318 -1.230630
-0.612553 -1.236584
-0.613793 -1.242586
-0.615040 -1.248268
-0.616292 -1.253323
-0.617549 -1.257925
-0.618810 -1.261898
-0.620075 -1.265225
-0.621343 -1.268047
-0.622614 -1.270491
-0.623887 -1.272502
-0.625161 -1.274103
-0.626437 -1.275596
-0.627715 -1.276780
-0.628993 -1.277807
-0.630273 -1.278866
-0.631554 -1.280050
-0.632836 -1.281362
-0.634119 -1.282826
-0.635404 -1.284548
-0.636691 -1.286438
-0.637980 -1.288441
-0.639270 -1.290710
-0.640564 -1.293152
-0.641859 -1.295722
-0.643158 -1.298635
-0.644459 -1.301577
-0.645764 -1.304720
-0.647071 -1.308026
-0.648382 -1.311275
-0.649697 -1.314753
-0.651014 -1.318104
-0.652335 -1.321350
-0.653660 -1.324647
-0.654987 -1.327731
-0.656318 -1.330794
-0.657651 -1.333614
-0.658988 -1.336268
-0.660327 -1.338836
-0.661668 -1.341164
-0.663012 -1.343306
-0.664357 -1.345384
-0.665705 -1.347379
-0.667055 -1.349073
-0.668406 -1.350740
-0.669759 -1.352464
-0.671113 -1.353892
-0.672469 -1.355102
-0.673826 -1.356332
-0.675185 -1.357433
-0.676544 -1.358414
-0.677904 -1.359324
-0.679265 -1.360276
-0.680627 -1.361187
-0.681990 -1.362094
-0.683354 -1.362974
-0.684719 -1.363826
-0.686085 -1.364618
-0.687451 -1.365405
-0.688818 -1.366219
-0.690186 -1.366950
-0.691555 -1.367622
-0.692924 -1.368218
-0.694294 -1.368956
-0.695665 -1.369458
-0.697036 -1.369896
-0.698407 -1.370347
-0.699779 -1.370605
-0.701151 -1.370894
-0.702523 -1.371010
-0.703896 -1.371069
-0.705268 -1.371010
-0.706641 -1.370843
-0.708013 -1.370670
-0.709385 -1.370334
-0.710756 -1.369849
-0.712127 -1.369286
-0.713497 -1.368608
-0.714867 -1.367890
-0.716236 -1.367123
-0.717604 -1.366100
-0.718971 -1.365062
-0.720337 -1.363953
-0.721701 -1.362609
-0.723065 -1.361215
-0.724426 -1.359645
-0.725787 -1.357982
-0.727145 -1.356323
-0.728502 -1.354512
-0.729857 -1.352624
-0.731210 -1.350638
-0.732561 -1.348592
-0.733910 -1.346657
-0.735257 -1.343891
-0.736601 -1.343142
-0.737943 -1.335801
-0.739282 -1.349171
-0.740623 -1.298688
-0.741934 -1.403436
-0.743479 -1.645496
-0.745542 -2.828990
-0.749635 -5.487999
-0.756480 -8.000000
-0.765353 -9.621395
-0.775409 -10.244120
-0.785655 -10.245672
-0.795874 -10.106242
-0.805734 -9.506323
-0.814819 -8.646668
-0.823056 -7.822007
-0.830482 -7.007794
-0.837016 -5.983999
-0.842281 -4.416602
-0.845826 -2.754024
-0.847931 -1.501230
-0.848950 -0.602833
-0.849223 0.040025
-0.848889 0.625517
-0.847987 1.163216
-0.846547 1.740176
-0.844545 2.191505
-0.842330 2.132915
-0.840389 1.731869
-0.838944 1.087345
-0.838116 0.731888
-0.837360 0.732744
-0.836650 0.730874
-0.835985 0.464770
-0.835762 0.071676
-0.835583 0.453704
-0.834885 0.740334
-0.834175 0.802523
-0.833380 0.560704
-0.833084 0.225552
-0.832728 0.491583
-0.832105 0.742590
-0.831224 1.043508
-0.830111 1.057745
-0.829154 0.929119
-0.828182 1.007611
-0.827261 0.714585
-0.826724 0.505190
-0.826169 0.537758
-0.825617 0.661680
-0.824760 1.038414
-0.823621 1.166561
-0.822433 1.268041
-0.821080 1.375658
-0.819738 1.307665
-0.818453 1.267864
-0.817209 1.200928
-0.816075 1.054445
-0.815101 0.898749
-0.814286 0.710767
-0.813634 0.655467
-0.812826 1.045526
-0.811622 1.191197
-0.810500 1.159897
-0.809166 1.530659
-0.807526 1.630981
-0.805969 1.524978
-0.804428 1.551296
-0.802878 1.536031
-0.801362 1.495437
-0.799881 1.462526
-0.798445 1.396850
-0.797092 1.309311
-0.795857 1.119971
-0.794854 0.918265
-0.793952 0.918447
-0.792977 1.031919
-0.791855 1.238089
-0.790473 1.520394
-0.788844 1.704566
-0.787098 1.777442
-0.785296 1.817518
-0.783466 1.837062
-0.781628 1.828743
-0.779811 1.801261
-0.778022 1.772316
-0.776264 1.739446
-0.774541 1.704194
-0.772857 1.655391
-0.771237 1.576447
-0.769726 1.422244
-0.768413 1.195532
-0.767323 0.998248
-0.766307 1.123413
-0.764999 1.471702
-0.763374 1.781844
-0.761215 2.743445
-0.757336 5.339555
-0.749372 11.391048
-0.733332 21.037374
-0.708008 28.428115
-0.678206 30.460932
-0.647889 29.905255
-0.618636 28.449363
-0.591090 26.523712
-0.565430 24.916155
-0.540961 24.047456
-0.517202 23.432380
-0.493976 23.036056
-0.471104 22.579750
-0.448828 21.953945
-0.427143 21.355430
-0.406100 20.678974
-0.385744 19.999855
-0.366048 19.357743
-0.346977 18.753830
-0.328490 18.188399
-0.310554 17.654147
-0.293138 17.146398
-0.276219 16.660285
-0.259778 16.192405
-0.243797 15.740557
-0.228261 15.302891
-0.213156 14.877020
-0.198473 14.461110
-0.184202 14.054616
-0.170334 13.654056
-0.156865 13.256817
-0.143792 12.864967
-0.131112 12.467064
-0.118830 12.077360
-0.106925 11.712331
-0.095329 11.506339
-0.083735 11.763148
-0.071844 11.824689
-0.060119 11.713346
-0.048472 11.367590
-0.037393 10.926110
-0.026581 10.536758
-0.016345 10.006754
-0.006489 9.652547
0.002962 9.248588
0.012040 8.884406
0.020748 8.516730
0.029083 8.127052
0.037036 7.789709
0.044724 7.590106
0.052303 7.605793
0.060071 7.981071
0.068153 7.973297
0.075985 7.819761
0.083765 7.536692
0.091016 7.082290
0.097969 6.702769
0.104386 6.175105
0.110375 5.776891
0.115971 5.438784
0.121325 5.285705
0.126573 5.192993
0.131906 5.653836
0.137752 5.694620
0.143289 5.682272
0.149087 5.545535
0.154261 5.018644
0.159236 4.797774
0.163783 4.328000
0.167939 3.973262
0.171749 3.653936
0.175320 3.532048
0.178798 3.344513
0.182220 3.767879
0.186312 4.101628
0.190276 3.971078
0.194297 3.945835
0.198080 3.632235
0.201619 3.467588
0.204992 3.214152
0.208025 2.876562
0.210799 2.681754
0.213406 2.523959
0.215854 2.374245
0.218167 2.246417
0.220354 2.124025
0.222421 2.007050
0.224367 1.875073
0.226207 1.838135
0.228097 1.952126
0.230193 2.299153
0.232682 2.593802
0.235283 2.582377
0.237764 2.305767
0.239970 2.240368
0.242261 2.210183
0.244314 1.939271
0.246198 1.832315
0.247980 1.715845
0.249632 1.597131
0.251184 1.498374
0.252631 1.397741
0.253983 1.301255
0.255236 1.203042
0.256392 1.105682
0.257449 1.007323
0.258409 0.908492
0.259269 0.812483
0.260033 0.710875
0.260692 0.610242
0.261275 0.570798
0.261842 0.553099
0.262390 0.556452
0.263064 0.882920
0.264158 1.212101
0.265423 1.336471
0.266755 1.225769
0.267849 1.033267
0.268878 1.001483
0.269834 0.907508
0.270683 0.778592
0.271397 0.664803
0.272026 0.586944
0.272571 0.505457
0.273041 0.432630
0.273438 0.362223
0.273767 0.294547
0.274028 0.226251
0.274219 0.155197
0.274338 0.084397
0.274388 0.013345
0.274364 -0.061843
0.274273 -0.107973
0.274181 -0.053864
0.274136 -0.089592
0.274132 0.264116
0.274677 0.654192
0.275352 0.776178
0.276173 0.726566
0.276751 0.512198
0.277266 0.500087
0.277732 0.426441
0.278103 0.301377
0.278345 0.203626
0.278523 0.144756
0.278630 0.074009
0.278675 0.013669
0.278658 -0.045686
0.278584 -0.104598
0.278447 -0.168299
0.278246 -0.232826
0.277980 -0.300717
0.277643 -0.372294
0.277233 -0.447507
0.276745 -0.528156
0.276175 -0.612908
0.275516 -0.703488
0.274764 -0.800198
0.273912 -0.903656
0.272953 -1.013709
0.271880 -1.132600
0.270682 -1.260213
0.269354 -1.395499
0.267884 -1.543564
0.266261 -1.700965
0.264475 -1.870943
0.262511 -2.053590
0.260359 -2.250098
0.258002 -2.461171
0.255427 -2.686832
0.252617 -2.929319
0.249557 -3.187235
0.246230 -3.462215
0.242621 -3.752724
0.238711 -4.062101
0.234482 -4.390146
0.229916 -4.735245
0.224995 -5.100446
0.219699 -5.483972
0.214010 -5.887001
0.207907 -6.310286
0.201371 -6.750764
0.194386 -7.209123
0.186931 -7.687999
0.178987 -8.186944
0.170535 -8.705627
0.161552 -9.244746
0.152020 -9.804812
0.141915 -10.387055
0.131217 -10.991317
0.119902 -11.621238
0.107943 -12.278137
0.095312 -12.963208
0.081978 -13.685435
0.067907 -14.428565
0.053083 -15.197860
0.037520 -15.849663
0.021481 -16.114496
0.005392 -15.979795
-0.010327 -15.296264
-0.025031 -14.011557
-0.038370 -12.701327
-0.050567 -11.713837
-0.061882 -10.907865
-0.072439 -10.205933
-0.082362 -9.648266
-0.091808 -9.251147
-0.100919 -8.961443
-0.109767 -8.725010
-0.118398 -8.522280
-0.126833 -8.334139
-0.135085 -8.154407
-0.143160 -7.978865
-0.151060 -7.805225
-0.158787 -7.634538
-0.166345 -7.467106
-0.173737 -7.302801
-0.180967 -7.142429
-0.188038 -6.985686
-0.194953 -6.832674
-0.201718 -6.684315
-0.208336 -6.538591
-0.214810 -6.396233
-0.221143 -6.257468
-0.227338 -6.120965
-0.233398 -5.987493
-0.239326 -5.856937
-0.245124 -5.729034
-0.250796 -5.604152
-0.256345 -5.481944
-0.261772 -5.362286
-0.267081 -5.245462
-0.272274 -5.131142
-0.277354 -5.019339
-0.282324 -4.909935
-0.287185 -4.802992
-0.291940 -4.698530
-0.296592 -4.596187
-0.301142 -4.495796
-0.305593 -4.396978
-0.309946 -4.299842
-0.314202 -4.204082
-0.318363 -4.109879
-0.322430 -4.017270
-0.326406 -3.926115
-0.330291 -3.836754
-0.334088 -3.748803
-0.337797 -3.662387
-0.341420 -3.577641
-0.344960 -3.494229
-0.348416 -3.412303
-0.351791 -3.331777
-0.355087 -3.252653
-0.358304 -3.175039
-0.361444 -3.098794
-0.364508 -3.023921
-0.367498 -2.950386
-0.370415 -2.877700
-0.373260 -2.805834
-0.376033 -2.735004
-0.378735 -2.664914
-0.381368 -2.595841
-0.383933 -2.527895
-0.386429 -2.461013
-0.388860 -2.395224
-0.391225 -2.330649
-0.393526 -2.267237
-0.395764 -2.204771
-0.397941 -2.143747
-0.400056 -2.083805
-0.402113 -2.024839
-0.404111 -1.967343
-0.406052 -1.910487
-0.407937 -1.856686
-0.409767 -1.796766
-0.411544 -1.766991
-0.413266 -1.623851
-0.414656 -1.063921
-0.415137 0.271907
-0.413740 2.718901
-0.409246 6.507839
-0.400201 11.826537
-0.385390 17.682183
-0.365141 22.519577
-0.340888 25.614520
-0.314540 26.674754
-0.288082 25.943731
-0.263035 23.910902
-0.240492 21.040131
-0.221022 17.842691
-0.204747 14.717121
-0.191461 11.880444
-0.180831 9.437821
-0.172411 7.463590
-0.165765 5.861928
-0.160597 4.492726
-0.156683 3.384256
-0.153728 2.558649
-0.151488 1.952537
-0.149763 1.513989
-0.148428 1.160977
-0.147415 0.879195
-0.146651 0.649088
-0.146113 0.424679
-0.145800 0.202635
-0.145706 -0.015192
-0.145828 -0.227964
-0.146161 -0.436411
-0.146700 -0.637618
-0.147435 -0.831100
-0.148361 -1.015673
-0.149466 -1.191668
-0.150743 -1.357898
-0.152180 -1.512129
-0.153767 -1.655825
-0.155491 -1.787391
-0.157342 -1.908745
-0.159309 -2.018964
-0.161380 -2.116771
-0.163543 -2.204523
-0.165789 -2.280454
-0.168106 -2.347787
-0.170486 -2.405907
-0.172919 -2.452785
-0.175394 -2.492486
-0.177906 -2.523480
-0.180445 -2.549047
-0.183007 -2.569784
-0.185588 -2.586665
-0.188185 -2.600500
-0.190793 -2.611826
-0.193413 -2.621320
-0.196040 -2.626709
-0.198671 -2.630371
-0.201306 -2.633277
-0.203943 -2.634751
-0.206580 -2.634446
-0.209217 -2.634098
-0.211853 -2.633407
-0.214489 -2.632494
-0.217123 -2.631659
-0.219757 -2.631051
-0.222391 -2.630756
-0.225024 -2.630589
-0.227657 -2.630395
-0.230290 -2.630140
-0.232923 -2.629499
-0.235554 -2.628285
-0.238184 -2.626525
-0.240812 -2.623870
-0.243437 -2.620240
-0.246058 -2.615623
-0.248673 -2.609896
-0.251282 -2.603055
-0.253884 -2.595037
-0.256477 -2.585602
-0.259060 -2.575010
-0.261632 -2.562921
-0.264191 -2.549338
-0.266735 -2.534560
-0.269264 -2.518476
-0.271777 -2.501720
-0.274273 -2.484168
-0.276750 -2.466020
-0.279209 -2.447540
-0.281650 -2.428803
-0.284072 -2.409859
-0.286474 -2.390840
-0.288858 -2.372000
-0.291223 -2.353109
-0.293569 -2.334428
-0.295897 -2.316061
-0.298206 -2.297956
-0.300497 -2.280193
-0.302771 -2.262757
-0.305028 -2.245806
-0.307267 -2.229149
-0.309491 -2.212808
-0.311698 -2.196950
-0.313889 -2.181334
-0.316065 -2.166168
-0.318226 -2.151191
-0.320372 -2.136401
-0.322503 -2.121922
-0.324620 -2.107523
-0.326722 -2.093472
-0.328811 -2.079483
-0.330885 -2.065555
-0.332946 -2.051879
-0.334993 -2.038321
-0.337027 -2.024578
-0.339047 -2.010873
-0.341053 -1.997048
-0.343044 -1.982860
-0.345022 -1.968621
-0.346986 -1.954252
-0.348935 -1.939754
-0.350869 -1.925295
-0.352789 -1.910979
-0.354695 -1.896853
-0.356587 -1.882567
-0.358464 -1.869338
-0.360328 -1.853038
-0.362178 -1.849840
-0.364014 -1.796156
-0.365839 -1.937429
-0.367647 -1.341509
-0.369771 -2.554909
