0.042999 0.076394 -0.069995
-0.562838 -0.000000
-0.562838 0.000000
-0.562838 -0.000000
-0.562838 0.000000
-0.562838 -0.000000
-0.562838 0.000000
-0.562838 -0.000000
-0.562838 0.000000
-0.562838 -0.000000
-0.562838 0.000000
-0.562838 -0.000000
-0.562838 0.000000
-0.562838 -0.000000
-0.562838 0.000000
-0.562838 -0.000000
-0.562838 0.000000
-0.562838 -0.000000
-0.562838 0.000000
-0.562838 -0.000000
-0.562838 0.000000
-0.562838 -0.000000
-0.562838 0.000000
-0.562838 -0.000000
-0.562838 0.000000
-0.562838 -0.000000
-0.562838 0.000000
-0.562838 -0.000000
-0.562838 0.000000
-0.562838 -0.000000
-0.562838 0.000000
-0.562838 -0.000000
-0.562838 0.000000
-0.562838 -0.000000
-0.562838 0.000000
-0.562838 -0.000000
-0.562838 0.000000
-0.562838 -0.000000
-0.562838 0.000000
-0.562838 -0.000000
-0.562838 0.000000
-0.562838 -0.000000
-0.562838 0.000000
-0.562838 -0.000000
-0.562838 0.000000
-0.562838 -0.000000
-0.562838 0.000000
-0.562838 -0.000000
-0.562838 0.000000
-0.562838 -0.000000
-0.562838 0.000000
-0.562838 -0.000000
-0.562838 0.000000
-0.562838 -0.000000
-0.562838 0.000000
-0.562838 -0.000000
-0.562838 0.000000
-0.562838 -0.000000
-0.562838 0.000000
-0.562838 -0.000002
-0.562838 0.000006
-0.562838 -0.000019
-0.562838 0.000062
-0.562838 -0.000204
-0.562838 0.000654
-0.562838 -0.002040
-0.562839 0.006113
-0.562836 -0.017217
-0.562845 0.043382
-0.562812 -0.084116
-0.562935 0.024134
-0.561995 2.435209
-0.554248 16.270513
-0.527382 36.219468
-0.484947 46.546335
-0.436322 50.503055
-0.384475 52.555822
-0.331534 53.320987
-0.277751 54.011024
-0.223253 55.153123
-0.167107 56.976529
-0.109460 57.978656
-0.051234 58.381823
0.007405 58.740374
0.066360 59.085768
0.125561 59.028054
0.184828 59.849344
0.245686 61.588800
0.306655 58.909926
0.370695 77.424966
0.465991 108.922879
0.579916 113.918767
0.690307 107.676734
0.796250 103.726769
0.897855 99.435244
0.995479 95.620629
1.089357 92.015937
1.179847 88.867003
1.267464 86.301713
1.352839 84.382759
1.436581 83.012574
1.519182 82.097472
1.601054 81.521431
1.682423 81.049892
1.763289 80.496592
1.843520 79.772803
1.922920 78.825816
2.001241 77.614226
2.078210 76.124223
2.153550 74.358831
2.226989 72.328843
2.298269 70.047254
2.367144 67.528051
2.433389 64.796317
2.496804 61.877116
2.557211 58.789328
2.614447 55.540644
2.668354 52.143018
2.718796 48.621080
2.765654 44.981759
2.808811 41.227320
2.848156 37.366389
2.883579 33.388425
2.914961 29.293706
2.942193 25.100887
2.965185 20.825583
2.983864 16.486488
2.998176 12.102836
3.008084 7.690054
3.013563 3.252268
3.014599 -1.176101
3.011232 -5.536319
3.003557 -9.769572
2.991724 -13.848114
2.975876 -17.799690
2.956129 -21.633434
2.932610 -25.334207
2.905456 -28.895465
2.874808 -32.316744
2.840805 -35.596476
2.803592 -38.730277
2.763318 -41.712204
2.720138 -44.533087
2.674213 -47.202263
2.625688 -49.724465
2.574726 -52.061572
2.521524 -54.207392
2.466264 -56.170199
2.409132 -57.951537
2.350301 -59.565035
2.289936 -61.018083
2.228194 -62.316634
2.165232 -63.453975
2.101214 -64.425884
2.036301 -65.249409
1.970629 -65.939864
1.904342 -66.473465
1.837601 -66.853606
1.770545 -67.099109
1.703314 -67.207173
1.636035 -67.201306
1.568818 -67.070336
1.501792 -66.843650
1.435051 -66.455077
1.369040 -65.193328
1.304883 -62.887106
1.243318 -60.045191
1.184781 -56.877321
1.129488 -53.596019
1.077444 -50.428126
1.028489 -47.384581
0.982542 -44.455168
0.939404 -41.782297
0.898799 -39.391029
0.860452 -37.271354
0.824094 -35.415088
0.789468 -33.807749
0.756335 -32.427729
0.724478 -31.258019
0.693696 -30.270719
0.663824 -29.439569
0.634712 -28.746301
0.606227 -28.191310
0.578237 -27.742235
0.550667 -27.354024
0.523454 -27.026339
0.496550 -26.728062
0.469940 -26.444898
0.443608 -26.160647
0.417571 -25.861859
0.391840 -25.539649
0.366452 -25.182939
0.341437 -24.786467
0.316845 -24.343674
0.292716 -23.855430
0.269103 -23.317668
0.246050 -22.733749
0.223605 -22.103756
0.201812 -21.431809
0.180711 -20.721259
0.160340 -19.976017
0.140729 -19.201805
0.121906 -18.400930
0.103893 -17.592945
0.086685 -16.785861
0.070292 -15.964667
0.054726 -15.137061
0.039986 -14.312744
0.026069 -13.497167
0.012959 -12.700415
0.000634 -11.929156
-0.010934 -11.188904
-0.021778 -10.483826
-0.031935 -9.817075
-0.041445 -9.190526
-0.050348 -8.603280
-0.058681 -8.053384
-0.066483 -7.539948
-0.073788 -7.061666
-0.080632 -6.617296
-0.087047 -6.206010
-0.093067 -5.826339
-0.098722 -5.477645
-0.104043 -5.159726
-0.109061 -4.871320
-0.113805 -4.611705
-0.118307 -4.390139
-0.122607 -4.208335
-0.126739 -4.049539
-0.130722 -3.913125
-0.134582 -3.801289
-0.138340 -3.712981
-0.142023 -3.648091
-0.145651 -3.605730
-0.149249 -3.586625
-0.152840 -3.594228
-0.156458 -3.640074
-0.160145 -3.737215
-0.163959 -3.892357
-0.167957 -4.106162
-0.172199 -4.377006
-0.176738 -4.702490
-0.181630 -5.078477
-0.186921 -5.501293
-0.192658 -5.968034
-0.198881 -6.471537
-0.205627 -7.013981
-0.212932 -7.584084
-0.220821 -8.186604
-0.229329 -8.809560
-0.238467 -9.458145
-0.248271 -10.126950
-0.258745 -10.807281
-0.269915 -11.510425
-0.281789 -12.215030
-0.294374 -12.933910
-0.307686 -13.662295
-0.321725 -14.387854
-0.336488 -15.107415
-0.351964 -15.808385
-0.368126 -16.477742
-0.384937 -17.101686
-0.402346 -17.672137
-0.420297 -18.184439
-0.438733 -18.642365
-0.457599 -19.038177
-0.476830 -19.380006
-0.496403 -19.738986
-0.516130 -19.447882
-0.534825 -17.620923
-0.550309 -12.502462
-0.559313 -5.759096
-0.562549 -1.143767
-0.562737 0.074174
-0.562865 -0.101318
-0.562831 0.048894
-0.562840 -0.019037
-0.562838 0.006720
-0.562838 -0.002242
-0.562838 0.000721
-0.562838 -0.000226
-0.562838 0.000069
-0.562838 -0.000021
-0.562838 0.000006
-0.562838 -0.000002
-0.562838 0.000001
-0.562838 -0.000000
-0.562838 0.000000
-0.562838 -0.000000
-0.562838 0.000000
-0.562838 -0.000000
-0.562838 0.000000
-0.562838 -0.000000
-0.562838 0.000000
-0.562838 -0.000000
-0.562838 0.000000
-0.562838 -0.000000
-0.562838 0.000000
-0.562838 -0.000000
-0.562838 0.000000
-0.562838 -0.000000
-0.562838 0.000000
-0.562838 -0.000000
-0.562838 0.000000
-0.562838 -0.000000
-0.562838 0.000000
-0.562838 -0.000000
-0.562838 0.000000
-0.562838 -0.000000
-0.562838 0.000000
-0.562838 -0.000000
-0.562838 0.000000
-0.562838 -0.000000
-0.562838 0.000000
-0.562838 -0.000000
-0.562838 0.000000
-0.562838 -0.000000
-0.562838 0.000000
-0.562838 -0.000000
-0.562838 0.000000
-0.562838 -0.000000
-0.562838 0.000000
-0.562838 -0.000000
-0.562838 0.000000
-0.562838 -0.000000
-0.562838 0.000000
-0.562838 -0.000000
-0.562838 0.000000
-0.562838 -0.000000
-0.562838 0.000000
-0.562838 -0.000000
-0.562838 0.000000
-0.562838 -0.000000
-0.562838 0.000000
-0.562838 -0.000000
-0.562838 0.000000
-0.562838 -0.000000
-0.562838 0.000000
-0.562838 -0.000000
-0.562838 0.000000
-0.562838 -0.000000
-0.562838 0.000000
-0.562838 -0.000000
-0.562838 0.000000
-0.562838 -0.000000
-0.562838 0.000000
-0.562838 -0.000000
-0.562838 0.000000
-0.562838 -0.000000
-0.562838 0.000000
-0.562838 -0.000000
-0.562838 0.000000
-0.562838 -0.000000
-0.562838 0.000000
-0.562838 -0.000000
-0.562838 0.000000
-0.562838 -0.000000
-0.562838 0.000000
-0.562838 -0.000000
-0.562838 0.000000
-0.562838 -0.000000
-0.562838 0.000000
-0.562838 -0.000000
-0.562838 0.000000
-0.562838 -0.000000
-0.562838 0.000000
-0.562838 -0.000000
-0.562838 0.000000
-0.562838 -0.000000
-0.562838 0.000000
-0.562838 -0.000000
-0.562838 0.000000
-0.562838 -0.000000
-0.562838 0.000000
-0.562838 -0.000000
-0.562838 0.000000
-0.562838 -0.000000
-0.562838 0.000000
-0.562838 -0.000000
-0.562838 0.000000
-0.562838 -0.000000
-0.562838 0.000000
-0.562838 -0.000000
-0.562838 0.000000
-0.562838 -0.000000
-0.562838 0.000000
-0.562838 -0.000000
-0.562838 0.000000
-0.562838 -0.000000
-0.562838 0.000000
-0.562838 -0.000000
-0.562838 0.000000
-0.562838 -0.000000
-0.562838 0.000000
-0.562838 -0.000000
-0.562838 0.000000
-0.562838 -0.000000
-0.562838 0.000000
-0.562838 -0.000000
-0.562838 0.000000
-0.562838 -0.000000
-0.562838 0.000000
-0.562838 -0.000000
-0.562838 0.000000
-0.562838 -0.000000
-0.562838 0.000000
-0.562838 -0.000000
-0.562838 0.000000
-0.562838 -0.000000
-0.562838 0.000000
-0.562838 -0.000000
-0.562838 0.000000
-0.562838 -0.000000
-0.562838 0.000000
-0.562838 -0.000000
-0.562838 0.000000
-0.562838 -0.000000
-0.562838 0.000000
-0.562838 -0.000000
-0.562838 0.000000
-0.562838 -0.000000
-0.562838 0.000000
-0.562838 -0.000000
-0.562838 0.000000
-0.562838 -0.000000
-0.562838 0.000000
-0.562838 -0.000000
-0.562838 0.000000
-0.562838 -0.000000
-0.562838 0.000000
-0.562838 -0.000000
-0.562838 0.000000
-0.562838 -0.000000
-0.562838 0.000000
-0.562838 -0.000000
-0.562838 0.000000
-0.562838 -0.000000
-0.562838 0.000000
-0.562838 -0.000000
-0.562838 0.000000
-0.562838 -0.000000
-0.562838 0.000000
-0.562838 -0.000000
-0.562838 0.000000
-0.562838 -0.000000
-0.562838 0.000000
-0.562838 -0.000000
-0.562838 0.000000
-0.562838 -0.000000
-0.562838 0.000000
-0.562838 -0.000000
-0.562838 0.000000
-0.562838 -0.000000
-0.562838 0.000000
-0.562838 -0.000000
-0.562838 0.000000
-0.562838 -0.000000
-0.562838 0.000000
-0.562838 -0.000000
-0.562838 0.000000
-0.562838 -0.000000
-0.562838 0.000000
-0.562838 -0.000000
-0.562838 0.000000
-0.562838 -0.000000
-0.562838 0.000000
-0.562838 -0.000000
-0.562838 0.000000
-0.562838 -0.000000
-0.562838 0.000000
-0.562838 -0.000000
-0.562838 0.000000
-0.562838 -0.000000
-0.562838 0.000000
-0.562838 -0.000000
-0.562838 0.000000
-0.562838 -0.000000
-0.562838 0.000000
-0.562838 -0.000000
-0.562838 0.000000
-0.562838 -0.000000
-0.562838 0.000000
-0.562838 -0.000000
-0.562838 0.000000
-0.562838 -0.000000
-0.562838 0.000000
-0.562838 -0.000000
-0.562838 0.000000
-0.562838 -0.000000
-0.562838 0.000000
-0.562838 -0.000000
-0.562838 0.000000
-0.562838 -0.000000
-0.562838 0.000000
-0.562838 -0.000000
-0.562838 0.000000
-0.562838 -0.000000
-0.562838 0.000000
-0.562838 -0.000000
-0.562838 0.000000
-0.562838 -0.000000
-0.562838 0.000000
-0.562838 -0.000000
-0.562838 0.000000
-0.562838 -0.000000
-0.562838 0.000000
-0.562838 -0.000000
-0.562838 0.000000
-0.562838 -0.000000
-0.562838 0.000000
-0.562838 -0.000000
-0.562838 0.000000
-0.562838 -0.000000
-0.562838 0.000000
-0.562838 -0.000000
-0.562838 0.000000
-0.562838 -0.000000
-0.562838 0.000000
-0.562838 -0.000000
-0.562838 0.000000
-0.562838 -0.000000
-0.562838 0.000000
-0.562838 -0.000000
-0.562838 0.000000
-0.562838 -0.000000
-0.562838 0.000000
-0.562838 -0.000000
-0.562838 0.000000
-0.562838 -0.000000
-0.562838 0.000000
-0.562838 -0.000000
-0.562838 0.000000
-0.562838 -0.000000
-0.562838 0.000000
-0.562838 -0.000000
-0.562838 0.000000
-0.562838 -0.000000
-0.562838 0.000000
-0.562838 -0.000000
-0.562838 0.000000
-0.562838 -0.000000
-0.562838 0.000000
-0.562838 -0.000000
-0.562838 0.000000
-0.562838 -0.000000
-0.562838 0.000000
-0.562838 -0.000000
-0.562838 0.000000
-0.562838 -0.000000
-0.562838 0.000000
-0.562838 -0.000000
-0.562838 0.000000
-0.562838 -0.000000
-0.562838 0.000000
-0.562838 -0.000000
-0.562838 0.000000
-0.562838 -0.000000
-0.562838 0.000000
-0.562838 -0.000000
-0.562838 0.000000
-0.562838 -0.000000
-0.562838 0.000000
-0.562838 -0.000001
-0.562838 0.000003
-0.562838 -0.000011
-0.562838 0.000036
-0.562838 -0.000118
-0.562838 0.000387
-0.562838 -0.001236
-0.562838 0.003837
-0.562837 -0.011401
-0.562842 0.031591
-0.562824 -0.076752
-0.562890 0.131972
-0.562294 1.139795
-0.559125 6.591002
-0.546842 18.804769
-0.521769 30.147477
-0.487540 38.332888
-0.445800 44.198295
-0.399664 48.238525
-0.348563 54.266611
-0.291981 57.421194
-0.234605 57.580523
-0.176518 58.300124
-0.117934 58.884500
-0.058798 58.969119
0.000395 59.868688
0.061599 62.385092
0.126523 68.597280
0.201853 83.565553
0.291903 92.785050
0.386553 98.840440
0.489534 104.154155
0.592679 102.303221
0.694049 99.562134
0.791496 95.301512
0.885122 91.879652
0.975648 89.085162
1.063655 86.841248
1.149669 85.091007
1.234143 83.747342
1.317433 82.708526
1.399790 81.864617
1.481366 81.140313
1.562244 80.448633
1.642404 79.693949
1.721745 78.799336
1.800096 77.711345
1.877247 76.395102
1.952952 74.818720
2.026949 72.985809
2.098987 70.905935
2.168825 68.592293
2.236237 66.062234
2.301016 63.335996
2.362976 60.429768
2.421942 57.360279
2.477760 54.137887
2.530281 50.781190
2.579383 47.300220
2.624939 43.706317
2.666849 40.010078
2.705007 36.217028
2.739326 32.337448
2.769718 28.371576
2.796105 24.341970
2.818433 20.260558
2.836654 16.142314
2.850744 12.007143
2.860691 7.867404
2.866505 3.757687
2.868234 -0.292734
2.865944 -4.266626
2.859718 -8.163997
2.849625 -11.986167
2.835751 -15.718193
2.818189 -19.354785
2.797039 -22.883264
2.772415 -26.295907
2.744434 -29.589660
2.713219 -32.756041
2.678904 -35.781547
2.641636 -38.653331
2.601571 -41.370048
2.558866 -43.929379
2.513679 -46.326643
2.466174 -48.559284
2.416519 -50.624894
2.364879 -52.522337
2.311423 -54.256246
2.256312 -55.828734
2.199709 -57.235948
2.141780 -58.481080
2.082683 -59.567402
2.022578 -60.495435
1.961620 -61.277007
1.899952 -61.909576
1.837724 -62.400119
1.775071 -62.755973
1.712131 -62.979613
1.649026 -63.083938
1.585877 -63.067945
1.522803 -62.935335
1.459916 -62.694203
1.397323 -62.350035
1.335120 -61.918878
1.273389 -61.403268
1.212253 -60.703168
1.151944 -59.756254
1.092795 -58.286585
1.035600 -55.778827
0.981374 -52.526680
0.930547 -48.959134
0.883465 -45.068935
0.840329 -41.149045
0.801001 -37.479242
0.765238 -33.980678
0.732901 -30.694249
0.703650 -27.823707
0.677055 -25.380408
0.652704 -23.339417
0.630204 -21.675233
0.609195 -20.356138
0.589348 -19.347398
0.570371 -18.608751
0.552015 -18.102120
0.534069 -17.780133
0.516367 -17.617017
0.498756 -17.585166
0.481129 -17.647880
0.463402 -17.777686
0.445524 -17.950124
0.427456 -18.153210
0.409182 -18.355584
0.390712 -18.545970
0.372061 -18.710665
0.353270 -18.825024
0.334392 -18.882959
0.315487 -18.877917
0.296621 -18.806519
0.277859 -18.668053
0.259270 -18.462285
0.240919 -18.191548
0.222871 -17.859450
0.205183 -17.471432
0.187909 -17.035291
0.171090 -16.563877
0.154757 -16.066250
0.138932 -15.548297
0.123634 -15.015131
0.108875 -14.473203
0.094659 -13.930455
0.080985 -13.390805
0.067848 -12.858378
0.055239 -12.337084
0.043144 -11.830775
0.031548 -11.341456
0.020433 -10.870206
0.009780 -10.417649
-0.000430 -9.984478
-0.010216 -9.571294
-0.019598 -9.177961
-0.028597 -8.804818
-0.037232 -8.452276
-0.045525 -8.120290
-0.053496 -7.809076
-0.061167 -7.520296
-0.068559 -7.253303
-0.075697 -7.012812
-0.082608 -6.799413
-0.089317 -6.609802
-0.095848 -6.441120
-0.102218 -6.291598
-0.108451 -6.163462
-0.114564 -6.055171
-0.120580 -5.966826
-0.126517 -5.900049
-0.132400 -5.858613
-0.138256 -5.848369
-0.144121 -5.876489
-0.150036 -5.947932
-0.156045 -6.066498
-0.162197 -6.234577
-0.168543 -6.451789
-0.175130 -6.717524
-0.182007 -7.031001
-0.189221 -7.389783
-0.196816 -7.790870
-0.204832 -8.231177
-0.213306 -8.707033
-0.222274 -9.215191
-0.231765 -9.752334
-0.241807 -10.315877
-0.252425 -10.902379
-0.263640 -11.509303
-0.275473 -12.134572
-0.287939 -12.774389
-0.301052 -13.427621
-0.314824 -14.089624
-0.329259 -14.751835
-0.344354 -15.405038
-0.360094 -16.039731
-0.376456 -16.645232
-0.393404 -17.208978
-0.410895 -17.732090
-0.428884 -18.197836
-0.447313 -18.624077
-0.466171 -19.053633
-0.485255 -18.871044
-0.503608 -17.660162
-0.520501 -16.122296
-0.535404 -13.144730
-0.546379 -8.855093
-0.553363 -5.258930
-0.557355 -3.004372
-0.559896 -2.301586
-0.561927 -1.492264
-0.562764 -0.326660
-0.562852 0.028517
-0.562834 0.003329
-0.562839 -0.003944
-0.562838 0.001904
-0.562838 -0.000745
-0.562838 0.000265
-0.562838 -0.000089
-0.562838 0.000029
-0.562838 -0.000009
-0.562838 0.000003
-0.562838 -0.000001
-0.562838 0.000000
-0.562838 -0.000000
-0.562838 0.000000
-0.562838 -0.000000
-0.562838 0.000000
-0.562838 -0.000000
-0.562838 0.000000
-0.562838 -0.000000
-0.562838 0.000000
-0.562838 -0.000000
-0.562838 0.000000
-0.562838 -0.000000
-0.562838 0.000000
-0.562838 -0.000000
-0.562838 0.000000
-0.562838 -0.000000
-0.562838 0.000000
-0.562838 -0.000000
-0.562838 0.000000
-0.562838 -0.000000
-0.562838 0.000000
-0.562838 -0.000000
-0.562838 0.000000
-0.562838 -0.000000
-0.562838 0.000000
-0.562838 -0.000000
-0.562838 0.000000
-0.562838 -0.000000
-0.562838 0.000000
-0.562838 -0.000000
-0.562838 0.000000
-0.562838 -0.000000
-0.562838 0.000000
-0.562838 -0.000000
-0.562838 0.000000
-0.562838 -0.000000
-0.562838 0.000000
-0.562838 -0.000000
-0.562838 0.000000
-0.562838 -0.000000
-0.562838 0.000000
-0.562838 -0.000000
-0.562838 0.000000
-0.562838 -0.000000
-0.562838 0.000000
-0.562838 -0.000000
-0.562838 0.000000
-0.562838 -0.000000
-0.562838 0.000000
-0.562838 -0.000000
-0.562838 0.000000
-0.562838 -0.000000
-0.562838 0.000000
-0.562838 -0.000000
-0.562838 0.000000
-0.562838 -0.000000
-0.562838 0.000000
-0.562838 -0.000000
-0.562838 0.000000
-0.562838 -0.000000
-0.562838 0.000000
-0.562838 -0.000000
-0.562838 0.000000
-0.562838 -0.000000
-0.562838 0.000000
-0.562838 -0.000000
-0.562838 0.000000
-0.562838 -0.000000
-0.562838 0.000000
-0.562838 -0.000000
-0.562838 0.000000
-0.562838 -0.000000
-0.562838 0.000000
-0.562838 -0.000000
-0.562838 0.000000
-0.562838 -0.000000
-0.562838 0.000000
-0.562838 -0.000000
-0.562838 0.000000
-0.562838 -0.000000
-0.562838 0.000000
-0.562838 -0.000000
-0.562838 0.000000
-0.562838 -0.000000
-0.562838 0.000000
-0.562838 -0.000000
-0.562838 0.000000
-0.562838 -0.000000
-0.562838 0.000000
-0.562838 -0.000000
-0.562838 0.000000
-0.562838 -0.000000
-0.562838 0.000000
-0.562838 -0.000000
-0.562838 0.000000
-0.562838 -0.000000
-0.562838 0.000000
-0.562838 -0.000000
-0.562838 0.000000
-0.562838 -0.000000
-0.562838 0.000000
-0.562838 -0.000000
-0.562838 0.000000
-0.562838 -0.000000
-0.562838 0.000000
-0.562838 -0.000000
-0.562838 0.000000
-0.562838 -0.000000
-0.562838 0.000000
-0.562838 -0.000000
-0.562838 0.000000
-0.562838 -0.000000
-0.562838 0.000000
-0.562838 -0.000000
-0.562838 0.000000
-0.562838 -0.000000
-0.562838 0.000000
-0.562838 -0.000000
-0.562838 0.000000
-0.562838 -0.000000
-0.562838 0.000000
-0.562838 -0.000000
-0.562838 0.000000
-0.562838 -0.000000
-0.562838 0.000000
-0.562838 -0.000000
-0.562838 0.000000
-0.562838 -0.000000
-0.562838 0.000000
-0.562838 -0.000000
-0.562838 0.000000
-0.562838 -0.000000
-0.562838 0.000000
-0.562838 -0.000000
-0.562838 0.000000
-0.562838 -0.000000
-0.562838 0.000000
-0.562838 -0.000000
-0.562838 0.000000
-0.562838 -0.000000
-0.562838 0.000000
-0.562838 -0.000000
-0.562838 0.000000
-0.562838 -0.000000
-0.562838 0.000000
-0.562838 -0.000000
-0.562838 0.000000
-0.562838 -0.000000
-0.562838 0.000000
-0.562838 -0.000000
-0.562838 0.000000
-0.562838 -0.000000
-0.562838 0.000000
-0.562838 -0.000000
-0.562838 0.000000
-0.562838 -0.000000
-0.562838 0.000000
-0.562838 -0.000000
-0.562838 0.000000
-0.562838 -0.000000
-0.562838 0.000000
-0.562838 -0.000000
-0.562838 0.000000
-0.562838 -0.000000
-0.562838 0.000000
-0.562838 -0.000000
-0.562838 0.000000
-0.562838 -0.000000
-0.562838 0.000000
-0.562838 -0.000000
-0.562838 0.000000
-0.562838 -0.000000
-0.562838 0.000000
-0.562838 -0.000000
-0.562838 0.000000
-0.562838 -0.000000
-0.562838 0.000000
-0.562838 -0.000000
-0.562838 0.000000
-0.562838 -0.000000
-0.562838 0.000000
-0.562838 -0.000000
-0.562838 0.000000
-0.562838 -0.000000
-0.562838 0.000000
-0.562838 -0.000000
-0.562838 0.000000
-0.562838 -0.000000
-0.562838 0.000000
-0.562838 -0.000000
-0.562838 0.000000
-0.562838 -0.000000
-0.562838 0.000000
-0.562838 -0.000000
-0.562838 0.000000
-0.562838 -0.000000
-0.562838 0.000000
-0.562838 -0.000000
-0.562838 0.000000
-0.562838 -0.000000
-0.562838 0.000000
-0.562838 -0.000000
-0.562838 0.000000
-0.562838 -0.000000
-0.562838 0.000000
-0.562838 -0.000000
-0.562838 0.000000
-0.562838 -0.000000
-0.562838 0.000000
-0.562838 -0.000000
-0.562838 -0.000000
